%!PS-Adobe-3.0 EPSF-3.0
%%Creator: cairo 1.14.2 (http://cairographics.org)
%%CreationDate: Fri Dec 29 09:04:44 2017
%%Pages: 1
%%DocumentData: Clean7Bit
%%LanguageLevel: 2
%%BoundingBox: 53 -1 356 410
%%EndComments
%%BeginProlog
save
50 dict begin
/q { gsave } bind def
/Q { grestore } bind def
/cm { 6 array astore concat } bind def
/w { setlinewidth } bind def
/J { setlinecap } bind def
/j { setlinejoin } bind def
/M { setmiterlimit } bind def
/d { setdash } bind def
/m { moveto } bind def
/l { lineto } bind def
/c { curveto } bind def
/h { closepath } bind def
/re { exch dup neg 3 1 roll 5 3 roll moveto 0 rlineto
      0 exch rlineto 0 rlineto closepath } bind def
/S { stroke } bind def
/f { fill } bind def
/f* { eofill } bind def
/n { newpath } bind def
/W { clip } bind def
/W* { eoclip } bind def
/BT { } bind def
/ET { } bind def
/pdfmark where { pop globaldict /?pdfmark /exec load put }
    { globaldict begin /?pdfmark /pop load def /pdfmark
    /cleartomark load def end } ifelse
/BDC { mark 3 1 roll /BDC pdfmark } bind def
/EMC { mark /EMC pdfmark } bind def
/cairo_store_point { /cairo_point_y exch def /cairo_point_x exch def } def
/Tj { show currentpoint cairo_store_point } bind def
/TJ {
  {
    dup
    type /stringtype eq
    { show } { -0.001 mul 0 cairo_font_matrix dtransform rmoveto } ifelse
  } forall
  currentpoint cairo_store_point
} bind def
/cairo_selectfont { cairo_font_matrix aload pop pop pop 0 0 6 array astore
    cairo_font exch selectfont cairo_point_x cairo_point_y moveto } bind def
/Tf { pop /cairo_font exch def /cairo_font_matrix where
      { pop cairo_selectfont } if } bind def
/Td { matrix translate cairo_font_matrix matrix concatmatrix dup
      /cairo_font_matrix exch def dup 4 get exch 5 get cairo_store_point
      /cairo_font where { pop cairo_selectfont } if } bind def
/Tm { 2 copy 8 2 roll 6 array astore /cairo_font_matrix exch def
      cairo_store_point /cairo_font where { pop cairo_selectfont } if } bind def
/g { setgray } bind def
/rg { setrgbcolor } bind def
/d1 { setcachedevice } bind def
%%EndProlog
%%BeginSetup
%%EndSetup
%%Page: 1 1
%%BeginPageSetup
%%PageBoundingBox: 53 -1 356 410
%%EndPageSetup
q 53 -1 303 411 rectclip q
1 0.768627 0.466667 rg
316.508 18.673 m 111.992 18.673 l 90.332 18.673 72.773 36.232 72.773 57.892
 c 72.773 351.705 l 72.773 373.365 90.332 390.923 111.992 390.923 c 316.508
 390.923 l 338.168 390.923 355.727 373.365 355.727 351.705 c 355.727 57.892
 l 355.727 36.232 338.168 18.673 316.508 18.673 c h
316.508 18.673 m f
1 0.713726 0.333333 rg
111.504 202.466 m 111.504 301.248 214.25 390.923 214.25 390.923 c 111.992
 390.923 l 90.332 390.923 72.773 373.365 72.773 351.705 c 72.773 57.892 
l 72.773 36.236 90.332 18.673 111.992 18.673 c 214.25 18.673 l 214.25 18.673
 111.504 103.685 111.504 202.466 c h
111.504 202.466 m f
0.956863 0.635294 0.25098 rg
316.508 390.923 m 283.012 390.923 l 283.012 18.673 l 316.508 18.673 l 338.168
 18.673 355.727 36.232 355.727 57.892 c 355.727 351.705 l 355.727 373.365
 338.168 390.923 316.508 390.923 c h
316.508 390.923 m f
0.470588 0.462745 0.501961 rg
57.18 276.517 m 52.77 280.927 52.77 288.142 57.18 292.552 c 170.922 406.291
 l 175.332 410.701 182.547 410.701 186.957 406.291 c 191.363 401.884 191.363
 394.666 186.957 390.259 c 73.215 276.517 l 68.805 272.107 61.59 272.107
 57.18 276.517 c h
57.18 276.517 m f
57.18 133.08 m 52.77 128.673 52.77 121.459 57.18 117.048 c 170.922 3.306
 l 175.328 -1.1 182.547 -1.1 186.953 3.306 c 191.363 7.716 191.363 14.931
 186.953 19.341 c 73.215 133.08 l 68.805 137.494 61.59 137.494 57.18 133.08
 c h
57.18 133.08 m f
0.988235 0.823529 0.427451 rg
319.367 136.818 m 312.973 136.818 307.734 142.056 307.734 148.451 c 307.734
 261.146 l 307.734 267.545 312.973 272.779 319.367 272.779 c 325.766 272.779
 331 267.545 331 261.146 c 331 148.451 l 331 142.052 325.766 136.818 319.367
 136.818 c h
319.367 136.818 m f
1 0.780392 0.231373 rg
319.367 272.779 m 312.973 272.779 307.734 267.545 307.734 261.146 c 307.734
 221.888 l 307.734 228.287 312.973 233.521 319.367 233.521 c 325.766 233.521
 331 228.287 331 221.888 c 331 261.146 l 331 267.545 325.766 272.779 319.367
 272.779 c h
319.367 272.779 m f
0.341176 0.337255 0.360784 rg
162.219 165.974 m 138.359 180.994 l 129.895 186.326 126.828 197.447 131.855
 206.099 c 137.133 215.181 148.836 218.005 157.648 212.459 c 169.777 204.822
 l 174.77 201.677 181.121 201.677 186.113 204.822 c 198.242 212.459 l 206.867
 217.888 218.258 215.298 223.688 206.673 c 229.117 198.052 226.527 186.658
 217.902 181.228 c 193.672 165.97 l 184.062 159.92 171.832 159.92 162.219
 165.974 c h
162.219 165.974 m f
1 0.45098 0.490196 rg
205 173.099 m 201.52 181.927 190.742 188.365 177.984 188.365 c 165.211 
188.365 154.426 181.912 150.957 173.068 c 162.227 165.974 l 171.836 159.92
 184.066 159.92 193.68 165.974 c h
205 173.099 m f
0.341176 0.337255 0.360784 rg
244.449 202.466 m 241.035 202.466 238.27 205.232 238.27 208.646 c 238.27
 218.908 l 238.27 222.322 241.035 225.087 244.449 225.087 c 247.863 225.087
 250.629 222.322 250.629 218.908 c 250.629 208.646 l 250.633 205.232 247.863
 202.466 244.449 202.466 c h
244.449 202.466 m f
111.504 202.466 m 108.09 202.466 105.324 205.232 105.324 208.646 c 105.324
 218.908 l 105.324 222.322 108.09 225.087 111.504 225.087 c 114.918 225.087
 117.688 222.322 117.688 218.908 c 117.688 208.646 l 117.688 205.232 114.918
 202.466 111.504 202.466 c h
111.504 202.466 m f
Q Q
showpage
%%Trailer
end restore
%%EOF
