%!PS-Adobe-3.0 EPSF-3.0
%%Creator: cairo 1.14.2 (http://cairographics.org)
%%CreationDate: Fri Dec 29 09:04:44 2017
%%Pages: 1
%%DocumentData: Clean7Bit
%%LanguageLevel: 2
%%BoundingBox: 0 59 410 351
%%EndComments
%%BeginProlog
save
50 dict begin
/q { gsave } bind def
/Q { grestore } bind def
/cm { 6 array astore concat } bind def
/w { setlinewidth } bind def
/J { setlinecap } bind def
/j { setlinejoin } bind def
/M { setmiterlimit } bind def
/d { setdash } bind def
/m { moveto } bind def
/l { lineto } bind def
/c { curveto } bind def
/h { closepath } bind def
/re { exch dup neg 3 1 roll 5 3 roll moveto 0 rlineto
      0 exch rlineto 0 rlineto closepath } bind def
/S { stroke } bind def
/f { fill } bind def
/f* { eofill } bind def
/n { newpath } bind def
/W { clip } bind def
/W* { eoclip } bind def
/BT { } bind def
/ET { } bind def
/pdfmark where { pop globaldict /?pdfmark /exec load put }
    { globaldict begin /?pdfmark /pop load def /pdfmark
    /cleartomark load def end } ifelse
/BDC { mark 3 1 roll /BDC pdfmark } bind def
/EMC { mark /EMC pdfmark } bind def
/cairo_store_point { /cairo_point_y exch def /cairo_point_x exch def } def
/Tj { show currentpoint cairo_store_point } bind def
/TJ {
  {
    dup
    type /stringtype eq
    { show } { -0.001 mul 0 cairo_font_matrix dtransform rmoveto } ifelse
  } forall
  currentpoint cairo_store_point
} bind def
/cairo_selectfont { cairo_font_matrix aload pop pop pop 0 0 6 array astore
    cairo_font exch selectfont cairo_point_x cairo_point_y moveto } bind def
/Tf { pop /cairo_font exch def /cairo_font_matrix where
      { pop cairo_selectfont } if } bind def
/Td { matrix translate cairo_font_matrix matrix concatmatrix dup
      /cairo_font_matrix exch def dup 4 get exch 5 get cairo_store_point
      /cairo_font where { pop cairo_selectfont } if } bind def
/Tm { 2 copy 8 2 roll 6 array astore /cairo_font_matrix exch def
      cairo_store_point /cairo_font where { pop cairo_selectfont } if } bind def
/g { setgray } bind def
/rg { setrgbcolor } bind def
/d1 { setcachedevice } bind def
%%EndProlog
%%BeginSetup
%%EndSetup
%%Page: 1 1
%%BeginPageSetup
%%PageBoundingBox: 0 59 410 351
%%EndPageSetup
q 0 59 410 292 rectclip q
0.580392 0.796078 0.929412 rg
375.277 91.862 m 43.707 91.862 l 43.707 159.346 l 43.707 185.815 65.363
 207.467 91.828 207.467 c 121.145 207.467 132.613 188.12 137.094 173.666
 c 139.938 164.498 148.309 158.174 157.906 158.174 c 328.379 158.174 l 333.699
 158.174 338.75 160.713 341.746 165.104 c 344.367 168.952 347.16 174.549
 348.746 182.264 c 351.184 194.12 367.25 196.327 372.535 185.44 c 382.277
 165.366 388.363 134.819 375.277 91.862 c h
375.277 91.862 m f
145.32 131.209 m 158.219 137.471 165.551 148.026 169.719 158.174 c 157.906
 158.174 l 148.309 158.174 139.938 164.498 137.094 173.666 c 132.613 188.12
 121.145 207.467 91.832 207.467 c 65.363 207.467 43.711 185.815 43.711 159.346
 c 43.711 91.862 l 130.793 91.862 l 130.508 109.702 133.871 125.655 145.32
 131.209 c h
145.32 131.209 m f
0.482353 0.858824 0.596078 rg
383.727 111.702 m 42.758 111.702 l 28.469 111.702 16.883 100.12 16.883 
85.83 c 16.883 71.541 28.465 59.955 42.758 59.955 c 383.727 59.955 l 398.016
 59.955 409.602 71.538 409.602 85.83 c 409.602 100.12 398.016 111.702 383.727
 111.702 c h
383.727 111.702 m f
0.364706 0.788235 0.47451 rg
107.945 85.83 m 107.945 100.12 119.527 111.702 133.82 111.702 c 42.758 
111.702 l 28.469 111.702 16.883 100.12 16.883 85.83 c 16.883 71.541 28.465
 59.955 42.758 59.955 c 133.82 59.955 l 119.531 59.955 107.945 71.541 107.945
 85.83 c h
107.945 85.83 m f
0.792157 0.905882 0.988235 rg
350.137 315.881 m 28.25 236.35 l 44.438 170.83 l 50.789 145.139 77.004 
129.311 102.699 135.659 c 131.156 142.69 137.652 164.229 138.531 179.334
 c 139.094 188.913 145.703 197.061 155.02 199.366 c 320.52 240.256 l 325.68
 241.534 331.195 240.28 335.156 236.733 c 338.625 233.627 342.676 228.866
 346.066 221.756 c 351.277 210.83 367.402 212.541 369.926 224.377 c 374.566
 246.202 373.148 277.319 350.137 315.881 c h
350.137 315.881 m f
0.482353 0.858824 0.596078 rg
363.102 298.647 m 32.086 216.858 l 18.215 213.428 4.188 221.897 0.762 235.768
 c -2.668 249.643 5.801 263.666 19.672 267.092 c 350.691 348.881 l 364.562
 352.311 378.586 343.842 382.012 329.971 c 385.441 316.1 376.973 302.073
 363.102 298.647 c h
363.102 298.647 m f
0.580392 0.796078 0.929412 rg
107.945 178.635 m 107.945 169.651 100.664 162.366 91.676 162.366 c 82.691
 162.366 75.41 169.651 75.41 178.635 c 75.41 187.62 82.691 194.901 91.676
 194.901 c 100.664 194.901 107.945 187.62 107.945 178.635 c h
107.945 178.635 m f
0.364706 0.788235 0.47451 rg
120.992 292.127 m 19.672 267.092 l 5.801 263.666 -2.668 249.639 0.762 235.768
 c 4.188 221.897 18.211 213.428 32.086 216.858 c 133.094 241.815 l 133.094
 241.815 111.809 241.678 106.711 260.85 c 101.617 280.022 120.992 292.127
 120.992 292.127 c h
120.992 292.127 m f
Q Q
showpage
%%Trailer
end restore
%%EOF
