%!PS-Adobe-3.0 EPSF-3.0
%%Creator: cairo 1.14.2 (http://cairographics.org)
%%CreationDate: Fri Dec 29 09:04:44 2017
%%Pages: 1
%%DocumentData: Clean7Bit
%%LanguageLevel: 2
%%BoundingBox: 35 -1 374 410
%%EndComments
%%BeginProlog
save
50 dict begin
/q { gsave } bind def
/Q { grestore } bind def
/cm { 6 array astore concat } bind def
/w { setlinewidth } bind def
/J { setlinecap } bind def
/j { setlinejoin } bind def
/M { setmiterlimit } bind def
/d { setdash } bind def
/m { moveto } bind def
/l { lineto } bind def
/c { curveto } bind def
/h { closepath } bind def
/re { exch dup neg 3 1 roll 5 3 roll moveto 0 rlineto
      0 exch rlineto 0 rlineto closepath } bind def
/S { stroke } bind def
/f { fill } bind def
/f* { eofill } bind def
/n { newpath } bind def
/W { clip } bind def
/W* { eoclip } bind def
/BT { } bind def
/ET { } bind def
/pdfmark where { pop globaldict /?pdfmark /exec load put }
    { globaldict begin /?pdfmark /pop load def /pdfmark
    /cleartomark load def end } ifelse
/BDC { mark 3 1 roll /BDC pdfmark } bind def
/EMC { mark /EMC pdfmark } bind def
/cairo_store_point { /cairo_point_y exch def /cairo_point_x exch def } def
/Tj { show currentpoint cairo_store_point } bind def
/TJ {
  {
    dup
    type /stringtype eq
    { show } { -0.001 mul 0 cairo_font_matrix dtransform rmoveto } ifelse
  } forall
  currentpoint cairo_store_point
} bind def
/cairo_selectfont { cairo_font_matrix aload pop pop pop 0 0 6 array astore
    cairo_font exch selectfont cairo_point_x cairo_point_y moveto } bind def
/Tf { pop /cairo_font exch def /cairo_font_matrix where
      { pop cairo_selectfont } if } bind def
/Td { matrix translate cairo_font_matrix matrix concatmatrix dup
      /cairo_font_matrix exch def dup 4 get exch 5 get cairo_store_point
      /cairo_font where { pop cairo_selectfont } if } bind def
/Tm { 2 copy 8 2 roll 6 array astore /cairo_font_matrix exch def
      cairo_store_point /cairo_font where { pop cairo_selectfont } if } bind def
/g { setgray } bind def
/rg { setrgbcolor } bind def
/d1 { setcachedevice } bind def
%%EndProlog
%%BeginSetup
%%EndSetup
%%Page: 1 1
%%BeginPageSetup
%%PageBoundingBox: 35 -1 374 410
%%EndPageSetup
q 35 -1 339 411 rectclip q
0.341176 0.337255 0.360784 rg
278.785 269.445 m 129.727 269.445 l 118.754 269.445 109.777 278.421 109.777
 289.394 c 109.777 300.366 118.754 309.347 129.727 309.347 c 278.785 309.347
 l 289.758 309.347 298.734 300.366 298.734 289.394 c 298.734 278.421 289.758
 269.445 278.785 269.445 c h
278.785 269.445 m f
0.243137 0.239216 0.258824 rg
184.305 289.394 m 184.305 300.366 193.281 309.347 204.254 309.347 c 129.73
 309.347 l 118.758 309.347 109.777 300.366 109.777 289.394 c 109.777 278.421
 118.758 269.445 129.73 269.445 c 204.254 269.445 l 193.281 269.445 184.305
 278.421 184.305 289.394 c h
184.305 289.394 m f
0.470588 0.462745 0.501961 rg
308.441 -0.001 m 101.164 -0.001 l 65.062 -0.001 35.797 29.265 35.797 65.366
 c 35.797 207.691 l 35.797 243.788 65.062 273.054 101.164 273.054 c 308.441
 273.054 l 344.543 273.054 373.805 243.788 373.805 207.691 c 373.805 65.366
 l 373.805 29.265 344.543 -0.001 308.441 -0.001 c h
308.441 -0.001 m f
0.341176 0.337255 0.360784 rg
108.453 65.366 m 108.453 207.691 l 108.453 243.788 137.719 273.054 173.816
 273.054 c 101.164 273.054 l 65.062 273.054 35.797 243.788 35.797 207.691
 c 35.797 65.366 l 35.797 29.265 65.062 -0.001 101.164 -0.001 c 173.816 
-0.001 l 137.715 -0.001 108.453 29.265 108.453 65.366 c h
108.453 65.366 m f
0.580392 0.796078 0.929412 rg
35.797 207.687 338.004 -142.324 re f
0.45098 0.717647 0.866667 rg
35.797 207.695 72.656 -142.324 re f
0.341176 0.337255 0.360784 rg
271.273 128.452 m 267.859 128.452 265.094 131.218 265.094 134.632 c 265.094
 144.894 l 265.094 148.308 267.859 151.073 271.273 151.073 c 274.691 151.073
 277.457 148.308 277.457 144.894 c 277.457 134.632 l 277.457 131.218 274.688
 128.452 271.273 128.452 c h
271.273 128.452 m f
138.328 128.452 m 134.914 128.452 132.148 131.218 132.148 134.632 c 132.148
 144.894 l 132.148 148.308 134.914 151.073 138.328 151.073 c 141.742 151.073
 144.512 148.308 144.512 144.894 c 144.512 134.632 l 144.512 131.218 141.742
 128.452 138.328 128.452 c h
138.328 128.452 m f
204.801 121.98 m 196.801 121.98 188.801 124.57 182.129 129.745 c 179.43
 131.839 178.938 135.722 181.031 138.421 c 183.125 141.116 187.008 141.609
 189.703 139.515 c 198.594 132.62 211.012 132.62 219.902 139.515 c 222.598
 141.609 226.48 141.116 228.574 138.421 c 230.668 135.722 230.176 131.839
 227.477 129.745 c 220.801 124.57 212.801 121.98 204.801 121.98 c h
204.801 121.98 m f
0.368627 0.611765 0.827451 rg
290.461 305.909 m 119.145 305.909 l 99.887 305.909 84.273 321.523 84.273
 340.78 c 84.273 374.73 l 84.273 393.988 99.887 409.601 119.145 409.601 
c 290.461 409.601 l 309.719 409.601 325.332 393.988 325.332 374.73 c 325.332
 340.78 l 325.332 321.523 309.719 305.909 290.461 305.909 c h
290.461 305.909 m f
0.290196 0.533333 0.776471 rg
185.617 409.601 m 119.145 409.601 l 99.887 409.601 84.273 393.988 84.273
 374.73 c 84.273 340.78 l 84.273 321.523 99.887 305.909 119.145 305.909 
c 150.742 305.909 l 150.742 374.73 l 150.746 393.988 166.359 409.601 185.617
 409.601 c h
185.617 409.601 m f
0.184314 0.435294 0.686275 rg
165.84 354.609 m 165.84 362.87 159.078 369.628 150.82 369.628 c 142.559
 369.628 135.801 362.87 135.801 354.609 c 135.801 305.909 l 165.84 305.909
 l h
165.84 354.609 m f
219.82 354.609 m 219.82 362.87 213.062 369.628 204.801 369.628 c 196.543
 369.628 189.781 362.87 189.781 354.609 c 189.781 305.909 l 219.824 305.909
 l 219.824 354.609 l h
219.82 354.609 m f
273.805 354.609 m 273.805 362.87 267.047 369.628 258.785 369.628 c 250.527
 369.628 243.766 362.87 243.766 354.609 c 243.766 305.909 l 273.805 305.909
 l h
273.805 354.609 m f
Q Q
showpage
%%Trailer
end restore
%%EOF
