%!PS-Adobe-3.0 EPSF-3.0
%%Creator: cairo 1.14.2 (http://cairographics.org)
%%CreationDate: Fri Dec 29 09:04:44 2017
%%Pages: 1
%%DocumentData: Clean7Bit
%%LanguageLevel: 2
%%BoundingBox: 52 -1 358 410
%%EndComments
%%BeginProlog
save
50 dict begin
/q { gsave } bind def
/Q { grestore } bind def
/cm { 6 array astore concat } bind def
/w { setlinewidth } bind def
/J { setlinecap } bind def
/j { setlinejoin } bind def
/M { setmiterlimit } bind def
/d { setdash } bind def
/m { moveto } bind def
/l { lineto } bind def
/c { curveto } bind def
/h { closepath } bind def
/re { exch dup neg 3 1 roll 5 3 roll moveto 0 rlineto
      0 exch rlineto 0 rlineto closepath } bind def
/S { stroke } bind def
/f { fill } bind def
/f* { eofill } bind def
/n { newpath } bind def
/W { clip } bind def
/W* { eoclip } bind def
/BT { } bind def
/ET { } bind def
/pdfmark where { pop globaldict /?pdfmark /exec load put }
    { globaldict begin /?pdfmark /pop load def /pdfmark
    /cleartomark load def end } ifelse
/BDC { mark 3 1 roll /BDC pdfmark } bind def
/EMC { mark /EMC pdfmark } bind def
/cairo_store_point { /cairo_point_y exch def /cairo_point_x exch def } def
/Tj { show currentpoint cairo_store_point } bind def
/TJ {
  {
    dup
    type /stringtype eq
    { show } { -0.001 mul 0 cairo_font_matrix dtransform rmoveto } ifelse
  } forall
  currentpoint cairo_store_point
} bind def
/cairo_selectfont { cairo_font_matrix aload pop pop pop 0 0 6 array astore
    cairo_font exch selectfont cairo_point_x cairo_point_y moveto } bind def
/Tf { pop /cairo_font exch def /cairo_font_matrix where
      { pop cairo_selectfont } if } bind def
/Td { matrix translate cairo_font_matrix matrix concatmatrix dup
      /cairo_font_matrix exch def dup 4 get exch 5 get cairo_store_point
      /cairo_font where { pop cairo_selectfont } if } bind def
/Tm { 2 copy 8 2 roll 6 array astore /cairo_font_matrix exch def
      cairo_store_point /cairo_font where { pop cairo_selectfont } if } bind def
/g { setgray } bind def
/rg { setrgbcolor } bind def
/d1 { setcachedevice } bind def
%%EndProlog
%%BeginSetup
%%EndSetup
%%Page: 1 1
%%BeginPageSetup
%%PageBoundingBox: 52 -1 358 410
%%EndPageSetup
q 52 -1 306 411 rectclip q
0.537255 0.533333 0.564706 rg
204.801 246.816 m 188.375 246.816 172.125 260.363 159.039 284.96 c 148.441
 304.878 141.598 328.991 141.598 346.394 c 141.598 381.245 169.949 409.601
 204.801 409.601 c 239.652 409.601 268.004 381.245 268.004 346.398 c 268.004
 328.995 261.156 304.878 250.562 284.96 c 237.477 260.363 221.227 246.816
 204.801 246.816 c h
204.801 397.421 m 176.664 397.421 153.773 374.534 153.773 346.398 c 153.773
 331.077 160.211 308.691 169.789 290.683 c 180.5 270.542 193.262 258.995
 204.801 258.995 c 216.34 258.995 229.098 270.546 239.812 290.683 c 249.391
 308.691 255.828 331.077 255.828 346.398 c 255.824 374.534 232.938 397.421
 204.801 397.421 c h
204.801 397.421 m f
1 0.45098 0.490196 rg
204.801 192.859 m 188.559 192.859 175.27 206.144 175.27 222.39 c 175.27
 259.687 l 175.27 275.929 188.559 289.222 204.801 289.222 c 221.043 289.222
 234.332 275.933 234.332 259.687 c 234.332 222.39 l 234.332 206.148 221.043
 192.859 204.801 192.859 c h
204.801 192.859 m f
0.470588 0.462745 0.501961 rg
210.891 262.82 m 210.891 259.456 208.164 256.73 204.801 256.73 c 201.438
 256.73 198.711 259.456 198.711 262.82 c 198.711 266.183 201.438 268.905
 204.801 268.905 c 208.164 268.905 210.891 266.183 210.891 262.82 c h
210.891 262.82 m f
0.913725 0.964706 1 rg
303.199 -0.001 m 106.398 -0.001 l 76.422 -0.001 52.121 24.3 52.121 54.277
 c 52.121 186.491 l 52.121 216.468 76.422 240.769 106.398 240.769 c 303.203
 240.769 l 333.176 240.769 357.477 216.468 357.477 186.491 c 357.477 54.277
 l 357.477 24.3 333.176 -0.001 303.199 -0.001 c h
303.199 -0.001 m f
0.792157 0.905882 0.988235 rg
134.262 240.769 m 106.398 240.769 l 76.422 240.769 52.121 216.468 52.121
 186.491 c 52.121 54.277 l 52.121 24.3 76.422 -0.001 106.398 -0.001 c 248.348
 -0.001 l 133.543 19.773 132.523 194.835 134.262 240.769 c h
134.262 240.769 m f
0.580392 0.796078 0.929412 rg
218.688 46.073 m 115.25 46.073 l 102.773 46.073 92.656 56.187 92.656 68.667
 c 92.656 172.101 l 92.656 184.581 102.773 194.695 115.25 194.695 c 218.688
 194.695 l 231.168 194.695 241.281 184.581 241.281 172.101 c 241.281 68.663
 l 241.281 56.187 231.168 46.073 218.688 46.073 c h
218.688 46.073 m f
0.45098 0.717647 0.866667 rg
115.25 46.073 m 176.828 46.073 l 146.473 88.304 137.141 149.917 134.699
 194.698 c 115.25 194.698 l 102.773 194.698 92.656 184.581 92.656 172.105
 c 92.656 68.663 l 92.656 56.187 102.773 46.073 115.25 46.073 c h
115.25 46.073 m f
326.5 153.058 m 272.258 153.058 l 268.895 153.058 266.168 155.784 266.168
 159.148 c 266.168 162.511 268.895 165.238 272.258 165.238 c 326.5 165.238
 l 329.863 165.238 332.59 162.511 332.59 159.148 c 332.59 155.78 329.863
 153.058 326.5 153.058 c h
326.5 153.058 m f
326.5 127.214 m 272.258 127.214 l 268.895 127.214 266.168 129.941 266.168
 133.304 c 266.168 136.667 268.895 139.394 272.258 139.394 c 326.5 139.394
 l 329.863 139.394 332.59 136.667 332.59 133.304 c 332.59 129.941 329.863
 127.214 326.5 127.214 c h
326.5 127.214 m f
326.5 101.374 m 272.258 101.374 l 268.895 101.374 266.168 104.101 266.168
 107.464 c 266.168 110.827 268.895 113.554 272.258 113.554 c 326.5 113.554
 l 329.863 113.554 332.59 110.827 332.59 107.464 c 332.59 104.101 329.863
 101.374 326.5 101.374 c h
326.5 101.374 m f
299.379 75.53 m 272.258 75.53 l 268.895 75.53 266.168 78.257 266.168 81.62
 c 266.168 84.988 268.895 87.71 272.258 87.71 c 299.379 87.71 l 302.742 
87.71 305.469 84.984 305.469 81.62 c 305.469 78.257 302.742 75.53 299.379
 75.53 c h
299.379 75.53 m f
Q Q
showpage
%%Trailer
end restore
%%EOF
