%!PS-Adobe-3.0 EPSF-3.0
%%Creator: cairo 1.14.2 (http://cairographics.org)
%%CreationDate: Fri Dec 29 09:04:44 2017
%%Pages: 1
%%DocumentData: Clean7Bit
%%LanguageLevel: 2
%%BoundingBox: 75 -1 335 410
%%EndComments
%%BeginProlog
save
50 dict begin
/q { gsave } bind def
/Q { grestore } bind def
/cm { 6 array astore concat } bind def
/w { setlinewidth } bind def
/J { setlinecap } bind def
/j { setlinejoin } bind def
/M { setmiterlimit } bind def
/d { setdash } bind def
/m { moveto } bind def
/l { lineto } bind def
/c { curveto } bind def
/h { closepath } bind def
/re { exch dup neg 3 1 roll 5 3 roll moveto 0 rlineto
      0 exch rlineto 0 rlineto closepath } bind def
/S { stroke } bind def
/f { fill } bind def
/f* { eofill } bind def
/n { newpath } bind def
/W { clip } bind def
/W* { eoclip } bind def
/BT { } bind def
/ET { } bind def
/pdfmark where { pop globaldict /?pdfmark /exec load put }
    { globaldict begin /?pdfmark /pop load def /pdfmark
    /cleartomark load def end } ifelse
/BDC { mark 3 1 roll /BDC pdfmark } bind def
/EMC { mark /EMC pdfmark } bind def
/cairo_store_point { /cairo_point_y exch def /cairo_point_x exch def } def
/Tj { show currentpoint cairo_store_point } bind def
/TJ {
  {
    dup
    type /stringtype eq
    { show } { -0.001 mul 0 cairo_font_matrix dtransform rmoveto } ifelse
  } forall
  currentpoint cairo_store_point
} bind def
/cairo_selectfont { cairo_font_matrix aload pop pop pop 0 0 6 array astore
    cairo_font exch selectfont cairo_point_x cairo_point_y moveto } bind def
/Tf { pop /cairo_font exch def /cairo_font_matrix where
      { pop cairo_selectfont } if } bind def
/Td { matrix translate cairo_font_matrix matrix concatmatrix dup
      /cairo_font_matrix exch def dup 4 get exch 5 get cairo_store_point
      /cairo_font where { pop cairo_selectfont } if } bind def
/Tm { 2 copy 8 2 roll 6 array astore /cairo_font_matrix exch def
      cairo_store_point /cairo_font where { pop cairo_selectfont } if } bind def
/g { setgray } bind def
/rg { setrgbcolor } bind def
/d1 { setcachedevice } bind def
%%EndProlog
%%BeginSetup
%%EndSetup
%%Page: 1 1
%%BeginPageSetup
%%PageBoundingBox: 75 -1 335 410
%%EndPageSetup
q 75 -1 260 411 rectclip q
0.627451 0.941176 0.94902 rg
243.629 174.752 m 165.973 174.752 l 135.27 174.752 110.145 199.873 110.145
 230.577 c 110.145 353.776 l 110.145 384.479 135.266 409.6 165.969 409.6
 c 243.629 409.6 l 274.332 409.6 299.453 384.479 299.453 353.776 c 299.453
 230.577 l 299.453 199.873 274.332 174.752 243.629 174.752 c h
243.629 174.752 m f
0.490196 0.886275 0.886275 rg
169.59 230.577 m 169.59 353.776 l 169.59 384.479 194.711 409.6 225.414 
409.6 c 165.969 409.6 l 135.266 409.6 110.145 384.479 110.145 353.776 c 
110.145 230.577 l 110.145 199.873 135.266 174.752 165.969 174.752 c 225.414
 174.752 l 194.711 174.752 169.59 199.873 169.59 230.577 c h
169.59 230.577 m f
0.741176 0.980392 1 rg
299.453 311.819 m 110.145 311.819 l 100.812 311.819 93.18 319.455 93.18
 328.788 c 93.18 338.12 100.816 345.752 110.145 345.752 c 299.457 345.752
 l 308.789 345.752 316.422 338.12 316.422 328.788 c 316.422 319.455 308.785
 311.819 299.453 311.819 c h
299.453 311.819 m f
0.627451 0.941176 0.94902 rg
152.625 328.788 m 152.625 338.12 160.262 345.752 169.59 345.752 c 110.145
 345.752 l 100.812 345.752 93.18 338.12 93.18 328.788 c 93.18 319.455 100.812
 311.823 110.145 311.823 c 169.59 311.823 l 160.262 311.819 152.625 319.455
 152.625 328.788 c h
152.625 328.788 m f
0.741176 0.980392 1 rg
299.453 238.596 m 110.145 238.596 l 100.812 238.596 93.18 246.233 93.18
 255.565 c 93.18 264.897 100.816 272.53 110.145 272.53 c 299.457 272.53 
l 308.789 272.53 316.422 264.897 316.422 255.565 c 316.422 246.233 308.785
 238.596 299.453 238.596 c h
299.453 238.596 m f
0.627451 0.941176 0.94902 rg
152.625 255.565 m 152.625 264.897 160.262 272.53 169.59 272.53 c 110.145
 272.53 l 100.812 272.53 93.18 264.893 93.18 255.565 c 93.18 246.233 100.812
 238.596 110.145 238.596 c 169.59 238.596 l 160.262 238.596 152.625 246.233
 152.625 255.565 c h
152.625 255.565 m f
0.792157 0.905882 0.988235 rg
292.922 -0.002 m 116.676 -0.002 l 93.836 -0.002 75.32 18.514 75.32 41.358
 c 75.32 141.702 l 75.32 164.541 93.836 183.057 116.676 183.057 c 292.922
 183.057 l 315.762 183.057 334.281 164.541 334.281 141.702 c 334.281 41.358
 l 334.281 18.514 315.766 -0.002 292.922 -0.002 c h
292.922 -0.002 m f
0.580392 0.796078 0.929412 rg
135.152 114.901 139.305 -114.902 re f
0.45098 0.717647 0.866667 rg
135.148 114.952 m 135.148 -0.002 l 200.938 -0.002 l 192.461 4.327 187.445
 10.995 184.559 18.135 c 178.348 33.51 189.945 50.334 206.523 49.92 c 263.02
 48.51 274.453 78.639 274.453 78.639 c 274.453 114.952 l h
135.148 114.952 m f
0.701961 0.858824 0.956863 rg
135.152 183.061 139.305 -70.781 re f
0.913725 0.964706 1 rg
179.395 67.424 m 171.738 67.424 l 164.93 67.424 159.41 72.944 159.41 79.752
 c 159.41 112.28 l 191.723 112.28 l 191.723 79.752 l 191.723 72.944 186.203
 67.424 179.395 67.424 c h
179.395 67.424 m f
237.863 67.424 m 230.207 67.424 l 223.398 67.424 217.879 72.944 217.879
 79.752 c 217.879 112.28 l 250.191 112.28 l 250.191 79.752 l 250.191 72.944
 244.672 67.424 237.863 67.424 c h
237.863 67.424 m f
1 0.45098 0.490196 rg
159.406 89.85 m 159.406 79.752 l 159.406 72.944 164.93 67.424 171.738 67.424
 c 179.395 67.424 l 186.203 67.424 191.723 72.944 191.723 79.752 c 191.723
 89.85 l h
159.406 89.85 m f
0.792157 0.905882 0.988235 rg
217.879 89.85 m 217.879 79.752 l 217.879 72.944 223.398 67.424 230.207 
67.424 c 237.863 67.424 l 244.672 67.424 250.191 72.944 250.191 79.752 c
 250.191 89.85 l h
217.879 89.85 m f
Q Q
showpage
%%Trailer
end restore
%%EOF
