%!PS-Adobe-3.0 EPSF-3.0
%%Creator: cairo 1.14.2 (http://cairographics.org)
%%CreationDate: Fri Dec 29 09:04:44 2017
%%Pages: 1
%%DocumentData: Clean7Bit
%%LanguageLevel: 2
%%BoundingBox: 0 79 410 331
%%EndComments
%%BeginProlog
save
50 dict begin
/q { gsave } bind def
/Q { grestore } bind def
/cm { 6 array astore concat } bind def
/w { setlinewidth } bind def
/J { setlinecap } bind def
/j { setlinejoin } bind def
/M { setmiterlimit } bind def
/d { setdash } bind def
/m { moveto } bind def
/l { lineto } bind def
/c { curveto } bind def
/h { closepath } bind def
/re { exch dup neg 3 1 roll 5 3 roll moveto 0 rlineto
      0 exch rlineto 0 rlineto closepath } bind def
/S { stroke } bind def
/f { fill } bind def
/f* { eofill } bind def
/n { newpath } bind def
/W { clip } bind def
/W* { eoclip } bind def
/BT { } bind def
/ET { } bind def
/pdfmark where { pop globaldict /?pdfmark /exec load put }
    { globaldict begin /?pdfmark /pop load def /pdfmark
    /cleartomark load def end } ifelse
/BDC { mark 3 1 roll /BDC pdfmark } bind def
/EMC { mark /EMC pdfmark } bind def
/cairo_store_point { /cairo_point_y exch def /cairo_point_x exch def } def
/Tj { show currentpoint cairo_store_point } bind def
/TJ {
  {
    dup
    type /stringtype eq
    { show } { -0.001 mul 0 cairo_font_matrix dtransform rmoveto } ifelse
  } forall
  currentpoint cairo_store_point
} bind def
/cairo_selectfont { cairo_font_matrix aload pop pop pop 0 0 6 array astore
    cairo_font exch selectfont cairo_point_x cairo_point_y moveto } bind def
/Tf { pop /cairo_font exch def /cairo_font_matrix where
      { pop cairo_selectfont } if } bind def
/Td { matrix translate cairo_font_matrix matrix concatmatrix dup
      /cairo_font_matrix exch def dup 4 get exch 5 get cairo_store_point
      /cairo_font where { pop cairo_selectfont } if } bind def
/Tm { 2 copy 8 2 roll 6 array astore /cairo_font_matrix exch def
      cairo_store_point /cairo_font where { pop cairo_selectfont } if } bind def
/g { setgray } bind def
/rg { setrgbcolor } bind def
/d1 { setcachedevice } bind def
%%EndProlog
%%BeginSetup
%%EndSetup
%%Page: 1 1
%%BeginPageSetup
%%PageBoundingBox: 0 79 410 331
%%EndPageSetup
q 0 79 410 252 rectclip q
0.988235 0.823529 0.427451 rg
348.727 79.604 m 187.695 79.604 l 169.492 79.604 154.738 94.358 154.738
 112.561 c 154.738 285.12 l 381.684 285.12 l 381.684 112.561 l 381.684 94.362
 366.93 79.604 348.727 79.604 c h
348.727 79.604 m f
0.776471 0.552941 0.427451 rg
331.039 92.065 m 331.039 87.713 331.734 83.53 333.008 79.604 c 348.727 
79.604 l 366.93 79.604 381.684 94.362 381.684 112.561 c 381.684 131.116 
l 378.406 131.975 374.965 132.436 371.414 132.436 c 349.117 132.436 331.039
 114.362 331.039 92.065 c h
331.039 92.065 m f
249.375 130.248 m 223.922 130.248 203.289 109.616 203.289 84.163 c 203.289
 82.623 203.367 81.104 203.516 79.604 c 295.234 79.604 l 295.383 81.104 
295.461 82.623 295.461 84.163 c 295.461 109.616 274.828 130.248 249.375 
130.248 c h
249.375 130.248 m f
1 0.780392 0.231373 rg
381.684 162.866 m 381.684 285.12 l 154.738 285.12 l 154.738 196.354 l 229.762
 192.627 319.953 183.69 381.684 162.866 c h
381.684 162.866 m f
1 0.854902 0.560784 rg
221.906 79.604 m 60.871 79.604 l 42.672 79.604 27.914 94.358 27.914 112.561
 c 27.914 285.12 l 254.863 285.12 l 254.863 112.561 l 254.863 94.362 240.105
 79.604 221.906 79.604 c h
221.906 79.604 m f
0.878431 0.682353 0.580392 rg
40.375 130.248 m 36.027 130.248 31.84 129.553 27.914 128.28 c 27.914 112.561
 l 27.914 94.362 42.672 79.604 60.871 79.604 c 79.426 79.604 l 80.289 82.885
 80.746 86.327 80.746 89.873 c 80.746 112.174 62.672 130.248 40.375 130.248
 c h
40.375 130.248 m f
254.863 129.913 m 253.062 130.127 251.234 130.248 249.375 130.248 c 223.926
 130.248 203.289 109.616 203.289 84.163 c 203.289 82.623 203.371 81.104 
203.516 79.604 c 221.906 79.604 l 240.105 79.604 254.863 94.362 254.863 
112.561 c h
254.863 129.913 m f
0.988235 0.823529 0.427451 rg
254.863 188.311 m 254.863 285.12 l 27.914 285.12 l 27.914 198.729 l 58.18
 199.143 158.887 199.502 254.863 188.311 c h
254.863 188.311 m f
0.470588 0.462745 0.501961 rg
172.121 176.358 m 110.656 176.358 l 101.359 176.358 93.75 183.963 93.75
 193.264 c 93.75 202.565 101.359 210.17 110.656 210.17 c 172.121 210.17 
l 181.418 210.17 189.027 202.565 189.027 193.264 c 189.027 183.963 181.418
 176.358 172.121 176.358 c h
172.121 176.358 m f
0.341176 0.337255 0.360784 rg
126.824 193.264 m 126.824 202.565 134.43 210.174 143.73 210.174 c 110.656
 210.174 l 101.359 210.174 93.75 202.565 93.75 193.264 c 93.75 183.963 101.359
 176.358 110.656 176.358 c 143.73 176.358 l 134.434 176.358 126.824 183.963
 126.824 193.264 c h
126.824 193.264 m f
1 0.854902 0.560784 rg
378.289 240.241 m 158.137 240.241 l 140.844 240.241 126.824 254.26 126.824
 271.553 c 126.824 298.682 l 126.824 315.975 140.84 329.995 158.137 329.995
 c 378.289 329.995 l 395.582 329.995 409.602 315.975 409.602 298.682 c 409.602
 271.553 l 409.602 254.26 395.582 240.241 378.289 240.241 c h
378.289 240.241 m f
1 0.960784 0.8 rg
251.465 240.241 m 31.312 240.241 l 14.02 240.241 0 254.26 0 271.553 c 0
 298.682 l 0 315.975 14.02 329.995 31.312 329.995 c 251.465 329.995 l 268.758
 329.995 282.777 315.979 282.777 298.682 c 282.777 271.557 l 282.777 254.26
 268.758 240.241 251.465 240.241 c h
251.465 240.241 m f
Q Q
showpage
%%Trailer
end restore
%%EOF
