%!PS-Adobe-3.0 EPSF-3.0
%%Creator: cairo 1.14.2 (http://cairographics.org)
%%CreationDate: Fri Dec 29 09:04:44 2017
%%Pages: 1
%%DocumentData: Clean7Bit
%%LanguageLevel: 2
%%BoundingBox: 54 -1 356 410
%%EndComments
%%BeginProlog
save
50 dict begin
/q { gsave } bind def
/Q { grestore } bind def
/cm { 6 array astore concat } bind def
/w { setlinewidth } bind def
/J { setlinecap } bind def
/j { setlinejoin } bind def
/M { setmiterlimit } bind def
/d { setdash } bind def
/m { moveto } bind def
/l { lineto } bind def
/c { curveto } bind def
/h { closepath } bind def
/re { exch dup neg 3 1 roll 5 3 roll moveto 0 rlineto
      0 exch rlineto 0 rlineto closepath } bind def
/S { stroke } bind def
/f { fill } bind def
/f* { eofill } bind def
/n { newpath } bind def
/W { clip } bind def
/W* { eoclip } bind def
/BT { } bind def
/ET { } bind def
/pdfmark where { pop globaldict /?pdfmark /exec load put }
    { globaldict begin /?pdfmark /pop load def /pdfmark
    /cleartomark load def end } ifelse
/BDC { mark 3 1 roll /BDC pdfmark } bind def
/EMC { mark /EMC pdfmark } bind def
/cairo_store_point { /cairo_point_y exch def /cairo_point_x exch def } def
/Tj { show currentpoint cairo_store_point } bind def
/TJ {
  {
    dup
    type /stringtype eq
    { show } { -0.001 mul 0 cairo_font_matrix dtransform rmoveto } ifelse
  } forall
  currentpoint cairo_store_point
} bind def
/cairo_selectfont { cairo_font_matrix aload pop pop pop 0 0 6 array astore
    cairo_font exch selectfont cairo_point_x cairo_point_y moveto } bind def
/Tf { pop /cairo_font exch def /cairo_font_matrix where
      { pop cairo_selectfont } if } bind def
/Td { matrix translate cairo_font_matrix matrix concatmatrix dup
      /cairo_font_matrix exch def dup 4 get exch 5 get cairo_store_point
      /cairo_font where { pop cairo_selectfont } if } bind def
/Tm { 2 copy 8 2 roll 6 array astore /cairo_font_matrix exch def
      cairo_store_point /cairo_font where { pop cairo_selectfont } if } bind def
/g { setgray } bind def
/rg { setrgbcolor } bind def
/d1 { setcachedevice } bind def
%%EndProlog
%%BeginSetup
%%EndSetup
%%Page: 1 1
%%BeginPageSetup
%%PageBoundingBox: 54 -1 356 410
%%EndPageSetup
q 54 -1 302 411 rectclip q
0.792157 0.905882 0.988235 rg
216.164 300.745 m 182.629 334.28 l 173.664 343.245 173.664 357.776 182.629
 366.741 c 218.762 402.877 l 227.727 411.842 242.262 411.842 251.227 402.877
 c 284.762 369.342 l 293.727 360.377 293.727 345.842 284.762 336.877 c 248.625
 300.745 l 239.664 291.78 225.129 291.78 216.164 300.745 c h
216.164 300.745 m f
0.580392 0.796078 0.929412 rg
248.625 300.745 m 284.762 336.877 l 291.156 343.272 292.988 352.502 290.262
 360.522 c 254.227 367.987 230.812 386.491 217.195 401.307 c 182.629 366.741
 l 173.664 357.776 173.664 343.245 182.629 334.28 c 216.164 300.745 l 225.129
 291.78 239.664 291.78 248.625 300.745 c h
248.625 300.745 m f
0.913725 0.964706 1 rg
113.84 323.17 181.922 -106.238 re f
158.375 300.745 m 124.84 334.28 l 115.875 343.245 115.875 357.776 124.84
 366.741 c 160.973 402.877 l 169.938 411.842 184.473 411.842 193.438 402.877
 c 226.973 369.342 l 235.934 360.377 235.934 345.842 226.973 336.877 c 190.836
 300.745 l 181.871 291.78 167.34 291.78 158.375 300.745 c h
158.375 300.745 m f
0.537255 0.533333 0.564706 rg
265.391 353.604 m 144.211 353.604 l 106.598 353.604 76.109 323.112 76.109
 285.498 c 76.109 -0.002 l 333.492 -0.002 l 333.492 285.498 l 333.492 323.112
 303 353.604 265.391 353.604 c h
277.203 279.873 m 277.203 267.03 266.695 256.518 253.848 256.518 c 155.754
 256.518 l 142.906 256.518 132.395 267.03 132.395 279.873 c 132.395 292.721
 142.906 303.233 155.754 303.233 c 253.848 303.233 l 266.695 303.233 277.203
 292.721 277.203 279.873 c h
277.203 279.873 m f
0.470588 0.462745 0.501961 rg
132.395 279.873 m 132.395 288.514 137.152 296.092 144.172 300.135 c 150.871
 330.709 178.098 353.604 210.684 353.604 c 144.211 353.604 l 106.598 353.604
 76.109 323.112 76.109 285.498 c 76.109 -0.002 l 142.582 -0.002 l 142.582
 260.616 l 136.441 264.838 132.395 271.905 132.395 279.873 c h
132.395 279.873 m f
277.203 279.873 m 277.203 267.03 266.695 256.518 253.848 256.518 c 281.867
 256.518 l 294.715 256.518 305.227 267.03 305.227 279.873 c 305.227 292.721
 294.715 303.233 281.867 303.233 c 253.848 303.233 l 266.695 303.233 277.203
 292.721 277.203 279.873 c h
277.203 279.873 m f
0.580392 0.796078 0.929412 rg
334.781 -0.002 m 74.82 -0.002 l 63.406 -0.002 54.07 9.338 54.07 20.748 
c 54.07 21.92 l 54.07 33.334 63.406 42.67 74.82 42.67 c 334.781 42.67 l 
346.191 42.67 355.531 33.334 355.531 21.92 c 355.531 20.748 l 355.531 9.338
 346.191 -0.002 334.781 -0.002 c h
334.781 -0.002 m f
122.828 20.748 m 122.828 21.92 l 122.828 33.334 132.164 42.67 143.578 42.67
 c 74.82 42.67 l 63.406 42.67 54.07 33.334 54.07 21.92 c 54.07 20.748 l 
54.07 9.338 63.406 -0.002 74.82 -0.002 c 143.578 -0.002 l 132.164 -0.002
 122.828 9.338 122.828 20.748 c h
122.828 20.748 m f
0.341176 0.337255 0.360784 rg
218.699 190.112 m 190.898 190.112 l 185.477 190.096 182.355 188.674 182.434
 184.248 c 182.695 169.807 185.77 143.393 204.801 143.393 c 223.828 143.393
 226.906 169.807 227.164 184.248 c 227.246 188.674 224.125 190.096 218.699
 190.112 c h
218.699 190.112 m f
1 0.45098 0.490196 rg
204.801 166.975 m 197.152 166.975 190.344 164.315 185.957 160.174 c 189.02
 150.94 194.629 143.393 204.801 143.393 c 214.969 143.393 220.582 150.94
 223.645 160.174 c 219.254 164.315 212.449 166.975 204.801 166.975 c h
204.801 166.975 m f
0.341176 0.337255 0.360784 rg
271.273 179.823 m 267.859 179.823 265.094 182.592 265.094 186.002 c 265.094
 196.264 l 265.094 199.678 267.859 202.448 271.273 202.448 c 274.688 202.448
 277.453 199.678 277.453 196.264 c 277.453 186.002 l 277.453 182.588 274.688
 179.823 271.273 179.823 c h
271.273 179.823 m f
138.328 179.823 m 134.914 179.823 132.145 182.592 132.145 186.002 c 132.145
 196.264 l 132.145 199.678 134.914 202.448 138.328 202.448 c 141.742 202.448
 144.508 199.678 144.508 196.264 c 144.508 186.002 l 144.508 182.588 141.742
 179.823 138.328 179.823 c h
138.328 179.823 m f
Q Q
showpage
%%Trailer
end restore
%%EOF
