%!PS-Adobe-3.0 EPSF-3.0
%%Creator: cairo 1.14.2 (http://cairographics.org)
%%CreationDate: Fri Dec 29 09:04:44 2017
%%Pages: 1
%%DocumentData: Clean7Bit
%%LanguageLevel: 2
%%BoundingBox: 0 51 410 358
%%EndComments
%%BeginProlog
save
50 dict begin
/q { gsave } bind def
/Q { grestore } bind def
/cm { 6 array astore concat } bind def
/w { setlinewidth } bind def
/J { setlinecap } bind def
/j { setlinejoin } bind def
/M { setmiterlimit } bind def
/d { setdash } bind def
/m { moveto } bind def
/l { lineto } bind def
/c { curveto } bind def
/h { closepath } bind def
/re { exch dup neg 3 1 roll 5 3 roll moveto 0 rlineto
      0 exch rlineto 0 rlineto closepath } bind def
/S { stroke } bind def
/f { fill } bind def
/f* { eofill } bind def
/n { newpath } bind def
/W { clip } bind def
/W* { eoclip } bind def
/BT { } bind def
/ET { } bind def
/pdfmark where { pop globaldict /?pdfmark /exec load put }
    { globaldict begin /?pdfmark /pop load def /pdfmark
    /cleartomark load def end } ifelse
/BDC { mark 3 1 roll /BDC pdfmark } bind def
/EMC { mark /EMC pdfmark } bind def
/cairo_store_point { /cairo_point_y exch def /cairo_point_x exch def } def
/Tj { show currentpoint cairo_store_point } bind def
/TJ {
  {
    dup
    type /stringtype eq
    { show } { -0.001 mul 0 cairo_font_matrix dtransform rmoveto } ifelse
  } forall
  currentpoint cairo_store_point
} bind def
/cairo_selectfont { cairo_font_matrix aload pop pop pop 0 0 6 array astore
    cairo_font exch selectfont cairo_point_x cairo_point_y moveto } bind def
/Tf { pop /cairo_font exch def /cairo_font_matrix where
      { pop cairo_selectfont } if } bind def
/Td { matrix translate cairo_font_matrix matrix concatmatrix dup
      /cairo_font_matrix exch def dup 4 get exch 5 get cairo_store_point
      /cairo_font where { pop cairo_selectfont } if } bind def
/Tm { 2 copy 8 2 roll 6 array astore /cairo_font_matrix exch def
      cairo_store_point /cairo_font where { pop cairo_selectfont } if } bind def
/g { setgray } bind def
/rg { setrgbcolor } bind def
/d1 { setcachedevice } bind def
%%EndProlog
%%BeginSetup
%%EndSetup
%%Page: 1 1
%%BeginPageSetup
%%PageBoundingBox: 0 51 410 358
%%EndPageSetup
q 0 51 410 307 rectclip q
0.976471 0.705882 0.227451 rg
364.051 52.311 m 159.406 52.311 l 134.25 52.311 113.855 72.705 113.855 
97.862 c 113.855 311.737 l 113.855 336.893 134.25 357.288 159.406 357.288
 c 364.051 357.288 l 389.207 357.288 409.602 336.893 409.602 311.737 c 409.602
 97.862 l 409.602 72.705 389.207 52.311 364.051 52.311 c h
364.051 52.311 m f
0.956863 0.635294 0.25098 rg
384.875 91.678 m 381.461 91.678 378.695 94.448 378.695 97.862 c 378.695
 172.92 l 378.695 176.334 381.461 179.1 384.875 179.1 c 388.289 179.1 391.059
 176.334 391.059 172.92 c 391.059 97.862 l 391.059 94.448 388.289 91.678
 384.875 91.678 c h
384.875 91.678 m f
365.031 144.67 m 361.617 144.67 358.852 147.436 358.852 150.85 c 358.852
 243.159 l 358.852 246.573 361.617 249.338 365.031 249.338 c 368.445 249.338
 371.211 246.573 371.211 243.159 c 371.211 150.85 l 371.211 147.436 368.445
 144.67 365.031 144.67 c h
365.031 144.67 m f
0.988235 0.823529 0.427451 rg
294.758 52.311 m 90.113 52.311 l 64.957 52.311 44.562 72.705 44.562 97.862
 c 44.562 311.737 l 44.562 336.897 64.957 357.288 90.113 357.288 c 294.758
 357.288 l 319.91 357.288 340.305 336.897 340.305 311.741 c 340.305 97.862
 l 340.305 72.705 319.914 52.311 294.758 52.311 c h
294.758 52.311 m f
1 0.780392 0.231373 rg
193.93 61.034 m 185.164 71.967 194.656 87.987 208.488 85.772 c 279.594 
74.409 318.93 85.315 340.305 98.362 c 340.305 311.737 l 340.305 336.893 
319.91 357.288 294.758 357.288 c 90.113 357.288 l 64.957 357.288 44.562 
336.893 44.562 311.737 c 44.562 97.862 l 44.562 72.705 64.957 52.311 90.113
 52.311 c 216.344 52.311 l 204.855 52.311 197.969 55.998 193.93 61.034 c
 h
193.93 61.034 m f
1 0.854902 0.560784 rg
306.102 126.803 m 44.562 126.803 l 44.562 311.737 l 44.562 336.897 64.957
 357.288 90.113 357.288 c 294.754 357.288 l 319.91 357.288 340.305 336.897
 340.305 311.737 c 340.305 161.01 l 340.305 142.12 324.992 126.803 306.102
 126.803 c h
306.102 126.803 m f
1 0.960784 0.8 rg
275 179.592 m 275 202.217 l 275 215.541 264.203 226.338 250.879 226.338
 c 22.207 226.338 l 9.941 226.338 0 216.397 0 204.131 c 0 173.373 l 0 147.655
 20.848 126.803 46.566 126.803 c 306.102 126.803 l 274.52 126.803 275 153.87
 275 179.592 c h
275 179.592 m f
0.341176 0.337255 0.360784 rg
176.676 247.702 m 152.816 262.725 l 144.352 268.053 141.285 279.178 146.312
 287.827 c 151.59 296.909 163.293 299.733 172.105 294.186 c 184.234 286.549
 l 189.227 283.405 195.578 283.405 200.57 286.549 c 212.699 294.186 l 221.324
 299.616 232.715 297.026 238.145 288.405 c 243.574 279.78 240.984 268.389
 232.363 262.959 c 208.129 247.702 l 198.52 241.651 186.289 241.651 176.676
 247.702 c h
176.676 247.702 m f
1 0.45098 0.490196 rg
219.457 254.83 m 215.973 263.659 205.199 270.096 192.441 270.096 c 179.668
 270.096 168.879 263.643 165.414 254.799 c 176.684 247.702 l 186.293 241.651
 198.523 241.651 208.137 247.702 c h
219.457 254.83 m f
0.341176 0.337255 0.360784 rg
258.906 284.198 m 255.492 284.198 252.727 286.963 252.727 290.377 c 252.727
 300.639 l 252.727 304.053 255.492 306.819 258.906 306.819 c 262.32 306.819
 265.086 304.053 265.086 300.639 c 265.086 290.377 l 265.09 286.963 262.32
 284.198 258.906 284.198 c h
258.906 284.198 m f
125.961 284.198 m 122.547 284.198 119.781 286.963 119.781 290.377 c 119.781
 300.639 l 119.781 304.053 122.547 306.819 125.961 306.819 c 129.375 306.819
 132.145 304.053 132.145 300.639 c 132.145 290.377 l 132.145 286.963 129.375
 284.198 125.961 284.198 c h
125.961 284.198 m f
Q Q
showpage
%%Trailer
end restore
%%EOF
