%!PS-Adobe-3.0 EPSF-3.0
%%Creator: cairo 1.14.2 (http://cairographics.org)
%%CreationDate: Fri Dec 29 09:04:44 2017
%%Pages: 1
%%DocumentData: Clean7Bit
%%LanguageLevel: 2
%%BoundingBox: 0 31 410 379
%%EndComments
%%BeginProlog
save
50 dict begin
/q { gsave } bind def
/Q { grestore } bind def
/cm { 6 array astore concat } bind def
/w { setlinewidth } bind def
/J { setlinecap } bind def
/j { setlinejoin } bind def
/M { setmiterlimit } bind def
/d { setdash } bind def
/m { moveto } bind def
/l { lineto } bind def
/c { curveto } bind def
/h { closepath } bind def
/re { exch dup neg 3 1 roll 5 3 roll moveto 0 rlineto
      0 exch rlineto 0 rlineto closepath } bind def
/S { stroke } bind def
/f { fill } bind def
/f* { eofill } bind def
/n { newpath } bind def
/W { clip } bind def
/W* { eoclip } bind def
/BT { } bind def
/ET { } bind def
/pdfmark where { pop globaldict /?pdfmark /exec load put }
    { globaldict begin /?pdfmark /pop load def /pdfmark
    /cleartomark load def end } ifelse
/BDC { mark 3 1 roll /BDC pdfmark } bind def
/EMC { mark /EMC pdfmark } bind def
/cairo_store_point { /cairo_point_y exch def /cairo_point_x exch def } def
/Tj { show currentpoint cairo_store_point } bind def
/TJ {
  {
    dup
    type /stringtype eq
    { show } { -0.001 mul 0 cairo_font_matrix dtransform rmoveto } ifelse
  } forall
  currentpoint cairo_store_point
} bind def
/cairo_selectfont { cairo_font_matrix aload pop pop pop 0 0 6 array astore
    cairo_font exch selectfont cairo_point_x cairo_point_y moveto } bind def
/Tf { pop /cairo_font exch def /cairo_font_matrix where
      { pop cairo_selectfont } if } bind def
/Td { matrix translate cairo_font_matrix matrix concatmatrix dup
      /cairo_font_matrix exch def dup 4 get exch 5 get cairo_store_point
      /cairo_font where { pop cairo_selectfont } if } bind def
/Tm { 2 copy 8 2 roll 6 array astore /cairo_font_matrix exch def
      cairo_store_point /cairo_font where { pop cairo_selectfont } if } bind def
/g { setgray } bind def
/rg { setrgbcolor } bind def
/d1 { setcachedevice } bind def
%%EndProlog
%%BeginSetup
%%EndSetup
%%Page: 1 1
%%BeginPageSetup
%%PageBoundingBox: 0 31 410 379
%%EndPageSetup
q 0 31 410 348 rectclip q
0.243137 0.239216 0.258824 rg
342.77 171.791 m 335.738 180.647 337.23 193.643 346.082 200.674 c 376.285
 224.655 l 385.137 231.682 398.137 230.194 405.164 221.338 c 412.195 212.487
 410.703 199.487 401.852 192.459 c 371.648 168.475 l 362.793 161.444 349.797
 162.94 342.77 171.791 c h
342.77 171.791 m f
0.113725 0.113725 0.121569 rg
377.285 225.393 m 376.945 225.159 376.613 224.913 376.285 224.655 c 346.082
 200.674 l 337.23 193.643 335.738 180.647 342.77 171.791 c 349.797 162.94
 362.793 161.444 371.648 168.475 c 399.445 190.549 l 394.32 207.83 385.309
 218.729 377.285 225.393 c h
377.285 225.393 m f
0.341176 0.337255 0.360784 rg
371.648 168.475 m 362.793 161.448 349.797 162.94 342.766 171.791 c 284.879
 244.694 l 277.852 253.549 279.344 266.545 288.195 273.577 c 297.051 280.604
 310.047 279.112 317.078 270.26 c 374.965 197.358 l 381.996 188.502 380.5
 175.506 371.648 168.475 c h
371.648 168.475 m f
0.243137 0.239216 0.258824 rg
317.078 270.26 m 310.047 279.112 297.051 280.604 288.195 273.573 c 279.344
 266.545 277.852 253.549 284.883 244.694 c 342.77 171.791 l 346.027 167.69
 350.566 165.17 355.383 164.342 c 350.273 186.616 349.707 210.807 350.184
 228.565 c h
317.078 270.26 m f
0.172549 0.686275 0.47451 rg
280.066 31.862 m 116.07 31.862 l 116.07 377.741 l 214.895 377.741 l 278.996
 377.741 330.965 325.772 330.965 261.67 c 330.965 82.76 l 330.965 54.647
 308.176 31.862 280.066 31.862 c h
280.066 31.862 m f
0.117647 0.619608 0.392157 rg
116.07 31.862 m 280.062 31.862 l 308.176 31.862 330.965 54.647 330.965 
82.76 c 116.07 82.76 l h
116.07 31.862 m f
0.364706 0.788235 0.47451 rg
214.895 377.741 m 116.07 377.741 l 116.07 261.67 l 330.965 261.67 l 330.965
 325.772 278.996 377.741 214.895 377.741 c h
214.895 377.741 m f
0.580392 0.796078 0.929412 rg
116.07 195.448 m 116.07 31.862 l 266.715 31.862 l 277.102 45.245 283.156
 62.268 283.156 82.76 c 283.156 165.022 l 283.156 181.827 269.535 195.448
 252.73 195.448 c h
116.07 195.448 m f
0.45098 0.717647 0.866667 rg
283.156 82.76 m 116.07 82.76 l 116.07 31.862 l 266.715 31.862 l 277.102
 45.245 283.156 62.268 283.156 82.76 c h
283.156 82.76 m f
0.913725 0.964706 1 rg
181.242 31.862 m 50.898 31.862 l 22.789 31.862 0 54.647 0 82.76 c 0 261.67
 l 0 325.776 51.965 377.741 116.07 377.741 c 180.176 377.741 232.141 325.776
 232.141 261.67 c 232.141 82.76 l 232.141 54.647 209.352 31.862 181.242 
31.862 c h
181.242 31.862 m f
0.792157 0.905882 0.988235 rg
19.629 129.338 m 17.215 131.756 17.215 135.666 19.629 138.08 c 55.777 174.229
 l 58.191 176.643 62.105 176.643 64.52 174.229 c 66.934 171.815 66.934 167.901
 64.52 165.491 c 28.371 129.338 l 25.16 126.342 20.836 128.135 19.629 129.338
 c h
19.629 129.338 m f
46.133 118.584 m 43.719 120.998 43.719 124.913 46.133 127.323 c 59.879 
141.073 l 62.293 143.487 66.207 143.487 68.621 141.073 c 71.035 138.659 
71.035 134.745 68.621 132.33 c 54.875 118.584 l 51.395 115.143 47.34 117.377
 46.133 118.584 c h
46.133 118.584 m f
0.482353 0.858824 0.596078 rg
116.07 377.741 m 51.965 377.741 0 325.772 0 261.67 c 0 195.448 l 232.141
 195.448 l 232.141 261.67 l 232.141 325.772 180.176 377.741 116.07 377.741
 c h
116.07 377.741 m f
0.341176 0.337255 0.360784 rg
141.16 275.116 m 141.16 261.26 129.926 250.03 116.074 250.03 c 102.219 
250.03 90.988 261.26 90.988 275.116 c 90.988 288.971 102.219 300.202 116.074
 300.202 c 129.926 300.202 141.16 288.971 141.16 275.116 c h
141.16 275.116 m f
0.176471 0.176471 0.188235 rg
116.07 275.116 m 116.07 284.401 121.125 292.506 128.621 296.842 c 124.93
 298.979 120.641 300.202 116.07 300.202 c 102.219 300.202 90.984 288.971
 90.984 275.116 c 90.984 261.26 102.215 250.03 116.07 250.03 c 120.641 250.03
 124.93 251.256 128.621 253.393 c 121.125 257.729 116.07 265.834 116.07 
275.116 c h
116.07 275.116 m f
Q Q
showpage
%%Trailer
end restore
%%EOF
