%!PS-Adobe-3.0 EPSF-3.0
%%Creator: cairo 1.14.2 (http://cairographics.org)
%%CreationDate: Fri Dec 29 09:04:44 2017
%%Pages: 1
%%DocumentData: Clean7Bit
%%LanguageLevel: 2
%%BoundingBox: 0 17 410 393
%%EndComments
%%BeginProlog
save
50 dict begin
/q { gsave } bind def
/Q { grestore } bind def
/cm { 6 array astore concat } bind def
/w { setlinewidth } bind def
/J { setlinecap } bind def
/j { setlinejoin } bind def
/M { setmiterlimit } bind def
/d { setdash } bind def
/m { moveto } bind def
/l { lineto } bind def
/c { curveto } bind def
/h { closepath } bind def
/re { exch dup neg 3 1 roll 5 3 roll moveto 0 rlineto
      0 exch rlineto 0 rlineto closepath } bind def
/S { stroke } bind def
/f { fill } bind def
/f* { eofill } bind def
/n { newpath } bind def
/W { clip } bind def
/W* { eoclip } bind def
/BT { } bind def
/ET { } bind def
/pdfmark where { pop globaldict /?pdfmark /exec load put }
    { globaldict begin /?pdfmark /pop load def /pdfmark
    /cleartomark load def end } ifelse
/BDC { mark 3 1 roll /BDC pdfmark } bind def
/EMC { mark /EMC pdfmark } bind def
/cairo_store_point { /cairo_point_y exch def /cairo_point_x exch def } def
/Tj { show currentpoint cairo_store_point } bind def
/TJ {
  {
    dup
    type /stringtype eq
    { show } { -0.001 mul 0 cairo_font_matrix dtransform rmoveto } ifelse
  } forall
  currentpoint cairo_store_point
} bind def
/cairo_selectfont { cairo_font_matrix aload pop pop pop 0 0 6 array astore
    cairo_font exch selectfont cairo_point_x cairo_point_y moveto } bind def
/Tf { pop /cairo_font exch def /cairo_font_matrix where
      { pop cairo_selectfont } if } bind def
/Td { matrix translate cairo_font_matrix matrix concatmatrix dup
      /cairo_font_matrix exch def dup 4 get exch 5 get cairo_store_point
      /cairo_font where { pop cairo_selectfont } if } bind def
/Tm { 2 copy 8 2 roll 6 array astore /cairo_font_matrix exch def
      cairo_store_point /cairo_font where { pop cairo_selectfont } if } bind def
/g { setgray } bind def
/rg { setrgbcolor } bind def
/d1 { setcachedevice } bind def
%%EndProlog
%%BeginSetup
%%EndSetup
%%Page: 1 1
%%BeginPageSetup
%%PageBoundingBox: 0 17 410 393
%%EndPageSetup
q 0 17 410 376 rectclip q
0.580392 0.796078 0.929412 rg
145.355 122.955 118.891 -86.199 re f
0.45098 0.717647 0.866667 rg
145.355 122.955 m 145.355 36.756 l 178.227 36.756 l 191.055 97.498 264.246
 89.577 264.246 89.577 c 264.246 122.952 l h
145.355 122.955 m f
0.654902 0.678431 0.941176 rg
358.793 101.428 m 50.809 101.428 l 22.746 101.428 0 124.174 0 152.237 c
 0 340.983 l 0 369.041 22.746 391.791 50.809 391.791 c 358.793 391.791 l
 386.852 391.791 409.602 369.041 409.602 340.983 c 409.602 152.237 l 409.602
 124.174 386.852 101.428 358.793 101.428 c h
358.793 101.428 m f
0.486275 0.517647 0.909804 rg
88.055 152.237 m 88.055 340.983 l 88.055 369.041 110.801 391.791 138.863
 391.791 c 50.809 391.791 l 22.746 391.791 0 369.041 0 340.983 c 0 152.237
 l 0 124.174 22.746 101.428 50.809 101.428 c 138.863 101.428 l 110.801 101.428
 88.055 124.174 88.055 152.237 c h
88.055 152.237 m f
314.363 217.155 m 311.949 219.569 311.949 223.483 314.363 225.897 c 350.512
 262.045 l 352.926 264.455 356.84 264.455 359.254 262.045 c 361.668 259.631
 361.668 255.717 359.254 253.303 c 323.105 217.155 l 319.551 213.823 315.57
 215.948 314.363 217.155 c h
314.363 217.155 m f
340.867 206.397 m 338.453 208.811 338.453 212.725 340.867 215.139 c 354.617
 228.885 l 357.031 231.299 360.945 231.299 363.355 228.885 c 365.77 226.471
 365.77 222.557 363.355 220.143 c 349.609 206.397 l 345.816 202.866 342.074
 205.19 340.867 206.397 c h
340.867 206.397 m f
0.341176 0.337255 0.360784 rg
271.273 254.729 m 267.859 254.729 265.094 257.495 265.094 260.909 c 265.094
 271.17 l 265.094 274.584 267.859 277.354 271.273 277.354 c 274.688 277.354
 277.453 274.584 277.453 271.17 c 277.453 260.909 l 277.453 257.498 274.688
 254.729 271.273 254.729 c h
271.273 254.729 m f
138.328 254.729 m 134.914 254.729 132.145 257.495 132.145 260.909 c 132.145
 271.17 l 132.145 274.584 134.914 277.354 138.328 277.354 c 141.742 277.354
 144.508 274.584 144.508 271.17 c 144.508 260.909 l 144.508 257.498 141.742
 254.729 138.328 254.729 c h
138.328 254.729 m f
204.801 248.256 m 196.801 248.256 188.801 250.846 182.125 256.022 c 179.426
 258.116 178.938 261.998 181.031 264.698 c 183.121 267.393 187.004 267.885
 189.703 265.791 c 198.594 258.897 211.008 258.897 219.898 265.791 c 222.594
 267.885 226.48 267.393 228.57 264.698 c 230.664 261.998 230.172 258.116
 227.477 256.022 c 220.801 250.846 212.801 248.256 204.801 248.256 c h
204.801 248.256 m f
0.792157 0.905882 0.988235 rg
0 184.627 m 0 152.237 l 0 124.174 22.746 101.428 50.809 101.428 c 358.793
 101.428 l 386.852 101.428 409.602 124.174 409.602 152.237 c 409.602 184.627
 l h
0 184.627 m f
0.580392 0.796078 0.929412 rg
0 152.237 m 0 124.174 22.746 101.428 50.809 101.428 c 138.863 101.428 l
 110.801 101.428 88.055 124.174 88.055 152.237 c 88.055 184.627 l 0 184.627
 l h
0 152.237 m f
0.792157 0.905882 0.988235 rg
273.906 17.811 m 135.695 17.811 l 125.273 17.811 116.746 26.334 116.746
 36.756 c 116.746 47.178 125.273 55.705 135.695 55.705 c 273.902 55.705 
l 284.324 55.705 292.852 47.178 292.852 36.756 c 292.855 26.334 284.328 
17.811 273.906 17.811 c h
273.906 17.811 m f
0.580392 0.796078 0.929412 rg
166.406 36.756 m 166.406 47.178 174.93 55.705 185.352 55.705 c 135.695 
55.705 l 125.273 55.705 116.746 47.178 116.746 36.756 c 116.746 26.334 125.273
 17.811 135.695 17.811 c 185.352 17.811 l 174.93 17.811 166.406 26.334 166.406
 36.756 c h
166.406 36.756 m f
Q Q
showpage
%%Trailer
end restore
%%EOF
