%!PS-Adobe-3.0 EPSF-3.0
%%Creator: cairo 1.14.2 (http://cairographics.org)
%%CreationDate: Fri Dec 29 09:04:44 2017
%%Pages: 1
%%DocumentData: Clean7Bit
%%LanguageLevel: 2
%%BoundingBox: 26 -1 384 410
%%EndComments
%%BeginProlog
save
50 dict begin
/q { gsave } bind def
/Q { grestore } bind def
/cm { 6 array astore concat } bind def
/w { setlinewidth } bind def
/J { setlinecap } bind def
/j { setlinejoin } bind def
/M { setmiterlimit } bind def
/d { setdash } bind def
/m { moveto } bind def
/l { lineto } bind def
/c { curveto } bind def
/h { closepath } bind def
/re { exch dup neg 3 1 roll 5 3 roll moveto 0 rlineto
      0 exch rlineto 0 rlineto closepath } bind def
/S { stroke } bind def
/f { fill } bind def
/f* { eofill } bind def
/n { newpath } bind def
/W { clip } bind def
/W* { eoclip } bind def
/BT { } bind def
/ET { } bind def
/pdfmark where { pop globaldict /?pdfmark /exec load put }
    { globaldict begin /?pdfmark /pop load def /pdfmark
    /cleartomark load def end } ifelse
/BDC { mark 3 1 roll /BDC pdfmark } bind def
/EMC { mark /EMC pdfmark } bind def
/cairo_store_point { /cairo_point_y exch def /cairo_point_x exch def } def
/Tj { show currentpoint cairo_store_point } bind def
/TJ {
  {
    dup
    type /stringtype eq
    { show } { -0.001 mul 0 cairo_font_matrix dtransform rmoveto } ifelse
  } forall
  currentpoint cairo_store_point
} bind def
/cairo_selectfont { cairo_font_matrix aload pop pop pop 0 0 6 array astore
    cairo_font exch selectfont cairo_point_x cairo_point_y moveto } bind def
/Tf { pop /cairo_font exch def /cairo_font_matrix where
      { pop cairo_selectfont } if } bind def
/Td { matrix translate cairo_font_matrix matrix concatmatrix dup
      /cairo_font_matrix exch def dup 4 get exch 5 get cairo_store_point
      /cairo_font where { pop cairo_selectfont } if } bind def
/Tm { 2 copy 8 2 roll 6 array astore /cairo_font_matrix exch def
      cairo_store_point /cairo_font where { pop cairo_selectfont } if } bind def
/g { setgray } bind def
/rg { setrgbcolor } bind def
/d1 { setcachedevice } bind def
%%EndProlog
%%BeginSetup
%%EndSetup
%%Page: 1 1
%%BeginPageSetup
%%PageBoundingBox: 26 -1 384 410
%%EndPageSetup
q 26 -1 358 411 rectclip q
0.580392 0.796078 0.929412 rg
263.359 -0.002 m 232.539 -0.002 207.469 25.073 207.469 55.889 c 207.469
 59.256 210.191 61.979 213.559 61.979 c 216.922 61.979 219.645 59.256 219.645
 55.889 c 219.645 31.788 239.254 12.178 263.359 12.178 c 287.461 12.178 
307.07 31.788 307.07 55.889 c 307.07 106.28 l 307.07 109.643 309.797 112.366
 313.16 112.366 c 316.523 112.366 319.25 109.643 319.25 106.28 c 319.25 
55.889 l 319.25 25.073 294.176 -0.002 263.359 -0.002 c h
263.359 -0.002 m f
0.792157 0.905882 0.988235 rg
318.863 88.08 m 307.457 88.08 l 299.629 88.08 293.281 94.428 293.281 102.256
 c 293.281 240.291 l 333.039 240.291 l 333.039 102.256 l 333.039 94.428 
326.691 88.08 318.863 88.08 c h
318.863 88.08 m f
0.45098 0.717647 0.866667 rg
293.281 159.455 m 298.188 166.463 304.676 171.83 313.16 172.409 c 321.289
 172.963 327.848 175.448 333.039 178.612 c 333.039 240.291 l 293.281 240.291
 l h
293.281 159.455 m f
0.913725 0.964706 1 rg
310.113 346.209 m 290.543 346.209 266.082 338.502 246.094 325.959 c 233.523
 318.069 225.996 304.166 225.996 289.319 c 225.996 257.178 l 225.996 242.334
 233.523 228.432 246.094 220.541 c 266.082 207.995 290.543 200.288 310.113
 200.288 c 350.41 200.288 383.074 232.955 383.074 273.248 c 383.074 313.545
 350.41 346.209 310.113 346.209 c h
310.113 346.209 m f
0.470588 0.462745 0.501961 rg
335.348 273.252 m 304.535 273.252 l 296.812 273.252 290.496 279.569 290.496
 287.288 c 290.496 295.01 296.812 301.327 304.535 301.327 c 335.348 301.327
 l 343.066 301.327 349.387 295.01 349.387 287.288 c 349.387 279.569 343.07
 273.252 335.348 273.252 c h
335.348 273.252 m f
0.792157 0.905882 0.988235 rg
363.305 323.19 m 364.953 316.174 365.832 308.846 365.832 301.327 c 365.832
 250.705 326.273 209.319 276.41 206.311 c 288.074 202.448 299.797 200.291
 310.113 200.291 c 350.41 200.291 383.074 232.955 383.074 273.252 c 383.074
 292.569 375.562 310.139 363.305 323.19 c h
363.305 323.19 m f
0.580392 0.796078 0.929412 rg
82.414 63.389 m 51.598 63.389 26.523 88.459 26.523 119.28 c 26.523 122.643
 29.25 125.37 32.613 125.37 c 35.977 125.37 38.703 122.643 38.703 119.28
 c 38.703 95.174 58.312 75.565 82.414 75.565 c 106.52 75.565 126.129 95.174
 126.129 119.28 c 126.129 169.666 l 126.129 173.03 128.852 175.756 132.215
 175.756 c 135.578 175.756 138.305 173.03 138.305 169.666 c 138.305 119.28
 l 138.305 88.459 113.234 63.389 82.414 63.389 c h
82.414 63.389 m f
0.792157 0.905882 0.988235 rg
137.922 151.471 m 126.516 151.471 l 118.688 151.471 112.34 157.819 112.34
 165.647 c 112.34 303.678 l 152.094 303.678 l 152.094 165.647 l 152.094 
157.819 145.75 151.471 137.922 151.471 c h
137.922 151.471 m f
0.45098 0.717647 0.866667 rg
112.34 222.842 m 117.242 229.85 123.734 235.217 132.219 235.795 c 140.344
 236.35 146.906 238.834 152.094 241.998 c 152.094 303.678 l 112.34 303.678
 l h
112.34 222.842 m f
0.913725 0.964706 1 rg
129.172 409.6 m 109.602 409.6 85.137 401.893 65.152 389.346 c 52.578 381.455
 45.055 367.553 45.055 352.709 c 45.055 320.569 l 45.055 305.725 52.578 
291.823 65.152 283.928 c 85.137 271.385 109.602 263.678 129.172 263.678 
c 169.469 263.678 202.133 296.342 202.133 336.639 c 202.133 376.932 169.469
 409.6 129.172 409.6 c h
129.172 409.6 m f
0.792157 0.905882 0.988235 rg
182.363 386.58 m 184.012 379.561 184.891 372.237 184.891 364.717 c 184.891
 314.096 145.328 272.709 95.465 269.702 c 107.129 265.834 118.855 263.678
 129.172 263.678 c 169.469 263.678 202.133 296.342 202.133 336.639 c 202.133
 355.959 194.621 373.526 182.363 386.58 c h
182.363 386.58 m f
0.470588 0.462745 0.501961 rg
154.406 336.639 m 123.59 336.639 l 115.871 336.639 109.555 342.955 109.555
 350.678 c 109.555 358.397 115.871 364.717 123.59 364.717 c 154.406 364.717
 l 162.125 364.717 168.441 358.397 168.441 350.678 c 168.441 342.955 162.125
 336.639 154.406 336.639 c h
154.406 336.639 m f
Q Q
showpage
%%Trailer
end restore
%%EOF
