%!PS-Adobe-3.0 EPSF-3.0
%%Creator: cairo 1.14.2 (http://cairographics.org)
%%CreationDate: Fri Dec 29 09:04:44 2017
%%Pages: 1
%%DocumentData: Clean7Bit
%%LanguageLevel: 2
%%BoundingBox: 0 34 410 376
%%EndComments
%%BeginProlog
save
50 dict begin
/q { gsave } bind def
/Q { grestore } bind def
/cm { 6 array astore concat } bind def
/w { setlinewidth } bind def
/J { setlinecap } bind def
/j { setlinejoin } bind def
/M { setmiterlimit } bind def
/d { setdash } bind def
/m { moveto } bind def
/l { lineto } bind def
/c { curveto } bind def
/h { closepath } bind def
/re { exch dup neg 3 1 roll 5 3 roll moveto 0 rlineto
      0 exch rlineto 0 rlineto closepath } bind def
/S { stroke } bind def
/f { fill } bind def
/f* { eofill } bind def
/n { newpath } bind def
/W { clip } bind def
/W* { eoclip } bind def
/BT { } bind def
/ET { } bind def
/pdfmark where { pop globaldict /?pdfmark /exec load put }
    { globaldict begin /?pdfmark /pop load def /pdfmark
    /cleartomark load def end } ifelse
/BDC { mark 3 1 roll /BDC pdfmark } bind def
/EMC { mark /EMC pdfmark } bind def
/cairo_store_point { /cairo_point_y exch def /cairo_point_x exch def } def
/Tj { show currentpoint cairo_store_point } bind def
/TJ {
  {
    dup
    type /stringtype eq
    { show } { -0.001 mul 0 cairo_font_matrix dtransform rmoveto } ifelse
  } forall
  currentpoint cairo_store_point
} bind def
/cairo_selectfont { cairo_font_matrix aload pop pop pop 0 0 6 array astore
    cairo_font exch selectfont cairo_point_x cairo_point_y moveto } bind def
/Tf { pop /cairo_font exch def /cairo_font_matrix where
      { pop cairo_selectfont } if } bind def
/Td { matrix translate cairo_font_matrix matrix concatmatrix dup
      /cairo_font_matrix exch def dup 4 get exch 5 get cairo_store_point
      /cairo_font where { pop cairo_selectfont } if } bind def
/Tm { 2 copy 8 2 roll 6 array astore /cairo_font_matrix exch def
      cairo_store_point /cairo_font where { pop cairo_selectfont } if } bind def
/g { setgray } bind def
/rg { setrgbcolor } bind def
/d1 { setcachedevice } bind def
%%EndProlog
%%BeginSetup
%%EndSetup
%%Page: 1 1
%%BeginPageSetup
%%PageBoundingBox: 0 34 410 376
%%EndPageSetup
q 0 34 410 342 rectclip q
0.580392 0.796078 0.929412 rg
41.52 34.913 m 368.078 34.913 l 391.012 34.913 409.602 53.502 409.602 76.436
 c 409.602 333.166 l 409.602 356.096 391.012 374.686 368.078 374.686 c 41.52
 374.686 l 18.59 374.686 0 356.096 0 333.166 c 0 76.436 l 0 53.502 18.59
 34.913 41.52 34.913 c h
41.52 34.913 m f
0.45098 0.717647 0.866667 rg
41.52 374.686 m 18.59 374.686 0 356.096 0 333.166 c 0 76.436 l 0 53.502
 18.59 34.913 41.52 34.913 c 235.875 34.913 l 112.398 118.1 129.133 314.909
 137.438 374.686 c h
41.52 374.686 m f
0.792157 0.905882 0.988235 rg
66.277 374.686 m 41.52 374.686 l 18.59 374.686 0 356.096 0 333.166 c 0 
76.436 l 0 53.502 18.59 34.913 41.52 34.913 c 66.281 34.913 l 66.281 374.686
 l h
66.277 374.686 m f
1 0.960784 0.8 rg
382.98 204.799 m 382.98 124.627 317.988 59.635 237.816 59.635 c 157.645
 59.635 92.652 124.627 92.652 204.799 c 92.652 284.971 157.645 349.963 237.816
 349.963 c 317.988 349.963 382.98 284.971 382.98 204.799 c h
382.98 204.799 m f
1 0.854902 0.560784 rg
131.848 304.022 m 107.539 278.069 92.645 243.166 92.645 204.799 c 92.645
 137.034 139.09 80.112 201.875 64.116 c 140.938 130.123 130.246 231.448 
131.848 304.022 c h
131.848 304.022 m f
255.379 110.495 m 254.539 113.803 256.539 117.166 259.848 118.006 c 275.652
 122.018 290.094 130.33 301.617 142.045 c 313.152 153.768 321.227 168.362
 324.973 184.245 c 325.758 187.569 329.09 189.623 332.406 188.842 c 335.73
 188.057 337.789 184.729 337.004 181.409 c 332.738 163.323 323.551 146.709
 310.43 133.373 c 297.32 120.049 280.875 110.631 262.895 106.022 c 259.113
 105.053 256.09 107.694 255.379 110.495 c h
255.379 110.495 m f
237.812 78.178 m 234.398 78.178 231.633 80.944 231.633 84.358 c 231.633
 87.772 234.398 90.538 237.812 90.538 c 300.82 90.538 352.074 141.795 352.074
 204.799 c 352.074 208.213 354.844 210.979 358.258 210.979 c 361.672 210.979
 364.438 208.213 364.438 204.799 c 364.438 134.979 307.633 78.178 237.812
 78.178 c h
237.812 78.178 m f
0.976471 0.705882 0.227451 rg
293.496 204.799 m 293.496 174.049 268.566 149.12 237.816 149.12 c 207.062
 149.12 182.137 174.049 182.137 204.799 c 182.137 235.549 207.062 260.479
 237.816 260.479 c 268.566 260.479 293.496 235.549 293.496 204.799 c h
293.496 204.799 m f
0.537255 0.533333 0.564706 rg
254.43 204.799 m 254.43 195.623 246.992 188.186 237.816 188.186 c 228.641
 188.186 221.199 195.623 221.199 204.799 c 221.199 213.975 228.641 221.413
 237.816 221.413 c 246.992 221.413 254.43 213.975 254.43 204.799 c h
254.43 204.799 m f
Q Q
showpage
%%Trailer
end restore
%%EOF
