%!PS-Adobe-3.0 EPSF-3.0
%%Creator: cairo 1.14.2 (http://cairographics.org)
%%CreationDate: Fri Dec 29 09:04:44 2017
%%Pages: 1
%%DocumentData: Clean7Bit
%%LanguageLevel: 2
%%BoundingBox: 0 2 410 408
%%EndComments
%%BeginProlog
save
50 dict begin
/q { gsave } bind def
/Q { grestore } bind def
/cm { 6 array astore concat } bind def
/w { setlinewidth } bind def
/J { setlinecap } bind def
/j { setlinejoin } bind def
/M { setmiterlimit } bind def
/d { setdash } bind def
/m { moveto } bind def
/l { lineto } bind def
/c { curveto } bind def
/h { closepath } bind def
/re { exch dup neg 3 1 roll 5 3 roll moveto 0 rlineto
      0 exch rlineto 0 rlineto closepath } bind def
/S { stroke } bind def
/f { fill } bind def
/f* { eofill } bind def
/n { newpath } bind def
/W { clip } bind def
/W* { eoclip } bind def
/BT { } bind def
/ET { } bind def
/pdfmark where { pop globaldict /?pdfmark /exec load put }
    { globaldict begin /?pdfmark /pop load def /pdfmark
    /cleartomark load def end } ifelse
/BDC { mark 3 1 roll /BDC pdfmark } bind def
/EMC { mark /EMC pdfmark } bind def
/cairo_store_point { /cairo_point_y exch def /cairo_point_x exch def } def
/Tj { show currentpoint cairo_store_point } bind def
/TJ {
  {
    dup
    type /stringtype eq
    { show } { -0.001 mul 0 cairo_font_matrix dtransform rmoveto } ifelse
  } forall
  currentpoint cairo_store_point
} bind def
/cairo_selectfont { cairo_font_matrix aload pop pop pop 0 0 6 array astore
    cairo_font exch selectfont cairo_point_x cairo_point_y moveto } bind def
/Tf { pop /cairo_font exch def /cairo_font_matrix where
      { pop cairo_selectfont } if } bind def
/Td { matrix translate cairo_font_matrix matrix concatmatrix dup
      /cairo_font_matrix exch def dup 4 get exch 5 get cairo_store_point
      /cairo_font where { pop cairo_selectfont } if } bind def
/Tm { 2 copy 8 2 roll 6 array astore /cairo_font_matrix exch def
      cairo_store_point /cairo_font where { pop cairo_selectfont } if } bind def
/g { setgray } bind def
/rg { setrgbcolor } bind def
/d1 { setcachedevice } bind def
%%EndProlog
%%BeginSetup
%%EndSetup
%%Page: 1 1
%%BeginPageSetup
%%PageBoundingBox: 0 2 410 408
%%EndPageSetup
q 0 2 410 406 rectclip q
0.819608 0.258824 0.258824 rg
327.586 346.959 m 78.062 346.959 l 51.973 346.959 30.82 325.811 30.82 299.721
 c 30.82 219.35 l 374.824 219.35 l 374.824 299.721 l 374.824 325.811 353.676
 346.959 327.586 346.959 c h
134.883 251.541 m 117.598 251.541 103.586 265.553 103.586 282.838 c 103.586
 300.123 117.598 314.135 134.883 314.135 c 152.168 314.135 166.18 300.123
 166.18 282.838 c 166.18 265.553 152.168 251.541 134.883 251.541 c h
270.762 251.541 m 253.477 251.541 239.469 265.553 239.469 282.838 c 239.469
 300.123 253.48 314.135 270.762 314.135 c 288.047 314.135 302.059 300.123
 302.059 282.838 c 302.059 265.553 288.047 251.541 270.762 251.541 c h
270.762 251.541 m f
0.580392 0.796078 0.929412 rg
362.359 346.959 m 277.324 346.959 l 277.324 2.959 l 362.359 2.959 l 388.449
 2.959 409.598 24.108 409.598 50.198 c 409.598 299.721 l 409.602 325.811
 388.449 346.959 362.359 346.959 c h
362.359 346.959 m f
0.913725 0.964706 1 rg
296.766 346.959 m 47.238 346.959 l 21.152 346.959 0 325.811 0 299.721 c
 0 50.198 l 0 24.108 21.152 2.959 47.238 2.959 c 296.762 2.959 l 322.852
 2.959 344.004 24.108 344.004 50.198 c 344.004 299.721 l 344.004 325.811
 322.852 346.959 296.766 346.959 c h
104.062 251.541 m 86.777 251.541 72.766 265.553 72.766 282.838 c 72.766
 300.123 86.777 314.135 104.062 314.135 c 121.348 314.135 135.359 300.123
 135.359 282.838 c 135.359 265.553 121.344 251.541 104.062 251.541 c h
239.941 251.541 m 222.656 251.541 208.645 265.553 208.645 282.838 c 208.645
 300.123 222.656 314.135 239.941 314.135 c 257.227 314.135 271.238 300.123
 271.238 282.838 c 271.238 265.553 257.227 251.541 239.941 251.541 c h
239.941 251.541 m f
0.792157 0.905882 0.988235 rg
296.766 346.959 m 212.922 346.959 l 236.461 346.959 255.973 329.741 259.562
 307.213 c 266.68 301.475 271.238 292.694 271.238 282.838 c 271.238 273.264
 266.934 264.698 260.16 258.955 c 260.16 50.194 l 260.16 24.104 239.008 
2.955 212.922 2.955 c 296.762 2.955 l 322.852 2.955 344.004 24.108 344.004
 50.194 c 344.004 299.721 l 344.004 325.811 322.852 346.959 296.766 346.959
 c h
296.766 346.959 m f
0.341176 0.337255 0.360784 rg
156.473 123.205 m 132.957 138.01 l 124.613 143.264 121.594 154.225 126.543
 162.752 c 131.746 171.702 143.281 174.487 151.965 169.018 c 163.918 161.491
 l 168.84 158.393 175.102 158.393 180.023 161.491 c 191.977 169.018 l 200.477
 174.37 211.699 171.819 217.055 163.319 c 222.402 154.819 219.852 143.592
 211.355 138.241 c 187.469 123.202 l 178 117.241 165.945 117.241 156.473
 123.205 c h
156.473 123.205 m f
1 0.45098 0.490196 rg
198.633 130.229 m 195.203 138.932 184.582 145.276 172.008 145.276 c 159.418
 145.276 148.789 138.916 145.371 130.198 c 156.477 123.205 l 165.949 117.241
 178.004 117.241 187.477 123.205 c h
198.633 130.229 m f
0.341176 0.337255 0.360784 rg
237.516 159.17 m 234.148 159.17 231.422 161.901 231.422 165.264 c 231.422
 175.377 l 231.422 178.741 234.148 181.467 237.516 181.467 c 240.879 181.467
 243.605 178.741 243.605 175.377 c 243.605 165.264 l 243.605 161.897 240.879
 159.17 237.516 159.17 c h
237.516 159.17 m f
106.488 159.17 m 103.125 159.17 100.398 161.901 100.398 165.264 c 100.398
 175.377 l 100.398 178.741 103.125 181.467 106.488 181.467 c 109.855 181.467
 112.582 178.741 112.582 175.377 c 112.582 165.264 l 112.582 161.897 109.855
 159.17 106.488 159.17 c h
106.488 159.17 m f
1 0.45098 0.490196 rg
84.91 136.534 m 68.734 136.534 l 63.441 136.534 59.113 140.866 59.113 146.159
 c 59.113 151.448 63.441 155.78 68.734 155.78 c 84.91 155.78 l 90.203 155.78
 94.531 151.448 94.531 146.159 c 94.531 140.866 90.203 136.534 84.91 136.534
 c h
84.91 136.534 m f
275.27 136.534 m 259.094 136.534 l 253.801 136.534 249.473 140.866 249.473
 146.159 c 249.473 151.448 253.801 155.78 259.094 155.78 c 275.27 155.78
 l 280.562 155.78 284.891 151.448 284.891 146.159 c 284.891 140.866 280.562
 136.534 275.27 136.534 c h
275.27 136.534 m f
0.819608 0.258824 0.258824 rg
362.359 346.959 m 277.324 346.959 l 277.324 219.35 l 409.602 219.35 l 409.602
 299.721 l 409.602 325.811 388.449 346.959 362.359 346.959 c h
362.359 346.959 m f
1 0.45098 0.490196 rg
296.766 346.959 m 285.977 350.256 l 275.539 346.959 l 222.52 346.959 l 
210.434 350.256 l 198.07 346.959 l 166.066 346.959 l 152.879 351.08 l 141.34
 346.959 l 47.238 346.959 l 21.152 346.959 0 325.811 0 299.721 c 0 219.35
 l 344.004 219.35 l 344.004 299.721 l 344.004 325.811 322.852 346.959 296.766
 346.959 c h
104.062 251.541 m 86.777 251.541 72.766 265.553 72.766 282.838 c 72.766
 300.123 86.777 314.135 104.062 314.135 c 121.348 314.135 135.359 300.123
 135.359 282.838 c 135.359 265.553 121.344 251.541 104.062 251.541 c h
239.941 251.541 m 222.656 251.541 208.645 265.553 208.645 282.838 c 208.645
 300.123 222.656 314.135 239.941 314.135 c 257.227 314.135 271.238 300.123
 271.238 282.838 c 271.238 265.553 257.227 251.541 239.941 251.541 c h
239.941 251.541 m f
0.956863 0.32549 0.32549 rg
344.004 299.721 m 344.004 325.811 322.852 346.959 296.766 346.959 c 212.922
 346.959 l 236.461 346.959 255.969 329.741 259.562 307.213 c 266.68 301.479
 271.238 292.694 271.238 282.838 c 271.238 273.264 266.934 264.698 260.16
 258.959 c 260.16 219.35 l 344.004 219.35 l h
344.004 299.721 m f
0.792157 0.905882 0.988235 rg
135.359 282.838 m 135.359 288.174 134.02 293.205 131.664 297.6 c 128.352
 293.135 122.562 287.276 114.992 287.276 c 106.387 287.276 100.094 294.819
 97.105 299.315 c 91.023 308.479 87.531 321.405 87.531 334.776 c 87.531 
348.151 91.023 361.077 97.105 370.237 c 100.094 374.733 106.387 382.276 
114.992 382.276 c 123.594 382.276 129.887 374.733 132.871 370.237 c 137.074
 363.909 140.039 355.788 141.473 346.963 c 166.102 346.963 l 162.043 381.26
 141.051 406.643 114.992 406.643 c 85.93 406.643 63.164 375.077 63.164 334.776
 c 63.164 294.479 85.93 262.913 114.992 262.913 c 120.398 262.913 125.617
 264.018 130.48 266.057 c 133.578 270.913 135.359 276.655 135.359 282.838
 c h
135.359 282.838 m f
248.965 382.276 m 257.566 382.276 263.859 374.733 266.844 370.237 c 271.047
 363.909 274.012 355.788 275.445 346.963 c 300.074 346.963 l 296.012 381.26
 275.023 406.643 248.965 406.643 c 219.902 406.643 197.137 375.077 197.137
 334.776 c 197.137 294.479 219.902 262.913 248.965 262.913 c 255.367 262.913
 261.469 264.448 267.086 267.268 c 269.723 271.854 271.238 277.17 271.238
 282.838 c 271.238 288.791 269.574 294.354 266.691 299.088 c 263.648 294.573
 257.426 287.28 248.965 287.28 c 240.363 287.28 234.066 294.823 231.082 
299.319 c 224.996 308.479 221.504 321.405 221.504 334.78 c 221.504 348.151
 224.996 361.077 231.082 370.241 c 234.066 374.733 240.359 382.276 248.965
 382.276 c h
248.965 382.276 m f
Q Q
showpage
%%Trailer
end restore
%%EOF
