%!PS-Adobe-3.0 EPSF-3.0
%%Creator: cairo 1.14.2 (http://cairographics.org)
%%CreationDate: Fri Dec 29 09:04:44 2017
%%Pages: 1
%%DocumentData: Clean7Bit
%%LanguageLevel: 2
%%BoundingBox: 0 25 410 385
%%EndComments
%%BeginProlog
save
50 dict begin
/q { gsave } bind def
/Q { grestore } bind def
/cm { 6 array astore concat } bind def
/w { setlinewidth } bind def
/J { setlinecap } bind def
/j { setlinejoin } bind def
/M { setmiterlimit } bind def
/d { setdash } bind def
/m { moveto } bind def
/l { lineto } bind def
/c { curveto } bind def
/h { closepath } bind def
/re { exch dup neg 3 1 roll 5 3 roll moveto 0 rlineto
      0 exch rlineto 0 rlineto closepath } bind def
/S { stroke } bind def
/f { fill } bind def
/f* { eofill } bind def
/n { newpath } bind def
/W { clip } bind def
/W* { eoclip } bind def
/BT { } bind def
/ET { } bind def
/pdfmark where { pop globaldict /?pdfmark /exec load put }
    { globaldict begin /?pdfmark /pop load def /pdfmark
    /cleartomark load def end } ifelse
/BDC { mark 3 1 roll /BDC pdfmark } bind def
/EMC { mark /EMC pdfmark } bind def
/cairo_store_point { /cairo_point_y exch def /cairo_point_x exch def } def
/Tj { show currentpoint cairo_store_point } bind def
/TJ {
  {
    dup
    type /stringtype eq
    { show } { -0.001 mul 0 cairo_font_matrix dtransform rmoveto } ifelse
  } forall
  currentpoint cairo_store_point
} bind def
/cairo_selectfont { cairo_font_matrix aload pop pop pop 0 0 6 array astore
    cairo_font exch selectfont cairo_point_x cairo_point_y moveto } bind def
/Tf { pop /cairo_font exch def /cairo_font_matrix where
      { pop cairo_selectfont } if } bind def
/Td { matrix translate cairo_font_matrix matrix concatmatrix dup
      /cairo_font_matrix exch def dup 4 get exch 5 get cairo_store_point
      /cairo_font where { pop cairo_selectfont } if } bind def
/Tm { 2 copy 8 2 roll 6 array astore /cairo_font_matrix exch def
      cairo_store_point /cairo_font where { pop cairo_selectfont } if } bind def
/g { setgray } bind def
/rg { setrgbcolor } bind def
/d1 { setcachedevice } bind def
%%EndProlog
%%BeginSetup
%%EndSetup
%%Page: 1 1
%%BeginPageSetup
%%PageBoundingBox: 0 25 410 385
%%EndPageSetup
q 0 25 410 360 rectclip q
0.486275 0.517647 0.909804 rg
409.602 204.799 m 409.602 105.92 329.441 25.764 230.562 25.764 c 179.035
 25.764 l 179.035 383.838 l 230.562 383.838 l 329.441 383.838 409.602 303.678
 409.602 204.799 c h
409.602 204.799 m f
0.654902 0.678431 0.941176 rg
358.074 204.799 m 358.074 105.92 277.918 25.764 179.039 25.764 c 80.156
 25.764 0 105.92 0 204.799 c 0 303.678 80.156 383.838 179.039 383.838 c 
277.918 383.838 358.074 303.678 358.074 204.799 c h
358.074 204.799 m f
0.6 0.623529 0.929412 rg
179.039 383.838 m 178.777 383.838 295.473 325.467 295.473 204.799 c 295.473
 84.131 178.777 25.764 179.039 25.764 c 277.918 25.764 358.074 105.92 358.074
 204.799 c 358.074 303.678 277.918 383.838 179.039 383.838 c h
179.039 383.838 m f
0.913725 0.964706 1 rg
179.039 71.069 m 104.934 71.069 44.645 131.354 44.645 205.459 c 44.645 
279.561 104.934 339.85 179.039 339.85 c 253.141 339.85 313.43 279.561 313.43
 205.459 c 313.43 131.358 253.141 71.069 179.039 71.069 c h
179.039 71.069 m f
0.792157 0.905882 0.988235 rg
101.234 205.459 m 101.234 269.858 146.793 323.819 207.355 336.846 c 198.227
 338.811 188.742 339.85 179.035 339.85 c 104.934 339.85 44.645 279.561 44.645
 205.459 c 44.645 131.354 104.934 71.069 179.035 71.069 c 188.742 71.069
 198.227 72.104 207.355 74.069 c 146.793 87.1 101.234 141.061 101.234 205.459
 c h
101.234 205.459 m f
0.988235 0.823529 0.427451 rg
254.035 171.647 m 189.566 218.881 l 168.535 190.698 l 233.254 143.284 l
 241.055 137.569 252.113 139.276 257.828 147.077 c 263.543 154.877 261.836
 165.936 254.035 171.647 c h
254.035 171.647 m f
1 0.768627 0.466667 rg
196.621 204.799 m 196.621 267.967 l 196.621 277.635 188.707 285.549 179.035
 285.549 c 169.367 285.549 161.453 277.635 161.453 267.967 c 161.453 204.799
 l h
196.621 204.799 m f
1 0.45098 0.490196 rg
200.531 204.799 m 200.531 192.928 190.906 183.307 179.039 183.307 c 167.168
 183.307 157.543 192.928 157.543 204.799 c 157.543 216.67 167.168 226.295
 179.039 226.295 c 190.906 226.295 200.531 216.67 200.531 204.799 c h
200.531 204.799 m f
Q Q
showpage
%%Trailer
end restore
%%EOF
