%!PS-Adobe-3.0 EPSF-3.0
%%Creator: cairo 1.14.2 (http://cairographics.org)
%%CreationDate: Fri Dec 29 09:04:44 2017
%%Pages: 1
%%DocumentData: Clean7Bit
%%LanguageLevel: 2
%%BoundingBox: 15 -1 395 410
%%EndComments
%%BeginProlog
save
50 dict begin
/q { gsave } bind def
/Q { grestore } bind def
/cm { 6 array astore concat } bind def
/w { setlinewidth } bind def
/J { setlinecap } bind def
/j { setlinejoin } bind def
/M { setmiterlimit } bind def
/d { setdash } bind def
/m { moveto } bind def
/l { lineto } bind def
/c { curveto } bind def
/h { closepath } bind def
/re { exch dup neg 3 1 roll 5 3 roll moveto 0 rlineto
      0 exch rlineto 0 rlineto closepath } bind def
/S { stroke } bind def
/f { fill } bind def
/f* { eofill } bind def
/n { newpath } bind def
/W { clip } bind def
/W* { eoclip } bind def
/BT { } bind def
/ET { } bind def
/pdfmark where { pop globaldict /?pdfmark /exec load put }
    { globaldict begin /?pdfmark /pop load def /pdfmark
    /cleartomark load def end } ifelse
/BDC { mark 3 1 roll /BDC pdfmark } bind def
/EMC { mark /EMC pdfmark } bind def
/cairo_store_point { /cairo_point_y exch def /cairo_point_x exch def } def
/Tj { show currentpoint cairo_store_point } bind def
/TJ {
  {
    dup
    type /stringtype eq
    { show } { -0.001 mul 0 cairo_font_matrix dtransform rmoveto } ifelse
  } forall
  currentpoint cairo_store_point
} bind def
/cairo_selectfont { cairo_font_matrix aload pop pop pop 0 0 6 array astore
    cairo_font exch selectfont cairo_point_x cairo_point_y moveto } bind def
/Tf { pop /cairo_font exch def /cairo_font_matrix where
      { pop cairo_selectfont } if } bind def
/Td { matrix translate cairo_font_matrix matrix concatmatrix dup
      /cairo_font_matrix exch def dup 4 get exch 5 get cairo_store_point
      /cairo_font where { pop cairo_selectfont } if } bind def
/Tm { 2 copy 8 2 roll 6 array astore /cairo_font_matrix exch def
      cairo_store_point /cairo_font where { pop cairo_selectfont } if } bind def
/g { setgray } bind def
/rg { setrgbcolor } bind def
/d1 { setcachedevice } bind def
%%EndProlog
%%BeginSetup
%%EndSetup
%%Page: 1 1
%%BeginPageSetup
%%PageBoundingBox: 15 -1 395 410
%%EndPageSetup
q 15 -1 380 411 rectclip q
0.819608 0.258824 0.258824 rg
356.84 -0.001 m 113.938 -0.001 l 113.938 409.601 l 356.84 409.601 l 377.379
 409.601 394.031 392.948 394.031 372.409 c 394.031 37.191 l 394.031 16.652
 377.379 -0.001 356.84 -0.001 c h
356.84 -0.001 m f
0.341176 0.337255 0.360784 rg
301.41 221.995 m 273.609 221.995 l 268.188 221.976 265.062 220.554 265.145
 216.132 c 265.406 201.691 268.48 175.277 287.508 175.277 c 306.539 175.277
 309.613 201.691 309.875 216.132 c 309.953 220.554 306.832 221.976 301.41
 221.995 c h
301.41 221.995 m f
0.913725 0.964706 1 rg
287.508 198.859 m 279.859 198.859 273.055 196.195 268.664 192.054 c 271.727
 182.823 277.34 175.273 287.508 175.273 c 297.68 175.273 303.293 182.823
 306.355 192.054 c 301.965 196.195 295.16 198.859 287.508 198.859 c h
287.508 198.859 m f
0.341176 0.337255 0.360784 rg
353.98 211.702 m 350.566 211.702 347.801 214.472 347.801 217.886 c 347.801
 228.148 l 347.801 231.562 350.566 234.327 353.98 234.327 c 357.395 234.327
 360.164 231.562 360.164 228.148 c 360.164 217.886 l 360.164 214.472 357.395
 211.702 353.98 211.702 c h
353.98 211.702 m f
221.035 211.702 m 217.621 211.702 214.855 214.472 214.855 217.886 c 214.855
 228.148 l 214.855 231.562 217.621 234.327 221.035 234.327 c 224.453 234.327
 227.219 231.562 227.219 228.148 c 227.219 217.886 l 227.219 214.472 224.453
 211.702 221.035 211.702 c h
221.035 211.702 m f
1 0.45098 0.490196 rg
143.797 -0.001 m 52.762 -0.001 l 32.223 -0.001 15.57 16.652 15.57 37.191
 c 15.57 372.409 l 15.57 392.948 32.223 409.601 52.762 409.601 c 143.797
 409.601 l 164.336 409.601 180.988 392.948 180.988 372.409 c 180.988 37.191
 l 180.988 16.652 164.336 -0.001 143.797 -0.001 c h
143.797 -0.001 m f
0.956863 0.32549 0.32549 rg
143.797 409.601 m 71.992 409.601 l 92.531 409.601 109.184 392.948 109.184
 372.409 c 109.184 37.191 l 109.184 16.652 92.531 -0.001 71.992 -0.001 c
 143.797 -0.001 l 164.336 -0.001 180.988 16.652 180.988 37.191 c 180.988
 372.409 l 180.988 392.948 164.336 409.601 143.797 409.601 c h
143.797 409.601 m f
0.913725 0.964706 1 rg
121.867 193.456 m 74.691 193.456 l 62.16 193.456 51.906 203.71 51.906 216.245
 c 51.906 346.503 l 51.906 359.034 62.16 369.288 74.691 369.288 c 121.867
 369.288 l 134.398 369.288 144.652 359.034 144.652 346.503 c 144.652 216.241
 l 144.652 203.71 134.398 193.456 121.867 193.456 c h
121.867 193.456 m f
0.792157 0.905882 0.988235 rg
121.867 369.288 m 109.184 369.288 l 109.184 193.456 l 121.867 193.456 l
 134.398 193.456 144.652 203.71 144.652 216.245 c 144.652 346.503 l 144.652
 359.034 134.398 369.288 121.867 369.288 c h
121.867 369.288 m f
0.913725 0.964706 1 rg
121.867 369.288 m 74.691 369.288 l 62.16 369.288 51.906 359.034 51.906 
346.503 c 51.906 317.12 l 144.652 317.12 l 144.652 346.503 l 144.652 359.034
 134.398 369.288 121.867 369.288 c h
121.867 369.288 m f
0.792157 0.905882 0.988235 rg
144.652 346.503 m 144.652 359.034 134.398 369.288 121.867 369.288 c 109.184
 369.288 l 109.184 317.116 l 144.652 317.116 l h
144.652 346.503 m f
0.470588 0.462745 0.501961 rg
126.297 77.972 m 126.297 62.499 113.754 49.956 98.281 49.956 c 82.809 49.956
 70.262 62.499 70.262 77.972 c 70.262 93.445 82.809 105.991 98.281 105.991
 c 113.754 105.991 126.297 93.445 126.297 77.972 c h
126.297 77.972 m f
Q Q
showpage
%%Trailer
end restore
%%EOF
