%!PS-Adobe-3.0 EPSF-3.0
%%Creator: cairo 1.14.2 (http://cairographics.org)
%%CreationDate: Fri Dec 29 09:04:44 2017
%%Pages: 1
%%DocumentData: Clean7Bit
%%LanguageLevel: 2
%%BoundingBox: 53 -1 357 410
%%EndComments
%%BeginProlog
save
50 dict begin
/q { gsave } bind def
/Q { grestore } bind def
/cm { 6 array astore concat } bind def
/w { setlinewidth } bind def
/J { setlinecap } bind def
/j { setlinejoin } bind def
/M { setmiterlimit } bind def
/d { setdash } bind def
/m { moveto } bind def
/l { lineto } bind def
/c { curveto } bind def
/h { closepath } bind def
/re { exch dup neg 3 1 roll 5 3 roll moveto 0 rlineto
      0 exch rlineto 0 rlineto closepath } bind def
/S { stroke } bind def
/f { fill } bind def
/f* { eofill } bind def
/n { newpath } bind def
/W { clip } bind def
/W* { eoclip } bind def
/BT { } bind def
/ET { } bind def
/pdfmark where { pop globaldict /?pdfmark /exec load put }
    { globaldict begin /?pdfmark /pop load def /pdfmark
    /cleartomark load def end } ifelse
/BDC { mark 3 1 roll /BDC pdfmark } bind def
/EMC { mark /EMC pdfmark } bind def
/cairo_store_point { /cairo_point_y exch def /cairo_point_x exch def } def
/Tj { show currentpoint cairo_store_point } bind def
/TJ {
  {
    dup
    type /stringtype eq
    { show } { -0.001 mul 0 cairo_font_matrix dtransform rmoveto } ifelse
  } forall
  currentpoint cairo_store_point
} bind def
/cairo_selectfont { cairo_font_matrix aload pop pop pop 0 0 6 array astore
    cairo_font exch selectfont cairo_point_x cairo_point_y moveto } bind def
/Tf { pop /cairo_font exch def /cairo_font_matrix where
      { pop cairo_selectfont } if } bind def
/Td { matrix translate cairo_font_matrix matrix concatmatrix dup
      /cairo_font_matrix exch def dup 4 get exch 5 get cairo_store_point
      /cairo_font where { pop cairo_selectfont } if } bind def
/Tm { 2 copy 8 2 roll 6 array astore /cairo_font_matrix exch def
      cairo_store_point /cairo_font where { pop cairo_selectfont } if } bind def
/g { setgray } bind def
/rg { setrgbcolor } bind def
/d1 { setcachedevice } bind def
%%EndProlog
%%BeginSetup
%%EndSetup
%%Page: 1 1
%%BeginPageSetup
%%PageBoundingBox: 53 -1 357 410
%%EndPageSetup
q 53 -1 304 411 rectclip q
0.839216 0.627451 0.521569 rg
316.367 -0.002 m 101.406 -0.002 l 79.309 -0.002 61.395 17.913 61.395 40.01
 c 61.395 360.866 l 61.395 382.967 79.309 400.877 101.406 400.877 c 316.367
 400.877 l 338.469 400.877 356.383 382.963 356.383 360.866 c 356.383 40.01
 l 356.383 17.913 338.469 -0.002 316.367 -0.002 c h
316.367 -0.002 m f
0.776471 0.552941 0.427451 rg
316.367 -0.002 m 338.469 -0.002 356.383 17.913 356.383 40.014 c 356.383
 64.338 l 311.23 93.405 248.066 86.28 248.066 86.28 c 61.395 86.28 l 61.395
 40.014 l 61.395 17.916 79.309 0.002 101.406 0.002 c h
316.367 -0.002 m f
0.792157 0.905882 0.988235 rg
112.699 28.377 m 100.039 28.377 89.773 38.643 89.773 51.307 c 89.773 349.573
 l 89.773 362.237 100.039 372.502 112.699 372.502 c 305.074 372.502 l 317.738
 372.502 328.004 362.237 328.004 349.573 c 328.004 51.307 l 328.004 38.643
 317.738 28.377 305.074 28.377 c h
112.699 28.377 m f
0.580392 0.796078 0.929412 rg
112.699 28.377 m 305.074 28.377 l 317.738 28.377 328.004 38.643 328.004
 51.307 c 328.004 200.44 l 328.004 200.44 326.766 86.28 231.336 86.28 c 
89.773 86.28 l 89.773 51.307 l 89.773 38.643 100.039 28.377 112.699 28.377
 c h
112.699 28.377 m f
0.913725 0.964706 1 rg
231.336 86.28 m 231.336 91.62 232.07 96.795 233.441 101.713 c 236.922 114.19
 227.711 126.573 214.758 126.573 c 82.883 126.573 l 72.996 126.573 63.887
 121.073 59.418 112.256 c 55.457 104.432 53.219 95.608 53.219 86.28 c 53.219
 54.436 79.273 28.381 111.121 28.381 c 289.238 28.381 l 257.395 28.377 231.336
 54.432 231.336 86.28 c h
231.336 86.28 m f
0.792157 0.905882 0.988235 rg
111.121 28.377 m 289.238 28.377 l 257.395 28.377 231.336 54.432 231.336
 86.28 c 53.219 86.28 l 53.219 54.432 79.273 28.377 111.121 28.377 c h
111.121 28.377 m f
0.341176 0.337255 0.360784 rg
193.129 230.698 m 169.27 245.721 l 160.805 251.053 157.738 262.174 162.766
 270.827 c 168.043 279.909 179.746 282.733 188.559 277.182 c 200.688 269.545
 l 205.68 266.405 212.031 266.405 217.027 269.545 c 229.152 277.182 l 237.777
 282.612 249.168 280.026 254.598 271.401 c 260.027 262.776 257.438 251.385
 248.816 245.955 c 224.582 230.698 l 214.973 224.647 202.742 224.647 193.129
 230.698 c h
193.129 230.698 m f
1 0.45098 0.490196 rg
235.91 237.827 m 232.43 246.659 221.652 253.092 208.895 253.092 c 196.121
 253.092 185.336 246.643 181.867 237.795 c 193.137 230.702 l 202.746 224.647
 214.977 224.647 224.59 230.702 c h
235.91 237.827 m f
0.341176 0.337255 0.360784 rg
275.359 267.194 m 271.945 267.194 269.18 269.959 269.18 273.373 c 269.18
 283.635 l 269.18 287.049 271.945 289.815 275.359 289.815 c 278.773 289.815
 281.543 287.049 281.543 283.635 c 281.543 273.373 l 281.543 269.959 278.773
 267.194 275.359 267.194 c h
275.359 267.194 m f
142.414 267.194 m 139 267.194 136.234 269.959 136.234 273.373 c 136.234
 283.635 l 136.234 287.049 139 289.815 142.414 289.815 c 145.828 289.815
 148.598 287.049 148.598 283.635 c 148.598 273.373 l 148.598 269.959 145.828
 267.194 142.414 267.194 c h
142.414 267.194 m f
1 0.854902 0.560784 rg
231.16 362.041 m 186.617 362.041 l 177.277 362.041 169.707 369.612 169.707
 378.952 c 169.707 392.694 l 169.707 402.03 177.277 409.6 186.617 409.6 
c 231.16 409.6 l 240.496 409.6 248.066 402.03 248.066 392.694 c 248.066 
378.952 l 248.066 369.612 240.496 362.041 231.16 362.041 c h
231.16 362.041 m f
0.988235 0.823529 0.427451 rg
231.16 409.6 m 204.137 409.6 l 213.477 409.6 221.047 402.03 221.047 392.694
 c 221.047 378.952 l 221.047 369.612 213.477 362.045 204.137 362.045 c 231.16
 362.045 l 240.496 362.045 248.066 369.612 248.066 378.952 c 248.066 392.694
 l 248.066 402.03 240.496 409.6 231.16 409.6 c h
231.16 409.6 m f
Q Q
showpage
%%Trailer
end restore
%%EOF
