%!PS-Adobe-3.0 EPSF-3.0
%%Creator: cairo 1.14.2 (http://cairographics.org)
%%CreationDate: Fri Dec 29 09:04:44 2017
%%Pages: 1
%%DocumentData: Clean7Bit
%%LanguageLevel: 2
%%BoundingBox: 103 -1 306 410
%%EndComments
%%BeginProlog
save
50 dict begin
/q { gsave } bind def
/Q { grestore } bind def
/cm { 6 array astore concat } bind def
/w { setlinewidth } bind def
/J { setlinecap } bind def
/j { setlinejoin } bind def
/M { setmiterlimit } bind def
/d { setdash } bind def
/m { moveto } bind def
/l { lineto } bind def
/c { curveto } bind def
/h { closepath } bind def
/re { exch dup neg 3 1 roll 5 3 roll moveto 0 rlineto
      0 exch rlineto 0 rlineto closepath } bind def
/S { stroke } bind def
/f { fill } bind def
/f* { eofill } bind def
/n { newpath } bind def
/W { clip } bind def
/W* { eoclip } bind def
/BT { } bind def
/ET { } bind def
/pdfmark where { pop globaldict /?pdfmark /exec load put }
    { globaldict begin /?pdfmark /pop load def /pdfmark
    /cleartomark load def end } ifelse
/BDC { mark 3 1 roll /BDC pdfmark } bind def
/EMC { mark /EMC pdfmark } bind def
/cairo_store_point { /cairo_point_y exch def /cairo_point_x exch def } def
/Tj { show currentpoint cairo_store_point } bind def
/TJ {
  {
    dup
    type /stringtype eq
    { show } { -0.001 mul 0 cairo_font_matrix dtransform rmoveto } ifelse
  } forall
  currentpoint cairo_store_point
} bind def
/cairo_selectfont { cairo_font_matrix aload pop pop pop 0 0 6 array astore
    cairo_font exch selectfont cairo_point_x cairo_point_y moveto } bind def
/Tf { pop /cairo_font exch def /cairo_font_matrix where
      { pop cairo_selectfont } if } bind def
/Td { matrix translate cairo_font_matrix matrix concatmatrix dup
      /cairo_font_matrix exch def dup 4 get exch 5 get cairo_store_point
      /cairo_font where { pop cairo_selectfont } if } bind def
/Tm { 2 copy 8 2 roll 6 array astore /cairo_font_matrix exch def
      cairo_store_point /cairo_font where { pop cairo_selectfont } if } bind def
/g { setgray } bind def
/rg { setrgbcolor } bind def
/d1 { setcachedevice } bind def
%%EndProlog
%%BeginSetup
%%EndSetup
%%Page: 1 1
%%BeginPageSetup
%%PageBoundingBox: 103 -1 306 410
%%EndPageSetup
q 103 -1 203 411 rectclip q
1 0.533333 0.623529 rg
275.613 44.846 m 259.102 44.846 245.59 58.358 245.59 74.87 c 245.59 192.53
 l 245.59 209.045 259.102 222.557 275.613 222.557 c 292.129 222.557 305.641
 209.045 305.641 192.53 c 305.641 74.87 l 305.637 58.358 292.129 44.846 
275.613 44.846 c h
275.613 44.846 m f
0.341176 0.337255 0.360784 rg
185.992 359.284 m 182.629 359.284 179.902 362.006 179.902 365.37 c 179.902
 403.51 l 179.902 406.873 182.629 409.6 185.992 409.6 c 189.355 409.6 192.082
 406.873 192.082 403.51 c 192.082 365.373 l 192.082 362.01 189.355 359.284
 185.992 359.284 c h
185.992 359.284 m f
0.792157 0.905882 0.988235 rg
127.914 287.44 m 244.066 287.44 l 201.391 372.143 l 195.02 384.788 176.965
 384.788 170.594 372.143 c h
127.914 287.44 m f
0.580392 0.796078 0.929412 rg
205.805 363.381 m 201.391 372.143 l 195.02 384.788 176.965 384.788 170.594
 372.143 c 127.918 287.44 l 191.664 287.44 l 184.785 305.631 178.398 338.135
 205.805 363.381 c h
205.805 363.381 m f
127.914 287.44 m 244.066 287.44 l 222.828 329.596 l 149.156 329.596 l h
127.914 287.44 m f
0.45098 0.717647 0.866667 rg
186.738 329.596 m 149.156 329.596 l 127.914 287.44 l 191.664 287.44 l 187.652
 298.049 183.812 313.526 186.738 329.596 c h
186.738 329.596 m f
1 0.772549 0.811765 rg
103.961 258.116 m 103.961 82.03 l 103.961 36.913 140.875 -0.002 185.992
 -0.002 c 231.109 -0.002 268.023 36.913 268.023 82.03 c 268.023 258.116 
l 268.023 278.1 251.82 294.299 231.836 294.299 c 140.145 294.299 l 120.16
 294.299 103.961 278.1 103.961 258.116 c h
103.961 258.116 m f
1 0.631373 0.686275 rg
162.035 82.03 m 162.035 258.116 l 162.035 278.1 178.238 294.299 198.223
 294.299 c 140.148 294.299 l 120.164 294.299 103.961 278.1 103.961 258.116
 c 103.961 82.03 l 103.961 36.913 140.875 -0.002 185.992 -0.002 c 196.203
 -0.002 206 1.893 215.039 5.342 c 184.141 17.131 162.035 47.123 162.035 
82.03 c h
162.035 82.03 m f
231.836 294.299 m 140.145 294.299 l 120.16 294.299 103.961 278.1 103.961
 258.116 c 103.961 241.217 l 268.023 241.217 l 268.023 258.116 l 268.023
 278.1 251.82 294.299 231.836 294.299 c h
231.836 294.299 m f
1 0.533333 0.623529 rg
198.223 294.299 m 140.148 294.299 l 120.164 294.299 103.961 278.1 103.961
 258.116 c 103.961 241.217 l 162.035 241.217 l 162.035 258.116 l 162.035
 278.1 178.238 294.299 198.223 294.299 c h
198.223 294.299 m f
0.470588 0.462745 0.501961 rg
110.637 49.713 m 123.246 20.545 152.332 -0.002 185.992 -0.002 c 219.648
 -0.002 248.738 20.545 261.344 49.713 c h
110.637 49.713 m f
0.341176 0.337255 0.360784 rg
185.992 -0.002 m 196.203 -0.002 205.984 1.901 215.023 5.35 c 194.277 13.268
 177.512 29.405 168.727 49.713 c 110.637 49.713 l 123.246 20.545 152.332
 -0.002 185.992 -0.002 c h
185.992 -0.002 m f
Q Q
showpage
%%Trailer
end restore
%%EOF
