%!PS-Adobe-3.0 EPSF-3.0
%%Creator: cairo 1.14.2 (http://cairographics.org)
%%CreationDate: Fri Dec 29 09:04:44 2017
%%Pages: 1
%%DocumentData: Clean7Bit
%%LanguageLevel: 2
%%BoundingBox: 77 -1 333 410
%%EndComments
%%BeginProlog
save
50 dict begin
/q { gsave } bind def
/Q { grestore } bind def
/cm { 6 array astore concat } bind def
/w { setlinewidth } bind def
/J { setlinecap } bind def
/j { setlinejoin } bind def
/M { setmiterlimit } bind def
/d { setdash } bind def
/m { moveto } bind def
/l { lineto } bind def
/c { curveto } bind def
/h { closepath } bind def
/re { exch dup neg 3 1 roll 5 3 roll moveto 0 rlineto
      0 exch rlineto 0 rlineto closepath } bind def
/S { stroke } bind def
/f { fill } bind def
/f* { eofill } bind def
/n { newpath } bind def
/W { clip } bind def
/W* { eoclip } bind def
/BT { } bind def
/ET { } bind def
/pdfmark where { pop globaldict /?pdfmark /exec load put }
    { globaldict begin /?pdfmark /pop load def /pdfmark
    /cleartomark load def end } ifelse
/BDC { mark 3 1 roll /BDC pdfmark } bind def
/EMC { mark /EMC pdfmark } bind def
/cairo_store_point { /cairo_point_y exch def /cairo_point_x exch def } def
/Tj { show currentpoint cairo_store_point } bind def
/TJ {
  {
    dup
    type /stringtype eq
    { show } { -0.001 mul 0 cairo_font_matrix dtransform rmoveto } ifelse
  } forall
  currentpoint cairo_store_point
} bind def
/cairo_selectfont { cairo_font_matrix aload pop pop pop 0 0 6 array astore
    cairo_font exch selectfont cairo_point_x cairo_point_y moveto } bind def
/Tf { pop /cairo_font exch def /cairo_font_matrix where
      { pop cairo_selectfont } if } bind def
/Td { matrix translate cairo_font_matrix matrix concatmatrix dup
      /cairo_font_matrix exch def dup 4 get exch 5 get cairo_store_point
      /cairo_font where { pop cairo_selectfont } if } bind def
/Tm { 2 copy 8 2 roll 6 array astore /cairo_font_matrix exch def
      cairo_store_point /cairo_font where { pop cairo_selectfont } if } bind def
/g { setgray } bind def
/rg { setrgbcolor } bind def
/d1 { setcachedevice } bind def
%%EndProlog
%%BeginSetup
%%EndSetup
%%Page: 1 1
%%BeginPageSetup
%%PageBoundingBox: 77 -1 333 410
%%EndPageSetup
q 77 -1 256 411 rectclip q
0.537255 0.533333 0.564706 rg
317.801 144.428 m 91.801 144.428 l 83.922 144.428 77.477 150.87 77.477 
158.748 c 77.477 166.623 83.922 173.069 91.801 173.069 c 317.801 173.069
 l 325.676 173.069 332.121 166.623 332.121 158.748 c 332.121 150.87 325.676
 144.428 317.801 144.428 c h
317.801 144.428 m f
0.792157 0.905882 0.988235 rg
190.477 343.147 m 190.477 395.28 l 190.477 403.155 196.922 409.6 204.801
 409.6 c 212.676 409.6 219.121 403.155 219.121 395.28 c 219.121 343.147 
l 219.121 335.272 212.676 328.827 204.801 328.827 c 196.922 328.827 190.477
 335.272 190.477 343.147 c h
190.477 343.147 m f
0.580392 0.796078 0.929412 rg
316.629 0.518 m 310.762 -1.337 304.441 1.948 302.59 7.819 c 283.824 67.229
 l 281.969 73.1 285.254 79.416 291.121 81.268 c 296.992 83.123 303.309 79.838
 305.16 73.971 c 323.93 14.557 l 325.781 8.69 322.5 2.37 316.629 0.518 c
 h
316.629 0.518 m f
0.792157 0.905882 0.988235 rg
318.996 54.639 m 314.145 43.768 l 309.461 33.268 294.277 34.131 290.812
 45.096 c 214.691 286.084 l 262.727 301.26 l 322.297 112.67 l 328.332 93.573
 327.156 72.928 318.996 54.639 c h
318.996 54.639 m f
0.580392 0.796078 0.929412 rg
262.727 301.26 m 285.598 228.858 l 282.211 222.561 276.832 216.194 268.266
 212.28 c 257.355 207.295 251.395 193.084 248.164 180.12 c 214.691 286.084
 l h
262.727 301.26 m f
214.691 286.084 m 290.812 45.096 l 294.277 34.131 309.461 33.268 314.145
 43.768 c 317.738 51.823 l 317.109 56.315 316.125 60.772 314.742 65.151 
c 242.207 294.776 l h
214.691 286.084 m f
242.207 294.776 m 268.266 212.28 l 257.355 207.295 251.395 193.084 248.164
 180.12 c 214.691 286.084 l h
242.207 294.776 m f
92.969 0.518 m 98.84 -1.337 105.156 1.948 107.012 7.819 c 125.777 67.229
 l 127.633 73.1 124.348 79.416 118.477 81.268 c 112.609 83.123 106.293 79.838
 104.438 73.971 c 85.672 14.557 l 83.816 8.69 87.102 2.37 92.969 0.518 c
 h
92.969 0.518 m f
0.792157 0.905882 0.988235 rg
90.605 54.639 m 95.457 43.768 l 100.141 33.268 115.324 34.131 118.785 45.096
 c 194.91 286.084 l 146.875 301.26 l 87.301 112.67 l 81.27 93.573 82.445
 72.928 90.605 54.639 c h
90.605 54.639 m f
0.580392 0.796078 0.929412 rg
146.871 301.26 m 124.004 228.858 l 127.391 222.561 132.766 216.194 141.332
 212.28 c 152.246 207.295 158.207 193.084 161.438 180.12 c 194.91 286.084
 l h
146.871 301.26 m f
194.91 286.084 m 118.785 45.096 l 115.324 34.131 100.141 33.268 95.457 
43.768 c 91.863 51.823 l 92.488 56.315 93.477 60.772 94.859 65.151 c 167.391
 294.776 l h
194.91 286.084 m f
167.391 294.776 m 141.332 212.28 l 152.246 207.295 158.207 193.084 161.438
 180.12 c 194.91 286.084 l h
167.391 294.776 m f
0.694118 0.937255 0.592157 rg
278.059 301.256 m 278.059 256.62 245.258 220.432 204.801 220.432 c 164.34
 220.432 131.543 256.62 131.543 301.256 c 131.543 345.897 164.34 382.08 
204.801 382.08 c 245.258 382.08 278.059 345.897 278.059 301.256 c h
278.059 301.256 m f
0.482353 0.858824 0.596078 rg
174.355 301.26 m 174.355 337.678 196.199 368.471 226.215 378.573 c 219.441
 380.854 212.246 382.08 204.801 382.08 c 164.34 382.08 131.539 345.897 131.539
 301.256 c 131.539 256.62 164.34 220.432 204.801 220.432 c 212.246 220.432
 219.441 221.663 226.215 223.94 c 196.199 234.045 174.355 264.838 174.355
 301.26 c h
174.355 301.26 m f
0.470588 0.462745 0.501961 rg
190.512 301.256 m 190.512 292.334 183.281 285.1 174.355 285.1 c 165.434
 285.1 158.199 292.334 158.199 301.256 c 158.199 310.182 165.434 317.416
 174.355 317.416 c 183.281 317.416 190.512 310.182 190.512 301.256 c h
190.512 301.256 m f
0.341176 0.337255 0.360784 rg
174.355 285.1 m 174.848 285.1 175.324 285.123 175.805 285.166 c 174.855
 290.366 174.355 295.752 174.355 301.26 c 174.355 306.768 174.855 312.155
 175.805 317.35 c 175.324 317.393 174.848 317.413 174.355 317.413 c 165.43
 317.413 158.195 310.182 158.195 301.256 c 158.195 292.334 165.43 285.1 
174.355 285.1 c h
174.355 285.1 m f
0.470588 0.462745 0.501961 rg
251.402 301.256 m 251.402 292.334 244.168 285.1 235.242 285.1 c 226.32 
285.1 219.086 292.334 219.086 301.256 c 219.086 310.182 226.32 317.416 235.242
 317.416 c 244.168 317.416 251.402 310.182 251.402 301.256 c h
251.402 301.256 m f
Q Q
showpage
%%Trailer
end restore
%%EOF
