%!PS-Adobe-3.0 EPSF-3.0
%%Creator: cairo 1.14.2 (http://cairographics.org)
%%CreationDate: Fri Dec 29 09:04:44 2017
%%Pages: 1
%%DocumentData: Clean7Bit
%%LanguageLevel: 2
%%BoundingBox: 36 -1 373 410
%%EndComments
%%BeginProlog
save
50 dict begin
/q { gsave } bind def
/Q { grestore } bind def
/cm { 6 array astore concat } bind def
/w { setlinewidth } bind def
/J { setlinecap } bind def
/j { setlinejoin } bind def
/M { setmiterlimit } bind def
/d { setdash } bind def
/m { moveto } bind def
/l { lineto } bind def
/c { curveto } bind def
/h { closepath } bind def
/re { exch dup neg 3 1 roll 5 3 roll moveto 0 rlineto
      0 exch rlineto 0 rlineto closepath } bind def
/S { stroke } bind def
/f { fill } bind def
/f* { eofill } bind def
/n { newpath } bind def
/W { clip } bind def
/W* { eoclip } bind def
/BT { } bind def
/ET { } bind def
/pdfmark where { pop globaldict /?pdfmark /exec load put }
    { globaldict begin /?pdfmark /pop load def /pdfmark
    /cleartomark load def end } ifelse
/BDC { mark 3 1 roll /BDC pdfmark } bind def
/EMC { mark /EMC pdfmark } bind def
/cairo_store_point { /cairo_point_y exch def /cairo_point_x exch def } def
/Tj { show currentpoint cairo_store_point } bind def
/TJ {
  {
    dup
    type /stringtype eq
    { show } { -0.001 mul 0 cairo_font_matrix dtransform rmoveto } ifelse
  } forall
  currentpoint cairo_store_point
} bind def
/cairo_selectfont { cairo_font_matrix aload pop pop pop 0 0 6 array astore
    cairo_font exch selectfont cairo_point_x cairo_point_y moveto } bind def
/Tf { pop /cairo_font exch def /cairo_font_matrix where
      { pop cairo_selectfont } if } bind def
/Td { matrix translate cairo_font_matrix matrix concatmatrix dup
      /cairo_font_matrix exch def dup 4 get exch 5 get cairo_store_point
      /cairo_font where { pop cairo_selectfont } if } bind def
/Tm { 2 copy 8 2 roll 6 array astore /cairo_font_matrix exch def
      cairo_store_point /cairo_font where { pop cairo_selectfont } if } bind def
/g { setgray } bind def
/rg { setrgbcolor } bind def
/d1 { setcachedevice } bind def
%%EndProlog
%%BeginSetup
%%EndSetup
%%Page: 1 1
%%BeginPageSetup
%%PageBoundingBox: 36 -1 373 410
%%EndPageSetup
q 36 -1 337 411 rectclip q
0.792157 0.905882 0.988235 rg
322.469 -0.002 m 87.133 -0.002 l 59.234 -0.002 36.621 22.616 36.621 50.51
 c 36.621 359.088 l 36.621 386.987 59.234 409.6 87.133 409.6 c 322.469 409.6
 l 350.367 409.6 372.98 386.987 372.98 359.088 c 372.98 50.51 l 372.98 22.616
 350.367 -0.002 322.469 -0.002 c h
322.469 -0.002 m f
0.580392 0.796078 0.929412 rg
104.355 50.51 m 104.355 359.088 l 104.355 386.987 126.969 409.6 154.863
 409.6 c 87.133 409.6 l 59.234 409.6 36.621 386.987 36.621 359.088 c 36.621
 50.51 l 36.621 22.616 59.234 0.002 87.133 0.002 c 154.863 0.002 l 126.969
 -0.002 104.355 22.616 104.355 50.51 c h
104.355 50.51 m f
322.469 409.6 m 87.133 409.6 l 59.234 409.6 36.621 386.987 36.621 359.088
 c 36.621 291.686 l 372.98 291.686 l 372.98 359.088 l 372.98 386.987 350.367
 409.6 322.469 409.6 c h
322.469 409.6 m f
0.45098 0.717647 0.866667 rg
154.863 409.6 m 87.133 409.6 l 59.234 409.6 36.621 386.987 36.621 359.088
 c 36.621 291.686 l 104.355 291.686 l 104.355 359.088 l 104.355 386.987 
126.969 409.6 154.863 409.6 c h
154.863 409.6 m f
0.694118 0.937255 0.592157 rg
300.363 323.932 m 109.238 323.932 l 94.547 323.932 82.527 335.952 82.527
 350.643 c 82.527 365.334 94.547 377.354 109.238 377.354 c 300.363 377.354
 l 315.055 377.354 327.07 365.334 327.07 350.643 c 327.07 335.952 315.055
 323.932 300.363 323.932 c h
300.363 323.932 m f
0.482353 0.858824 0.596078 rg
120.352 350.643 m 120.352 365.334 132.371 377.354 147.062 377.354 c 109.238
 377.354 l 94.547 377.354 82.527 365.334 82.527 350.643 c 82.527 335.952
 94.547 323.932 109.238 323.932 c 147.062 323.932 l 132.371 323.932 120.352
 335.952 120.352 350.643 c h
120.352 350.643 m f
1 0.854902 0.560784 rg
118.543 201.881 m 102.441 201.881 l 91.441 201.881 82.527 210.795 82.527
 221.795 c 82.527 237.893 l 82.527 248.893 91.441 257.807 102.441 257.807
 c 118.543 257.807 l 129.539 257.807 138.453 248.893 138.453 237.893 c 138.453
 221.795 l 138.453 210.795 129.539 201.881 118.543 201.881 c h
118.543 201.881 m f
0.988235 0.823529 0.427451 rg
117.422 220.034 m 110.281 220.034 104.496 225.823 104.496 232.963 c 104.496
 232.963 104.527 257.229 104.574 257.807 c 102.441 257.807 l 91.445 257.807
 82.527 248.893 82.527 237.897 c 82.527 221.795 l 82.527 210.795 91.445 
201.881 102.441 201.881 c 118.543 201.881 l 128.945 201.881 137.484 209.862
 138.375 220.038 c 117.422 220.038 l h
117.422 220.034 m f
0.580392 0.796078 0.929412 rg
307.16 201.881 m 291.055 201.881 l 280.059 201.881 271.145 210.795 271.145
 221.791 c 271.145 237.897 l 271.145 248.893 280.059 257.807 291.055 257.807
 c 307.16 257.807 l 318.156 257.807 327.07 248.893 327.07 237.897 c 327.07
 221.791 l 327.07 210.795 318.156 201.881 307.16 201.881 c h
307.16 201.881 m f
0.45098 0.717647 0.866667 rg
306.039 220.034 m 298.898 220.034 293.113 225.823 293.113 232.963 c 293.113
 232.963 293.145 257.229 293.195 257.807 c 291.059 257.807 l 280.062 257.807
 271.145 248.893 271.145 237.897 c 271.145 221.795 l 271.145 210.795 280.062
 201.881 291.059 201.881 c 307.16 201.881 l 317.562 201.881 326.102 209.862
 326.992 220.038 c 306.039 220.038 l h
306.039 220.034 m f
1 0.854902 0.560784 rg
212.852 201.881 m 196.75 201.881 l 185.754 201.881 176.836 210.795 176.836
 221.795 c 176.836 237.893 l 176.836 248.893 185.754 257.807 196.75 257.807
 c 212.852 257.807 l 223.848 257.807 232.762 248.893 232.762 237.893 c 232.762
 221.795 l 232.762 210.795 223.848 201.881 212.852 201.881 c h
212.852 201.881 m f
0.988235 0.823529 0.427451 rg
211.73 220.034 m 204.594 220.034 198.805 225.823 198.805 232.963 c 198.805
 232.963 198.836 257.229 198.887 257.807 c 196.75 257.807 l 185.754 257.807
 176.836 248.893 176.836 237.897 c 176.836 221.795 l 176.836 210.795 185.754
 201.881 196.75 201.881 c 212.852 201.881 l 223.258 201.881 231.793 209.862
 232.684 220.038 c 211.73 220.038 l h
211.73 220.034 m f
0.482353 0.858824 0.596078 rg
118.543 120.842 m 102.441 120.842 l 91.441 120.842 82.527 129.756 82.527
 140.756 c 82.527 156.858 l 82.527 167.854 91.441 176.768 102.441 176.768
 c 118.543 176.768 l 129.539 176.768 138.453 167.854 138.453 156.858 c 138.453
 140.756 l 138.453 129.76 129.539 120.842 118.543 120.842 c h
118.543 120.842 m f
0.364706 0.788235 0.47451 rg
117.422 138.998 m 110.281 138.998 104.496 144.784 104.496 151.924 c 104.496
 151.924 104.527 176.19 104.574 176.768 c 102.441 176.768 l 91.445 176.768
 82.527 167.854 82.527 156.858 c 82.527 140.756 l 82.527 129.76 91.445 120.842
 102.441 120.842 c 118.543 120.842 l 128.945 120.842 137.484 128.823 138.375
 138.998 c h
117.422 138.998 m f
0.482353 0.858824 0.596078 rg
212.852 120.842 m 196.75 120.842 l 185.754 120.842 176.836 129.756 176.836
 140.756 c 176.836 156.858 l 176.836 167.854 185.754 176.768 196.75 176.768
 c 212.852 176.768 l 223.848 176.768 232.762 167.854 232.762 156.858 c 232.762
 140.756 l 232.762 129.76 223.848 120.842 212.852 120.842 c h
212.852 120.842 m f
0.364706 0.788235 0.47451 rg
211.73 138.998 m 204.594 138.998 198.805 144.784 198.805 151.924 c 198.805
 151.924 198.836 176.19 198.887 176.768 c 196.75 176.768 l 185.754 176.768
 176.836 167.854 176.836 156.858 c 176.836 140.756 l 176.836 129.76 185.754
 120.842 196.75 120.842 c 212.852 120.842 l 223.258 120.842 231.793 128.823
 232.684 138.998 c h
211.73 138.998 m f
1 0.854902 0.560784 rg
118.543 39.803 m 102.441 39.803 l 91.441 39.803 82.527 48.721 82.527 59.717
 c 82.527 75.819 l 82.527 86.815 91.441 95.733 102.441 95.733 c 118.543 
95.733 l 129.539 95.733 138.453 86.815 138.453 75.819 c 138.453 59.717 l
 138.453 48.721 129.539 39.803 118.543 39.803 c h
118.543 39.803 m f
0.988235 0.823529 0.427451 rg
117.422 57.959 m 110.281 57.959 104.496 63.748 104.496 70.885 c 104.496
 70.885 104.527 95.151 104.574 95.733 c 102.441 95.733 l 91.445 95.733 82.527
 86.815 82.527 75.819 c 82.527 59.717 l 82.527 48.721 91.445 39.807 102.441
 39.807 c 118.543 39.807 l 128.945 39.807 137.484 47.788 138.375 57.959 
c h
117.422 57.959 m f
1 0.854902 0.560784 rg
212.852 39.803 m 196.75 39.803 l 185.754 39.803 176.836 48.721 176.836 
59.717 c 176.836 75.819 l 176.836 86.815 185.754 95.733 196.75 95.733 c 
212.852 95.733 l 223.848 95.733 232.762 86.815 232.762 75.819 c 232.762 
59.717 l 232.762 48.721 223.848 39.803 212.852 39.803 c h
212.852 39.803 m f
0.988235 0.823529 0.427451 rg
211.73 57.959 m 204.594 57.959 198.805 63.748 198.805 70.885 c 198.805 
70.885 198.836 95.151 198.887 95.733 c 196.75 95.733 l 185.754 95.733 176.836
 86.815 176.836 75.819 c 176.836 59.717 l 176.836 48.721 185.754 39.807 
196.75 39.807 c 212.852 39.807 l 223.258 39.807 231.793 47.788 232.684 57.959
 c h
211.73 57.959 m f
1 0.45098 0.490196 rg
307.16 39.803 m 291.055 39.803 l 280.059 39.803 271.145 48.721 271.145 
59.717 c 271.145 157.733 l 271.145 168.733 280.059 177.647 291.055 177.647
 c 307.16 177.647 l 318.156 177.647 327.07 168.733 327.07 157.733 c 327.07
 59.713 l 327.07 48.721 318.156 39.803 307.16 39.803 c h
307.16 39.803 m f
1 0.333333 0.333333 rg
326.992 57.959 m 306.039 57.959 l 298.898 57.959 293.113 63.748 293.113
 70.885 c 293.184 177.647 l 291.059 177.647 l 280.059 177.647 271.145 168.733
 271.145 157.737 c 271.145 59.717 l 271.145 48.721 280.059 39.803 291.059
 39.803 c 307.16 39.803 l 317.566 39.803 326.102 47.788 326.992 57.959 c
 h
326.992 57.959 m f
Q Q
showpage
%%Trailer
end restore
%%EOF
