%!PS-Adobe-3.0 EPSF-3.0
%%Creator: cairo 1.14.2 (http://cairographics.org)
%%CreationDate: Fri Dec 29 09:04:44 2017
%%Pages: 1
%%DocumentData: Clean7Bit
%%LanguageLevel: 2
%%BoundingBox: 91 -1 318 410
%%EndComments
%%BeginProlog
save
50 dict begin
/q { gsave } bind def
/Q { grestore } bind def
/cm { 6 array astore concat } bind def
/w { setlinewidth } bind def
/J { setlinecap } bind def
/j { setlinejoin } bind def
/M { setmiterlimit } bind def
/d { setdash } bind def
/m { moveto } bind def
/l { lineto } bind def
/c { curveto } bind def
/h { closepath } bind def
/re { exch dup neg 3 1 roll 5 3 roll moveto 0 rlineto
      0 exch rlineto 0 rlineto closepath } bind def
/S { stroke } bind def
/f { fill } bind def
/f* { eofill } bind def
/n { newpath } bind def
/W { clip } bind def
/W* { eoclip } bind def
/BT { } bind def
/ET { } bind def
/pdfmark where { pop globaldict /?pdfmark /exec load put }
    { globaldict begin /?pdfmark /pop load def /pdfmark
    /cleartomark load def end } ifelse
/BDC { mark 3 1 roll /BDC pdfmark } bind def
/EMC { mark /EMC pdfmark } bind def
/cairo_store_point { /cairo_point_y exch def /cairo_point_x exch def } def
/Tj { show currentpoint cairo_store_point } bind def
/TJ {
  {
    dup
    type /stringtype eq
    { show } { -0.001 mul 0 cairo_font_matrix dtransform rmoveto } ifelse
  } forall
  currentpoint cairo_store_point
} bind def
/cairo_selectfont { cairo_font_matrix aload pop pop pop 0 0 6 array astore
    cairo_font exch selectfont cairo_point_x cairo_point_y moveto } bind def
/Tf { pop /cairo_font exch def /cairo_font_matrix where
      { pop cairo_selectfont } if } bind def
/Td { matrix translate cairo_font_matrix matrix concatmatrix dup
      /cairo_font_matrix exch def dup 4 get exch 5 get cairo_store_point
      /cairo_font where { pop cairo_selectfont } if } bind def
/Tm { 2 copy 8 2 roll 6 array astore /cairo_font_matrix exch def
      cairo_store_point /cairo_font where { pop cairo_selectfont } if } bind def
/g { setgray } bind def
/rg { setrgbcolor } bind def
/d1 { setcachedevice } bind def
%%EndProlog
%%BeginSetup
%%EndSetup
%%Page: 1 1
%%BeginPageSetup
%%PageBoundingBox: 91 -1 318 410
%%EndPageSetup
q 91 -1 227 411 rectclip q
0.913725 0.964706 1 rg
250.824 296.725 m 158.777 296.725 l 158.777 392.588 l 158.777 401.983 166.395
 409.6 175.789 409.6 c 233.812 409.6 l 243.207 409.6 250.824 401.983 250.824
 392.588 c h
250.824 296.725 m f
0.792157 0.905882 0.988235 rg
187.855 409.6 34.266 -112.875 re f
0.580392 0.796078 0.929412 rg
271.688 261.788 m 137.914 261.788 l 137.914 302.205 l 137.914 312.909 146.59
 321.584 157.293 321.584 c 252.309 321.584 l 263.012 321.584 271.688 312.909
 271.688 302.205 c h
271.688 261.788 m f
0.45098 0.717647 0.866667 rg
217.586 321.584 m 157.293 321.584 l 146.59 321.584 137.914 312.909 137.914
 302.205 c 137.914 261.788 l 198.207 261.788 l 198.207 302.205 l 198.207
 312.909 206.883 321.584 217.586 321.584 c h
217.586 321.584 m f
0.913725 0.964706 1 rg
276.039 -0.002 m 133.559 -0.002 l 110.578 -0.002 91.949 18.631 91.949 41.612
 c 91.949 241.541 l 91.949 264.522 110.578 283.151 133.559 283.151 c 276.043
 283.151 l 299.023 283.151 317.652 264.522 317.652 241.541 c 317.652 41.608
 l 317.652 18.631 299.023 -0.002 276.039 -0.002 c h
276.039 -0.002 m f
0.792157 0.905882 0.988235 rg
170.125 41.612 m 170.125 241.541 l 170.125 264.522 188.754 283.151 211.734
 283.151 c 133.559 283.151 l 110.578 283.151 91.949 264.522 91.949 241.541
 c 91.949 41.608 l 91.949 18.627 110.578 -0.002 133.559 -0.002 c 211.734
 -0.002 l 188.754 -0.002 170.125 18.631 170.125 41.612 c h
170.125 41.612 m f
1 0.854902 0.560784 rg
91.949 215.202 225.699 -147.25 re f
1 0.780392 0.231373 rg
91.949 215.202 78.18 -147.25 re f
0.341176 0.337255 0.360784 rg
271.273 133.498 m 267.859 133.498 265.094 136.268 265.094 139.682 c 265.094
 149.944 l 265.094 153.358 267.859 156.123 271.273 156.123 c 274.688 156.123
 277.453 153.358 277.453 149.944 c 277.453 139.682 l 277.453 136.268 274.688
 133.498 271.273 133.498 c h
271.273 133.498 m f
138.328 133.498 m 134.914 133.498 132.145 136.268 132.145 139.682 c 132.145
 149.944 l 132.145 153.358 134.914 156.123 138.328 156.123 c 141.742 156.123
 144.508 153.358 144.508 149.944 c 144.508 139.682 l 144.508 136.268 141.742
 133.498 138.328 133.498 c h
138.328 133.498 m f
204.801 127.03 m 196.801 127.03 188.801 129.616 182.125 134.795 c 179.426
 136.889 178.938 140.768 181.031 143.467 c 183.121 146.166 187.004 146.655
 189.703 144.565 c 198.594 137.666 211.008 137.666 219.898 144.565 c 222.594
 146.655 226.48 146.166 228.57 143.467 c 230.664 140.768 230.172 136.889
 227.477 134.795 c 220.801 129.616 212.801 127.03 204.801 127.03 c h
204.801 127.03 m f
Q Q
showpage
%%Trailer
end restore
%%EOF
