%!PS-Adobe-3.0 EPSF-3.0
%%Creator: cairo 1.14.2 (http://cairographics.org)
%%CreationDate: Fri Dec 29 09:04:44 2017
%%Pages: 1
%%DocumentData: Clean7Bit
%%LanguageLevel: 2
%%BoundingBox: 93 -1 316 410
%%EndComments
%%BeginProlog
save
50 dict begin
/q { gsave } bind def
/Q { grestore } bind def
/cm { 6 array astore concat } bind def
/w { setlinewidth } bind def
/J { setlinecap } bind def
/j { setlinejoin } bind def
/M { setmiterlimit } bind def
/d { setdash } bind def
/m { moveto } bind def
/l { lineto } bind def
/c { curveto } bind def
/h { closepath } bind def
/re { exch dup neg 3 1 roll 5 3 roll moveto 0 rlineto
      0 exch rlineto 0 rlineto closepath } bind def
/S { stroke } bind def
/f { fill } bind def
/f* { eofill } bind def
/n { newpath } bind def
/W { clip } bind def
/W* { eoclip } bind def
/BT { } bind def
/ET { } bind def
/pdfmark where { pop globaldict /?pdfmark /exec load put }
    { globaldict begin /?pdfmark /pop load def /pdfmark
    /cleartomark load def end } ifelse
/BDC { mark 3 1 roll /BDC pdfmark } bind def
/EMC { mark /EMC pdfmark } bind def
/cairo_store_point { /cairo_point_y exch def /cairo_point_x exch def } def
/Tj { show currentpoint cairo_store_point } bind def
/TJ {
  {
    dup
    type /stringtype eq
    { show } { -0.001 mul 0 cairo_font_matrix dtransform rmoveto } ifelse
  } forall
  currentpoint cairo_store_point
} bind def
/cairo_selectfont { cairo_font_matrix aload pop pop pop 0 0 6 array astore
    cairo_font exch selectfont cairo_point_x cairo_point_y moveto } bind def
/Tf { pop /cairo_font exch def /cairo_font_matrix where
      { pop cairo_selectfont } if } bind def
/Td { matrix translate cairo_font_matrix matrix concatmatrix dup
      /cairo_font_matrix exch def dup 4 get exch 5 get cairo_store_point
      /cairo_font where { pop cairo_selectfont } if } bind def
/Tm { 2 copy 8 2 roll 6 array astore /cairo_font_matrix exch def
      cairo_store_point /cairo_font where { pop cairo_selectfont } if } bind def
/g { setgray } bind def
/rg { setrgbcolor } bind def
/d1 { setcachedevice } bind def
%%EndProlog
%%BeginSetup
%%EndSetup
%%Page: 1 1
%%BeginPageSetup
%%PageBoundingBox: 93 -1 316 410
%%EndPageSetup
q 93 -1 223 411 rectclip q
1 0.45098 0.490196 rg
93.805 79.881 m 93.805 311.698 l 315.793 311.698 l 315.793 79.881 l 315.793
 73.538 310.652 68.401 304.312 68.401 c 105.289 68.401 l 98.945 68.397 93.805
 73.538 93.805 79.881 c h
93.805 79.881 m f
0.898039 0.380392 0.380392 rg
93.805 311.698 m 93.805 79.881 l 93.805 73.538 98.945 68.401 105.285 68.401
 c 169.102 68.401 l 169.102 311.698 l h
93.805 311.698 m f
0.341176 0.337255 0.360784 rg
218.699 174.733 m 190.898 174.733 l 185.477 174.713 182.355 173.291 182.434
 168.87 c 182.695 154.428 185.77 128.014 204.801 128.014 c 223.828 128.014
 226.906 154.428 227.164 168.87 c 227.246 173.291 224.125 174.713 218.699
 174.733 c h
218.699 174.733 m f
0.913725 0.964706 1 rg
204.801 151.596 m 197.152 151.596 190.344 148.936 185.957 144.791 c 189.02
 135.561 194.629 128.014 204.801 128.014 c 214.969 128.014 220.582 135.561
 223.645 144.791 c 219.254 148.932 212.449 151.596 204.801 151.596 c h
204.801 151.596 m f
0.341176 0.337255 0.360784 rg
271.273 164.444 m 267.859 164.444 265.094 167.209 265.094 170.623 c 265.094
 180.885 l 265.094 184.299 267.859 187.065 271.273 187.065 c 274.688 187.065
 277.453 184.299 277.453 180.885 c 277.453 170.623 l 277.453 167.209 274.688
 164.444 271.273 164.444 c h
271.273 164.444 m f
138.328 164.444 m 134.914 164.444 132.145 167.209 132.145 170.623 c 132.145
 180.885 l 132.145 184.299 134.914 187.065 138.328 187.065 c 141.742 187.065
 144.508 184.299 144.508 180.885 c 144.508 170.623 l 144.508 167.209 141.742
 164.444 138.328 164.444 c h
138.328 164.444 m f
0.792157 0.905882 0.988235 rg
93.805 81.381 m 93.805 51.916 l 93.805 23.245 117.047 -0.002 145.723 -0.002
 c 263.879 -0.002 l 292.551 -0.002 315.793 23.245 315.793 51.916 c 315.793
 81.381 l h
93.805 81.381 m f
0.580392 0.796078 0.929412 rg
169.102 24.022 m 169.102 81.381 l 93.805 81.381 l 93.805 51.916 l 93.805
 23.245 117.051 0.002 145.723 0.002 c 190.387 0.002 l 167.402 -0.146 169.102
 24.022 169.102 24.022 c h
169.102 24.022 m f
190.387 -0.002 m 190.387 26.76 l 190.387 38.467 180.809 48.041 169.102 
48.041 c 157.395 48.041 147.82 38.467 147.82 26.76 c 147.82 -0.002 l h
190.387 -0.002 m f
261.781 -0.002 m 261.781 26.76 l 261.781 38.467 252.207 48.041 240.5 48.041
 c 228.793 48.041 219.219 38.467 219.219 26.76 c 219.219 -0.002 l h
261.781 -0.002 m f
0.45098 0.717647 0.866667 rg
169.102 24.022 m 169.102 48.045 l 157.395 48.045 147.816 38.467 147.816
 26.764 c 147.816 0.002 l 190.387 0.002 l 167.402 -0.146 169.102 24.022 
169.102 24.022 c h
169.102 24.022 m f
0.913725 0.964706 1 rg
315.793 272.838 m 93.805 272.838 l 93.805 355.663 l 93.805 385.452 117.953
 409.6 147.742 409.6 c 261.859 409.6 l 291.645 409.6 315.793 385.452 315.793
 355.663 c h
315.793 272.838 m f
0.729412 0.921569 0.956863 rg
223.039 409.6 m 147.742 409.6 l 117.953 409.6 93.805 385.452 93.805 355.663
 c 93.805 272.838 l 169.102 272.838 l 169.102 355.663 l 169.102 385.452 
193.25 409.6 223.039 409.6 c h
223.039 409.6 m f
0.768627 0.784314 0.960784 rg
93.805 311.702 221.992 -51.477 re f
0.654902 0.678431 0.941176 rg
93.805 311.702 75.293 -51.477 re f
Q Q
showpage
%%Trailer
end restore
%%EOF
