%!PS-Adobe-3.0 EPSF-3.0
%%Creator: cairo 1.14.2 (http://cairographics.org)
%%CreationDate: Fri Dec 29 09:04:44 2017
%%Pages: 1
%%DocumentData: Clean7Bit
%%LanguageLevel: 2
%%BoundingBox: 44 -1 365 410
%%EndComments
%%BeginProlog
save
50 dict begin
/q { gsave } bind def
/Q { grestore } bind def
/cm { 6 array astore concat } bind def
/w { setlinewidth } bind def
/J { setlinecap } bind def
/j { setlinejoin } bind def
/M { setmiterlimit } bind def
/d { setdash } bind def
/m { moveto } bind def
/l { lineto } bind def
/c { curveto } bind def
/h { closepath } bind def
/re { exch dup neg 3 1 roll 5 3 roll moveto 0 rlineto
      0 exch rlineto 0 rlineto closepath } bind def
/S { stroke } bind def
/f { fill } bind def
/f* { eofill } bind def
/n { newpath } bind def
/W { clip } bind def
/W* { eoclip } bind def
/BT { } bind def
/ET { } bind def
/pdfmark where { pop globaldict /?pdfmark /exec load put }
    { globaldict begin /?pdfmark /pop load def /pdfmark
    /cleartomark load def end } ifelse
/BDC { mark 3 1 roll /BDC pdfmark } bind def
/EMC { mark /EMC pdfmark } bind def
/cairo_store_point { /cairo_point_y exch def /cairo_point_x exch def } def
/Tj { show currentpoint cairo_store_point } bind def
/TJ {
  {
    dup
    type /stringtype eq
    { show } { -0.001 mul 0 cairo_font_matrix dtransform rmoveto } ifelse
  } forall
  currentpoint cairo_store_point
} bind def
/cairo_selectfont { cairo_font_matrix aload pop pop pop 0 0 6 array astore
    cairo_font exch selectfont cairo_point_x cairo_point_y moveto } bind def
/Tf { pop /cairo_font exch def /cairo_font_matrix where
      { pop cairo_selectfont } if } bind def
/Td { matrix translate cairo_font_matrix matrix concatmatrix dup
      /cairo_font_matrix exch def dup 4 get exch 5 get cairo_store_point
      /cairo_font where { pop cairo_selectfont } if } bind def
/Tm { 2 copy 8 2 roll 6 array astore /cairo_font_matrix exch def
      cairo_store_point /cairo_font where { pop cairo_selectfont } if } bind def
/g { setgray } bind def
/rg { setrgbcolor } bind def
/d1 { setcachedevice } bind def
%%EndProlog
%%BeginSetup
%%EndSetup
%%Page: 1 1
%%BeginPageSetup
%%PageBoundingBox: 44 -1 365 410
%%EndPageSetup
q 44 -1 321 411 rectclip q
1 0.854902 0.560784 rg
82.164 288.467 m 104.68 46.663 l 107.145 20.221 129.332 -0.002 155.891 
-0.002 c 253.711 -0.002 l 280.266 -0.002 302.457 20.221 304.918 46.663 c
 327.434 288.467 l h
82.164 288.467 m f
0.988235 0.823529 0.427451 rg
183.078 153.995 m 183.965 184.725 201.27 212.612 228.387 227.092 c 265.094
 246.698 l 265.094 288.467 l 82.164 288.467 l 104.68 46.663 l 107.145 20.221
 129.332 -0.002 155.891 -0.002 c 240.254 -0.002 l 187.48 3.873 181.371 94.612
 183.078 153.995 c h
183.078 153.995 m f
0.776471 0.552941 0.427451 rg
306.387 62.405 m 318.34 190.768 l 91.262 190.768 l 103.215 62.405 l h
306.387 62.405 m f
0.698039 0.470588 0.356863 rg
192.582 190.768 m 91.262 190.768 l 103.215 62.405 l 189.742 62.405 l 183.191
 91.756 182.281 126.288 183.078 153.995 c 183.457 167.038 186.797 179.561
 192.582 190.768 c h
192.582 190.768 m f
0.341176 0.337255 0.360784 rg
189.043 96.827 m 165.184 111.846 l 156.719 117.178 153.652 128.303 158.68
 136.952 c 163.957 146.034 175.66 148.858 184.473 143.311 c 196.602 135.674
 l 201.594 132.53 207.945 132.53 212.938 135.674 c 225.066 143.311 l 233.691
 148.741 245.082 146.151 250.512 137.526 c 255.941 128.905 253.352 117.51
 244.727 112.08 c 220.496 96.823 l 210.887 90.772 198.652 90.772 189.043
 96.827 c h
189.043 96.827 m f
1 0.45098 0.490196 rg
231.82 103.955 m 228.34 112.784 217.566 119.221 204.805 119.221 c 192.031
 119.221 181.246 112.768 177.777 103.924 c 189.047 96.827 l 198.66 90.776
 210.891 90.776 220.504 96.827 c h
231.82 103.955 m f
0.341176 0.337255 0.360784 rg
271.273 133.319 m 267.859 133.319 265.094 136.088 265.094 139.498 c 265.094
 149.76 l 265.094 153.174 267.859 155.94 271.273 155.94 c 274.688 155.94
 277.453 153.174 277.453 149.76 c 277.453 139.498 l 277.453 136.088 274.688
 133.319 271.273 133.319 c h
271.273 133.319 m f
138.328 133.319 m 134.914 133.319 132.148 136.088 132.148 139.498 c 132.148
 149.76 l 132.148 153.174 134.914 155.94 138.328 155.94 c 141.742 155.94
 144.508 153.174 144.508 149.76 c 144.508 139.498 l 144.508 136.088 141.742
 133.319 138.328 133.319 c h
138.328 133.319 m f
0.698039 0.470588 0.356863 rg
266.27 409.6 m 143.328 409.6 l 120.438 409.6 100.84 393.19 96.82 370.651
 c 82.164 288.467 l 327.434 288.467 l 312.777 370.651 l 308.762 393.19 289.164
 409.6 266.27 409.6 c h
266.27 409.6 m f
0.576471 0.356863 0.270588 rg
234.039 409.6 m 143.328 409.6 l 120.438 409.6 100.84 393.19 96.82 370.651
 c 82.164 288.467 l 172.875 288.467 l 187.531 370.651 l 191.547 393.19 211.145
 409.6 234.039 409.6 c h
234.039 409.6 m f
204.801 357.354 m 222.359 357.354 236.727 371.721 236.727 389.28 c 236.727
 409.6 l 172.875 409.6 l 172.875 389.28 l 172.875 371.721 187.238 357.354
 204.801 357.354 c h
204.801 357.354 m f
0.466667 0.282353 0.223529 rg
234.039 409.6 m 172.871 409.6 l 172.871 389.28 l 172.871 378.635 178.16
 369.17 186.23 363.362 c 187.531 370.651 l 191.547 393.19 211.145 409.6 
234.039 409.6 c h
234.039 409.6 m f
0.776471 0.552941 0.427451 rg
322.91 246.698 m 86.688 246.698 l 63.715 246.698 44.918 265.495 44.918 
288.467 c 44.918 311.44 63.715 330.237 86.688 330.237 c 322.91 330.237 l
 345.883 330.237 364.68 311.44 364.68 288.467 c 364.68 265.495 345.887 246.698
 322.91 246.698 c h
322.91 246.698 m f
0.698039 0.470588 0.356863 rg
149.961 288.467 m 149.961 311.44 168.758 330.237 191.73 330.237 c 86.688
 330.237 l 63.715 330.237 44.918 311.44 44.918 288.467 c 44.918 265.495 
63.715 246.698 86.688 246.698 c 191.73 246.698 l 168.758 246.698 149.961
 265.495 149.961 288.467 c h
149.961 288.467 m f
Q Q
showpage
%%Trailer
end restore
%%EOF
