%!PS-Adobe-3.0 EPSF-3.0
%%Creator: cairo 1.14.2 (http://cairographics.org)
%%CreationDate: Fri Dec 29 09:04:44 2017
%%Pages: 1
%%DocumentData: Clean7Bit
%%LanguageLevel: 2
%%BoundingBox: 0 26 410 383
%%EndComments
%%BeginProlog
save
50 dict begin
/q { gsave } bind def
/Q { grestore } bind def
/cm { 6 array astore concat } bind def
/w { setlinewidth } bind def
/J { setlinecap } bind def
/j { setlinejoin } bind def
/M { setmiterlimit } bind def
/d { setdash } bind def
/m { moveto } bind def
/l { lineto } bind def
/c { curveto } bind def
/h { closepath } bind def
/re { exch dup neg 3 1 roll 5 3 roll moveto 0 rlineto
      0 exch rlineto 0 rlineto closepath } bind def
/S { stroke } bind def
/f { fill } bind def
/f* { eofill } bind def
/n { newpath } bind def
/W { clip } bind def
/W* { eoclip } bind def
/BT { } bind def
/ET { } bind def
/pdfmark where { pop globaldict /?pdfmark /exec load put }
    { globaldict begin /?pdfmark /pop load def /pdfmark
    /cleartomark load def end } ifelse
/BDC { mark 3 1 roll /BDC pdfmark } bind def
/EMC { mark /EMC pdfmark } bind def
/cairo_store_point { /cairo_point_y exch def /cairo_point_x exch def } def
/Tj { show currentpoint cairo_store_point } bind def
/TJ {
  {
    dup
    type /stringtype eq
    { show } { -0.001 mul 0 cairo_font_matrix dtransform rmoveto } ifelse
  } forall
  currentpoint cairo_store_point
} bind def
/cairo_selectfont { cairo_font_matrix aload pop pop pop 0 0 6 array astore
    cairo_font exch selectfont cairo_point_x cairo_point_y moveto } bind def
/Tf { pop /cairo_font exch def /cairo_font_matrix where
      { pop cairo_selectfont } if } bind def
/Td { matrix translate cairo_font_matrix matrix concatmatrix dup
      /cairo_font_matrix exch def dup 4 get exch 5 get cairo_store_point
      /cairo_font where { pop cairo_selectfont } if } bind def
/Tm { 2 copy 8 2 roll 6 array astore /cairo_font_matrix exch def
      cairo_store_point /cairo_font where { pop cairo_selectfont } if } bind def
/g { setgray } bind def
/rg { setrgbcolor } bind def
/d1 { setcachedevice } bind def
%%EndProlog
%%BeginSetup
%%EndSetup
%%Page: 1 1
%%BeginPageSetup
%%PageBoundingBox: 0 26 410 383
%%EndPageSetup
q 0 26 410 357 rectclip q
0.913725 0.964706 1 rg
324.68 221.248 m 84.918 221.248 l 84.918 342.94 l 84.918 364.745 102.594
 382.42 124.398 382.42 c 285.203 382.42 l 307.004 382.42 324.68 364.745 
324.68 342.94 c h
324.68 221.248 m f
0.792157 0.905882 0.988235 rg
324.68 272.741 m 324.68 272.741 146.98 220.139 141.539 382.42 c 124.398
 382.42 l 102.594 382.42 84.918 364.745 84.918 342.94 c 84.918 221.252 l
 324.68 221.252 l h
324.68 272.741 m f
0.341176 0.337255 0.360784 rg
271.273 279.213 m 267.859 279.213 265.094 281.979 265.094 285.393 c 265.094
 295.655 l 265.094 299.069 267.859 301.834 271.273 301.834 c 274.688 301.834
 277.453 299.069 277.453 295.655 c 277.453 285.393 l 277.453 281.979 274.688
 279.213 271.273 279.213 c h
271.273 279.213 m f
138.328 279.213 m 134.914 279.213 132.145 281.979 132.145 285.393 c 132.145
 295.655 l 132.145 299.069 134.914 301.834 138.328 301.834 c 141.742 301.834
 144.508 299.069 144.508 295.655 c 144.508 285.393 l 144.508 281.979 141.742
 279.213 138.328 279.213 c h
138.328 279.213 m f
204.801 272.741 m 196.801 272.741 188.801 275.33 182.125 280.506 c 179.426
 282.6 178.938 286.483 181.031 289.178 c 183.121 291.877 187.004 292.37 
189.703 290.276 c 198.594 283.377 211.008 283.377 219.898 290.276 c 222.594
 292.37 226.48 291.877 228.57 289.178 c 230.664 286.483 230.172 282.6 227.477
 280.506 c 220.801 275.327 212.801 272.741 204.801 272.741 c h
204.801 272.741 m f
0.470588 0.462745 0.501961 rg
375.777 27.178 m 33.82 27.178 l 15.141 27.178 0 42.323 0 61.002 c 0 149.311
 l 0 196.209 38.02 234.229 84.918 234.229 c 324.68 234.229 l 371.578 234.229
 409.602 196.209 409.602 149.311 c 409.602 61.002 l 409.602 42.323 394.457
 27.178 375.777 27.178 c h
375.777 27.178 m f
0.243137 0.239216 0.258824 rg
84.922 234.229 239.758 -207.047 re f
0.176471 0.176471 0.188235 rg
164.629 61.002 m 164.629 200.405 l 164.629 219.088 179.77 234.229 198.449
 234.229 c 84.918 234.229 l 84.918 27.182 l 198.449 27.182 l 179.77 27.178
 164.629 42.323 164.629 61.002 c h
164.629 61.002 m f
0.341176 0.337255 0.360784 rg
84.922 234.229 239.758 -100.105 re f
0.243137 0.239216 0.258824 rg
198.449 234.229 m 84.918 234.229 l 84.918 134.12 l 164.629 134.12 l 164.629
 200.405 l 164.629 219.088 179.77 234.229 198.449 234.229 c h
198.449 234.229 m f
1 0.854902 0.560784 rg
286.992 184.17 m 286.992 175.526 279.98 168.514 271.332 168.514 c 262.688
 168.514 255.676 175.526 255.676 184.17 c 255.676 192.819 262.688 199.83
 271.332 199.83 c 279.98 199.83 286.992 192.819 286.992 184.17 c h
286.992 184.17 m f
1 0.713726 0.333333 rg
207.82 168.514 m 135.309 168.514 l 126.695 168.514 119.648 175.561 119.648
 184.174 c 119.648 192.788 126.695 199.838 135.309 199.838 c 207.82 199.838
 l 216.434 199.838 223.48 192.791 223.48 184.174 c 223.48 175.561 216.434
 168.514 207.82 168.514 c h
207.82 168.514 m f
0.937255 0.580392 0.227451 rg
164.629 199.834 m 135.309 199.834 l 126.695 199.834 119.645 192.788 119.645
 184.174 c 119.645 175.561 126.695 168.514 135.309 168.514 c 164.629 168.514
 l h
164.629 199.834 m f
0.470588 0.462745 0.501961 rg
300.84 27.178 m 108.758 27.178 l 108.758 42.873 l 108.758 58.666 121.562
 71.471 137.355 71.471 c 272.246 71.471 l 288.039 71.471 300.84 58.666 300.84
 42.873 c h
300.84 27.178 m f
0.341176 0.337255 0.360784 rg
182.496 71.471 m 137.355 71.471 l 121.562 71.471 108.758 58.666 108.758
 42.873 c 108.758 27.178 l 153.898 27.178 l 153.898 42.873 l 153.898 58.666
 166.703 71.471 182.496 71.471 c h
182.496 71.471 m f
Q Q
showpage
%%Trailer
end restore
%%EOF
