%!PS-Adobe-3.0 EPSF-3.0
%%Creator: cairo 1.14.2 (http://cairographics.org)
%%CreationDate: Fri Dec 29 09:04:44 2017
%%Pages: 1
%%DocumentData: Clean7Bit
%%LanguageLevel: 2
%%BoundingBox: 17 -1 392 410
%%EndComments
%%BeginProlog
save
50 dict begin
/q { gsave } bind def
/Q { grestore } bind def
/cm { 6 array astore concat } bind def
/w { setlinewidth } bind def
/J { setlinecap } bind def
/j { setlinejoin } bind def
/M { setmiterlimit } bind def
/d { setdash } bind def
/m { moveto } bind def
/l { lineto } bind def
/c { curveto } bind def
/h { closepath } bind def
/re { exch dup neg 3 1 roll 5 3 roll moveto 0 rlineto
      0 exch rlineto 0 rlineto closepath } bind def
/S { stroke } bind def
/f { fill } bind def
/f* { eofill } bind def
/n { newpath } bind def
/W { clip } bind def
/W* { eoclip } bind def
/BT { } bind def
/ET { } bind def
/pdfmark where { pop globaldict /?pdfmark /exec load put }
    { globaldict begin /?pdfmark /pop load def /pdfmark
    /cleartomark load def end } ifelse
/BDC { mark 3 1 roll /BDC pdfmark } bind def
/EMC { mark /EMC pdfmark } bind def
/cairo_store_point { /cairo_point_y exch def /cairo_point_x exch def } def
/Tj { show currentpoint cairo_store_point } bind def
/TJ {
  {
    dup
    type /stringtype eq
    { show } { -0.001 mul 0 cairo_font_matrix dtransform rmoveto } ifelse
  } forall
  currentpoint cairo_store_point
} bind def
/cairo_selectfont { cairo_font_matrix aload pop pop pop 0 0 6 array astore
    cairo_font exch selectfont cairo_point_x cairo_point_y moveto } bind def
/Tf { pop /cairo_font exch def /cairo_font_matrix where
      { pop cairo_selectfont } if } bind def
/Td { matrix translate cairo_font_matrix matrix concatmatrix dup
      /cairo_font_matrix exch def dup 4 get exch 5 get cairo_store_point
      /cairo_font where { pop cairo_selectfont } if } bind def
/Tm { 2 copy 8 2 roll 6 array astore /cairo_font_matrix exch def
      cairo_store_point /cairo_font where { pop cairo_selectfont } if } bind def
/g { setgray } bind def
/rg { setrgbcolor } bind def
/d1 { setcachedevice } bind def
%%EndProlog
%%BeginSetup
%%EndSetup
%%Page: 1 1
%%BeginPageSetup
%%PageBoundingBox: 17 -1 392 410
%%EndPageSetup
q 17 -1 375 411 rectclip q
0.486275 0.517647 0.909804 rg
304.145 -0.002 m 92.895 -0.002 l 64.648 -0.002 41.75 22.897 41.75 51.143
 c 41.75 358.291 l 41.75 386.538 64.648 409.436 92.895 409.436 c 304.145
 409.436 l 332.391 409.436 355.285 386.538 355.285 358.291 c 355.285 51.143
 l 355.285 22.897 332.387 -0.002 304.145 -0.002 c h
304.145 -0.002 m f
0.768627 0.784314 0.960784 rg
340.586 0.166 m 129.336 0.166 l 101.09 0.166 78.191 23.065 78.191 51.307
 c 78.191 358.455 l 78.191 386.702 101.09 409.6 129.336 409.6 c 340.586 
409.6 l 368.828 409.6 391.727 386.702 391.727 358.455 c 391.727 51.307 l
 391.727 23.065 368.828 0.166 340.586 0.166 c h
340.586 0.166 m f
0.654902 0.678431 0.941176 rg
243.844 409.6 m 129.336 409.6 l 101.09 409.6 78.191 386.702 78.191 358.455
 c 78.191 51.307 l 78.191 23.065 101.09 0.166 129.336 0.166 c 188.461 0.166
 l 148.641 287.58 243.844 409.6 243.844 409.6 c h
243.844 409.6 m f
0.913725 0.964706 1 rg
307.262 297.768 m 190.195 297.768 l 173.883 297.768 160.531 311.12 160.531
 327.432 c 160.531 343.745 173.879 357.096 190.195 357.096 c 307.262 357.096
 l 323.574 357.096 336.926 343.745 336.926 327.432 c 336.926 311.116 323.574
 297.768 307.262 297.768 c h
307.262 297.768 m f
190.195 357.092 m 173.883 357.092 160.531 343.745 160.531 327.432 c 160.531
 311.12 173.879 297.768 190.195 297.768 c 197.25 297.768 l 203.188 321.448
 209.891 341.159 216.328 357.092 c h
190.195 357.092 m f
0.341176 0.337255 0.360784 rg
262.625 228.069 m 234.832 228.069 l 229.414 228.049 226.293 226.627 226.371
 222.205 c 226.633 207.772 229.707 181.366 248.73 181.366 c 267.75 181.366
 270.824 207.772 271.086 222.205 c 271.164 226.627 268.043 228.053 262.625
 228.069 c h
262.625 228.069 m f
1 0.45098 0.490196 rg
248.73 204.94 m 241.082 204.94 234.277 202.28 229.891 198.139 c 232.953
 188.913 238.562 181.366 248.73 181.366 c 258.895 181.366 264.504 188.913
 267.566 198.139 c 263.18 202.28 256.375 204.94 248.73 204.94 c h
248.73 204.94 m f
0.341176 0.337255 0.360784 rg
315.176 217.784 m 311.762 217.784 308.996 220.549 308.996 223.959 c 308.996
 234.217 l 308.996 237.631 311.762 240.397 315.176 240.397 c 318.586 240.397
 321.352 237.631 321.352 234.217 c 321.352 223.959 l 321.355 220.549 318.586
 217.784 315.176 217.784 c h
315.176 217.784 m f
182.281 217.784 m 178.871 217.784 176.105 220.549 176.105 223.959 c 176.105
 234.217 l 176.105 237.631 178.871 240.397 182.281 240.397 c 185.695 240.397
 188.461 237.631 188.461 234.217 c 188.461 223.959 l 188.461 220.549 185.695
 217.784 182.281 217.784 c h
182.281 217.784 m f
0.470588 0.462745 0.501961 rg
85.148 325.053 m 38.355 325.053 l 27.09 325.053 17.871 334.272 17.871 345.534
 c 17.871 356.799 27.09 366.014 38.355 366.014 c 85.148 366.014 l 96.414
 366.014 105.629 356.799 105.629 345.534 c 105.629 334.272 96.414 325.053
 85.148 325.053 c h
85.148 325.053 m f
85.148 254.729 m 38.355 254.729 l 27.09 254.729 17.871 263.944 17.871 275.209
 c 17.871 286.475 27.09 295.69 38.355 295.69 c 85.148 295.69 l 96.414 295.69
 105.629 286.475 105.629 275.209 c 105.629 263.944 96.414 254.729 85.148
 254.729 c h
85.148 254.729 m f
85.148 184.401 m 38.355 184.401 l 27.09 184.401 17.871 193.62 17.871 204.881
 c 17.871 216.147 27.09 225.366 38.355 225.366 c 85.148 225.366 l 96.414
 225.366 105.629 216.147 105.629 204.881 c 105.629 193.62 96.414 184.401
 85.148 184.401 c h
85.148 184.401 m f
85.148 114.077 m 38.355 114.077 l 27.09 114.077 17.871 123.291 17.871 134.557
 c 17.871 145.823 27.09 155.038 38.355 155.038 c 85.148 155.038 l 96.414
 155.038 105.629 145.823 105.629 134.557 c 105.629 123.291 96.414 114.077
 85.148 114.077 c h
85.148 114.077 m f
85.148 43.748 m 38.355 43.748 l 27.09 43.748 17.871 52.967 17.871 64.229
 c 17.871 75.495 27.09 84.709 38.355 84.709 c 85.148 84.709 l 96.414 84.709
 105.629 75.495 105.629 64.229 c 105.629 52.967 96.414 43.748 85.148 43.748
 c h
85.148 43.748 m f
Q Q
showpage
%%Trailer
end restore
%%EOF
