%!PS-Adobe-3.0 EPSF-3.0
%%Creator: cairo 1.14.2 (http://cairographics.org)
%%CreationDate: Fri Dec 29 09:04:44 2017
%%Pages: 1
%%DocumentData: Clean7Bit
%%LanguageLevel: 2
%%BoundingBox: 28 -1 382 410
%%EndComments
%%BeginProlog
save
50 dict begin
/q { gsave } bind def
/Q { grestore } bind def
/cm { 6 array astore concat } bind def
/w { setlinewidth } bind def
/J { setlinecap } bind def
/j { setlinejoin } bind def
/M { setmiterlimit } bind def
/d { setdash } bind def
/m { moveto } bind def
/l { lineto } bind def
/c { curveto } bind def
/h { closepath } bind def
/re { exch dup neg 3 1 roll 5 3 roll moveto 0 rlineto
      0 exch rlineto 0 rlineto closepath } bind def
/S { stroke } bind def
/f { fill } bind def
/f* { eofill } bind def
/n { newpath } bind def
/W { clip } bind def
/W* { eoclip } bind def
/BT { } bind def
/ET { } bind def
/pdfmark where { pop globaldict /?pdfmark /exec load put }
    { globaldict begin /?pdfmark /pop load def /pdfmark
    /cleartomark load def end } ifelse
/BDC { mark 3 1 roll /BDC pdfmark } bind def
/EMC { mark /EMC pdfmark } bind def
/cairo_store_point { /cairo_point_y exch def /cairo_point_x exch def } def
/Tj { show currentpoint cairo_store_point } bind def
/TJ {
  {
    dup
    type /stringtype eq
    { show } { -0.001 mul 0 cairo_font_matrix dtransform rmoveto } ifelse
  } forall
  currentpoint cairo_store_point
} bind def
/cairo_selectfont { cairo_font_matrix aload pop pop pop 0 0 6 array astore
    cairo_font exch selectfont cairo_point_x cairo_point_y moveto } bind def
/Tf { pop /cairo_font exch def /cairo_font_matrix where
      { pop cairo_selectfont } if } bind def
/Td { matrix translate cairo_font_matrix matrix concatmatrix dup
      /cairo_font_matrix exch def dup 4 get exch 5 get cairo_store_point
      /cairo_font where { pop cairo_selectfont } if } bind def
/Tm { 2 copy 8 2 roll 6 array astore /cairo_font_matrix exch def
      cairo_store_point /cairo_font where { pop cairo_selectfont } if } bind def
/g { setgray } bind def
/rg { setrgbcolor } bind def
/d1 { setcachedevice } bind def
%%EndProlog
%%BeginSetup
%%EndSetup
%%Page: 1 1
%%BeginPageSetup
%%PageBoundingBox: 28 -1 382 410
%%EndPageSetup
q 28 -1 354 411 rectclip q
0.243137 0.239216 0.258824 rg
35.672 170.85 m 23.043 155.928 27.613 131.291 45.887 115.827 c 64.156 100.362
 89.207 99.92 101.84 114.838 c 114.469 129.76 109.898 154.397 91.625 169.862
 c 73.355 185.327 48.305 185.768 35.672 170.85 c h
85.898 128.334 m 81.465 123.096 69.48 123.217 59.379 131.768 c 49.277 140.319
 47.18 152.116 51.613 157.354 c 56.051 162.592 68.031 162.471 78.133 153.92
 c 88.234 145.37 90.332 133.573 85.898 128.334 c h
85.898 128.334 m f
0.913725 0.964706 1 rg
263.633 138.334 m 263.633 86.694 221.77 69.366 170.125 69.366 c 118.48 
69.366 76.617 86.694 76.617 138.334 c 76.617 189.979 118.48 247.077 170.125
 247.077 c 221.77 247.077 263.633 189.979 263.633 138.334 c h
263.633 138.334 m f
0.792157 0.905882 0.988235 rg
159.664 69.616 m 163.098 69.448 166.59 69.366 170.125 69.366 c 221.77 69.366
 263.633 86.69 263.633 138.334 c 263.633 189.979 221.77 247.077 170.125 
247.077 c 147.383 247.077 126.535 236.002 110.328 219.202 c 127.379 208.553
 186.055 169.139 188.988 129.174 c 190.754 105.096 176.309 84.78 159.664
 69.616 c h
159.664 69.616 m f
0.776471 0.552941 0.427451 rg
76.617 138.334 m 76.617 86.694 118.48 69.366 170.125 69.366 c 221.77 69.366
 263.633 86.69 263.633 138.334 c 263.633 143.241 263.254 148.198 262.523
 153.147 c 77.723 153.147 l 76.996 148.198 76.617 143.241 76.617 138.334
 c h
76.617 138.334 m f
0.698039 0.470588 0.356863 rg
159.664 69.616 m 163.098 69.448 166.59 69.366 170.125 69.366 c 221.77 69.366
 263.633 86.69 263.633 138.334 c 263.633 143.241 263.254 148.198 262.523
 153.147 c 181.156 153.147 l 185.512 145.334 188.395 137.264 188.988 129.174
 c 190.754 105.096 176.309 84.78 159.664 69.616 c h
159.664 69.616 m f
0.243137 0.239216 0.258824 rg
170.125 262.248 m 129.031 262.248 93.43 244.256 76.078 218.022 c 65.801
 202.483 76.902 181.756 95.527 181.756 c 244.723 181.756 l 263.348 181.756
 274.445 202.483 264.172 218.022 c 246.82 244.256 211.219 262.248 170.125
 262.248 c h
170.125 262.248 m f
0.176471 0.176471 0.188235 rg
264.172 218.018 m 246.82 244.256 211.223 262.248 170.125 262.248 c 161.656
 262.248 153.43 261.471 145.539 260.03 c 167.492 250.702 201.664 228.784
 206.605 181.756 c 244.723 181.756 l 263.348 181.756 274.445 202.483 264.172
 218.018 c h
264.172 218.018 m f
0.341176 0.337255 0.360784 rg
267.648 256.467 m 122.984 256.467 l 95.16 256.467 72.602 279.026 72.602
 306.854 c 72.602 409.6 l 267.648 409.6 l h
267.648 256.467 m f
0.243137 0.239216 0.258824 rg
143.133 380.705 m 157.355 371.795 l 182.879 355.811 198.379 327.815 198.379
 297.698 c 198.379 256.467 l 267.648 256.467 l 267.648 409.6 l 143.133 409.6
 l h
143.133 380.705 m f
0.792157 0.905882 0.988235 rg
280.133 380.705 m 68.988 380.705 l 61.043 380.705 54.539 387.205 54.539
 395.151 c 54.539 403.1 61.043 409.6 68.988 409.6 c 280.133 409.6 l 288.078
 409.6 294.578 403.1 294.578 395.151 c 294.582 387.205 288.078 380.705 280.133
 380.705 c h
280.133 380.705 m f
0.580392 0.796078 0.929412 rg
280.133 409.6 m 148.047 409.6 l 155.992 409.6 162.492 403.1 162.492 395.151
 c 162.492 387.205 155.992 380.705 148.047 380.705 c 280.133 380.705 l 288.078
 380.705 294.578 387.205 294.578 395.151 c 294.582 403.1 288.078 409.6 280.133
 409.6 c h
280.133 409.6 m f
0.470588 0.462745 0.501961 rg
263.633 409.6 m 263.633 153.635 l 263.633 109.479 227.836 73.686 183.68
 73.686 c 98.859 73.686 l 84.359 73.686 72.602 61.928 72.602 47.424 c 72.602
 26.26 l 72.602 11.756 84.359 -0.002 98.859 -0.002 c 325.75 -0.002 l 356.301
 -0.002 381.066 24.764 381.066 55.315 c 381.066 369.854 l 381.066 391.803
 363.27 409.6 341.316 409.6 c h
263.633 409.6 m f
1 0.45098 0.490196 rg
345.953 63.213 m 345.953 50.178 335.383 39.608 322.348 39.608 c 309.312
 39.608 298.746 50.178 298.746 63.213 c 298.746 76.248 309.312 86.815 322.348
 86.815 c 335.383 86.815 345.953 76.248 345.953 63.213 c h
345.953 63.213 m f
1 0.333333 0.333333 rg
322.348 63.209 m 322.348 71.944 327.105 79.569 334.156 83.651 c 330.684
 85.663 326.648 86.815 322.348 86.815 c 309.312 86.815 298.746 76.245 298.746
 63.209 c 298.746 50.174 309.312 39.608 322.348 39.608 c 326.648 39.608 
330.688 40.76 334.156 42.768 c 327.105 46.85 322.348 54.475 322.348 63.209
 c h
322.348 63.209 m f
0.913725 0.964706 1 rg
322.348 116.479 m 309.367 116.479 298.746 127.1 298.746 140.08 c 298.746
 314.651 l 298.746 327.635 309.367 338.256 322.348 338.256 c 335.332 338.256
 345.953 327.635 345.953 314.651 c 345.953 140.08 l 345.953 127.1 335.332
 116.479 322.348 116.479 c h
322.348 116.479 m f
0.729412 0.921569 0.956863 rg
322.348 140.08 m 322.348 314.651 l 322.348 323.342 327.117 330.971 334.156
 335.069 c 330.68 337.092 326.641 338.256 322.348 338.256 c 309.367 338.256
 298.746 327.635 298.746 314.655 c 298.746 140.084 l 298.746 127.1 309.367
 116.479 322.348 116.479 c 326.641 116.479 330.68 117.643 334.156 119.666
 c 327.117 123.764 322.348 131.393 322.348 140.08 c h
322.348 140.08 m f
0.792157 0.905882 0.988235 rg
298.746 248.366 m 298.746 140.08 l 298.746 127.1 309.367 116.479 322.348
 116.479 c 335.332 116.479 345.953 127.1 345.953 140.08 c 345.953 248.366
 l h
298.746 248.366 m f
0.580392 0.796078 0.929412 rg
322.348 140.08 m 322.348 248.366 l 298.746 248.366 l 298.746 140.08 l 298.746
 127.1 309.367 116.479 322.348 116.479 c 326.641 116.479 330.68 117.643 
334.156 119.666 c 327.117 123.764 322.348 131.393 322.348 140.08 c h
322.348 140.08 m f
Q Q
showpage
%%Trailer
end restore
%%EOF
