%!PS-Adobe-3.0 EPSF-3.0
%%Creator: cairo 1.14.2 (http://cairographics.org)
%%CreationDate: Fri Dec 29 09:04:44 2017
%%Pages: 1
%%DocumentData: Clean7Bit
%%LanguageLevel: 2
%%BoundingBox: 47 -1 363 410
%%EndComments
%%BeginProlog
save
50 dict begin
/q { gsave } bind def
/Q { grestore } bind def
/cm { 6 array astore concat } bind def
/w { setlinewidth } bind def
/J { setlinecap } bind def
/j { setlinejoin } bind def
/M { setmiterlimit } bind def
/d { setdash } bind def
/m { moveto } bind def
/l { lineto } bind def
/c { curveto } bind def
/h { closepath } bind def
/re { exch dup neg 3 1 roll 5 3 roll moveto 0 rlineto
      0 exch rlineto 0 rlineto closepath } bind def
/S { stroke } bind def
/f { fill } bind def
/f* { eofill } bind def
/n { newpath } bind def
/W { clip } bind def
/W* { eoclip } bind def
/BT { } bind def
/ET { } bind def
/pdfmark where { pop globaldict /?pdfmark /exec load put }
    { globaldict begin /?pdfmark /pop load def /pdfmark
    /cleartomark load def end } ifelse
/BDC { mark 3 1 roll /BDC pdfmark } bind def
/EMC { mark /EMC pdfmark } bind def
/cairo_store_point { /cairo_point_y exch def /cairo_point_x exch def } def
/Tj { show currentpoint cairo_store_point } bind def
/TJ {
  {
    dup
    type /stringtype eq
    { show } { -0.001 mul 0 cairo_font_matrix dtransform rmoveto } ifelse
  } forall
  currentpoint cairo_store_point
} bind def
/cairo_selectfont { cairo_font_matrix aload pop pop pop 0 0 6 array astore
    cairo_font exch selectfont cairo_point_x cairo_point_y moveto } bind def
/Tf { pop /cairo_font exch def /cairo_font_matrix where
      { pop cairo_selectfont } if } bind def
/Td { matrix translate cairo_font_matrix matrix concatmatrix dup
      /cairo_font_matrix exch def dup 4 get exch 5 get cairo_store_point
      /cairo_font where { pop cairo_selectfont } if } bind def
/Tm { 2 copy 8 2 roll 6 array astore /cairo_font_matrix exch def
      cairo_store_point /cairo_font where { pop cairo_selectfont } if } bind def
/g { setgray } bind def
/rg { setrgbcolor } bind def
/d1 { setcachedevice } bind def
%%EndProlog
%%BeginSetup
%%EndSetup
%%Page: 1 1
%%BeginPageSetup
%%PageBoundingBox: 47 -1 363 410
%%EndPageSetup
q 47 -1 316 411 rectclip q
1 0.333333 0.333333 rg
293.105 -0.001 m 116.496 -0.001 l 99.867 -0.001 86.387 13.48 86.387 30.109
 c 86.387 74.101 l 323.215 74.101 l 323.215 30.109 l 323.215 13.48 309.734
 -0.001 293.105 -0.001 c h
293.105 -0.001 m f
0.819608 0.258824 0.258824 rg
265.133 44.691 m 265.133 74.097 l 86.387 74.097 l 86.387 30.109 l 86.387
 13.48 99.867 -0.001 116.496 -0.001 c 232.242 -0.001 l 232.238 43.96 265.133
 44.691 265.133 44.691 c h
265.133 44.691 m f
0.243137 0.239216 0.258824 rg
169.164 260.339 71.281 -142.551 re f
0.470588 0.462745 0.501961 rg
327.184 44.691 m 82.418 44.691 l 63.023 44.691 47.301 60.413 47.301 79.808
 c 47.301 103.077 l 47.301 127.019 62.477 148.296 85.09 156.163 c 116 166.917
 161.523 179.55 204.801 179.55 c 248.078 179.55 293.602 166.917 324.512 
156.163 c 347.125 148.296 362.301 127.019 362.301 103.077 c 362.301 79.808
 l 362.301 60.413 346.578 44.691 327.184 44.691 c h
327.184 44.691 m f
0.341176 0.337255 0.360784 rg
181.266 73.847 m 176.797 96.761 187.422 120.003 207.23 132.363 c 270.23
 171.679 l 249.312 176.292 226.77 179.55 204.801 179.55 c 161.527 179.55
 116 166.917 85.09 156.163 c 62.477 148.296 47.301 127.019 47.301 103.077
 c 47.301 79.808 l 47.301 60.413 63.023 44.691 82.418 44.691 c 204.355 44.691
 l 190.105 49.784 183.703 61.363 181.266 73.847 c h
181.266 73.847 m f
1 0.45098 0.490196 rg
304.828 316.316 m 304.828 264.796 259.844 223.03 204.355 223.03 c 148.867
 223.03 103.887 264.796 103.887 316.316 c 103.887 367.835 148.867 409.601
 204.355 409.601 c 259.844 409.601 304.828 367.835 304.828 316.316 c h
304.828 316.316 m f
1 0.333333 0.333333 rg
185.695 312.296 m 185.695 352.015 212.438 385.933 250.117 399.386 c 236.391
 405.917 220.836 409.601 204.355 409.601 c 148.867 409.601 103.887 367.839
 103.887 316.32 c 103.887 264.8 148.867 223.038 204.355 223.038 c 217.062
 223.038 229.215 225.234 240.402 229.23 c 207.922 244.687 185.695 276.077
 185.695 312.296 c h
185.695 312.296 m f
Q Q
showpage
%%Trailer
end restore
%%EOF
