%!PS-Adobe-3.0 EPSF-3.0
%%Creator: cairo 1.14.2 (http://cairographics.org)
%%CreationDate: Fri Dec 29 09:04:44 2017
%%Pages: 1
%%DocumentData: Clean7Bit
%%LanguageLevel: 2
%%BoundingBox: 0 30 410 379
%%EndComments
%%BeginProlog
save
50 dict begin
/q { gsave } bind def
/Q { grestore } bind def
/cm { 6 array astore concat } bind def
/w { setlinewidth } bind def
/J { setlinecap } bind def
/j { setlinejoin } bind def
/M { setmiterlimit } bind def
/d { setdash } bind def
/m { moveto } bind def
/l { lineto } bind def
/c { curveto } bind def
/h { closepath } bind def
/re { exch dup neg 3 1 roll 5 3 roll moveto 0 rlineto
      0 exch rlineto 0 rlineto closepath } bind def
/S { stroke } bind def
/f { fill } bind def
/f* { eofill } bind def
/n { newpath } bind def
/W { clip } bind def
/W* { eoclip } bind def
/BT { } bind def
/ET { } bind def
/pdfmark where { pop globaldict /?pdfmark /exec load put }
    { globaldict begin /?pdfmark /pop load def /pdfmark
    /cleartomark load def end } ifelse
/BDC { mark 3 1 roll /BDC pdfmark } bind def
/EMC { mark /EMC pdfmark } bind def
/cairo_store_point { /cairo_point_y exch def /cairo_point_x exch def } def
/Tj { show currentpoint cairo_store_point } bind def
/TJ {
  {
    dup
    type /stringtype eq
    { show } { -0.001 mul 0 cairo_font_matrix dtransform rmoveto } ifelse
  } forall
  currentpoint cairo_store_point
} bind def
/cairo_selectfont { cairo_font_matrix aload pop pop pop 0 0 6 array astore
    cairo_font exch selectfont cairo_point_x cairo_point_y moveto } bind def
/Tf { pop /cairo_font exch def /cairo_font_matrix where
      { pop cairo_selectfont } if } bind def
/Td { matrix translate cairo_font_matrix matrix concatmatrix dup
      /cairo_font_matrix exch def dup 4 get exch 5 get cairo_store_point
      /cairo_font where { pop cairo_selectfont } if } bind def
/Tm { 2 copy 8 2 roll 6 array astore /cairo_font_matrix exch def
      cairo_store_point /cairo_font where { pop cairo_selectfont } if } bind def
/g { setgray } bind def
/rg { setrgbcolor } bind def
/d1 { setcachedevice } bind def
%%EndProlog
%%BeginSetup
%%EndSetup
%%Page: 1 1
%%BeginPageSetup
%%PageBoundingBox: 0 30 410 379
%%EndPageSetup
q 0 30 410 349 rectclip q
1 0.780392 0.231373 rg
35.414 160.764 m 310.328 160.764 l 310.328 361.514 l 67.645 361.514 l 49.844
 361.514 35.414 347.08 35.414 329.28 c h
35.414 160.764 m f
0.976471 0.705882 0.227451 rg
310.328 361.514 m 102.238 361.514 l 85.113 325.229 68.453 262.502 76.336
 160.764 c 310.328 160.764 l h
310.328 361.514 m f
1 0.854902 0.560784 rg
236.559 348.643 m 227.719 329.342 l 221.629 316.057 208.359 307.541 193.746
 307.541 c 32.234 307.541 l 14.43 307.541 0 293.108 0 275.307 c 0 63.534
 l 0 45.729 14.43 31.299 32.234 31.299 c 377.367 31.299 l 395.168 31.299
 409.598 45.729 409.598 63.534 c 409.598 346.069 l 409.598 363.87 395.168
 378.299 377.367 378.299 c 282.773 378.299 l 262.895 378.303 244.84 366.713
 236.559 348.643 c h
236.559 348.643 m f
0.988235 0.823529 0.427451 rg
167.371 184.229 m 169.781 215.37 192.605 240.819 223.168 247.252 c 293.824
 262.116 321.359 339.963 330.758 378.303 c 282.773 378.303 l 262.895 378.303
 244.84 366.713 236.559 348.643 c 227.719 329.342 l 221.629 316.057 208.359
 307.541 193.746 307.541 c 32.234 307.541 l 14.43 307.541 0 293.108 0 275.307
 c 0 63.534 l 0 45.729 14.43 31.299 32.234 31.299 c 231.82 31.299 l 170.371
 59.022 163.258 131.123 167.371 184.229 c h
167.371 184.229 m f
0.341176 0.337255 0.360784 rg
189.043 174.213 m 165.184 189.237 l 156.719 194.569 153.652 205.69 158.676
 214.338 c 163.953 223.424 175.66 226.248 184.473 220.698 c 196.598 213.061
 l 201.594 209.92 207.945 209.92 212.938 213.061 c 225.066 220.698 l 233.691
 226.127 245.078 223.538 250.512 214.916 c 255.941 206.291 253.352 194.901
 244.727 189.471 c 220.496 174.213 l 210.887 168.163 198.652 168.163 189.043
 174.213 c h
189.043 174.213 m f
1 0.45098 0.490196 rg
231.824 181.342 m 228.34 190.17 217.566 196.608 204.809 196.608 c 192.031
 196.608 181.246 190.155 177.777 181.311 c 189.047 174.213 l 198.66 168.163
 210.891 168.163 220.504 174.213 c h
231.824 181.342 m f
0.341176 0.337255 0.360784 rg
271.273 210.709 m 267.859 210.709 265.09 213.475 265.09 216.889 c 265.09
 227.151 l 265.09 230.565 267.859 233.33 271.273 233.33 c 274.688 233.33
 277.453 230.565 277.453 227.151 c 277.453 216.889 l 277.453 213.475 274.688
 210.709 271.273 210.709 c h
271.273 210.709 m f
138.328 210.709 m 134.914 210.709 132.148 213.475 132.148 216.889 c 132.148
 227.151 l 132.148 230.565 134.914 233.33 138.328 233.33 c 141.742 233.33
 144.508 230.565 144.508 227.151 c 144.508 216.889 l 144.508 213.475 141.742
 210.709 138.328 210.709 c h
138.328 210.709 m f
0.913725 0.964706 1 rg
116.434 187.741 m 100.02 187.741 l 94.652 187.741 90.258 192.135 90.258
 197.502 c 90.258 202.873 94.652 207.268 100.02 207.268 c 116.434 207.268
 l 121.801 207.268 126.195 202.873 126.195 197.502 c 126.195 192.135 121.801
 187.741 116.434 187.741 c h
116.434 187.741 m f
309.582 187.741 m 293.168 187.741 l 287.797 187.741 283.406 192.135 283.406
 197.502 c 283.406 202.873 287.797 207.268 293.168 207.268 c 309.582 207.268
 l 314.949 207.268 319.344 202.873 319.344 197.502 c 319.344 192.135 314.949
 187.741 309.582 187.741 c h
309.582 187.741 m f
Q Q
showpage
%%Trailer
end restore
%%EOF
