%!PS-Adobe-3.0 EPSF-3.0
%%Creator: cairo 1.14.2 (http://cairographics.org)
%%CreationDate: Fri Dec 29 09:04:44 2017
%%Pages: 1
%%DocumentData: Clean7Bit
%%LanguageLevel: 2
%%BoundingBox: 50 -1 359 410
%%EndComments
%%BeginProlog
save
50 dict begin
/q { gsave } bind def
/Q { grestore } bind def
/cm { 6 array astore concat } bind def
/w { setlinewidth } bind def
/J { setlinecap } bind def
/j { setlinejoin } bind def
/M { setmiterlimit } bind def
/d { setdash } bind def
/m { moveto } bind def
/l { lineto } bind def
/c { curveto } bind def
/h { closepath } bind def
/re { exch dup neg 3 1 roll 5 3 roll moveto 0 rlineto
      0 exch rlineto 0 rlineto closepath } bind def
/S { stroke } bind def
/f { fill } bind def
/f* { eofill } bind def
/n { newpath } bind def
/W { clip } bind def
/W* { eoclip } bind def
/BT { } bind def
/ET { } bind def
/pdfmark where { pop globaldict /?pdfmark /exec load put }
    { globaldict begin /?pdfmark /pop load def /pdfmark
    /cleartomark load def end } ifelse
/BDC { mark 3 1 roll /BDC pdfmark } bind def
/EMC { mark /EMC pdfmark } bind def
/cairo_store_point { /cairo_point_y exch def /cairo_point_x exch def } def
/Tj { show currentpoint cairo_store_point } bind def
/TJ {
  {
    dup
    type /stringtype eq
    { show } { -0.001 mul 0 cairo_font_matrix dtransform rmoveto } ifelse
  } forall
  currentpoint cairo_store_point
} bind def
/cairo_selectfont { cairo_font_matrix aload pop pop pop 0 0 6 array astore
    cairo_font exch selectfont cairo_point_x cairo_point_y moveto } bind def
/Tf { pop /cairo_font exch def /cairo_font_matrix where
      { pop cairo_selectfont } if } bind def
/Td { matrix translate cairo_font_matrix matrix concatmatrix dup
      /cairo_font_matrix exch def dup 4 get exch 5 get cairo_store_point
      /cairo_font where { pop cairo_selectfont } if } bind def
/Tm { 2 copy 8 2 roll 6 array astore /cairo_font_matrix exch def
      cairo_store_point /cairo_font where { pop cairo_selectfont } if } bind def
/g { setgray } bind def
/rg { setrgbcolor } bind def
/d1 { setcachedevice } bind def
%%EndProlog
%%BeginSetup
%%EndSetup
%%Page: 1 1
%%BeginPageSetup
%%PageBoundingBox: 50 -1 359 410
%%EndPageSetup
q 50 -1 309 411 rectclip q
0.482353 0.858824 0.596078 rg
316.605 204.799 m 316.605 240.819 327.566 272.538 344.195 291.1 c 353.641
 301.639 358.688 315.393 358.688 329.541 c 358.688 357.913 l 358.691 386.459
 335.547 409.6 307.004 409.6 c 102.598 409.6 l 74.051 409.6 50.91 386.459
 50.91 357.913 c 50.91 329.541 l 50.91 315.393 55.961 301.639 65.402 291.1
 c 82.035 272.538 92.996 240.815 92.996 204.799 c 92.996 168.784 82.035 
137.061 65.402 118.498 c 55.961 107.959 50.91 94.205 50.91 80.057 c 50.91
 51.686 l 50.91 23.143 74.051 -0.002 102.598 -0.002 c 307.004 -0.002 l 335.547
 -0.002 358.691 23.139 358.691 51.686 c 358.691 80.057 l 358.691 94.205 
353.641 107.959 344.199 118.498 c 327.566 137.061 316.605 168.784 316.605
 204.799 c h
316.605 204.799 m f
0.364706 0.788235 0.47451 rg
167.09 51.686 m 167.09 80.057 l 167.09 94.205 172.137 107.959 181.578 118.498
 c 198.211 137.061 209.172 168.784 209.172 204.799 c 209.172 240.815 198.211
 272.538 181.578 291.1 c 172.137 301.639 167.09 315.393 167.09 329.541 c
 167.09 357.913 l 167.09 386.459 190.23 409.6 218.777 409.6 c 102.598 409.6
 l 74.051 409.6 50.91 386.459 50.91 357.913 c 50.91 329.541 l 50.91 315.393
 55.961 301.639 65.402 291.1 c 82.035 272.538 92.996 240.815 92.996 204.799
 c 92.996 168.784 82.035 137.061 65.402 118.498 c 55.961 107.959 50.91 94.205
 50.91 80.057 c 50.91 51.686 l 50.91 23.143 74.051 -0.002 102.598 -0.002
 c 218.777 -0.002 l 190.23 -0.002 167.09 23.139 167.09 51.686 c h
167.09 51.686 m f
0.172549 0.686275 0.47451 rg
150.262 409.6 m 150.262 123.862 l 150.262 93.741 174.68 69.323 204.801 
69.323 c 234.922 69.323 259.336 93.741 259.336 123.862 c 259.336 409.6 l
 h
150.262 409.6 m f
0.117647 0.619608 0.392157 rg
204.801 132.799 m 174.68 132.799 150.262 157.217 150.262 187.338 c 150.262
 123.862 l 150.262 93.741 174.68 69.323 204.801 69.323 c 234.922 69.323 
259.336 93.741 259.336 123.862 c 259.336 187.338 l 259.336 157.217 234.922
 132.799 204.801 132.799 c h
204.801 132.799 m f
0.792157 0.905882 0.988235 rg
189.777 71.436 m 194.555 70.069 199.586 69.323 204.801 69.323 c 234.922
 69.323 259.336 93.741 259.336 123.862 c 259.336 409.6 l 189.777 409.6 l
 h
189.777 71.436 m f
0.580392 0.796078 0.929412 rg
204.801 69.323 m 234.922 69.323 259.336 93.741 259.336 123.862 c 259.336
 187.338 l 259.336 157.217 234.922 132.799 204.801 132.799 c 199.586 132.799
 194.551 133.545 189.777 134.913 c 189.777 71.436 l 194.555 70.069 199.586
 69.323 204.801 69.323 c h
204.801 69.323 m f
242.734 239.463 m 242.734 229.42 234.594 221.284 224.555 221.284 c 214.512
 221.284 206.375 229.42 206.375 239.463 c 206.375 249.502 214.512 257.643
 224.555 257.643 c 234.594 257.643 242.734 249.502 242.734 239.463 c h
242.734 239.463 m f
Q Q
showpage
%%Trailer
end restore
%%EOF
