%!PS-Adobe-3.0 EPSF-3.0
%%Creator: cairo 1.14.2 (http://cairographics.org)
%%CreationDate: Fri Dec 29 09:04:44 2017
%%Pages: 1
%%DocumentData: Clean7Bit
%%LanguageLevel: 2
%%BoundingBox: 77 -1 333 410
%%EndComments
%%BeginProlog
save
50 dict begin
/q { gsave } bind def
/Q { grestore } bind def
/cm { 6 array astore concat } bind def
/w { setlinewidth } bind def
/J { setlinecap } bind def
/j { setlinejoin } bind def
/M { setmiterlimit } bind def
/d { setdash } bind def
/m { moveto } bind def
/l { lineto } bind def
/c { curveto } bind def
/h { closepath } bind def
/re { exch dup neg 3 1 roll 5 3 roll moveto 0 rlineto
      0 exch rlineto 0 rlineto closepath } bind def
/S { stroke } bind def
/f { fill } bind def
/f* { eofill } bind def
/n { newpath } bind def
/W { clip } bind def
/W* { eoclip } bind def
/BT { } bind def
/ET { } bind def
/pdfmark where { pop globaldict /?pdfmark /exec load put }
    { globaldict begin /?pdfmark /pop load def /pdfmark
    /cleartomark load def end } ifelse
/BDC { mark 3 1 roll /BDC pdfmark } bind def
/EMC { mark /EMC pdfmark } bind def
/cairo_store_point { /cairo_point_y exch def /cairo_point_x exch def } def
/Tj { show currentpoint cairo_store_point } bind def
/TJ {
  {
    dup
    type /stringtype eq
    { show } { -0.001 mul 0 cairo_font_matrix dtransform rmoveto } ifelse
  } forall
  currentpoint cairo_store_point
} bind def
/cairo_selectfont { cairo_font_matrix aload pop pop pop 0 0 6 array astore
    cairo_font exch selectfont cairo_point_x cairo_point_y moveto } bind def
/Tf { pop /cairo_font exch def /cairo_font_matrix where
      { pop cairo_selectfont } if } bind def
/Td { matrix translate cairo_font_matrix matrix concatmatrix dup
      /cairo_font_matrix exch def dup 4 get exch 5 get cairo_store_point
      /cairo_font where { pop cairo_selectfont } if } bind def
/Tm { 2 copy 8 2 roll 6 array astore /cairo_font_matrix exch def
      cairo_store_point /cairo_font where { pop cairo_selectfont } if } bind def
/g { setgray } bind def
/rg { setrgbcolor } bind def
/d1 { setcachedevice } bind def
%%EndProlog
%%BeginSetup
%%EndSetup
%%Page: 1 1
%%BeginPageSetup
%%PageBoundingBox: 77 -1 333 410
%%EndPageSetup
q 77 -1 256 411 rectclip q
1 0.647059 0.709804 rg
170.898 322.988 m 110.832 311.386 l 97.043 382.784 l 95.074 392.964 101.734
 402.808 111.91 404.773 c 135.117 409.257 l 145.293 411.222 155.137 404.566
 157.105 394.386 c h
170.898 322.988 m f
1 0.45098 0.490196 rg
124.617 388.788 m 122.977 397.284 127.348 405.546 134.754 409.187 c 111.91
 404.773 l 101.73 402.808 95.074 392.964 97.039 382.784 c 110.832 311.386
 l 138.582 316.745 l h
124.617 388.788 m f
1 0.854902 0.560784 rg
178.086 285.792 m 118.027 274.191 l 99.234 371.452 l 159.293 383.058 l 
h
178.086 285.792 m f
0.988235 0.823529 0.427451 rg
159.293 383.05 m 99.23 371.448 l 113.863 295.71 l 134.355 331.698 166.891
 343.734 166.891 343.734 c h
159.293 383.05 m f
0.431373 0.462745 0.898039 rg
278.129 292.499 m 270.277 294.167 265.223 301.956 266.895 309.808 c 275.887
 352.03 l 277.555 359.878 285.344 364.933 293.195 363.261 c 301.043 361.589
 306.098 353.8 304.426 345.952 c 295.438 303.73 l 293.766 295.882 285.977
 290.827 278.129 292.499 c h
278.129 292.499 m f
0.654902 0.678431 0.941176 rg
258.793 239.972 m 198.473 252.816 l 224.68 375.902 l 227.426 388.792 240.102
 397.019 252.996 394.277 c 266.621 391.374 l 279.516 388.628 287.742 375.952
 284.996 363.058 c h
258.793 239.972 m f
0.486275 0.517647 0.909804 rg
253.953 371.796 m 255.891 380.902 262.789 387.675 271.211 389.902 c 269.762
 390.534 268.23 391.03 266.621 391.374 c 252.992 394.277 l 240.102 397.023
 227.422 388.796 224.68 375.902 c 198.473 252.816 l 224.637 247.245 l h
253.953 371.796 m f
0.792157 0.905882 0.988235 rg
266.621 391.374 m 252.992 394.277 l 240.102 397.023 227.422 388.792 224.68
 375.902 c 222.184 364.175 l 282.5 351.331 l 284.996 363.058 l 287.742 375.952
 279.516 388.628 266.621 391.374 c h
266.621 391.374 m f
0.580392 0.796078 0.929412 rg
271.211 389.902 m 269.762 390.534 268.23 391.03 266.621 391.374 c 252.992
 394.277 l 240.102 397.023 227.422 388.796 224.68 375.902 c 222.184 364.175
 l 250.73 358.097 l 253.953 371.796 l 255.891 380.902 262.789 387.675 271.211
 389.902 c h
271.211 389.902 m f
0.470588 0.462745 0.501961 rg
141.992 278.808 m 123.199 376.07 l 135.336 378.413 l 154.129 281.152 l 
h
141.992 278.808 m f
0.341176 0.337255 0.360784 rg
144.559 330.663 m 135.332 378.421 l 123.195 376.077 l 133.758 321.382 l
 137.438 324.952 141.094 328.034 144.559 330.663 c h
144.559 330.663 m f
0.792157 0.905882 0.988235 rg
165.617 351.741 m 105.023 340.038 l 96.398 338.37 87.98 344.062 86.312 
352.687 c 84.648 361.312 90.34 369.73 98.965 371.398 c 159.559 383.101 l
 168.184 384.769 176.602 379.077 178.27 370.452 c 179.934 361.827 174.242
 353.409 165.617 351.741 c h
165.617 351.741 m f
0.580392 0.796078 0.929412 rg
129.262 377.249 m 98.965 371.398 l 90.34 369.734 84.648 361.312 86.312 
352.691 c 87.98 344.066 96.398 338.37 105.023 340.038 c 135.32 345.89 l 
135.32 345.89 124.641 345.585 121.977 358.499 c 119.309 371.413 129.262 
377.249 129.262 377.249 c h
129.262 377.249 m f
1 0.713726 0.333333 rg
268.488 -0.001 m 141.113 -0.001 l 128.68 -0.001 118.598 10.081 118.598 
22.519 c 118.598 57.124 l 291.004 57.124 l 291.004 22.519 l 291.004 10.081
 280.922 -0.001 268.488 -0.001 c h
268.488 -0.001 m f
0.956863 0.635294 0.25098 rg
118.598 57.124 m 118.598 22.519 l 118.598 10.081 128.676 -0.001 141.113
 -0.001 c 175.34 -0.001 l 181.152 8.628 191.242 15.476 208.398 16.769 c 
240.66 19.195 269.285 40.843 286.527 57.124 c h
118.598 57.124 m f
1 0.768627 0.466667 rg
259.23 37.585 m 150.371 37.585 l 110.176 37.585 77.59 70.167 77.59 110.363
 c 77.59 269.948 l 77.59 288.167 92.359 302.937 110.582 302.937 c 299.02
 302.937 l 317.242 302.937 332.012 288.167 332.012 269.948 c 332.012 110.363
 l 332.012 70.167 299.426 37.585 259.23 37.585 c h
259.23 37.585 m f
1 0.713726 0.333333 rg
135.629 212.925 m 135.398 245.081 156.184 273.62 186.844 283.308 c 248.969
 302.937 l 110.578 302.937 l 92.359 302.937 77.59 288.167 77.59 269.948 
c 77.59 110.363 l 77.59 70.167 110.176 37.585 150.371 37.585 c 226.43 37.585
 l 149.727 56.179 136.066 150.843 135.629 212.925 c h
135.629 212.925 m f
0.341176 0.337255 0.360784 rg
271.273 137.71 m 267.859 137.71 265.094 140.48 265.094 143.894 c 265.094
 154.155 l 265.094 157.566 267.859 160.335 271.273 160.335 c 274.688 160.335
 277.453 157.566 277.453 154.155 c 277.453 143.894 l 277.453 140.48 274.688
 137.71 271.273 137.71 c h
271.273 137.71 m f
138.328 137.71 m 134.914 137.71 132.145 140.48 132.145 143.894 c 132.145
 154.155 l 132.145 157.566 134.914 160.335 138.328 160.335 c 141.742 160.335
 144.508 157.566 144.508 154.155 c 144.508 143.894 l 144.508 140.48 141.742
 137.71 138.328 137.71 c h
138.328 137.71 m f
204.801 131.238 m 196.801 131.238 188.801 133.827 182.125 139.007 c 179.426
 141.097 178.938 144.98 181.031 147.679 c 183.121 150.378 187.004 150.866
 189.703 148.773 c 198.594 141.878 211.008 141.878 219.898 148.773 c 222.594
 150.866 226.48 150.378 228.57 147.679 c 230.664 144.98 230.172 141.097 
227.477 139.007 c 220.801 133.827 212.801 131.238 204.801 131.238 c h
204.801 131.238 m f
Q Q
showpage
%%Trailer
end restore
%%EOF
