%!PS-Adobe-3.0 EPSF-3.0
%%Creator: cairo 1.14.2 (http://cairographics.org)
%%CreationDate: Fri Dec 29 09:04:44 2017
%%Pages: 1
%%DocumentData: Clean7Bit
%%LanguageLevel: 2
%%BoundingBox: 124 -1 286 410
%%EndComments
%%BeginProlog
save
50 dict begin
/q { gsave } bind def
/Q { grestore } bind def
/cm { 6 array astore concat } bind def
/w { setlinewidth } bind def
/J { setlinecap } bind def
/j { setlinejoin } bind def
/M { setmiterlimit } bind def
/d { setdash } bind def
/m { moveto } bind def
/l { lineto } bind def
/c { curveto } bind def
/h { closepath } bind def
/re { exch dup neg 3 1 roll 5 3 roll moveto 0 rlineto
      0 exch rlineto 0 rlineto closepath } bind def
/S { stroke } bind def
/f { fill } bind def
/f* { eofill } bind def
/n { newpath } bind def
/W { clip } bind def
/W* { eoclip } bind def
/BT { } bind def
/ET { } bind def
/pdfmark where { pop globaldict /?pdfmark /exec load put }
    { globaldict begin /?pdfmark /pop load def /pdfmark
    /cleartomark load def end } ifelse
/BDC { mark 3 1 roll /BDC pdfmark } bind def
/EMC { mark /EMC pdfmark } bind def
/cairo_store_point { /cairo_point_y exch def /cairo_point_x exch def } def
/Tj { show currentpoint cairo_store_point } bind def
/TJ {
  {
    dup
    type /stringtype eq
    { show } { -0.001 mul 0 cairo_font_matrix dtransform rmoveto } ifelse
  } forall
  currentpoint cairo_store_point
} bind def
/cairo_selectfont { cairo_font_matrix aload pop pop pop 0 0 6 array astore
    cairo_font exch selectfont cairo_point_x cairo_point_y moveto } bind def
/Tf { pop /cairo_font exch def /cairo_font_matrix where
      { pop cairo_selectfont } if } bind def
/Td { matrix translate cairo_font_matrix matrix concatmatrix dup
      /cairo_font_matrix exch def dup 4 get exch 5 get cairo_store_point
      /cairo_font where { pop cairo_selectfont } if } bind def
/Tm { 2 copy 8 2 roll 6 array astore /cairo_font_matrix exch def
      cairo_store_point /cairo_font where { pop cairo_selectfont } if } bind def
/g { setgray } bind def
/rg { setrgbcolor } bind def
/d1 { setcachedevice } bind def
%%EndProlog
%%BeginSetup
%%EndSetup
%%Page: 1 1
%%BeginPageSetup
%%PageBoundingBox: 124 -1 286 410
%%EndPageSetup
q 124 -1 162 411 rectclip q
0.364706 0.788235 0.47451 rg
204.801 0.002 m 160.457 0.002 124.512 35.947 124.512 80.287 c 124.512 286.697
 l 124.512 300.685 135.855 312.029 149.844 312.029 c 259.754 312.029 l 273.746
 312.029 285.09 300.689 285.09 286.697 c 285.09 80.287 l 285.09 35.947 249.141
 0.002 204.801 0.002 c h
204.801 0.002 m f
0.172549 0.686275 0.47451 rg
207.93 30.021 m 200.93 39.423 203.488 52.802 213.434 59.002 c 223.188 65.08
 l 219.773 312.029 l 149.844 312.029 l 135.855 312.029 124.512 300.685 124.512
 286.693 c 124.512 80.287 l 124.512 35.947 160.457 -0.002 204.801 -0.002
 c 216.574 -0.002 227.754 2.533 237.828 7.084 c 223.152 13.412 213.809 22.127
 207.93 30.021 c h
207.93 30.021 m f
0.792157 0.905882 0.988235 rg
242.512 129.47 m 167.09 129.47 l 167.09 342.486 l 167.09 351.802 170.793
 360.74 177.379 367.33 c 214.875 404.826 l 225.074 415.025 242.512 407.802
 242.512 393.38 c h
242.512 129.47 m f
0.580392 0.796078 0.929412 rg
242.512 363.728 m 242.512 393.38 l 242.512 407.802 225.074 415.025 214.875
 404.826 c 177.379 367.33 l 170.793 360.74 167.09 351.802 167.09 342.486
 c 167.09 288.306 l h
242.512 363.728 m f
167.09 150.845 m 242.512 226.267 l 242.512 294.998 l 167.09 219.576 l h
167.09 150.845 m f
1 0.854902 0.560784 rg
223.188 65.08 m 186.414 65.08 l 175.742 65.08 167.09 73.732 167.09 84.408
 c 167.09 161.322 l 167.09 171.998 175.742 180.646 186.414 180.646 c 223.188
 180.646 l 233.859 180.646 242.512 171.998 242.512 161.322 c 242.512 84.408
 l 242.512 73.732 233.859 65.08 223.188 65.08 c h
223.188 65.08 m f
0.988235 0.823529 0.427451 rg
200.574 84.408 m 200.574 161.322 l 200.574 171.998 209.227 180.646 219.898
 180.646 c 186.414 180.646 l 175.742 180.646 167.09 171.998 167.09 161.322
 c 167.09 84.408 l 167.09 73.732 175.742 65.08 186.414 65.08 c 219.898 65.08
 l 209.227 65.08 200.574 73.732 200.574 84.408 c h
200.574 84.408 m f
0.341176 0.337255 0.360784 rg
135.316 40.045 m 149.211 16.103 175.125 0.002 204.801 0.002 c 234.477 0.002
 260.391 16.103 274.285 40.045 c h
135.316 40.045 m f
0.243137 0.239216 0.258824 rg
204.801 0.002 m 216.57 0.002 227.758 2.537 237.828 7.087 c 223.16 13.412
 213.809 22.127 207.93 30.021 c 205.66 33.068 204.402 36.537 204.07 40.041
 c 135.316 40.041 l 149.211 16.103 175.125 0.002 204.801 0.002 c h
204.801 0.002 m f
Q Q
showpage
%%Trailer
end restore
%%EOF
