%!PS-Adobe-3.0 EPSF-3.0
%%Creator: cairo 1.14.2 (http://cairographics.org)
%%CreationDate: Fri Dec 29 09:04:44 2017
%%Pages: 1
%%DocumentData: Clean7Bit
%%LanguageLevel: 2
%%BoundingBox: 72 -1 338 410
%%EndComments
%%BeginProlog
save
50 dict begin
/q { gsave } bind def
/Q { grestore } bind def
/cm { 6 array astore concat } bind def
/w { setlinewidth } bind def
/J { setlinecap } bind def
/j { setlinejoin } bind def
/M { setmiterlimit } bind def
/d { setdash } bind def
/m { moveto } bind def
/l { lineto } bind def
/c { curveto } bind def
/h { closepath } bind def
/re { exch dup neg 3 1 roll 5 3 roll moveto 0 rlineto
      0 exch rlineto 0 rlineto closepath } bind def
/S { stroke } bind def
/f { fill } bind def
/f* { eofill } bind def
/n { newpath } bind def
/W { clip } bind def
/W* { eoclip } bind def
/BT { } bind def
/ET { } bind def
/pdfmark where { pop globaldict /?pdfmark /exec load put }
    { globaldict begin /?pdfmark /pop load def /pdfmark
    /cleartomark load def end } ifelse
/BDC { mark 3 1 roll /BDC pdfmark } bind def
/EMC { mark /EMC pdfmark } bind def
/cairo_store_point { /cairo_point_y exch def /cairo_point_x exch def } def
/Tj { show currentpoint cairo_store_point } bind def
/TJ {
  {
    dup
    type /stringtype eq
    { show } { -0.001 mul 0 cairo_font_matrix dtransform rmoveto } ifelse
  } forall
  currentpoint cairo_store_point
} bind def
/cairo_selectfont { cairo_font_matrix aload pop pop pop 0 0 6 array astore
    cairo_font exch selectfont cairo_point_x cairo_point_y moveto } bind def
/Tf { pop /cairo_font exch def /cairo_font_matrix where
      { pop cairo_selectfont } if } bind def
/Td { matrix translate cairo_font_matrix matrix concatmatrix dup
      /cairo_font_matrix exch def dup 4 get exch 5 get cairo_store_point
      /cairo_font where { pop cairo_selectfont } if } bind def
/Tm { 2 copy 8 2 roll 6 array astore /cairo_font_matrix exch def
      cairo_store_point /cairo_font where { pop cairo_selectfont } if } bind def
/g { setgray } bind def
/rg { setrgbcolor } bind def
/d1 { setcachedevice } bind def
%%EndProlog
%%BeginSetup
%%EndSetup
%%Page: 1 1
%%BeginPageSetup
%%PageBoundingBox: 72 -1 338 410
%%EndPageSetup
q 72 -1 266 411 rectclip q
1 0.45098 0.490196 rg
189.953 401.596 m 160.73 356.803 172.766 306.588 172.766 306.588 c 236.832
 306.588 l 236.832 306.588 248.863 356.803 219.645 401.596 c 212.68 412.268
 196.914 412.268 189.953 401.596 c h
189.953 401.596 m f
1 0.333333 0.333333 rg
222.043 397.752 m 221.277 399.038 220.477 400.319 219.645 401.596 c 212.68
 412.268 196.914 412.268 189.953 401.596 c 160.73 356.803 172.766 306.588
 172.766 306.588 c 207.254 306.588 l 207.254 306.588 195.902 353.979 222.043
 397.752 c h
222.043 397.752 m f
0.792157 0.905882 0.988235 rg
279.227 236.776 m 130.371 236.776 l 130.371 293.557 l 130.371 309.334 143.16
 322.123 158.938 322.123 c 250.66 322.123 l 266.438 322.123 279.227 309.334
 279.227 293.557 c h
279.227 236.776 m f
0.580392 0.796078 0.929412 rg
219.227 322.123 m 158.938 322.123 l 143.16 322.123 130.371 309.334 130.371
 293.557 c 130.371 236.776 l 190.664 236.776 l 190.664 293.557 l 190.664
 309.334 203.453 322.123 219.227 322.123 c h
219.227 322.123 m f
0.913725 0.964706 1 rg
295.258 -0.002 m 114.336 -0.002 l 91.113 -0.002 72.289 18.827 72.289 42.049
 c 72.289 231.159 l 72.289 254.377 91.113 273.205 114.336 273.205 c 295.258
 273.205 l 318.48 273.205 337.309 254.381 337.309 231.159 c 337.309 42.049
 l 337.309 18.827 318.48 -0.002 295.258 -0.002 c h
295.258 -0.002 m f
0.729412 0.921569 0.956863 rg
162.422 42.049 m 162.422 231.159 l 162.422 254.377 181.246 273.205 204.473
 273.205 c 114.336 273.205 l 91.113 273.205 72.289 254.381 72.289 231.159
 c 72.289 42.049 l 72.289 18.827 91.113 -0.002 114.336 -0.002 c 204.473 
-0.002 l 181.246 -0.002 162.422 18.827 162.422 42.049 c h
162.422 42.049 m f
0.490196 0.886275 0.886275 rg
72.293 201.881 265.02 -130.57 re f
0.4 0.827451 0.815686 rg
72.293 201.881 90.137 -130.57 re f
0.341176 0.337255 0.360784 rg
218.699 152.147 m 190.898 152.147 l 185.477 152.131 182.352 150.709 182.434
 146.284 c 182.695 131.842 185.77 105.428 204.797 105.428 c 223.828 105.428
 226.902 131.842 227.164 146.284 c 227.242 150.709 224.121 152.131 218.699
 152.147 c h
218.699 152.147 m f
1 0.45098 0.490196 rg
204.797 129.01 m 197.148 129.01 190.344 126.35 185.953 122.209 c 189.016
 112.975 194.629 105.428 204.797 105.428 c 214.969 105.428 220.582 112.975
 223.641 122.209 c 219.254 126.35 212.445 129.01 204.797 129.01 c h
204.797 129.01 m f
0.341176 0.337255 0.360784 rg
271.27 141.858 m 267.855 141.858 265.09 144.627 265.09 148.038 c 265.09
 158.299 l 265.09 161.713 267.855 164.483 271.27 164.483 c 274.688 164.483
 277.453 161.713 277.453 158.299 c 277.453 148.038 l 277.453 144.627 274.684
 141.858 271.27 141.858 c h
271.27 141.858 m f
138.324 141.858 m 134.91 141.858 132.145 144.627 132.145 148.038 c 132.145
 158.299 l 132.145 161.713 134.91 164.483 138.324 164.483 c 141.738 164.483
 144.504 161.713 144.504 158.299 c 144.504 148.038 l 144.508 144.627 141.738
 141.858 138.324 141.858 c h
138.324 141.858 m f
Q Q
showpage
%%Trailer
end restore
%%EOF
