%!PS-Adobe-3.0 EPSF-3.0
%%Creator: cairo 1.14.2 (http://cairographics.org)
%%CreationDate: Fri Dec 29 09:04:44 2017
%%Pages: 1
%%DocumentData: Clean7Bit
%%LanguageLevel: 2
%%BoundingBox: 15 -1 395 410
%%EndComments
%%BeginProlog
save
50 dict begin
/q { gsave } bind def
/Q { grestore } bind def
/cm { 6 array astore concat } bind def
/w { setlinewidth } bind def
/J { setlinecap } bind def
/j { setlinejoin } bind def
/M { setmiterlimit } bind def
/d { setdash } bind def
/m { moveto } bind def
/l { lineto } bind def
/c { curveto } bind def
/h { closepath } bind def
/re { exch dup neg 3 1 roll 5 3 roll moveto 0 rlineto
      0 exch rlineto 0 rlineto closepath } bind def
/S { stroke } bind def
/f { fill } bind def
/f* { eofill } bind def
/n { newpath } bind def
/W { clip } bind def
/W* { eoclip } bind def
/BT { } bind def
/ET { } bind def
/pdfmark where { pop globaldict /?pdfmark /exec load put }
    { globaldict begin /?pdfmark /pop load def /pdfmark
    /cleartomark load def end } ifelse
/BDC { mark 3 1 roll /BDC pdfmark } bind def
/EMC { mark /EMC pdfmark } bind def
/cairo_store_point { /cairo_point_y exch def /cairo_point_x exch def } def
/Tj { show currentpoint cairo_store_point } bind def
/TJ {
  {
    dup
    type /stringtype eq
    { show } { -0.001 mul 0 cairo_font_matrix dtransform rmoveto } ifelse
  } forall
  currentpoint cairo_store_point
} bind def
/cairo_selectfont { cairo_font_matrix aload pop pop pop 0 0 6 array astore
    cairo_font exch selectfont cairo_point_x cairo_point_y moveto } bind def
/Tf { pop /cairo_font exch def /cairo_font_matrix where
      { pop cairo_selectfont } if } bind def
/Td { matrix translate cairo_font_matrix matrix concatmatrix dup
      /cairo_font_matrix exch def dup 4 get exch 5 get cairo_store_point
      /cairo_font where { pop cairo_selectfont } if } bind def
/Tm { 2 copy 8 2 roll 6 array astore /cairo_font_matrix exch def
      cairo_store_point /cairo_font where { pop cairo_selectfont } if } bind def
/g { setgray } bind def
/rg { setrgbcolor } bind def
/d1 { setcachedevice } bind def
%%EndProlog
%%BeginSetup
%%EndSetup
%%Page: 1 1
%%BeginPageSetup
%%PageBoundingBox: 15 -1 395 410
%%EndPageSetup
q 15 -1 380 411 rectclip q
0.792157 0.905882 0.988235 rg
272.211 7.19 m 238.582 49.221 l 238.809 49.401 261.297 67.866 277.473 99.463
 c 298.23 140.002 299.496 183.166 281.234 227.764 c 262.445 273.643 235.73
 299.983 201.828 306.045 c 177.797 310.346 158.109 302.901 157.922 302.823
 c 137.477 352.616 l 140.883 354.014 171.906 366.08 211.309 359.034 c 247.902
 352.487 298.379 327.936 331.047 248.163 c 361.996 172.588 344.41 111.018
 324.215 72.674 c 302.621 31.682 273.441 8.17 272.211 7.19 c h
272.211 7.19 m f
1 0.854902 0.560784 rg
181.316 235.959 m 181.316 210.647 160.793 190.127 135.48 190.127 c 110.168
 190.127 89.645 210.647 89.645 235.959 c 89.645 261.276 110.168 281.795 
135.48 281.795 c 160.793 281.795 181.316 261.276 181.316 235.959 c h
181.316 235.959 m f
0.988235 0.823529 0.427451 rg
145.371 191.198 m 165.93 195.721 181.316 214.045 181.316 235.963 c 181.316
 261.276 160.793 281.799 135.48 281.799 c 110.168 281.799 89.645 261.276
 89.645 235.963 c 89.645 233.944 89.773 231.967 90.027 230.018 c 94.344 
229.131 132.859 220.428 145.371 191.198 c h
145.371 191.198 m f
0.470588 0.462745 0.501961 rg
210.742 67.905 m 201.715 67.905 194.332 75.288 194.332 84.315 c 194.332
 102.42 l 194.332 111.448 201.715 118.83 210.742 118.83 c 219.766 118.83
 227.152 111.448 227.152 102.42 c 227.152 84.315 l 227.152 75.288 219.766
 67.905 210.742 67.905 c h
210.742 67.905 m f
0.6 0.623529 0.929412 rg
366.918 -0.002 m 143.969 -0.002 l 143.969 55.155 l 143.969 74.073 159.305
 89.405 178.223 89.405 c 332.668 89.405 l 351.586 89.405 366.918 74.069 
366.918 55.155 c h
366.918 -0.002 m f
0.486275 0.517647 0.909804 rg
332.668 89.405 m 252.488 89.405 l 271.406 89.405 286.738 74.069 286.738
 55.155 c 286.738 -0.002 l 366.918 -0.002 l 366.918 55.155 l 366.918 74.073
 351.586 89.405 332.668 89.405 c h
332.668 89.405 m f
0.470588 0.462745 0.501961 rg
375.406 -0.002 m 135.48 -0.002 l 125.211 -0.002 116.809 8.405 116.809 18.674
 c 116.809 28.944 125.211 37.346 135.48 37.346 c 375.406 37.346 l 385.676
 37.346 394.082 28.944 394.082 18.674 c 394.078 8.405 385.676 -0.002 375.406
 -0.002 c h
375.406 -0.002 m f
0.341176 0.337255 0.360784 rg
375.406 37.346 m 268.062 37.346 l 278.332 37.346 286.734 28.944 286.734
 18.674 c 286.734 8.405 278.332 -0.002 268.062 -0.002 c 375.406 -0.002 l
 385.676 -0.002 394.078 8.405 394.078 18.674 c 394.078 28.944 385.676 37.346
 375.406 37.346 c h
375.406 37.346 m f
0.768627 0.784314 0.960784 rg
255.445 260.6 m 255.445 289.635 l 255.445 355.616 201.461 409.6 135.48 
409.6 c 69.504 409.6 15.52 355.616 15.52 289.639 c 15.52 260.6 l 15.52 243.752
 29.176 230.096 46.023 230.096 c 224.938 230.096 l 241.785 230.092 255.445
 243.752 255.445 260.6 c h
255.445 260.6 m f
0.654902 0.678431 0.941176 rg
135.48 409.6 m 121.324 409.6 107.707 407.112 95.07 402.553 c 141.332 385.877
 174.652 341.459 174.652 289.639 c 174.652 260.6 l 174.652 243.752 160.992
 230.096 144.145 230.096 c 224.938 230.096 l 241.785 230.096 255.441 243.752
 255.441 260.6 c 255.441 289.639 l 255.445 355.616 201.461 409.6 135.48 
409.6 c h
135.48 409.6 m f
0.341176 0.337255 0.360784 rg
119.723 263.475 m 95.863 278.498 l 87.398 283.83 84.332 294.952 89.359 
303.604 c 94.637 312.686 106.34 315.51 115.152 309.959 c 127.281 302.323
 l 132.273 299.182 138.625 299.182 143.621 302.323 c 155.746 309.959 l 164.371
 315.393 175.762 312.803 181.191 304.178 c 186.621 295.557 184.031 284.163
 175.41 278.733 c 151.176 263.475 l 141.566 257.424 129.336 257.424 119.723
 263.475 c h
119.723 263.475 m f
1 0.45098 0.490196 rg
162.504 270.604 m 159.023 279.432 148.246 285.87 135.488 285.87 c 122.715
 285.87 111.93 279.416 108.461 270.573 c 119.73 263.475 l 129.34 257.424
 141.57 257.424 151.184 263.475 c h
162.504 270.604 m f
0.341176 0.337255 0.360784 rg
201.953 299.971 m 198.539 299.971 195.773 302.737 195.773 306.151 c 195.773
 316.413 l 195.773 319.827 198.539 322.592 201.953 322.592 c 205.367 322.592
 208.133 319.827 208.133 316.413 c 208.133 306.151 l 208.137 302.737 205.367
 299.971 201.953 299.971 c h
201.953 299.971 m f
69.008 299.971 m 65.594 299.971 62.828 302.737 62.828 306.151 c 62.828 
316.413 l 62.828 319.827 65.594 322.592 69.008 322.592 c 72.426 322.592 
75.191 319.827 75.191 316.413 c 75.191 306.151 l 75.191 302.737 72.422 299.971
 69.008 299.971 c h
69.008 299.971 m f
Q Q
showpage
%%Trailer
end restore
%%EOF
