%!PS-Adobe-3.0 EPSF-3.0
%%Creator: cairo 1.14.2 (http://cairographics.org)
%%CreationDate: Fri Dec 29 09:04:44 2017
%%Pages: 1
%%DocumentData: Clean7Bit
%%LanguageLevel: 2
%%BoundingBox: 0 -1 410 410
%%EndComments
%%BeginProlog
save
50 dict begin
/q { gsave } bind def
/Q { grestore } bind def
/cm { 6 array astore concat } bind def
/w { setlinewidth } bind def
/J { setlinecap } bind def
/j { setlinejoin } bind def
/M { setmiterlimit } bind def
/d { setdash } bind def
/m { moveto } bind def
/l { lineto } bind def
/c { curveto } bind def
/h { closepath } bind def
/re { exch dup neg 3 1 roll 5 3 roll moveto 0 rlineto
      0 exch rlineto 0 rlineto closepath } bind def
/S { stroke } bind def
/f { fill } bind def
/f* { eofill } bind def
/n { newpath } bind def
/W { clip } bind def
/W* { eoclip } bind def
/BT { } bind def
/ET { } bind def
/pdfmark where { pop globaldict /?pdfmark /exec load put }
    { globaldict begin /?pdfmark /pop load def /pdfmark
    /cleartomark load def end } ifelse
/BDC { mark 3 1 roll /BDC pdfmark } bind def
/EMC { mark /EMC pdfmark } bind def
/cairo_store_point { /cairo_point_y exch def /cairo_point_x exch def } def
/Tj { show currentpoint cairo_store_point } bind def
/TJ {
  {
    dup
    type /stringtype eq
    { show } { -0.001 mul 0 cairo_font_matrix dtransform rmoveto } ifelse
  } forall
  currentpoint cairo_store_point
} bind def
/cairo_selectfont { cairo_font_matrix aload pop pop pop 0 0 6 array astore
    cairo_font exch selectfont cairo_point_x cairo_point_y moveto } bind def
/Tf { pop /cairo_font exch def /cairo_font_matrix where
      { pop cairo_selectfont } if } bind def
/Td { matrix translate cairo_font_matrix matrix concatmatrix dup
      /cairo_font_matrix exch def dup 4 get exch 5 get cairo_store_point
      /cairo_font where { pop cairo_selectfont } if } bind def
/Tm { 2 copy 8 2 roll 6 array astore /cairo_font_matrix exch def
      cairo_store_point /cairo_font where { pop cairo_selectfont } if } bind def
/g { setgray } bind def
/rg { setrgbcolor } bind def
/d1 { setcachedevice } bind def
%%EndProlog
%%BeginSetup
%%EndSetup
%%Page: 1 1
%%BeginPageSetup
%%PageBoundingBox: 0 -1 410 410
%%EndPageSetup
q 0 -1 410 411 rectclip q
0.792157 0.905882 0.988235 rg
395.773 98.561 m 311.039 13.827 l 292.602 -4.611 262.711 -4.611 244.273
 13.827 c 21.41 236.69 l 2.973 255.127 2.973 285.022 21.41 303.459 c 106.141
 388.19 l 124.578 406.627 154.473 406.627 172.91 388.19 c 395.77 165.327
 l 414.211 146.889 414.211 116.998 395.773 98.561 c h
395.773 98.561 m f
0.580392 0.796078 0.929412 rg
172.91 388.19 m 170.625 390.471 168.168 392.471 165.578 394.186 c 135.555
 367.67 82.445 304.163 75.355 182.745 c 244.273 13.827 l 262.711 -4.611 
292.602 -4.611 311.039 13.827 c 395.773 98.561 l 414.211 116.998 414.211
 146.889 395.773 165.327 c h
172.91 388.19 m f
1 0.960784 0.8 rg
73.707 184.397 m 27.492 230.612 l 178.988 382.108 l 225.207 335.893 l h
73.707 184.397 m f
1 0.780392 0.231373 rg
163.5 94.608 m 97.395 160.713 l 248.891 312.209 l 314.996 246.104 l h
163.5 94.608 m f
0.988235 0.823529 0.427451 rg
103.539 306.663 m 89.766 275.288 78.855 235.635 75.578 186.268 c 225.207
 335.893 l 178.988 382.112 l h
103.539 306.663 m f
0.729412 0.921569 0.956863 rg
409.602 167.041 m 409.602 47.213 l 409.602 21.139 388.461 -0.002 362.387
 -0.002 c 47.211 -0.002 l 21.137 -0.002 0 21.139 0 47.213 c 0 167.041 l 
0 193.116 21.137 214.252 47.211 214.252 c 362.387 214.252 l 388.461 214.252
 409.602 193.116 409.602 167.041 c h
409.602 167.041 m f
0.792157 0.905882 0.988235 rg
362.387 214.252 m 78.359 214.252 l 70.852 158.061 73.52 87.545 95.293 -0.002
 c 362.387 -0.002 l 388.461 -0.002 409.602 21.139 409.602 47.213 c 409.602
 167.041 l 409.602 193.116 388.461 214.252 362.387 214.252 c h
362.387 214.252 m f
0.490196 0.886275 0.886275 rg
55.812 214.252 65.363 -214.254 re f
0.301961 0.72549 0.756863 rg
154.66 214.252 93.492 -214.254 re f
0.4 0.827451 0.815686 rg
121.172 214.252 m 78.359 214.252 l 70.852 158.061 73.52 87.545 95.293 -0.002
 c 121.172 -0.002 l h
121.172 214.252 m f
0.913725 0.964706 1 rg
362.387 -0.002 m 242.559 -0.002 l 216.484 -0.002 195.348 21.139 195.348
 47.213 c 195.348 362.389 l 195.348 388.463 216.484 409.6 242.559 409.6 
c 362.387 409.6 l 388.461 409.6 409.602 388.463 409.602 362.389 c 409.602
 47.213 l 409.602 21.139 388.461 -0.002 362.387 -0.002 c h
362.387 -0.002 m f
0.729412 0.921569 0.956863 rg
266.043 47.213 m 266.043 362.389 l 266.043 388.463 287.184 409.6 313.258
 409.6 c 242.559 409.6 l 216.484 409.6 195.348 388.463 195.348 362.389 c
 195.348 47.213 l 195.348 21.139 216.484 0.002 242.559 0.002 c 313.258 0.002
 l 287.184 -0.002 266.043 21.139 266.043 47.213 c h
266.043 47.213 m f
1 0.45098 0.490196 rg
362.387 409.6 m 242.559 409.6 l 216.484 409.6 195.348 388.463 195.348 362.389
 c 195.348 131.073 l 409.602 131.073 l 409.602 362.389 l 409.602 388.463
 388.461 409.6 362.387 409.6 c h
362.387 409.6 m f
1 0.333333 0.333333 rg
313.258 409.6 m 242.559 409.6 l 216.484 409.6 195.348 388.463 195.348 362.389
 c 195.348 131.073 l 266.047 131.073 l 266.047 362.389 l 266.043 388.463
 287.184 409.6 313.258 409.6 c h
313.258 409.6 m f
0.537255 0.533333 0.564706 rg
375.57 55.096 m 375.57 42.217 365.133 31.78 352.258 31.78 c 339.379 31.78
 328.941 42.217 328.941 55.096 c 328.941 67.971 339.379 78.409 352.258 78.409
 c 365.133 78.409 375.57 67.971 375.57 55.096 c h
375.57 55.096 m f
0.341176 0.337255 0.360784 rg
373.172 196.725 m 369.758 196.725 366.992 199.491 366.992 202.905 c 366.992
 213.166 l 366.992 216.58 369.758 219.346 373.172 219.346 c 376.586 219.346
 379.352 216.58 379.352 213.166 c 379.352 202.905 l 379.352 199.491 376.586
 196.725 373.172 196.725 c h
373.172 196.725 m f
240.227 196.725 m 236.812 196.725 234.043 199.491 234.043 202.905 c 234.043
 213.166 l 234.043 216.58 236.812 219.346 240.227 219.346 c 243.641 219.346
 246.406 216.58 246.406 213.166 c 246.406 202.905 l 246.406 199.491 243.641
 196.725 240.227 196.725 c h
240.227 196.725 m f
306.699 190.252 m 298.699 190.252 290.699 192.842 284.023 198.018 c 281.324
 200.112 280.836 203.995 282.93 206.69 c 285.02 209.389 288.902 209.881 
291.602 207.788 c 300.492 200.893 312.906 200.893 321.797 207.788 c 324.492
 209.881 328.379 209.389 330.469 206.69 c 332.562 203.995 332.07 200.112
 329.375 198.018 c 322.699 192.842 314.699 190.252 306.699 190.252 c h
306.699 190.252 m f
Q Q
showpage
%%Trailer
end restore
%%EOF
