%!PS-Adobe-3.0 EPSF-3.0
%%Creator: cairo 1.14.2 (http://cairographics.org)
%%CreationDate: Fri Dec 29 09:04:44 2017
%%Pages: 1
%%DocumentData: Clean7Bit
%%LanguageLevel: 2
%%BoundingBox: 0 52 410 357
%%EndComments
%%BeginProlog
save
50 dict begin
/q { gsave } bind def
/Q { grestore } bind def
/cm { 6 array astore concat } bind def
/w { setlinewidth } bind def
/J { setlinecap } bind def
/j { setlinejoin } bind def
/M { setmiterlimit } bind def
/d { setdash } bind def
/m { moveto } bind def
/l { lineto } bind def
/c { curveto } bind def
/h { closepath } bind def
/re { exch dup neg 3 1 roll 5 3 roll moveto 0 rlineto
      0 exch rlineto 0 rlineto closepath } bind def
/S { stroke } bind def
/f { fill } bind def
/f* { eofill } bind def
/n { newpath } bind def
/W { clip } bind def
/W* { eoclip } bind def
/BT { } bind def
/ET { } bind def
/pdfmark where { pop globaldict /?pdfmark /exec load put }
    { globaldict begin /?pdfmark /pop load def /pdfmark
    /cleartomark load def end } ifelse
/BDC { mark 3 1 roll /BDC pdfmark } bind def
/EMC { mark /EMC pdfmark } bind def
/cairo_store_point { /cairo_point_y exch def /cairo_point_x exch def } def
/Tj { show currentpoint cairo_store_point } bind def
/TJ {
  {
    dup
    type /stringtype eq
    { show } { -0.001 mul 0 cairo_font_matrix dtransform rmoveto } ifelse
  } forall
  currentpoint cairo_store_point
} bind def
/cairo_selectfont { cairo_font_matrix aload pop pop pop 0 0 6 array astore
    cairo_font exch selectfont cairo_point_x cairo_point_y moveto } bind def
/Tf { pop /cairo_font exch def /cairo_font_matrix where
      { pop cairo_selectfont } if } bind def
/Td { matrix translate cairo_font_matrix matrix concatmatrix dup
      /cairo_font_matrix exch def dup 4 get exch 5 get cairo_store_point
      /cairo_font where { pop cairo_selectfont } if } bind def
/Tm { 2 copy 8 2 roll 6 array astore /cairo_font_matrix exch def
      cairo_store_point /cairo_font where { pop cairo_selectfont } if } bind def
/g { setgray } bind def
/rg { setrgbcolor } bind def
/d1 { setcachedevice } bind def
%%EndProlog
%%BeginSetup
%%EndSetup
%%Page: 1 1
%%BeginPageSetup
%%PageBoundingBox: 0 52 410 357
%%EndPageSetup
q 0 52 410 305 rectclip q
0.701961 0.858824 0.956863 rg
0 300.401 m 0 107.495 l 0 77.573 24.254 53.323 54.172 53.323 c 355.426 
53.323 l 385.348 53.323 409.602 77.573 409.602 107.495 c 409.602 300.401
 l h
0 300.401 m f
0.580392 0.796078 0.929412 rg
0 302.256 m 0 107.495 l 0 77.573 24.254 53.323 54.172 53.323 c 144.508 
53.323 l 121.141 53.323 113.863 64.241 113.316 76.971 c 112.508 95.768 133.172
 107.85 149.414 98.354 c 223.438 55.065 277.453 116.096 277.453 116.096 
c 409.602 244.28 l 409.602 302.256 l h
0 302.256 m f
0.792157 0.905882 0.988235 rg
355.426 53.323 m 54.172 53.323 l 36.73 53.323 21.227 61.573 11.316 74.373
 c 178.082 216.526 l 193.477 229.651 216.125 229.651 231.52 216.526 c 398.285
 74.373 l 388.375 61.573 372.867 53.323 355.426 53.323 c h
355.426 53.323 m f
0.701961 0.858824 0.956863 rg
113.316 76.975 m 112.508 95.768 133.172 107.854 149.414 98.354 c 223.438
 55.065 277.453 116.096 277.453 116.096 c 311.074 148.709 l 231.52 216.526
 l 216.121 229.651 193.477 229.651 178.082 216.526 c 11.316 74.373 l 21.227
 61.573 36.73 53.323 54.172 53.323 c 144.508 53.323 l 121.141 53.323 113.863
 64.241 113.316 76.975 c h
113.316 76.975 m f
0.913725 0.964706 1 rg
355.426 356.28 m 54.172 356.28 l 24.254 356.28 0 332.026 0 302.108 c 0 
302.108 125.637 160.002 204.801 160.002 c 283.965 160.002 409.602 302.108
 409.602 302.108 c 409.602 332.026 385.348 356.28 355.426 356.28 c h
355.426 356.28 m f
0.792157 0.905882 0.988235 rg
0 302.108 m 0 302.108 125.637 160.002 204.801 160.002 c 218.566 160.002
 233.742 164.299 249.414 171.401 c 96.66 212.588 80.562 356.28 80.562 356.28
 c 54.172 356.28 l 24.254 356.28 0 332.026 0 302.108 c h
0 302.108 m f
0.341176 0.337255 0.360784 rg
189.043 223.76 m 165.184 238.78 l 156.719 244.112 153.652 255.237 158.676
 263.885 c 163.953 272.967 175.66 275.791 184.473 270.245 c 196.598 262.608
 l 201.594 259.463 207.945 259.463 212.938 262.608 c 225.066 270.245 l 233.691
 275.674 245.078 273.084 250.512 264.459 c 255.941 255.838 253.352 244.444
 244.727 239.014 c 220.496 223.756 l 210.887 217.705 198.652 217.705 189.043
 223.76 c h
189.043 223.76 m f
1 0.45098 0.490196 rg
231.82 230.885 m 228.34 239.713 217.566 246.151 204.805 246.151 c 192.031
 246.151 181.246 239.702 177.777 230.854 c 189.047 223.76 l 198.66 217.705
 210.891 217.705 220.504 223.76 c h
231.82 230.885 m f
0.341176 0.337255 0.360784 rg
271.273 260.252 m 267.859 260.252 265.09 263.022 265.09 266.432 c 265.09
 276.694 l 265.09 280.108 267.859 282.873 271.273 282.873 c 274.688 282.873
 277.453 280.108 277.453 276.694 c 277.453 266.432 l 277.453 263.022 274.688
 260.252 271.273 260.252 c h
271.273 260.252 m f
138.328 260.252 m 134.914 260.252 132.148 263.022 132.148 266.432 c 132.148
 276.694 l 132.148 280.108 134.914 282.873 138.328 282.873 c 141.742 282.873
 144.508 280.108 144.508 276.694 c 144.508 266.432 l 144.508 263.022 141.742
 260.252 138.328 260.252 c h
138.328 260.252 m f
Q Q
showpage
%%Trailer
end restore
%%EOF
