%!PS-Adobe-3.0 EPSF-3.0
%%Creator: cairo 1.14.2 (http://cairographics.org)
%%CreationDate: Fri Dec 29 09:04:44 2017
%%Pages: 1
%%DocumentData: Clean7Bit
%%LanguageLevel: 2
%%BoundingBox: 137 -1 273 410
%%EndComments
%%BeginProlog
save
50 dict begin
/q { gsave } bind def
/Q { grestore } bind def
/cm { 6 array astore concat } bind def
/w { setlinewidth } bind def
/J { setlinecap } bind def
/j { setlinejoin } bind def
/M { setmiterlimit } bind def
/d { setdash } bind def
/m { moveto } bind def
/l { lineto } bind def
/c { curveto } bind def
/h { closepath } bind def
/re { exch dup neg 3 1 roll 5 3 roll moveto 0 rlineto
      0 exch rlineto 0 rlineto closepath } bind def
/S { stroke } bind def
/f { fill } bind def
/f* { eofill } bind def
/n { newpath } bind def
/W { clip } bind def
/W* { eoclip } bind def
/BT { } bind def
/ET { } bind def
/pdfmark where { pop globaldict /?pdfmark /exec load put }
    { globaldict begin /?pdfmark /pop load def /pdfmark
    /cleartomark load def end } ifelse
/BDC { mark 3 1 roll /BDC pdfmark } bind def
/EMC { mark /EMC pdfmark } bind def
/cairo_store_point { /cairo_point_y exch def /cairo_point_x exch def } def
/Tj { show currentpoint cairo_store_point } bind def
/TJ {
  {
    dup
    type /stringtype eq
    { show } { -0.001 mul 0 cairo_font_matrix dtransform rmoveto } ifelse
  } forall
  currentpoint cairo_store_point
} bind def
/cairo_selectfont { cairo_font_matrix aload pop pop pop 0 0 6 array astore
    cairo_font exch selectfont cairo_point_x cairo_point_y moveto } bind def
/Tf { pop /cairo_font exch def /cairo_font_matrix where
      { pop cairo_selectfont } if } bind def
/Td { matrix translate cairo_font_matrix matrix concatmatrix dup
      /cairo_font_matrix exch def dup 4 get exch 5 get cairo_store_point
      /cairo_font where { pop cairo_selectfont } if } bind def
/Tm { 2 copy 8 2 roll 6 array astore /cairo_font_matrix exch def
      cairo_store_point /cairo_font where { pop cairo_selectfont } if } bind def
/g { setgray } bind def
/rg { setrgbcolor } bind def
/d1 { setcachedevice } bind def
%%EndProlog
%%BeginSetup
%%EndSetup
%%Page: 1 1
%%BeginPageSetup
%%PageBoundingBox: 137 -1 273 410
%%EndPageSetup
q 137 -1 136 411 rectclip q
0.470588 0.462745 0.501961 rg
163.484 188.057 m 156.273 138.288 155.945 66.6 195.16 7.041 c 201.34 -2.345
 215.027 -2.345 221.207 7.041 c 260.422 66.6 260.098 138.288 252.887 188.057
 c h
163.484 188.057 m f
0.341176 0.337255 0.360784 rg
206.234 188.057 m 163.484 188.057 l 156.273 138.288 155.945 66.6 195.16
 7.041 c 201.34 -2.345 215.027 -2.345 221.207 7.041 c 222.117 8.42 223.004
 9.803 223.871 11.198 c 203.957 55.639 197.371 104.885 195.109 135.358 c
 193.75 153.678 197.617 171.959 206.234 188.057 c h
206.234 188.057 m f
1 0.854902 0.560784 rg
253.285 185.198 m 248.113 222.881 238.785 248.772 238.785 248.772 c 177.586
 248.772 l 177.586 248.772 168.258 222.881 163.086 185.198 c h
253.285 185.198 m f
0.988235 0.823529 0.427451 rg
238.785 248.772 m 177.586 248.772 l 177.586 248.772 168.258 222.881 163.086
 185.198 c 204.77 185.198 l 206.438 188.58 208.305 191.881 210.379 195.069
 c 226.199 219.385 242.168 234.643 242.934 235.37 c 240.531 243.916 238.785
 248.772 238.785 248.772 c h
238.785 248.772 m f
0.878431 0.682353 0.580392 rg
177.586 248.772 m 177.586 248.772 133.727 254.721 137.512 304.561 c 140.91
 349.303 201.242 355.916 224.969 404.256 c 228.414 411.28 238.406 411.397
 242.094 404.498 c 262.488 366.299 300.098 278.358 238.785 248.772 c h
177.586 248.772 m f
0.839216 0.627451 0.521569 rg
181.02 297.741 m 183.934 336.123 224.137 349.541 254.859 377.909 c 250.516
 388.084 245.992 397.202 242.094 404.498 c 238.406 411.401 228.414 411.28
 224.969 404.256 c 201.246 355.916 140.91 349.303 137.512 304.561 c 133.727
 254.721 177.586 248.772 177.586 248.772 c 197.801 248.772 l 187.676 257.944
 179.145 273.045 181.02 297.741 c h
181.02 297.741 m f
227.258 270.163 m 225.422 273.038 226.262 276.862 229.137 278.702 c 234.262
 281.979 237.52 286.182 239.395 291.928 c 242.555 301.612 242.023 315.666
 237.867 332.577 c 237.051 335.893 239.078 339.241 242.395 340.057 c 245.711
 340.87 249.059 338.842 249.871 335.53 c 254.648 316.1 255.078 300.143 251.148
 288.096 c 248.375 279.6 243.121 273.471 235.797 268.288 c 231.824 265.475
 228.438 268.323 227.258 270.163 c h
227.258 270.163 m f
196.844 269.248 m 194.5 271.725 194.605 275.631 197.078 277.975 c 197.844
 278.713 214.836 295.33 207.68 315.721 c 206.547 318.944 208.242 322.471
 211.465 323.604 c 214.688 324.733 218.211 323.038 219.344 319.819 c 229.195
 291.752 206.543 269.928 205.582 269.002 c 202.414 265.967 198.059 267.963
 196.844 269.248 c h
196.844 269.248 m f
Q Q
showpage
%%Trailer
end restore
%%EOF
