%!PS-Adobe-3.0 EPSF-3.0
%%Creator: cairo 1.14.2 (http://cairographics.org)
%%CreationDate: Fri Dec 29 09:04:44 2017
%%Pages: 1
%%DocumentData: Clean7Bit
%%LanguageLevel: 2
%%BoundingBox: 105 -1 304 410
%%EndComments
%%BeginProlog
save
50 dict begin
/q { gsave } bind def
/Q { grestore } bind def
/cm { 6 array astore concat } bind def
/w { setlinewidth } bind def
/J { setlinecap } bind def
/j { setlinejoin } bind def
/M { setmiterlimit } bind def
/d { setdash } bind def
/m { moveto } bind def
/l { lineto } bind def
/c { curveto } bind def
/h { closepath } bind def
/re { exch dup neg 3 1 roll 5 3 roll moveto 0 rlineto
      0 exch rlineto 0 rlineto closepath } bind def
/S { stroke } bind def
/f { fill } bind def
/f* { eofill } bind def
/n { newpath } bind def
/W { clip } bind def
/W* { eoclip } bind def
/BT { } bind def
/ET { } bind def
/pdfmark where { pop globaldict /?pdfmark /exec load put }
    { globaldict begin /?pdfmark /pop load def /pdfmark
    /cleartomark load def end } ifelse
/BDC { mark 3 1 roll /BDC pdfmark } bind def
/EMC { mark /EMC pdfmark } bind def
/cairo_store_point { /cairo_point_y exch def /cairo_point_x exch def } def
/Tj { show currentpoint cairo_store_point } bind def
/TJ {
  {
    dup
    type /stringtype eq
    { show } { -0.001 mul 0 cairo_font_matrix dtransform rmoveto } ifelse
  } forall
  currentpoint cairo_store_point
} bind def
/cairo_selectfont { cairo_font_matrix aload pop pop pop 0 0 6 array astore
    cairo_font exch selectfont cairo_point_x cairo_point_y moveto } bind def
/Tf { pop /cairo_font exch def /cairo_font_matrix where
      { pop cairo_selectfont } if } bind def
/Td { matrix translate cairo_font_matrix matrix concatmatrix dup
      /cairo_font_matrix exch def dup 4 get exch 5 get cairo_store_point
      /cairo_font where { pop cairo_selectfont } if } bind def
/Tm { 2 copy 8 2 roll 6 array astore /cairo_font_matrix exch def
      cairo_store_point /cairo_font where { pop cairo_selectfont } if } bind def
/g { setgray } bind def
/rg { setrgbcolor } bind def
/d1 { setcachedevice } bind def
%%EndProlog
%%BeginSetup
%%EndSetup
%%Page: 1 1
%%BeginPageSetup
%%PageBoundingBox: 105 -1 304 410
%%EndPageSetup
q 105 -1 199 411 rectclip q
0.470588 0.462745 0.501961 rg
245.43 0 m 164.172 0 l 151.578 0 141.371 10.207 141.371 22.801 c 141.371
 54.637 l 268.23 54.637 l 268.23 22.801 l 268.23 10.207 258.023 0 245.43
 0 c h
245.43 0 m f
0.341176 0.337255 0.360784 rg
141.371 54.637 m 141.371 22.801 l 141.371 10.207 151.578 0 164.172 0 c 
204.801 0 l 201.359 2.039 193.551 39.461 215.324 54.633 c 141.371 54.633
 l h
141.371 54.637 m f
0.580392 0.796078 0.929412 rg
193.652 404.563 m 183.926 393.523 l 177.391 386.102 173.785 376.551 173.785
 366.66 c 173.785 330.262 l 235.82 330.262 l 235.82 366.66 l 235.82 376.551
 232.215 386.102 225.676 393.523 c 215.953 404.563 l 210.035 411.281 199.566
 411.281 193.652 404.563 c h
193.652 404.563 m f
0.45098 0.717647 0.866667 rg
214.945 393.523 m 220.309 399.613 l 215.949 404.563 l 210.035 411.281 199.566
 411.281 193.652 404.563 c 183.926 393.523 l 177.391 386.102 173.781 376.551
 173.781 366.66 c 173.781 330.262 l 204.801 330.262 l 204.801 366.66 l 204.801
 376.551 208.406 386.102 214.945 393.523 c h
214.945 393.523 m f
0.470588 0.462745 0.501961 rg
268.23 219.758 m 141.371 219.758 l 141.371 319.125 l 141.371 334.309 153.68
 346.617 168.863 346.617 c 240.742 346.617 l 255.922 346.617 268.23 334.309
 268.23 319.125 c h
268.23 219.758 m f
0.341176 0.337255 0.360784 rg
229.152 346.617 m 168.863 346.617 l 153.68 346.617 141.371 334.309 141.371
 319.125 c 141.371 219.758 l 201.664 219.758 l 201.664 319.125 l 201.664
 334.309 213.973 346.617 229.152 346.617 c h
229.152 346.617 m f
0.701961 0.858824 0.956863 rg
267.508 36.523 m 142.094 36.523 l 122.133 36.523 105.953 52.703 105.953
 72.664 c 105.953 245.098 l 105.953 265.055 122.133 281.234 142.094 281.234
 c 267.508 281.234 l 287.469 281.234 303.648 265.055 303.648 245.098 c 303.648
 72.664 l 303.648 52.703 287.469 36.523 267.508 36.523 c h
267.508 36.523 m f
0.580392 0.796078 0.929412 rg
199.953 164.492 m 198.441 189.223 204.617 213.805 217.535 234.945 c 245.828
 281.234 l 142.094 281.234 l 122.133 281.234 105.953 265.055 105.953 245.098
 c 105.953 72.664 l 105.953 52.703 122.133 36.523 142.094 36.523 c 241.285
 36.523 l 211.402 60.891 202.492 122.941 199.953 164.492 c h
199.953 164.492 m f
0.341176 0.337255 0.360784 rg
218.703 154.496 m 190.898 154.496 l 185.477 154.477 182.355 153.055 182.434
 148.629 c 182.695 134.191 185.773 107.773 204.801 107.773 c 223.828 107.773
 226.906 134.191 227.168 148.629 c 227.246 153.055 224.125 154.477 218.703
 154.496 c h
218.703 154.496 m f
1 0.45098 0.490196 rg
204.801 131.359 m 197.152 131.359 190.344 128.695 185.957 124.555 c 189.02
 115.324 194.629 107.773 204.801 107.773 c 214.973 107.773 220.582 115.324
 223.645 124.555 c 219.258 128.695 212.449 131.359 204.801 131.359 c h
204.801 131.359 m f
0.341176 0.337255 0.360784 rg
271.273 144.203 m 267.859 144.203 265.094 146.973 265.094 150.387 c 265.094
 160.648 l 265.094 164.063 267.859 166.828 271.273 166.828 c 274.688 166.828
 277.457 164.063 277.457 160.648 c 277.457 150.387 l 277.457 146.973 274.688
 144.203 271.273 144.203 c h
271.273 144.203 m f
138.328 144.203 m 134.914 144.203 132.148 146.973 132.148 150.387 c 132.148
 160.648 l 132.148 164.063 134.914 166.828 138.328 166.828 c 141.742 166.828
 144.508 164.063 144.508 160.648 c 144.508 150.387 l 144.508 146.973 141.742
 144.203 138.328 144.203 c h
138.328 144.203 m f
0.580392 0.796078 0.929412 rg
267.508 281.234 m 142.094 281.234 l 122.133 281.234 105.953 265.055 105.953
 245.098 c 105.953 228.84 l 303.648 228.84 l 303.648 245.098 l 303.648 265.055
 287.469 281.234 267.508 281.234 c h
267.508 281.234 m f
0.45098 0.717647 0.866667 rg
105.957 245.098 m 105.957 228.84 l 214.066 228.84 l 215.168 230.902 216.312
 232.941 217.535 234.945 c 245.828 281.234 l 142.094 281.234 l 122.133 281.234
 105.957 265.055 105.957 245.098 c h
105.957 245.098 m f
Q Q
showpage
%%Trailer
end restore
%%EOF
