%!PS-Adobe-3.0 EPSF-3.0
%%Creator: cairo 1.14.2 (http://cairographics.org)
%%CreationDate: Fri Dec 29 09:04:44 2017
%%Pages: 1
%%DocumentData: Clean7Bit
%%LanguageLevel: 2
%%BoundingBox: 0 48 410 361
%%EndComments
%%BeginProlog
save
50 dict begin
/q { gsave } bind def
/Q { grestore } bind def
/cm { 6 array astore concat } bind def
/w { setlinewidth } bind def
/J { setlinecap } bind def
/j { setlinejoin } bind def
/M { setmiterlimit } bind def
/d { setdash } bind def
/m { moveto } bind def
/l { lineto } bind def
/c { curveto } bind def
/h { closepath } bind def
/re { exch dup neg 3 1 roll 5 3 roll moveto 0 rlineto
      0 exch rlineto 0 rlineto closepath } bind def
/S { stroke } bind def
/f { fill } bind def
/f* { eofill } bind def
/n { newpath } bind def
/W { clip } bind def
/W* { eoclip } bind def
/BT { } bind def
/ET { } bind def
/pdfmark where { pop globaldict /?pdfmark /exec load put }
    { globaldict begin /?pdfmark /pop load def /pdfmark
    /cleartomark load def end } ifelse
/BDC { mark 3 1 roll /BDC pdfmark } bind def
/EMC { mark /EMC pdfmark } bind def
/cairo_store_point { /cairo_point_y exch def /cairo_point_x exch def } def
/Tj { show currentpoint cairo_store_point } bind def
/TJ {
  {
    dup
    type /stringtype eq
    { show } { -0.001 mul 0 cairo_font_matrix dtransform rmoveto } ifelse
  } forall
  currentpoint cairo_store_point
} bind def
/cairo_selectfont { cairo_font_matrix aload pop pop pop 0 0 6 array astore
    cairo_font exch selectfont cairo_point_x cairo_point_y moveto } bind def
/Tf { pop /cairo_font exch def /cairo_font_matrix where
      { pop cairo_selectfont } if } bind def
/Td { matrix translate cairo_font_matrix matrix concatmatrix dup
      /cairo_font_matrix exch def dup 4 get exch 5 get cairo_store_point
      /cairo_font where { pop cairo_selectfont } if } bind def
/Tm { 2 copy 8 2 roll 6 array astore /cairo_font_matrix exch def
      cairo_store_point /cairo_font where { pop cairo_selectfont } if } bind def
/g { setgray } bind def
/rg { setrgbcolor } bind def
/d1 { setcachedevice } bind def
%%EndProlog
%%BeginSetup
%%EndSetup
%%Page: 1 1
%%BeginPageSetup
%%PageBoundingBox: 0 48 410 361
%%EndPageSetup
q 0 48 410 313 rectclip q
0.792157 0.905882 0.988235 rg
353.824 166.159 m 65.633 237.635 l 43.719 149.272 l 41.867 141.815 46.457
 134.202 53.914 132.35 c 61.371 130.502 68.988 135.088 70.836 142.545 c 
70.836 142.545 73.457 154.366 85.496 151.377 c 305.828 96.733 l 321.84 92.764
 338.043 102.526 342.012 118.538 c h
353.824 166.159 m f
0.580392 0.796078 0.929412 rg
173.844 129.467 m 305.828 96.733 l 321.84 92.764 338.039 102.526 342.012
 118.538 c 353.824 166.159 l 162.965 213.495 l 153.391 174.135 l 184.488
 150.432 l 190.594 145.78 191.113 136.534 185.234 131.596 c 182.617 129.401
 178.957 128.202 173.844 129.467 c h
173.844 129.467 m f
1 0.45098 0.490196 rg
332.637 129.678 m 67.316 195.483 l 37.887 202.784 19.941 232.561 27.242
 261.991 c 35.125 293.776 l 46.73 340.569 94.508 369.358 141.301 357.752
 c 343.051 307.717 l 389.844 296.112 418.633 248.33 407.027 201.541 c 399.145
 169.756 l 391.848 140.323 362.07 122.381 332.637 129.678 c h
332.637 129.678 m f
1 0.333333 0.333333 rg
343.055 307.713 m 254.699 329.627 l 274.371 314.116 276.824 289.248 274.418
 268.299 c 272.215 249.116 261.055 232.288 244.742 221.955 c 212.73 201.674
 209.113 160.315 209.113 160.315 c 332.637 129.682 l 362.07 122.381 391.844
 140.323 399.145 169.756 c 407.027 201.541 l 418.633 248.33 389.844 296.112
 343.055 307.713 c h
343.055 307.713 m f
1 0.647059 0.709804 rg
358.895 97.83 m 345.898 97.83 l 334.5 97.83 325.258 107.073 325.258 118.471
 c 325.258 165.924 l 325.258 188.827 306.52 207.565 283.617 207.565 c 260.715
 207.565 241.977 188.827 241.977 165.924 c 241.977 118.471 l 241.977 107.073
 232.734 97.83 221.336 97.83 c 24.277 97.83 l 10.926 97.83 0 86.909 0 73.553
 c 0 60.202 10.926 49.276 24.277 49.276 c 358.895 49.276 l 372.246 49.276
 383.168 60.202 383.168 73.553 c 383.172 86.909 372.246 97.83 358.895 97.83
 c h
358.895 97.83 m f
1 0.45098 0.490196 rg
358.895 97.83 m 345.898 97.83 l 334.5 97.83 325.258 107.073 325.258 118.471
 c 325.258 165.924 l 325.258 188.827 306.52 207.565 283.617 207.565 c 260.715
 207.565 241.977 188.827 241.977 165.924 c 241.977 118.471 l 241.977 107.073
 232.734 97.83 221.336 97.83 c 191.824 97.83 l 205.18 97.83 216.102 86.909
 216.102 73.557 c 216.102 60.202 205.176 49.28 191.824 49.28 c 358.891 49.28
 l 372.246 49.28 383.168 60.202 383.168 73.557 c 383.172 86.909 372.246 
97.83 358.895 97.83 c h
358.895 97.83 m f
0.470588 0.462745 0.501961 rg
302.66 162.737 m 302.66 152.33 294.227 143.893 283.82 143.893 c 273.414
 143.893 264.977 152.33 264.977 162.737 c 264.977 173.143 273.414 181.577
 283.82 181.577 c 294.227 181.577 302.66 173.143 302.66 162.737 c h
302.66 162.737 m f
Q Q
showpage
%%Trailer
end restore
%%EOF
