%!PS-Adobe-3.0 EPSF-3.0
%%Creator: cairo 1.14.2 (http://cairographics.org)
%%CreationDate: Fri Dec 29 09:04:44 2017
%%Pages: 1
%%DocumentData: Clean7Bit
%%LanguageLevel: 2
%%BoundingBox: 12 -1 398 410
%%EndComments
%%BeginProlog
save
50 dict begin
/q { gsave } bind def
/Q { grestore } bind def
/cm { 6 array astore concat } bind def
/w { setlinewidth } bind def
/J { setlinecap } bind def
/j { setlinejoin } bind def
/M { setmiterlimit } bind def
/d { setdash } bind def
/m { moveto } bind def
/l { lineto } bind def
/c { curveto } bind def
/h { closepath } bind def
/re { exch dup neg 3 1 roll 5 3 roll moveto 0 rlineto
      0 exch rlineto 0 rlineto closepath } bind def
/S { stroke } bind def
/f { fill } bind def
/f* { eofill } bind def
/n { newpath } bind def
/W { clip } bind def
/W* { eoclip } bind def
/BT { } bind def
/ET { } bind def
/pdfmark where { pop globaldict /?pdfmark /exec load put }
    { globaldict begin /?pdfmark /pop load def /pdfmark
    /cleartomark load def end } ifelse
/BDC { mark 3 1 roll /BDC pdfmark } bind def
/EMC { mark /EMC pdfmark } bind def
/cairo_store_point { /cairo_point_y exch def /cairo_point_x exch def } def
/Tj { show currentpoint cairo_store_point } bind def
/TJ {
  {
    dup
    type /stringtype eq
    { show } { -0.001 mul 0 cairo_font_matrix dtransform rmoveto } ifelse
  } forall
  currentpoint cairo_store_point
} bind def
/cairo_selectfont { cairo_font_matrix aload pop pop pop 0 0 6 array astore
    cairo_font exch selectfont cairo_point_x cairo_point_y moveto } bind def
/Tf { pop /cairo_font exch def /cairo_font_matrix where
      { pop cairo_selectfont } if } bind def
/Td { matrix translate cairo_font_matrix matrix concatmatrix dup
      /cairo_font_matrix exch def dup 4 get exch 5 get cairo_store_point
      /cairo_font where { pop cairo_selectfont } if } bind def
/Tm { 2 copy 8 2 roll 6 array astore /cairo_font_matrix exch def
      cairo_store_point /cairo_font where { pop cairo_selectfont } if } bind def
/g { setgray } bind def
/rg { setrgbcolor } bind def
/d1 { setcachedevice } bind def
%%EndProlog
%%BeginSetup
%%EndSetup
%%Page: 1 1
%%BeginPageSetup
%%PageBoundingBox: 12 -1 398 410
%%EndPageSetup
q 12 -1 386 411 rectclip q
0.580392 0.796078 0.929412 rg
224.91 183.194 m 257.578 194.854 l 189.148 386.58 l 182.734 404.549 162.789
 414.002 144.82 407.592 c 126.852 401.178 117.398 381.229 123.809 363.26
 c 180.578 204.202 l 186.992 186.233 206.941 176.78 224.91 183.194 c h
224.91 183.194 m f
224.91 183.194 m 257.578 194.854 l 189.148 386.58 l 188.469 388.491 187.625
 390.299 186.656 392.01 c 181.082 368.405 169.453 331.151 146.863 298.674
 c 180.578 204.202 l 186.992 186.233 206.941 176.78 224.91 183.194 c h
224.91 183.194 m f
0.792157 0.905882 0.988235 rg
184.691 183.194 m 152.023 194.854 l 220.453 386.58 l 226.863 404.549 246.812
 414.002 264.781 407.592 c 282.75 401.178 292.203 381.229 285.789 363.26
 c 229.02 204.202 l 222.609 186.233 202.66 176.78 184.691 183.194 c h
184.691 183.194 m f
0.470588 0.462745 0.501961 rg
218.391 228.709 m 218.391 221.205 212.305 215.12 204.801 215.12 c 197.297
 215.12 191.211 221.205 191.211 228.709 c 191.211 236.213 197.297 242.299
 204.801 242.299 c 212.305 242.299 218.391 236.213 218.391 228.709 c h
218.391 228.709 m f
0.490196 0.886275 0.886275 rg
349.785 4.819 m 388.773 18.737 407.547 65.979 391.715 110.338 c 379.117
 145.631 347.797 168.573 316.137 169.428 c 316.137 169.428 265.754 171.952
 257.141 196.08 c 215.66 181.272 l 215.66 181.272 239.219 -34.642 349.785
 4.819 c h
290.445 74.198 m 282.633 96.092 290.074 119.604 306.699 125.534 c 323.324
 131.467 343.969 117.983 351.785 96.088 c 359.598 74.194 352.156 50.682 
335.531 44.748 c 318.906 38.815 298.262 52.299 290.445 74.198 c h
290.445 74.198 m f
0.4 0.827451 0.815686 rg
283.727 175.541 m 269.754 143.045 239.418 49.362 327.109 0.084 c 235.945
 -4.486 215.66 181.272 215.66 181.272 c 257.141 196.077 l 260.805 185.811
 272.031 179.455 283.727 175.541 c h
283.727 175.541 m f
351.785 96.088 m 343.969 117.983 323.324 131.471 306.699 125.534 c 306.699
 125.534 367.645 178.932 391.715 110.338 c 415.781 41.745 335.531 44.748
 335.531 44.748 c 352.156 50.682 359.598 74.194 351.785 96.088 c h
351.785 96.088 m f
0.627451 0.941176 0.94902 rg
193.941 181.272 m 152.457 196.08 l 143.848 171.952 93.465 169.428 93.465
 169.428 c 61.805 168.573 30.48 145.631 17.887 110.338 c 2.055 65.979 20.828
 18.733 59.816 4.819 c 170.379 -34.642 193.941 181.272 193.941 181.272 c
 h
74.066 44.748 m 57.445 50.682 50.004 74.194 57.816 96.088 c 65.633 117.983
 86.277 131.471 102.902 125.534 c 119.527 119.604 126.969 96.092 119.152
 74.198 c 111.34 52.299 90.691 38.815 74.066 44.748 c h
74.066 44.748 m f
0.490196 0.886275 0.886275 rg
125.871 175.541 m 139.84 143.045 170.184 49.362 82.488 0.084 c 173.656 
-4.486 193.941 181.272 193.941 181.272 c 152.461 196.08 l 148.793 185.811
 137.562 179.455 125.871 175.541 c h
125.871 175.541 m f
57.816 96.088 m 65.629 117.983 86.277 131.471 102.902 125.534 c 102.902
 125.534 41.953 178.932 17.887 110.338 c -6.18 41.745 74.066 44.748 74.066
 44.748 c 57.445 50.682 50 74.194 57.816 96.088 c h
57.816 96.088 m f
Q Q
showpage
%%Trailer
end restore
%%EOF
