%!PS-Adobe-3.0 EPSF-3.0
%%Creator: cairo 1.14.2 (http://cairographics.org)
%%CreationDate: Fri Dec 29 09:04:44 2017
%%Pages: 1
%%DocumentData: Clean7Bit
%%LanguageLevel: 2
%%BoundingBox: 54 -1 355 410
%%EndComments
%%BeginProlog
save
50 dict begin
/q { gsave } bind def
/Q { grestore } bind def
/cm { 6 array astore concat } bind def
/w { setlinewidth } bind def
/J { setlinecap } bind def
/j { setlinejoin } bind def
/M { setmiterlimit } bind def
/d { setdash } bind def
/m { moveto } bind def
/l { lineto } bind def
/c { curveto } bind def
/h { closepath } bind def
/re { exch dup neg 3 1 roll 5 3 roll moveto 0 rlineto
      0 exch rlineto 0 rlineto closepath } bind def
/S { stroke } bind def
/f { fill } bind def
/f* { eofill } bind def
/n { newpath } bind def
/W { clip } bind def
/W* { eoclip } bind def
/BT { } bind def
/ET { } bind def
/pdfmark where { pop globaldict /?pdfmark /exec load put }
    { globaldict begin /?pdfmark /pop load def /pdfmark
    /cleartomark load def end } ifelse
/BDC { mark 3 1 roll /BDC pdfmark } bind def
/EMC { mark /EMC pdfmark } bind def
/cairo_store_point { /cairo_point_y exch def /cairo_point_x exch def } def
/Tj { show currentpoint cairo_store_point } bind def
/TJ {
  {
    dup
    type /stringtype eq
    { show } { -0.001 mul 0 cairo_font_matrix dtransform rmoveto } ifelse
  } forall
  currentpoint cairo_store_point
} bind def
/cairo_selectfont { cairo_font_matrix aload pop pop pop 0 0 6 array astore
    cairo_font exch selectfont cairo_point_x cairo_point_y moveto } bind def
/Tf { pop /cairo_font exch def /cairo_font_matrix where
      { pop cairo_selectfont } if } bind def
/Td { matrix translate cairo_font_matrix matrix concatmatrix dup
      /cairo_font_matrix exch def dup 4 get exch 5 get cairo_store_point
      /cairo_font where { pop cairo_selectfont } if } bind def
/Tm { 2 copy 8 2 roll 6 array astore /cairo_font_matrix exch def
      cairo_store_point /cairo_font where { pop cairo_selectfont } if } bind def
/g { setgray } bind def
/rg { setrgbcolor } bind def
/d1 { setcachedevice } bind def
%%EndProlog
%%BeginSetup
%%EndSetup
%%Page: 1 1
%%BeginPageSetup
%%PageBoundingBox: 54 -1 355 410
%%EndPageSetup
q 54 -1 301 411 rectclip q
0.792157 0.905882 0.988235 rg
204.801 -0.001 m 194.258 -0.001 185.633 8.628 185.633 19.167 c 185.633 
136.948 l 185.633 147.491 194.258 156.116 204.801 156.116 c 215.344 156.116
 223.969 147.491 223.969 136.948 c 223.969 19.167 l 223.969 8.628 215.344
 -0.001 204.801 -0.001 c h
204.801 -0.001 m f
0.580392 0.796078 0.929412 rg
204.801 156.12 m 194.258 156.12 185.633 147.491 185.633 136.948 c 185.633
 49.909 l 223.973 72.339 l 223.973 136.948 l 223.969 147.491 215.344 156.12
 204.801 156.12 c h
204.801 156.12 m f
0.364706 0.788235 0.47451 rg
283.965 267.53 m 283.965 345.667 l 125.637 345.667 l 125.637 267.53 l 125.637
 244.902 115.254 223.523 97.469 209.534 c 81.273 196.8 l 64.496 183.601 
54.699 163.437 54.699 142.093 c 54.699 118.03 l 54.699 100.687 68.758 86.628
 86.098 86.628 c 323.5 86.628 l 340.844 86.628 354.898 100.687 354.898 118.03
 c 354.898 142.093 l 354.898 163.437 345.105 183.601 328.328 196.8 c 312.133
 209.534 l 294.348 223.527 283.965 244.902 283.965 267.53 c h
283.965 267.53 m f
0.172549 0.686275 0.47451 rg
182.816 214.488 m 193.762 247.077 218.387 273.265 250.141 286.441 c 283.965
 300.476 l 283.965 345.667 l 125.637 345.667 l 125.637 267.53 l 125.637 
244.902 115.254 223.523 97.469 209.534 c 81.273 196.8 l 64.496 183.601 54.699
 163.437 54.699 142.093 c 54.699 118.03 l 54.699 100.687 68.758 86.628 86.102
 86.628 c 204.801 86.628 l 155.562 102.062 166.812 166.816 182.816 214.488
 c h
182.816 214.488 m f
0.341176 0.337255 0.360784 rg
271.273 150.12 m 267.859 150.12 265.094 152.886 265.094 156.3 c 265.094
 166.562 l 265.094 169.976 267.859 172.741 271.273 172.741 c 274.688 172.741
 277.457 169.976 277.457 166.562 c 277.457 156.3 l 277.457 152.886 274.688
 150.12 271.273 150.12 c h
271.273 150.12 m f
138.328 150.12 m 134.914 150.12 132.148 152.886 132.148 156.3 c 132.148
 166.562 l 132.148 169.976 134.914 172.741 138.328 172.741 c 141.742 172.741
 144.508 169.976 144.508 166.562 c 144.508 156.3 l 144.508 152.886 141.742
 150.12 138.328 150.12 c h
138.328 150.12 m f
204.801 143.648 m 196.801 143.648 188.801 146.238 182.125 151.413 c 179.43
 153.507 178.938 157.39 181.031 160.089 c 183.121 162.784 187.008 163.277
 189.703 161.183 c 198.594 154.288 211.012 154.288 219.902 161.183 c 222.598
 163.277 226.48 162.784 228.574 160.089 c 230.664 157.39 230.176 153.507
 227.477 151.413 c 220.801 146.238 212.801 143.648 204.801 143.648 c h
204.801 143.648 m f
0.482353 0.858824 0.596078 rg
301.797 310.374 m 107.805 310.374 l 80.52 310.374 58.191 332.698 58.191
 359.988 c 58.195 387.273 80.52 409.601 107.805 409.601 c 301.797 409.601
 l 329.082 409.601 351.41 387.273 351.41 359.988 c 351.41 332.698 329.082
 310.374 301.797 310.374 c h
301.797 310.374 m f
0.364706 0.788235 0.47451 rg
153.352 359.988 m 153.352 387.273 175.68 409.601 202.965 409.601 c 107.805
 409.601 l 80.52 409.601 58.191 387.273 58.191 359.988 c 58.191 332.698 
80.52 310.374 107.805 310.374 c 202.965 310.374 l 175.68 310.374 153.352
 332.698 153.352 359.988 c h
153.352 359.988 m f
Q Q
showpage
%%Trailer
end restore
%%EOF
