%!PS-Adobe-3.0 EPSF-3.0
%%Creator: cairo 1.14.2 (http://cairographics.org)
%%CreationDate: Fri Dec 29 09:04:44 2017
%%Pages: 1
%%DocumentData: Clean7Bit
%%LanguageLevel: 2
%%BoundingBox: 150 -1 259 410
%%EndComments
%%BeginProlog
save
50 dict begin
/q { gsave } bind def
/Q { grestore } bind def
/cm { 6 array astore concat } bind def
/w { setlinewidth } bind def
/J { setlinecap } bind def
/j { setlinejoin } bind def
/M { setmiterlimit } bind def
/d { setdash } bind def
/m { moveto } bind def
/l { lineto } bind def
/c { curveto } bind def
/h { closepath } bind def
/re { exch dup neg 3 1 roll 5 3 roll moveto 0 rlineto
      0 exch rlineto 0 rlineto closepath } bind def
/S { stroke } bind def
/f { fill } bind def
/f* { eofill } bind def
/n { newpath } bind def
/W { clip } bind def
/W* { eoclip } bind def
/BT { } bind def
/ET { } bind def
/pdfmark where { pop globaldict /?pdfmark /exec load put }
    { globaldict begin /?pdfmark /pop load def /pdfmark
    /cleartomark load def end } ifelse
/BDC { mark 3 1 roll /BDC pdfmark } bind def
/EMC { mark /EMC pdfmark } bind def
/cairo_store_point { /cairo_point_y exch def /cairo_point_x exch def } def
/Tj { show currentpoint cairo_store_point } bind def
/TJ {
  {
    dup
    type /stringtype eq
    { show } { -0.001 mul 0 cairo_font_matrix dtransform rmoveto } ifelse
  } forall
  currentpoint cairo_store_point
} bind def
/cairo_selectfont { cairo_font_matrix aload pop pop pop 0 0 6 array astore
    cairo_font exch selectfont cairo_point_x cairo_point_y moveto } bind def
/Tf { pop /cairo_font exch def /cairo_font_matrix where
      { pop cairo_selectfont } if } bind def
/Td { matrix translate cairo_font_matrix matrix concatmatrix dup
      /cairo_font_matrix exch def dup 4 get exch 5 get cairo_store_point
      /cairo_font where { pop cairo_selectfont } if } bind def
/Tm { 2 copy 8 2 roll 6 array astore /cairo_font_matrix exch def
      cairo_store_point /cairo_font where { pop cairo_selectfont } if } bind def
/g { setgray } bind def
/rg { setrgbcolor } bind def
/d1 { setcachedevice } bind def
%%EndProlog
%%BeginSetup
%%EndSetup
%%Page: 1 1
%%BeginPageSetup
%%PageBoundingBox: 150 -1 259 410
%%EndPageSetup
q 150 -1 109 411 rectclip q
1 0.854902 0.666667 rg
234.219 409.601 m 175.383 409.601 l 161.754 409.601 150.703 398.554 150.703
 384.925 c 150.703 24.675 l 150.703 11.046 161.754 -0.001 175.383 -0.001
 c 234.219 -0.001 l 247.848 -0.001 258.895 11.046 258.895 24.675 c 258.895
 384.925 l 258.895 398.554 247.848 409.601 234.219 409.601 c h
204.801 25.609 m 194.027 25.609 185.293 34.343 185.293 45.116 c 185.293
 55.89 194.027 64.624 204.801 64.624 c 215.574 64.624 224.309 55.89 224.309
 45.116 c 224.309 34.343 215.574 25.609 204.801 25.609 c h
204.801 25.609 m f
1 0.768627 0.466667 rg
258.895 372.534 m 224.68 372.534 l 213.699 372.534 204.801 363.636 204.801
 352.655 c 204.801 112.011 l 204.801 101.03 213.699 92.132 224.68 92.132
 c 258.895 92.132 l h
258.895 372.534 m f
1 0.713726 0.333333 rg
231.848 112.011 m 231.848 352.659 l 231.848 363.636 240.75 372.538 251.727
 372.538 c 224.68 372.538 l 213.703 372.538 204.801 363.636 204.801 352.659
 c 204.801 112.011 l 204.801 101.03 213.699 92.132 224.68 92.132 c 251.727
 92.132 l 240.746 92.132 231.848 101.03 231.848 112.011 c h
231.848 112.011 m f
0.470588 0.462745 0.501961 rg
229.891 345.128 m 226.477 345.128 223.707 342.359 223.707 338.945 c 223.707
 335.53 226.477 332.765 229.891 332.765 c 258.895 332.765 l 258.895 345.128
 l h
229.891 345.128 m f
242.34 309.589 m 238.926 309.589 236.16 306.823 236.16 303.409 c 236.16
 299.995 238.926 297.226 242.34 297.226 c 258.895 297.226 l 258.895 309.589
 l 258.895 309.589 242.34 309.589 242.34 309.589 c h
242.34 309.589 m f
229.891 274.054 m 226.477 274.054 223.707 271.284 223.707 267.87 c 223.707
 264.456 226.477 261.691 229.891 261.691 c 258.895 261.691 l 258.895 274.054
 l h
229.891 274.054 m f
242.34 238.515 m 238.926 238.515 236.16 235.749 236.16 232.335 c 236.16
 228.921 238.926 226.155 242.34 226.155 c 258.895 226.155 l 258.895 238.515
 l h
242.34 238.515 m f
229.891 202.976 m 226.477 202.976 223.707 200.21 223.707 196.796 c 223.707
 193.382 226.477 190.616 229.891 190.616 c 258.895 190.616 l 258.895 202.98
 l 229.891 202.98 l h
229.891 202.976 m f
242.34 167.441 m 238.926 167.441 236.16 164.675 236.16 161.261 c 236.16
 157.847 238.926 155.077 242.34 155.077 c 258.895 155.077 l 258.895 167.441
 l h
242.34 167.441 m f
229.891 131.902 m 226.477 131.902 223.707 129.136 223.707 125.722 c 223.707
 122.308 226.477 119.542 229.891 119.542 c 258.895 119.542 l 258.895 131.905
 l 229.891 131.905 l h
229.891 131.902 m f
Q Q
showpage
%%Trailer
end restore
%%EOF
