%!PS-Adobe-3.0 EPSF-3.0
%%Creator: cairo 1.14.2 (http://cairographics.org)
%%CreationDate: Fri Dec 29 09:04:44 2017
%%Pages: 1
%%DocumentData: Clean7Bit
%%LanguageLevel: 2
%%BoundingBox: 104 -1 306 410
%%EndComments
%%BeginProlog
save
50 dict begin
/q { gsave } bind def
/Q { grestore } bind def
/cm { 6 array astore concat } bind def
/w { setlinewidth } bind def
/J { setlinecap } bind def
/j { setlinejoin } bind def
/M { setmiterlimit } bind def
/d { setdash } bind def
/m { moveto } bind def
/l { lineto } bind def
/c { curveto } bind def
/h { closepath } bind def
/re { exch dup neg 3 1 roll 5 3 roll moveto 0 rlineto
      0 exch rlineto 0 rlineto closepath } bind def
/S { stroke } bind def
/f { fill } bind def
/f* { eofill } bind def
/n { newpath } bind def
/W { clip } bind def
/W* { eoclip } bind def
/BT { } bind def
/ET { } bind def
/pdfmark where { pop globaldict /?pdfmark /exec load put }
    { globaldict begin /?pdfmark /pop load def /pdfmark
    /cleartomark load def end } ifelse
/BDC { mark 3 1 roll /BDC pdfmark } bind def
/EMC { mark /EMC pdfmark } bind def
/cairo_store_point { /cairo_point_y exch def /cairo_point_x exch def } def
/Tj { show currentpoint cairo_store_point } bind def
/TJ {
  {
    dup
    type /stringtype eq
    { show } { -0.001 mul 0 cairo_font_matrix dtransform rmoveto } ifelse
  } forall
  currentpoint cairo_store_point
} bind def
/cairo_selectfont { cairo_font_matrix aload pop pop pop 0 0 6 array astore
    cairo_font exch selectfont cairo_point_x cairo_point_y moveto } bind def
/Tf { pop /cairo_font exch def /cairo_font_matrix where
      { pop cairo_selectfont } if } bind def
/Td { matrix translate cairo_font_matrix matrix concatmatrix dup
      /cairo_font_matrix exch def dup 4 get exch 5 get cairo_store_point
      /cairo_font where { pop cairo_selectfont } if } bind def
/Tm { 2 copy 8 2 roll 6 array astore /cairo_font_matrix exch def
      cairo_store_point /cairo_font where { pop cairo_selectfont } if } bind def
/g { setgray } bind def
/rg { setrgbcolor } bind def
/d1 { setcachedevice } bind def
%%EndProlog
%%BeginSetup
%%EndSetup
%%Page: 1 1
%%BeginPageSetup
%%PageBoundingBox: 104 -1 306 410
%%EndPageSetup
q 104 -1 202 411 rectclip q
1 0.854902 0.560784 rg
174.355 403.741 m 151.652 369.002 l 143.648 356.752 142.004 341.405 147.238
 327.737 c 156.379 303.862 l 213.988 303.862 l 223.133 327.737 l 228.363
 341.405 226.723 356.752 218.719 369.002 c 196.012 403.741 l 190.906 411.553
 179.461 411.553 174.355 403.741 c h
174.355 403.741 m f
0.988235 0.823529 0.427451 rg
188.199 323.514 m 182.969 337.178 184.609 352.526 192.613 364.776 c 207.047
 386.858 l 196.016 403.741 l 190.906 411.553 179.461 411.553 174.355 403.741
 c 151.652 369.002 l 143.648 356.752 142.008 341.405 147.238 327.737 c 156.383
 303.862 l 195.727 303.862 l h
188.199 323.514 m f
1 0.780392 0.231373 rg
179.004 359.674 12.363 -58.379 re f
0.956863 0.635294 0.25098 rg
197.547 359.674 m 197.547 352.846 192.012 347.311 185.188 347.311 c 178.359
 347.311 172.824 352.846 172.824 359.674 c 172.824 366.498 178.359 372.034
 185.188 372.034 c 192.012 372.034 197.547 366.498 197.547 359.674 c h
197.547 359.674 m f
0.988235 0.823529 0.427451 rg
238.105 50.002 m 261.961 50.002 282.426 67.006 286.793 90.455 c 305.184
 189.135 l 307.41 201.077 291.883 207.791 284.758 197.955 c 268.98 176.186
 249.75 141.592 236.273 90.553 c h
238.105 50.002 m f
1 0.780392 0.231373 rg
288.957 102.065 m 286.043 130.909 277.129 154.737 268.332 172.069 c 256.91
 151.553 245.301 124.745 236.273 90.553 c 238.105 50.002 l 261.961 50.002
 282.426 67.006 286.793 90.455 c h
288.957 102.065 m f
0.341176 0.337255 0.360784 rg
206.098 314.549 m 164.27 314.549 l 151.734 314.549 140.844 305.78 138.336
 293.498 c 130.988 257.514 129.707 219.823 129.707 219.823 c 240.66 219.823
 l 240.66 219.823 239.379 257.514 232.031 293.498 c 229.523 305.78 218.633
 314.549 206.098 314.549 c h
206.098 314.549 m f
0.243137 0.239216 0.258824 rg
216.738 312.33 m 213.461 313.76 209.848 314.549 206.098 314.549 c 164.27
 314.549 l 151.734 314.549 140.84 305.78 138.332 293.498 c 130.988 257.514
 129.707 219.823 129.707 219.823 c 192.801 219.823 l 192.801 219.823 194.082
 257.514 201.43 293.498 c 203.188 302.104 209.066 308.983 216.738 312.33
 c h
216.738 312.33 m f
0.470588 0.462745 0.501961 rg
265.965 210.053 m 265.52 226.827 251.75 240.17 234.973 240.17 c 135.395
 240.17 l 118.617 240.17 104.848 226.827 104.402 210.053 c 103.32 169.432
 105.766 94.467 132.137 27.737 c 238.23 27.737 l 264.602 94.467 267.047 
169.432 265.965 210.053 c h
265.965 210.053 m f
0.341176 0.337255 0.360784 rg
169.133 158.53 m 170.652 179.584 175.859 200.205 184.488 219.475 c 193.75
 240.17 l 135.395 240.17 l 118.594 240.17 104.844 226.795 104.398 210.002
 c 103.324 169.37 105.777 94.44 132.137 27.737 c 182.566 27.737 l 166 66.014
 166.527 122.409 169.133 158.53 c h
169.133 158.53 m f
0.988235 0.823529 0.427451 rg
131.258 29.991 m 132.113 27.768 132.996 25.557 133.906 23.354 c 139.746
 9.233 153.492 -0.002 168.773 -0.002 c 201.594 -0.002 l 216.875 -0.002 230.625
 9.233 236.461 23.354 c 237.371 25.557 238.254 27.768 239.109 29.987 c 131.258
 29.987 l h
131.258 29.991 m f
1 0.780392 0.231373 rg
181.621 29.991 m 131.258 29.991 l 132.113 27.768 132.996 25.557 133.906
 23.354 c 139.742 9.233 153.492 -0.002 168.773 -0.002 c 201.594 -0.002 l
 193.039 7.584 186.531 17.963 181.621 29.991 c h
181.621 29.991 m f
Q Q
showpage
%%Trailer
end restore
%%EOF
