%!PS-Adobe-3.0 EPSF-3.0
%%Creator: cairo 1.14.2 (http://cairographics.org)
%%CreationDate: Fri Dec 29 09:04:44 2017
%%Pages: 1
%%DocumentData: Clean7Bit
%%LanguageLevel: 2
%%BoundingBox: 85 -1 325 410
%%EndComments
%%BeginProlog
save
50 dict begin
/q { gsave } bind def
/Q { grestore } bind def
/cm { 6 array astore concat } bind def
/w { setlinewidth } bind def
/J { setlinecap } bind def
/j { setlinejoin } bind def
/M { setmiterlimit } bind def
/d { setdash } bind def
/m { moveto } bind def
/l { lineto } bind def
/c { curveto } bind def
/h { closepath } bind def
/re { exch dup neg 3 1 roll 5 3 roll moveto 0 rlineto
      0 exch rlineto 0 rlineto closepath } bind def
/S { stroke } bind def
/f { fill } bind def
/f* { eofill } bind def
/n { newpath } bind def
/W { clip } bind def
/W* { eoclip } bind def
/BT { } bind def
/ET { } bind def
/pdfmark where { pop globaldict /?pdfmark /exec load put }
    { globaldict begin /?pdfmark /pop load def /pdfmark
    /cleartomark load def end } ifelse
/BDC { mark 3 1 roll /BDC pdfmark } bind def
/EMC { mark /EMC pdfmark } bind def
/cairo_store_point { /cairo_point_y exch def /cairo_point_x exch def } def
/Tj { show currentpoint cairo_store_point } bind def
/TJ {
  {
    dup
    type /stringtype eq
    { show } { -0.001 mul 0 cairo_font_matrix dtransform rmoveto } ifelse
  } forall
  currentpoint cairo_store_point
} bind def
/cairo_selectfont { cairo_font_matrix aload pop pop pop 0 0 6 array astore
    cairo_font exch selectfont cairo_point_x cairo_point_y moveto } bind def
/Tf { pop /cairo_font exch def /cairo_font_matrix where
      { pop cairo_selectfont } if } bind def
/Td { matrix translate cairo_font_matrix matrix concatmatrix dup
      /cairo_font_matrix exch def dup 4 get exch 5 get cairo_store_point
      /cairo_font where { pop cairo_selectfont } if } bind def
/Tm { 2 copy 8 2 roll 6 array astore /cairo_font_matrix exch def
      cairo_store_point /cairo_font where { pop cairo_selectfont } if } bind def
/g { setgray } bind def
/rg { setrgbcolor } bind def
/d1 { setcachedevice } bind def
%%EndProlog
%%BeginSetup
%%EndSetup
%%Page: 1 1
%%BeginPageSetup
%%PageBoundingBox: 85 -1 325 410
%%EndPageSetup
q 85 -1 240 411 rectclip q
0.176471 0.176471 0.188235 rg
165.785 396.795 78.031 -69.789 re f
0.341176 0.337255 0.360784 rg
242.512 361.916 m 167.086 361.916 l 153.973 361.916 143.246 372.643 143.246
 385.756 c 143.242 398.87 153.973 409.6 167.086 409.6 c 242.512 409.6 l 
255.625 409.6 266.355 398.87 266.355 385.76 c 266.355 372.647 255.625 361.916
 242.512 361.916 c h
242.512 361.916 m f
0.243137 0.239216 0.258824 rg
191.363 385.76 m 191.363 398.87 202.094 409.6 215.207 409.6 c 167.086 409.6
 l 153.973 409.6 143.246 398.87 143.246 385.76 c 143.246 372.647 153.973
 361.916 167.086 361.916 c 215.207 361.916 l 202.094 361.916 191.363 372.647
 191.363 385.76 c h
191.363 385.76 m f
0.580392 0.796078 0.929412 rg
247.562 344.983 m 162.035 344.983 l 138.164 344.983 118 327.268 114.926
 303.596 c 88.438 99.737 l 86.172 82.311 85.039 64.76 85.039 47.194 c 85.039
 37.768 l 85.039 16.909 101.949 -0.002 122.805 -0.002 c 286.797 -0.002 l
 307.656 -0.002 324.562 16.909 324.562 37.768 c 324.562 47.194 l 324.562
 64.76 323.426 82.311 321.164 99.737 c 294.68 303.596 l 291.602 327.268 
271.434 344.983 247.562 344.983 c h
247.562 344.983 m f
0.45098 0.717647 0.866667 rg
227.168 -0.002 m 167.539 -0.002 178.113 75.733 178.113 75.733 c 203.754
 298.838 l 205.555 314.514 214.305 328.694 227.812 336.858 c 238.047 343.041
 247.562 344.983 247.562 344.983 c 162.035 344.983 l 138.164 344.983 118
 327.268 114.926 303.596 c 88.438 99.733 l 86.172 82.311 85.039 64.76 85.039
 47.19 c 85.039 37.764 l 85.039 16.909 101.949 -0.002 122.805 -0.002 c h
227.168 -0.002 m f
0.913725 0.964706 1 rg
247.562 344.983 m 162.035 344.983 l 138.164 344.983 118 327.268 114.926
 303.596 c 88.438 99.737 l 86.633 85.834 85.555 71.854 85.191 57.846 c 324.41
 57.846 l 324.047 71.854 322.969 85.834 321.164 99.737 c 294.676 303.596
 l 291.602 327.268 271.434 344.983 247.562 344.983 c h
247.562 344.983 m f
0.792157 0.905882 0.988235 rg
178.113 75.733 m 203.754 298.838 l 205.555 314.514 214.305 328.694 227.812
 336.858 c 238.047 343.041 247.562 344.983 247.562 344.983 c 162.035 344.983
 l 138.164 344.983 118 327.268 114.922 303.596 c 88.438 99.733 l 86.633 
85.834 85.555 71.854 85.191 57.846 c 177.492 57.846 l 177.062 68.178 178.113
 75.733 178.113 75.733 c h
178.113 75.733 m f
0.627451 0.941176 0.94902 rg
110.098 266.44 m 91.125 120.405 l 318.477 120.405 l 299.504 266.44 l h
110.098 266.44 m f
0.4 0.827451 0.815686 rg
110.098 266.44 m 91.125 120.405 l 183.246 120.405 l 200.031 266.44 l h
110.098 266.44 m f
0.341176 0.337255 0.360784 rg
218.699 188.862 m 190.898 188.862 l 185.477 188.842 182.355 187.42 182.434
 182.995 c 182.695 168.557 185.77 142.139 204.801 142.139 c 223.828 142.139
 226.906 168.557 227.164 182.995 c 227.246 187.42 224.121 188.842 218.699
 188.862 c h
218.699 188.862 m f
1 0.45098 0.490196 rg
204.801 165.725 m 197.152 165.725 190.344 163.061 185.957 158.92 c 189.016
 149.69 194.629 142.139 204.801 142.139 c 214.969 142.139 220.582 149.69
 223.645 158.92 c 219.254 163.061 212.449 165.725 204.801 165.725 c h
204.801 165.725 m f
0.341176 0.337255 0.360784 rg
271.273 178.569 m 267.859 178.569 265.094 181.338 265.094 184.752 c 265.094
 195.014 l 265.094 198.428 267.859 201.194 271.273 201.194 c 274.688 201.194
 277.453 198.428 277.453 195.014 c 277.453 184.752 l 277.453 181.338 274.688
 178.569 271.273 178.569 c h
271.273 178.569 m f
138.328 178.569 m 134.91 178.569 132.145 181.338 132.145 184.752 c 132.145
 195.014 l 132.145 198.428 134.91 201.194 138.328 201.194 c 141.742 201.194
 144.508 198.428 144.508 195.014 c 144.508 184.752 l 144.508 181.338 141.742
 178.569 138.328 178.569 c h
138.328 178.569 m f
Q Q
showpage
%%Trailer
end restore
%%EOF
