%!PS-Adobe-3.0 EPSF-3.0
%%Creator: cairo 1.14.2 (http://cairographics.org)
%%CreationDate: Fri Dec 29 09:04:44 2017
%%Pages: 1
%%DocumentData: Clean7Bit
%%LanguageLevel: 2
%%BoundingBox: 79 -1 330 410
%%EndComments
%%BeginProlog
save
50 dict begin
/q { gsave } bind def
/Q { grestore } bind def
/cm { 6 array astore concat } bind def
/w { setlinewidth } bind def
/J { setlinecap } bind def
/j { setlinejoin } bind def
/M { setmiterlimit } bind def
/d { setdash } bind def
/m { moveto } bind def
/l { lineto } bind def
/c { curveto } bind def
/h { closepath } bind def
/re { exch dup neg 3 1 roll 5 3 roll moveto 0 rlineto
      0 exch rlineto 0 rlineto closepath } bind def
/S { stroke } bind def
/f { fill } bind def
/f* { eofill } bind def
/n { newpath } bind def
/W { clip } bind def
/W* { eoclip } bind def
/BT { } bind def
/ET { } bind def
/pdfmark where { pop globaldict /?pdfmark /exec load put }
    { globaldict begin /?pdfmark /pop load def /pdfmark
    /cleartomark load def end } ifelse
/BDC { mark 3 1 roll /BDC pdfmark } bind def
/EMC { mark /EMC pdfmark } bind def
/cairo_store_point { /cairo_point_y exch def /cairo_point_x exch def } def
/Tj { show currentpoint cairo_store_point } bind def
/TJ {
  {
    dup
    type /stringtype eq
    { show } { -0.001 mul 0 cairo_font_matrix dtransform rmoveto } ifelse
  } forall
  currentpoint cairo_store_point
} bind def
/cairo_selectfont { cairo_font_matrix aload pop pop pop 0 0 6 array astore
    cairo_font exch selectfont cairo_point_x cairo_point_y moveto } bind def
/Tf { pop /cairo_font exch def /cairo_font_matrix where
      { pop cairo_selectfont } if } bind def
/Td { matrix translate cairo_font_matrix matrix concatmatrix dup
      /cairo_font_matrix exch def dup 4 get exch 5 get cairo_store_point
      /cairo_font where { pop cairo_selectfont } if } bind def
/Tm { 2 copy 8 2 roll 6 array astore /cairo_font_matrix exch def
      cairo_store_point /cairo_font where { pop cairo_selectfont } if } bind def
/g { setgray } bind def
/rg { setrgbcolor } bind def
/d1 { setcachedevice } bind def
%%EndProlog
%%BeginSetup
%%EndSetup
%%Page: 1 1
%%BeginPageSetup
%%PageBoundingBox: 79 -1 330 410
%%EndPageSetup
q 79 -1 251 411 rectclip q
1 0.780392 0.231373 rg
235.875 324.334 m 174.09 324.334 l 174.09 377.389 l 174.09 386.643 179.773
 394.944 188.398 398.288 c 214.848 408.541 l 224.969 412.467 235.875 404.998
 235.875 394.143 c h
235.875 324.334 m f
0.976471 0.705882 0.227451 rg
204.98 394.424 m 204.98 398.584 206.141 402.549 208.191 405.959 c 188.398
 398.288 l 179.773 394.944 174.09 386.643 174.09 377.393 c 174.09 324.334
 l 204.98 324.334 l h
204.98 394.424 m f
0.470588 0.462745 0.501961 rg
327.043 243.342 m 323.27 255.288 315.691 265.897 305.145 273.366 c 267.676
 299.909 l 257.348 307.225 251.207 319.1 251.207 331.76 c 251.207 346.112
 l 251.207 355.776 243.375 363.608 233.711 363.608 c 175.891 363.608 l 166.227
 363.608 158.395 355.776 158.395 346.112 c 158.395 331.76 l 158.395 319.1
 152.254 307.229 141.926 299.909 c 104.457 273.366 l 93.91 265.897 86.336
 255.288 82.559 243.342 c h
327.043 243.342 m f
0.341176 0.337255 0.360784 rg
223.207 363.608 m 175.891 363.608 l 166.227 363.608 158.391 355.776 158.391
 346.112 c 158.391 331.76 l 158.391 319.1 152.254 307.229 141.922 299.909
 c 104.453 273.366 l 93.91 265.897 86.332 255.288 82.555 243.342 c 189.609
 243.342 l 223.715 289.768 223.207 363.608 223.207 363.608 c h
223.207 363.608 m f
0.988235 0.823529 0.427451 rg
79.992 221.467 m 83.391 175.018 93.176 88.991 120.824 22.151 c 126.387 
8.702 139.59 0.002 154.145 0.002 c 255.453 0.002 l 270.008 0.002 283.211
 8.702 288.773 22.151 c 316.422 88.991 326.207 175.018 329.605 221.467 c
 330.242 230.174 328.914 238.748 325.891 246.639 c 83.711 246.639 l 80.688
 238.748 79.355 230.174 79.992 221.467 c h
79.992 221.467 m f
1 0.780392 0.231373 rg
187.098 240.038 m 188.797 242.174 190.41 244.377 191.953 246.639 c 83.711
 246.639 l 80.684 238.748 79.355 230.174 79.992 221.467 c 83.391 175.018
 93.176 88.991 120.824 22.151 c 126.387 8.702 139.59 0.002 154.145 0.002
 c 233.941 0.002 l 173.785 30.127 170.992 148.803 172.727 201.299 c 173.195
 215.424 178.309 228.971 187.098 240.038 c h
187.098 240.038 m f
0.341176 0.337255 0.360784 rg
189.043 103.94 m 165.184 118.963 l 156.719 124.295 153.652 135.416 158.676
 144.065 c 163.953 153.147 175.66 155.975 184.473 150.424 c 196.598 142.788
 l 201.594 139.643 207.945 139.643 212.938 142.788 c 225.066 150.424 l 233.691
 155.854 245.078 153.264 250.512 144.643 c 255.941 136.018 253.352 124.627
 244.727 119.198 c 220.496 103.94 l 210.887 97.889 198.652 97.889 189.043
 103.94 c h
189.043 103.94 m f
1 0.45098 0.490196 rg
231.82 111.069 m 228.34 119.897 217.566 126.334 204.805 126.334 c 192.031
 126.334 181.246 119.881 177.777 111.038 c 189.047 103.94 l 198.66 97.889
 210.891 97.889 220.5 103.94 c h
231.82 111.069 m f
0.341176 0.337255 0.360784 rg
271.273 140.436 m 267.859 140.436 265.09 143.202 265.09 146.616 c 265.09
 156.877 l 265.09 160.291 267.859 163.057 271.273 163.057 c 274.688 163.057
 277.453 160.291 277.453 156.877 c 277.453 146.616 l 277.453 143.202 274.688
 140.436 271.273 140.436 c h
271.273 140.436 m f
138.328 140.436 m 134.914 140.436 132.148 143.202 132.148 146.616 c 132.148
 156.877 l 132.148 160.291 134.914 163.057 138.328 163.057 c 141.742 163.057
 144.508 160.291 144.508 156.877 c 144.508 146.616 l 144.508 143.202 141.742
 140.436 138.328 140.436 c h
138.328 140.436 m f
233.711 363.608 m 175.891 363.608 l 166.227 363.608 158.395 355.776 158.395
 346.112 c 158.395 331.76 l 158.395 331.76 163.137 274.319 204.98 274.319
 c 246.824 274.319 251.207 331.76 251.207 331.76 c 251.207 346.112 l 251.207
 355.776 243.375 363.608 233.711 363.608 c h
233.711 363.608 m f
0.243137 0.239216 0.258824 rg
158.391 346.112 m 158.391 331.76 l 158.391 331.76 163.137 274.319 204.98
 274.319 c 205.484 274.319 205.98 274.327 206.477 274.342 c 223.527 316.838
 223.207 363.608 223.207 363.608 c 175.891 363.608 l 166.227 363.608 158.391
 355.776 158.391 346.112 c h
158.391 346.112 m f
Q Q
showpage
%%Trailer
end restore
%%EOF
