%!PS-Adobe-3.0 EPSF-3.0
%%Creator: cairo 1.14.2 (http://cairographics.org)
%%CreationDate: Fri Dec 29 09:04:44 2017
%%Pages: 1
%%DocumentData: Clean7Bit
%%LanguageLevel: 2
%%BoundingBox: 0 32 410 377
%%EndComments
%%BeginProlog
save
50 dict begin
/q { gsave } bind def
/Q { grestore } bind def
/cm { 6 array astore concat } bind def
/w { setlinewidth } bind def
/J { setlinecap } bind def
/j { setlinejoin } bind def
/M { setmiterlimit } bind def
/d { setdash } bind def
/m { moveto } bind def
/l { lineto } bind def
/c { curveto } bind def
/h { closepath } bind def
/re { exch dup neg 3 1 roll 5 3 roll moveto 0 rlineto
      0 exch rlineto 0 rlineto closepath } bind def
/S { stroke } bind def
/f { fill } bind def
/f* { eofill } bind def
/n { newpath } bind def
/W { clip } bind def
/W* { eoclip } bind def
/BT { } bind def
/ET { } bind def
/pdfmark where { pop globaldict /?pdfmark /exec load put }
    { globaldict begin /?pdfmark /pop load def /pdfmark
    /cleartomark load def end } ifelse
/BDC { mark 3 1 roll /BDC pdfmark } bind def
/EMC { mark /EMC pdfmark } bind def
/cairo_store_point { /cairo_point_y exch def /cairo_point_x exch def } def
/Tj { show currentpoint cairo_store_point } bind def
/TJ {
  {
    dup
    type /stringtype eq
    { show } { -0.001 mul 0 cairo_font_matrix dtransform rmoveto } ifelse
  } forall
  currentpoint cairo_store_point
} bind def
/cairo_selectfont { cairo_font_matrix aload pop pop pop 0 0 6 array astore
    cairo_font exch selectfont cairo_point_x cairo_point_y moveto } bind def
/Tf { pop /cairo_font exch def /cairo_font_matrix where
      { pop cairo_selectfont } if } bind def
/Td { matrix translate cairo_font_matrix matrix concatmatrix dup
      /cairo_font_matrix exch def dup 4 get exch 5 get cairo_store_point
      /cairo_font where { pop cairo_selectfont } if } bind def
/Tm { 2 copy 8 2 roll 6 array astore /cairo_font_matrix exch def
      cairo_store_point /cairo_font where { pop cairo_selectfont } if } bind def
/g { setgray } bind def
/rg { setrgbcolor } bind def
/d1 { setcachedevice } bind def
%%EndProlog
%%BeginSetup
%%EndSetup
%%Page: 1 1
%%BeginPageSetup
%%PageBoundingBox: 0 32 410 377
%%EndPageSetup
q 0 32 410 345 rectclip q
1 0.780392 0.231373 rg
136.152 338.152 m 107.457 315.956 64.941 287.03 14.258 267.097 c 3.234 
262.761 -2.5 250.573 1.047 239.273 c 1.047 239.273 7.793 217.351 30.344 
224.738 c 56.016 233.148 98.699 251.113 136.148 277.761 c 136.148 338.152
 l h
136.152 338.152 m f
0.976471 0.705882 0.227451 rg
25.035 223.488 m 26.703 223.726 28.465 224.124 30.348 224.738 c 56.016 
233.148 98.699 251.113 136.152 277.761 c 136.152 338.152 l 115.629 322.277
 88.031 302.96 55.438 285.952 c 46.574 266.323 35.922 243.839 25.035 223.488
 c h
25.035 223.488 m f
0.988235 0.823529 0.427451 rg
237.957 376.445 m 143.16 376.445 66.309 299.597 66.309 204.8 c 66.309 110.003
 143.156 33.155 237.957 33.155 c 332.754 33.155 409.602 110.003 409.602 
204.8 c 409.602 299.597 332.754 376.445 237.957 376.445 c h
237.957 147.675 m 206.406 147.675 180.828 173.249 180.828 204.8 c 180.828
 236.351 206.406 261.925 237.957 261.925 c 269.504 261.925 295.082 236.351
 295.082 204.8 c 295.082 173.249 269.504 147.675 237.957 147.675 c h
237.957 147.675 m f
1 0.780392 0.231373 rg
359.395 198.523 m 355.93 198.523 353.117 201.335 353.117 204.8 c 353.117
 228.96 345.688 252.105 331.621 271.726 c 329.602 274.542 330.25 278.464
 333.066 280.484 c 335.887 282.503 339.805 281.855 341.824 279.038 c 357.426
 257.273 365.668 231.601 365.668 204.8 c 365.672 201.335 362.859 198.523
 359.395 198.523 c h
359.395 198.523 m f
384.496 198.523 m 381.031 198.523 378.223 201.335 378.223 204.8 c 378.223
 244.038 361.551 281.773 332.488 308.335 c 329.926 310.675 329.75 314.644
 332.086 317.202 c 334.426 319.761 338.395 319.941 340.953 317.601 c 372.613
 288.667 390.773 247.554 390.773 204.8 c 390.773 201.335 387.965 198.523
 384.496 198.523 c h
384.496 198.523 m f
123.434 204.8 m 123.434 289.866 185.355 360.472 266.555 374.073 c 257.266
 375.632 247.688 376.445 237.953 376.445 c 143.156 376.445 66.309 299.597
 66.309 204.8 c 66.309 110.003 143.156 33.155 237.953 33.155 c 247.688 33.155
 257.27 33.972 266.562 35.527 c 185.363 49.132 123.434 119.734 123.434 204.8
 c h
123.434 204.8 m f
1 0.960784 0.8 rg
237.957 295.761 m 187.719 295.761 146.992 255.038 146.992 204.8 c 146.992
 154.562 187.719 113.839 237.957 113.839 c 288.191 113.839 328.918 154.562
 328.918 204.8 c 328.918 255.038 288.191 295.761 237.957 295.761 c h
237.957 147.675 m 206.406 147.675 180.828 173.249 180.828 204.8 c 180.828
 236.351 206.406 261.925 237.957 261.925 c 269.504 261.925 295.082 236.351
 295.082 204.8 c 295.082 173.249 269.504 147.675 237.957 147.675 c h
237.957 147.675 m f
Q Q
showpage
%%Trailer
end restore
%%EOF
