%!PS-Adobe-3.0 EPSF-3.0
%%Creator: cairo 1.14.2 (http://cairographics.org)
%%CreationDate: Fri Dec 29 09:04:44 2017
%%Pages: 1
%%DocumentData: Clean7Bit
%%LanguageLevel: 2
%%BoundingBox: 100 -1 310 410
%%EndComments
%%BeginProlog
save
50 dict begin
/q { gsave } bind def
/Q { grestore } bind def
/cm { 6 array astore concat } bind def
/w { setlinewidth } bind def
/J { setlinecap } bind def
/j { setlinejoin } bind def
/M { setmiterlimit } bind def
/d { setdash } bind def
/m { moveto } bind def
/l { lineto } bind def
/c { curveto } bind def
/h { closepath } bind def
/re { exch dup neg 3 1 roll 5 3 roll moveto 0 rlineto
      0 exch rlineto 0 rlineto closepath } bind def
/S { stroke } bind def
/f { fill } bind def
/f* { eofill } bind def
/n { newpath } bind def
/W { clip } bind def
/W* { eoclip } bind def
/BT { } bind def
/ET { } bind def
/pdfmark where { pop globaldict /?pdfmark /exec load put }
    { globaldict begin /?pdfmark /pop load def /pdfmark
    /cleartomark load def end } ifelse
/BDC { mark 3 1 roll /BDC pdfmark } bind def
/EMC { mark /EMC pdfmark } bind def
/cairo_store_point { /cairo_point_y exch def /cairo_point_x exch def } def
/Tj { show currentpoint cairo_store_point } bind def
/TJ {
  {
    dup
    type /stringtype eq
    { show } { -0.001 mul 0 cairo_font_matrix dtransform rmoveto } ifelse
  } forall
  currentpoint cairo_store_point
} bind def
/cairo_selectfont { cairo_font_matrix aload pop pop pop 0 0 6 array astore
    cairo_font exch selectfont cairo_point_x cairo_point_y moveto } bind def
/Tf { pop /cairo_font exch def /cairo_font_matrix where
      { pop cairo_selectfont } if } bind def
/Td { matrix translate cairo_font_matrix matrix concatmatrix dup
      /cairo_font_matrix exch def dup 4 get exch 5 get cairo_store_point
      /cairo_font where { pop cairo_selectfont } if } bind def
/Tm { 2 copy 8 2 roll 6 array astore /cairo_font_matrix exch def
      cairo_store_point /cairo_font where { pop cairo_selectfont } if } bind def
/g { setgray } bind def
/rg { setrgbcolor } bind def
/d1 { setcachedevice } bind def
%%EndProlog
%%BeginSetup
%%EndSetup
%%Page: 1 1
%%BeginPageSetup
%%PageBoundingBox: 100 -1 310 410
%%EndPageSetup
q 100 -1 210 411 rectclip q
0.792157 0.905882 0.988235 rg
259.352 293.307 m 150.25 293.307 l 150.25 382.612 l 150.25 397.518 162.332
 409.6 177.238 409.6 c 232.363 409.6 l 247.27 409.6 259.352 397.518 259.352
 382.612 c h
259.352 293.307 m f
0.580392 0.796078 0.929412 rg
231.785 409.6 m 177.234 409.6 l 162.332 409.6 150.25 397.518 150.25 382.612
 c 150.25 293.307 l 204.801 293.307 l 204.801 382.612 l 204.801 397.518 
216.883 409.6 231.785 409.6 c h
231.785 409.6 m f
0.290196 0.533333 0.776471 rg
182.941 342.799 m 179.527 342.799 176.758 345.569 176.758 348.979 c 176.758
 371.401 l 176.758 374.815 179.527 377.58 182.941 377.58 c 186.355 377.58
 189.121 374.815 189.121 371.401 c 189.121 348.979 l 189.121 345.569 186.355
 342.799 182.941 342.799 c h
182.941 342.799 m f
0.580392 0.796078 0.929412 rg
226.66 342.799 m 223.246 342.799 220.477 345.569 220.477 348.979 c 220.477
 371.401 l 220.477 374.815 223.246 377.58 226.66 377.58 c 230.074 377.58
 232.84 374.815 232.84 371.401 c 232.84 348.979 l 232.84 345.569 230.074
 342.799 226.66 342.799 c h
226.66 342.799 m f
0.490196 0.886275 0.886275 rg
279.961 242.159 m 129.641 242.159 l 129.641 293.092 l 129.641 307.623 141.418
 319.401 155.945 319.401 c 253.656 319.401 l 268.184 319.401 279.961 307.623
 279.961 293.092 c h
279.961 242.159 m f
0.4 0.827451 0.815686 rg
209.246 319.401 m 155.945 319.401 l 141.418 319.401 129.641 307.623 129.641
 293.096 c 129.641 242.163 l 182.941 242.163 l 182.941 293.096 l 182.941
 307.623 194.719 319.401 209.246 319.401 c h
209.246 319.401 m f
1 0.45098 0.490196 rg
275.852 -0.002 m 133.746 -0.002 l 115.422 -0.002 100.562 14.858 100.562
 33.186 c 100.562 245.506 l 100.562 263.834 115.422 278.694 133.746 278.694
 c 275.852 278.694 l 294.18 278.694 309.035 263.834 309.035 245.506 c 309.035
 33.186 l 309.035 14.858 294.18 -0.002 275.852 -0.002 c h
275.852 -0.002 m f
1 0.333333 0.333333 rg
204.801 27.057 m 204.801 27.057 204.879 219.534 204.801 219.612 c 204.801
 270.358 246.016 278.694 246.016 278.694 c 133.746 278.694 l 115.422 278.694
 100.562 263.838 100.562 245.51 c 100.562 33.186 l 100.562 14.858 115.422
 0.002 133.746 0.002 c 216.543 0.002 l 203.152 -0.002 204.801 27.057 204.801
 27.057 c h
204.801 27.057 m f
0.909804 0.247059 0.247059 rg
188.027 197.881 m 188.027 209.834 178.246 219.612 166.293 219.612 c 154.34
 219.612 144.559 209.834 144.559 197.881 c 144.559 -0.002 l 188.027 -0.002
 l h
188.027 197.881 m f
1 0.333333 0.333333 rg
265.039 197.881 m 265.039 209.834 255.262 219.612 243.309 219.612 c 231.355
 219.612 221.574 209.834 221.574 197.881 c 221.574 -0.002 l 265.039 -0.002
 l h
265.039 197.881 m f
Q Q
showpage
%%Trailer
end restore
%%EOF
