%!PS-Adobe-3.0 EPSF-3.0
%%Creator: cairo 1.14.2 (http://cairographics.org)
%%CreationDate: Fri Dec 29 09:04:44 2017
%%Pages: 1
%%DocumentData: Clean7Bit
%%LanguageLevel: 2
%%BoundingBox: 0 63 410 347
%%EndComments
%%BeginProlog
save
50 dict begin
/q { gsave } bind def
/Q { grestore } bind def
/cm { 6 array astore concat } bind def
/w { setlinewidth } bind def
/J { setlinecap } bind def
/j { setlinejoin } bind def
/M { setmiterlimit } bind def
/d { setdash } bind def
/m { moveto } bind def
/l { lineto } bind def
/c { curveto } bind def
/h { closepath } bind def
/re { exch dup neg 3 1 roll 5 3 roll moveto 0 rlineto
      0 exch rlineto 0 rlineto closepath } bind def
/S { stroke } bind def
/f { fill } bind def
/f* { eofill } bind def
/n { newpath } bind def
/W { clip } bind def
/W* { eoclip } bind def
/BT { } bind def
/ET { } bind def
/pdfmark where { pop globaldict /?pdfmark /exec load put }
    { globaldict begin /?pdfmark /pop load def /pdfmark
    /cleartomark load def end } ifelse
/BDC { mark 3 1 roll /BDC pdfmark } bind def
/EMC { mark /EMC pdfmark } bind def
/cairo_store_point { /cairo_point_y exch def /cairo_point_x exch def } def
/Tj { show currentpoint cairo_store_point } bind def
/TJ {
  {
    dup
    type /stringtype eq
    { show } { -0.001 mul 0 cairo_font_matrix dtransform rmoveto } ifelse
  } forall
  currentpoint cairo_store_point
} bind def
/cairo_selectfont { cairo_font_matrix aload pop pop pop 0 0 6 array astore
    cairo_font exch selectfont cairo_point_x cairo_point_y moveto } bind def
/Tf { pop /cairo_font exch def /cairo_font_matrix where
      { pop cairo_selectfont } if } bind def
/Td { matrix translate cairo_font_matrix matrix concatmatrix dup
      /cairo_font_matrix exch def dup 4 get exch 5 get cairo_store_point
      /cairo_font where { pop cairo_selectfont } if } bind def
/Tm { 2 copy 8 2 roll 6 array astore /cairo_font_matrix exch def
      cairo_store_point /cairo_font where { pop cairo_selectfont } if } bind def
/g { setgray } bind def
/rg { setrgbcolor } bind def
/d1 { setcachedevice } bind def
%%EndProlog
%%BeginSetup
%%EndSetup
%%Page: 1 1
%%BeginPageSetup
%%PageBoundingBox: 0 63 410 347
%%EndPageSetup
q 0 63 410 284 rectclip q
0.580392 0.796078 0.929412 rg
363.012 314.05 m 358.125 302.429 336.941 278.433 325.324 283.32 c 313.703
 288.206 316.047 320.132 320.938 331.749 c 325.824 343.37 339.207 348.827
 350.824 343.937 c 362.445 339.05 367.898 325.667 363.012 314.05 c h
363.012 314.05 m f
0.470588 0.462745 0.501961 rg
347.379 321.046 m 347.379 317.632 344.609 314.866 341.195 314.866 c 337.785
 314.866 335.016 317.632 335.016 321.046 c 335.016 324.46 337.785 327.226
 341.195 327.226 c 344.609 327.226 347.379 324.46 347.379 321.046 c h
347.379 321.046 m f
0.580392 0.796078 0.929412 rg
344.59 236.792 m 65.012 236.792 l 65.012 281.773 l 65.012 294.155 75.047
 304.191 87.43 304.191 c 322.172 304.191 l 334.555 304.191 344.59 294.155
 344.59 281.773 c h
344.59 236.792 m f
204.441 304.191 m 87.426 304.191 l 75.047 304.191 65.012 294.155 65.012
 281.773 c 65.012 236.792 l 182.027 236.792 l 182.027 281.773 l 182.027 
294.155 192.062 304.191 204.441 304.191 c h
204.441 304.191 m f
1 0.854902 0.560784 rg
343.297 271.015 m 66.305 271.015 l 51.688 271.015 38.223 263.128 31.07 
250.386 c 17.641 226.46 -0.477 181.077 0.012 110.894 c 0.191 84.898 21.234
 63.87 47.234 63.87 c 362.367 63.87 l 388.363 63.87 409.41 84.894 409.59
 110.894 c 410.078 181.077 391.961 226.46 378.531 250.386 c 371.379 263.128
 357.914 271.015 343.297 271.015 c h
343.297 271.015 m f
0.988235 0.823529 0.427451 rg
174.383 162.269 m 166.145 196.159 179.852 231.667 209.047 250.745 c 230.543
 264.792 252.258 271.015 252.258 271.015 c 66.305 271.015 l 51.688 271.015
 38.223 263.128 31.07 250.386 c 17.641 226.46 -0.477 181.077 0.012 110.894
 c 0.191 84.898 21.234 63.87 47.234 63.87 c 257.48 63.87 l 202.559 90.472
 181.91 131.284 174.383 162.269 c h
174.383 162.269 m f
0.776471 0.552941 0.427451 rg
86.383 63.87 m 91.207 72.968 93.949 83.335 93.949 94.347 c 93.949 130.331
 64.777 159.503 28.793 159.503 c 19.305 159.503 10.293 157.456 2.16 153.808
 c 0.703 140.687 -0.098 126.398 0.008 110.894 c 0.191 84.894 21.234 63.87
 47.234 63.87 c h
86.383 63.87 m f
0.878431 0.682353 0.580392 rg
323.219 63.87 m 318.395 72.968 315.652 83.335 315.652 94.347 c 315.652 
130.331 344.824 159.503 380.805 159.503 c 390.297 159.503 399.309 157.456
 407.441 153.804 c 408.898 140.687 409.699 126.398 409.59 110.894 c 409.41
 84.894 388.363 63.87 362.367 63.87 c h
323.219 63.87 m f
0.341176 0.337255 0.360784 rg
271.273 165.077 m 267.859 165.077 265.094 167.843 265.094 171.257 c 265.094
 181.519 l 265.094 184.933 267.859 187.698 271.273 187.698 c 274.688 187.698
 277.453 184.933 277.453 181.519 c 277.453 171.257 l 277.453 167.843 274.688
 165.077 271.273 165.077 c h
271.273 165.077 m f
138.328 165.077 m 134.914 165.077 132.145 167.843 132.145 171.257 c 132.145
 181.519 l 132.145 184.933 134.914 187.698 138.328 187.698 c 141.742 187.698
 144.508 184.933 144.508 181.519 c 144.508 171.257 l 144.508 167.843 141.742
 165.077 138.328 165.077 c h
138.328 165.077 m f
204.801 158.605 m 196.801 158.605 188.801 161.195 182.125 166.37 c 179.43
 168.464 178.938 172.347 181.031 175.042 c 183.121 177.741 187.004 178.234
 189.703 176.14 c 198.594 169.241 211.008 169.241 219.898 176.14 c 222.598
 178.234 226.48 177.741 228.57 175.042 c 230.664 172.347 230.176 168.464
 227.477 166.37 c 220.801 161.195 212.801 158.605 204.801 158.605 c h
204.801 158.605 m f
Q Q
showpage
%%Trailer
end restore
%%EOF
