%!PS-Adobe-3.0 EPSF-3.0
%%Creator: cairo 1.14.2 (http://cairographics.org)
%%CreationDate: Fri Dec 29 09:04:44 2017
%%Pages: 1
%%DocumentData: Clean7Bit
%%LanguageLevel: 2
%%BoundingBox: 55 -1 354 410
%%EndComments
%%BeginProlog
save
50 dict begin
/q { gsave } bind def
/Q { grestore } bind def
/cm { 6 array astore concat } bind def
/w { setlinewidth } bind def
/J { setlinecap } bind def
/j { setlinejoin } bind def
/M { setmiterlimit } bind def
/d { setdash } bind def
/m { moveto } bind def
/l { lineto } bind def
/c { curveto } bind def
/h { closepath } bind def
/re { exch dup neg 3 1 roll 5 3 roll moveto 0 rlineto
      0 exch rlineto 0 rlineto closepath } bind def
/S { stroke } bind def
/f { fill } bind def
/f* { eofill } bind def
/n { newpath } bind def
/W { clip } bind def
/W* { eoclip } bind def
/BT { } bind def
/ET { } bind def
/pdfmark where { pop globaldict /?pdfmark /exec load put }
    { globaldict begin /?pdfmark /pop load def /pdfmark
    /cleartomark load def end } ifelse
/BDC { mark 3 1 roll /BDC pdfmark } bind def
/EMC { mark /EMC pdfmark } bind def
/cairo_store_point { /cairo_point_y exch def /cairo_point_x exch def } def
/Tj { show currentpoint cairo_store_point } bind def
/TJ {
  {
    dup
    type /stringtype eq
    { show } { -0.001 mul 0 cairo_font_matrix dtransform rmoveto } ifelse
  } forall
  currentpoint cairo_store_point
} bind def
/cairo_selectfont { cairo_font_matrix aload pop pop pop 0 0 6 array astore
    cairo_font exch selectfont cairo_point_x cairo_point_y moveto } bind def
/Tf { pop /cairo_font exch def /cairo_font_matrix where
      { pop cairo_selectfont } if } bind def
/Td { matrix translate cairo_font_matrix matrix concatmatrix dup
      /cairo_font_matrix exch def dup 4 get exch 5 get cairo_store_point
      /cairo_font where { pop cairo_selectfont } if } bind def
/Tm { 2 copy 8 2 roll 6 array astore /cairo_font_matrix exch def
      cairo_store_point /cairo_font where { pop cairo_selectfont } if } bind def
/g { setgray } bind def
/rg { setrgbcolor } bind def
/d1 { setcachedevice } bind def
%%EndProlog
%%BeginSetup
%%EndSetup
%%Page: 1 1
%%BeginPageSetup
%%PageBoundingBox: 55 -1 354 410
%%EndPageSetup
q 55 -1 299 411 rectclip q
0.627451 0.941176 0.94902 rg
320.973 13.44 m 88.629 13.44 l 70.555 13.44 55.906 28.092 55.906 46.163
 c 55.906 363.436 l 55.906 381.51 70.559 396.159 88.629 396.159 c 320.973
 396.159 l 339.043 396.159 353.695 381.506 353.695 363.436 c 353.695 46.163
 l 353.695 28.092 339.043 13.44 320.973 13.44 c h
320.973 13.44 m f
0.490196 0.886275 0.886275 rg
88.629 396.159 m 70.555 396.159 55.906 381.51 55.906 363.436 c 55.906 46.166
 l 55.906 28.092 70.555 13.44 88.629 13.44 c 243.91 13.44 l 128.426 80.67
 146.945 396.159 146.945 396.159 c h
88.629 396.159 m f
0.301961 0.72549 0.756863 rg
112.363 396.159 m 88.629 396.159 l 70.555 396.159 55.906 381.51 55.906 
363.436 c 55.906 46.166 l 55.906 28.092 70.559 13.44 88.629 13.44 c 112.363
 13.44 l h
112.363 396.159 m f
0.341176 0.337255 0.360784 rg
221.137 215.752 m 193.336 215.752 l 187.914 215.733 184.793 214.311 184.871
 209.885 c 185.133 195.444 188.207 169.03 207.238 169.03 c 226.266 169.03
 229.344 195.444 229.602 209.885 c 229.684 214.311 226.562 215.733 221.137
 215.752 c h
221.137 215.752 m f
1 0.45098 0.490196 rg
207.238 192.616 m 199.59 192.616 192.781 189.952 188.395 185.811 c 191.457
 176.58 197.066 169.03 207.238 169.03 c 217.406 169.03 223.02 176.58 226.082
 185.811 c 221.695 189.952 214.887 192.616 207.238 192.616 c h
207.238 192.616 m f
0.341176 0.337255 0.360784 rg
273.711 205.459 m 270.297 205.459 267.531 208.229 267.531 211.643 c 267.531
 221.905 l 267.531 225.319 270.297 228.084 273.711 228.084 c 277.125 228.084
 279.891 225.319 279.891 221.905 c 279.891 211.643 l 279.891 208.229 277.125
 205.459 273.711 205.459 c h
273.711 205.459 m f
140.766 205.459 m 137.352 205.459 134.586 208.229 134.586 211.643 c 134.586
 221.905 l 134.586 225.319 137.352 228.084 140.766 228.084 c 144.18 228.084
 146.945 225.319 146.945 221.905 c 146.945 211.643 l 146.945 208.229 144.18
 205.459 140.766 205.459 c h
140.766 205.459 m f
0.470588 0.462745 0.501961 rg
314.473 -0.002 m 307.676 -0.002 302.113 5.565 302.113 12.362 c 302.113 
397.237 l 302.113 404.038 307.676 409.6 314.473 409.6 c 321.273 409.6 326.836
 404.038 326.836 397.237 c 326.836 12.362 l 326.836 5.565 321.273 -0.002
 314.473 -0.002 c h
314.473 -0.002 m f
Q Q
showpage
%%Trailer
end restore
%%EOF
