%!PS-Adobe-3.0 EPSF-3.0
%%Creator: cairo 1.14.2 (http://cairographics.org)
%%CreationDate: Fri Dec 29 09:04:44 2017
%%Pages: 1
%%DocumentData: Clean7Bit
%%LanguageLevel: 2
%%BoundingBox: 31 -1 379 410
%%EndComments
%%BeginProlog
save
50 dict begin
/q { gsave } bind def
/Q { grestore } bind def
/cm { 6 array astore concat } bind def
/w { setlinewidth } bind def
/J { setlinecap } bind def
/j { setlinejoin } bind def
/M { setmiterlimit } bind def
/d { setdash } bind def
/m { moveto } bind def
/l { lineto } bind def
/c { curveto } bind def
/h { closepath } bind def
/re { exch dup neg 3 1 roll 5 3 roll moveto 0 rlineto
      0 exch rlineto 0 rlineto closepath } bind def
/S { stroke } bind def
/f { fill } bind def
/f* { eofill } bind def
/n { newpath } bind def
/W { clip } bind def
/W* { eoclip } bind def
/BT { } bind def
/ET { } bind def
/pdfmark where { pop globaldict /?pdfmark /exec load put }
    { globaldict begin /?pdfmark /pop load def /pdfmark
    /cleartomark load def end } ifelse
/BDC { mark 3 1 roll /BDC pdfmark } bind def
/EMC { mark /EMC pdfmark } bind def
/cairo_store_point { /cairo_point_y exch def /cairo_point_x exch def } def
/Tj { show currentpoint cairo_store_point } bind def
/TJ {
  {
    dup
    type /stringtype eq
    { show } { -0.001 mul 0 cairo_font_matrix dtransform rmoveto } ifelse
  } forall
  currentpoint cairo_store_point
} bind def
/cairo_selectfont { cairo_font_matrix aload pop pop pop 0 0 6 array astore
    cairo_font exch selectfont cairo_point_x cairo_point_y moveto } bind def
/Tf { pop /cairo_font exch def /cairo_font_matrix where
      { pop cairo_selectfont } if } bind def
/Td { matrix translate cairo_font_matrix matrix concatmatrix dup
      /cairo_font_matrix exch def dup 4 get exch 5 get cairo_store_point
      /cairo_font where { pop cairo_selectfont } if } bind def
/Tm { 2 copy 8 2 roll 6 array astore /cairo_font_matrix exch def
      cairo_store_point /cairo_font where { pop cairo_selectfont } if } bind def
/g { setgray } bind def
/rg { setrgbcolor } bind def
/d1 { setcachedevice } bind def
%%EndProlog
%%BeginSetup
%%EndSetup
%%Page: 1 1
%%BeginPageSetup
%%PageBoundingBox: 31 -1 379 410
%%EndPageSetup
q 31 -1 348 411 rectclip q
1 0.45098 0.490196 rg
378.312 224.936 m 378.312 274.733 l 378.312 349.217 317.93 409.6 243.445
 409.6 c 166.148 409.6 l 166.312 224.936 l h
378.312 224.936 m f
166.457 62.776 m 166.512 -0.002 l 332.23 -0.002 l 357.68 -0.002 378.312
 20.631 378.312 46.084 c 378.312 62.776 l h
166.457 62.776 m f
1 0.647059 0.709804 rg
301.016 224.936 m 301.016 274.733 l 301.016 349.217 240.633 409.6 166.148
 409.6 c 91.664 409.6 31.281 349.217 31.281 274.733 c 31.281 224.936 l h
301.016 224.936 m f
31.281 62.776 m 31.281 46.084 l 31.281 20.631 51.914 -0.002 77.363 -0.002
 c 254.934 -0.002 l 280.387 -0.002 301.02 20.631 301.02 46.084 c 301.02 
62.776 l h
31.281 62.776 m f
1 0.541176 0.619608 rg
234.543 274.733 m 234.543 224.936 l 301.016 224.936 l 301.016 274.733 l
 301.016 349.217 240.633 409.6 166.148 409.6 c 154.68 409.6 143.535 408.166
 132.902 405.471 c 191.316 390.666 234.543 337.748 234.543 274.733 c h
234.543 274.733 m f
234.543 62.776 m 234.543 46.084 l 234.543 20.631 213.91 -0.002 188.461 
-0.002 c 254.934 -0.002 l 280.383 -0.002 301.016 20.631 301.016 46.084 c
 301.016 62.776 l h
234.543 62.776 m f
0.341176 0.337255 0.360784 rg
150.391 260.143 m 126.531 275.163 l 118.066 280.495 115 291.62 120.027 
300.268 c 125.301 309.35 137.008 312.174 145.82 306.627 c 157.945 298.991
 l 162.941 295.846 169.293 295.846 174.285 298.991 c 186.414 306.627 l 195.039
 312.057 206.43 309.467 211.859 300.842 c 217.289 292.221 214.699 280.827
 206.074 275.397 c 181.844 260.139 l 172.234 254.088 160 254.088 150.391
 260.143 c h
150.391 260.143 m f
1 0.333333 0.333333 rg
193.168 267.268 m 189.688 276.096 178.914 282.534 166.156 282.534 c 153.379
 282.534 142.594 276.08 139.125 267.237 c 150.395 260.143 l 160.008 254.088
 172.238 254.088 181.852 260.143 c h
193.168 267.268 m f
0.341176 0.337255 0.360784 rg
232.621 296.635 m 229.207 296.635 226.438 299.401 226.438 302.815 c 226.438
 313.077 l 226.438 316.491 229.207 319.256 232.621 319.256 c 236.035 319.256
 238.801 316.491 238.801 313.077 c 238.801 302.815 l 238.801 299.401 236.035
 296.635 232.621 296.635 c h
232.621 296.635 m f
99.676 296.635 m 96.262 296.635 93.496 299.401 93.496 302.815 c 93.496 
313.077 l 93.496 316.491 96.262 319.256 99.676 319.256 c 103.09 319.256 
105.855 316.491 105.855 313.077 c 105.855 302.815 l 105.855 299.401 103.09
 296.635 99.676 296.635 c h
99.676 296.635 m f
0.490196 0.886275 0.886275 rg
31.281 228.08 347.031 -168.453 re f
0.4 0.827451 0.815686 rg
234.547 228.08 143.773 -168.453 re f
0.301961 0.72549 0.756863 rg
301.016 228.08 77.297 -168.453 re f
0.913725 0.964706 1 rg
31.281 173.155 347.031 -58.59 re f
0.741176 0.980392 1 rg
234.547 173.155 143.773 -58.59 re f
0.490196 0.886275 0.886275 rg
301.016 173.155 77.297 -58.59 re f
0.913725 0.964706 1 rg
77.781 273.666 m 61.367 273.666 l 55.996 273.666 51.605 278.061 51.605 
283.432 c 51.605 288.799 55.996 293.194 61.367 293.194 c 77.781 293.194 
l 83.148 293.194 87.543 288.799 87.543 283.432 c 87.543 278.061 83.152 273.666
 77.781 273.666 c h
77.781 273.666 m f
270.93 273.666 m 254.516 273.666 l 249.145 273.666 244.754 278.061 244.754
 283.432 c 244.754 288.799 249.145 293.194 254.516 293.194 c 270.93 293.194
 l 276.297 293.194 280.691 288.799 280.691 283.432 c 280.691 278.061 276.297
 273.666 270.93 273.666 c h
270.93 273.666 m f
Q Q
showpage
%%Trailer
end restore
%%EOF
