%!PS-Adobe-3.0 EPSF-3.0
%%Creator: cairo 1.14.2 (http://cairographics.org)
%%CreationDate: Fri Dec 29 09:04:44 2017
%%Pages: 1
%%DocumentData: Clean7Bit
%%LanguageLevel: 2
%%BoundingBox: 120 -1 289 410
%%EndComments
%%BeginProlog
save
50 dict begin
/q { gsave } bind def
/Q { grestore } bind def
/cm { 6 array astore concat } bind def
/w { setlinewidth } bind def
/J { setlinecap } bind def
/j { setlinejoin } bind def
/M { setmiterlimit } bind def
/d { setdash } bind def
/m { moveto } bind def
/l { lineto } bind def
/c { curveto } bind def
/h { closepath } bind def
/re { exch dup neg 3 1 roll 5 3 roll moveto 0 rlineto
      0 exch rlineto 0 rlineto closepath } bind def
/S { stroke } bind def
/f { fill } bind def
/f* { eofill } bind def
/n { newpath } bind def
/W { clip } bind def
/W* { eoclip } bind def
/BT { } bind def
/ET { } bind def
/pdfmark where { pop globaldict /?pdfmark /exec load put }
    { globaldict begin /?pdfmark /pop load def /pdfmark
    /cleartomark load def end } ifelse
/BDC { mark 3 1 roll /BDC pdfmark } bind def
/EMC { mark /EMC pdfmark } bind def
/cairo_store_point { /cairo_point_y exch def /cairo_point_x exch def } def
/Tj { show currentpoint cairo_store_point } bind def
/TJ {
  {
    dup
    type /stringtype eq
    { show } { -0.001 mul 0 cairo_font_matrix dtransform rmoveto } ifelse
  } forall
  currentpoint cairo_store_point
} bind def
/cairo_selectfont { cairo_font_matrix aload pop pop pop 0 0 6 array astore
    cairo_font exch selectfont cairo_point_x cairo_point_y moveto } bind def
/Tf { pop /cairo_font exch def /cairo_font_matrix where
      { pop cairo_selectfont } if } bind def
/Td { matrix translate cairo_font_matrix matrix concatmatrix dup
      /cairo_font_matrix exch def dup 4 get exch 5 get cairo_store_point
      /cairo_font where { pop cairo_selectfont } if } bind def
/Tm { 2 copy 8 2 roll 6 array astore /cairo_font_matrix exch def
      cairo_store_point /cairo_font where { pop cairo_selectfont } if } bind def
/g { setgray } bind def
/rg { setrgbcolor } bind def
/d1 { setcachedevice } bind def
%%EndProlog
%%BeginSetup
%%EndSetup
%%Page: 1 1
%%BeginPageSetup
%%PageBoundingBox: 120 -1 289 410
%%EndPageSetup
q 120 -1 169 411 rectclip q
0.368627 0.611765 0.827451 rg
207.121 -0.002 m 180.395 -0.002 l 172.117 -0.002 165.406 6.709 165.406 
14.987 c 165.406 41.69 l 222.105 41.69 l 222.105 14.987 l 222.105 6.709 
215.395 -0.002 207.121 -0.002 c h
207.121 -0.002 m f
0.792157 0.905882 0.988235 rg
209.5 23.522 m 178.012 23.522 l 158.926 23.522 143.457 38.995 143.457 58.077
 c 143.457 305.737 l 244.059 305.737 l 244.059 58.08 l 244.059 38.995 228.586
 23.522 209.5 23.522 c h
209.5 23.522 m f
0.701961 0.858824 0.956863 rg
143.457 305.737 m 143.457 58.08 l 143.457 38.995 158.93 23.522 178.012 
23.522 c 202.926 23.522 l 198.539 26.362 195.688 30.877 193.855 35.108 c
 191.785 39.901 190.797 45.088 190.746 50.311 c 190.57 69.041 190.137 142.842
 193.855 184.53 c 195.52 203.194 203.797 214.198 218.676 219.01 c 235.027
 224.303 244.059 232.17 244.059 232.17 c 244.059 305.737 l h
143.457 305.737 m f
0.4 0.827451 0.815686 rg
212.996 305.737 m 174.52 305.737 l 174.52 90.717 l 174.52 80.092 183.133
 71.479 193.758 71.479 c 204.383 71.479 212.996 80.092 212.996 90.717 c 
h
212.996 305.737 m f
0.301961 0.72549 0.756863 rg
190.637 71.737 m 190.598 102.205 191.016 152.713 193.852 184.526 c 195.293
 200.663 201.684 211.077 212.996 216.713 c 212.996 305.737 l 174.52 305.737
 l 174.52 90.717 l 174.52 81.155 181.496 73.229 190.637 71.737 c h
190.637 71.737 m f
0.184314 0.435294 0.686275 rg
234.984 375.928 m 234.984 375.928 300.68 412.924 286.918 242.014 c 286.047
 231.186 271.469 228.405 266.66 238.147 c 258.902 253.85 250.09 273.741 
244.059 293.354 c 243.25 296.58 234.984 375.928 234.984 375.928 c h
234.984 375.928 m f
0.368627 0.611765 0.827451 rg
217.125 409.6 m 170.391 409.6 l 163.75 409.6 157.535 406.303 153.867 400.772
 c 142.699 383.94 121.309 342.385 120.785 270.538 c 120.711 260.327 128.922
 251.987 139.133 251.987 c 248.383 251.987 l 258.594 251.987 266.805 260.327
 266.73 270.538 c 266.207 342.385 244.812 383.94 233.652 400.772 c 229.977
 406.303 223.762 409.6 217.125 409.6 c h
217.125 409.6 m f
0.290196 0.533333 0.776471 rg
171.086 270.538 m 171.609 342.385 192.801 384.073 204.164 400.768 c 209.543
 408.674 217.125 409.6 217.125 409.6 c 170.391 409.6 l 163.75 409.6 157.535
 406.303 153.867 400.772 c 142.699 383.94 121.309 342.385 120.785 270.538
 c 120.711 260.327 128.922 251.987 139.133 251.987 c 189.434 251.987 l 179.223
 251.983 171.012 260.327 171.086 270.538 c h
171.086 270.538 m f
Q Q
showpage
%%Trailer
end restore
%%EOF
