%!PS-Adobe-3.0 EPSF-3.0
%%Creator: cairo 1.14.2 (http://cairographics.org)
%%CreationDate: Fri Dec 29 09:04:44 2017
%%Pages: 1
%%DocumentData: Clean7Bit
%%LanguageLevel: 2
%%BoundingBox: 75 -1 335 410
%%EndComments
%%BeginProlog
save
50 dict begin
/q { gsave } bind def
/Q { grestore } bind def
/cm { 6 array astore concat } bind def
/w { setlinewidth } bind def
/J { setlinecap } bind def
/j { setlinejoin } bind def
/M { setmiterlimit } bind def
/d { setdash } bind def
/m { moveto } bind def
/l { lineto } bind def
/c { curveto } bind def
/h { closepath } bind def
/re { exch dup neg 3 1 roll 5 3 roll moveto 0 rlineto
      0 exch rlineto 0 rlineto closepath } bind def
/S { stroke } bind def
/f { fill } bind def
/f* { eofill } bind def
/n { newpath } bind def
/W { clip } bind def
/W* { eoclip } bind def
/BT { } bind def
/ET { } bind def
/pdfmark where { pop globaldict /?pdfmark /exec load put }
    { globaldict begin /?pdfmark /pop load def /pdfmark
    /cleartomark load def end } ifelse
/BDC { mark 3 1 roll /BDC pdfmark } bind def
/EMC { mark /EMC pdfmark } bind def
/cairo_store_point { /cairo_point_y exch def /cairo_point_x exch def } def
/Tj { show currentpoint cairo_store_point } bind def
/TJ {
  {
    dup
    type /stringtype eq
    { show } { -0.001 mul 0 cairo_font_matrix dtransform rmoveto } ifelse
  } forall
  currentpoint cairo_store_point
} bind def
/cairo_selectfont { cairo_font_matrix aload pop pop pop 0 0 6 array astore
    cairo_font exch selectfont cairo_point_x cairo_point_y moveto } bind def
/Tf { pop /cairo_font exch def /cairo_font_matrix where
      { pop cairo_selectfont } if } bind def
/Td { matrix translate cairo_font_matrix matrix concatmatrix dup
      /cairo_font_matrix exch def dup 4 get exch 5 get cairo_store_point
      /cairo_font where { pop cairo_selectfont } if } bind def
/Tm { 2 copy 8 2 roll 6 array astore /cairo_font_matrix exch def
      cairo_store_point /cairo_font where { pop cairo_selectfont } if } bind def
/g { setgray } bind def
/rg { setrgbcolor } bind def
/d1 { setcachedevice } bind def
%%EndProlog
%%BeginSetup
%%EndSetup
%%Page: 1 1
%%BeginPageSetup
%%PageBoundingBox: 75 -1 335 410
%%EndPageSetup
q 75 -1 260 411 rectclip q
1 0.541176 0.619608 rg
309.219 161.643 m 100.383 161.643 l 100.383 355.772 l 100.383 385.498 124.484
 409.6 154.211 409.6 c 255.391 409.6 l 285.117 409.6 309.219 385.498 309.219
 355.772 c h
309.219 161.643 m f
1 0.45098 0.490196 rg
226.867 409.6 m 154.211 409.6 l 124.484 409.6 100.383 385.498 100.383 355.772
 c 100.383 161.643 l 173.039 161.643 l 173.039 355.772 l 173.039 385.498
 197.137 409.6 226.867 409.6 c h
226.867 409.6 m f
1 0.854902 0.666667 rg
278.684 43.502 m 225.402 6.459 l 213.02 -2.154 196.586 -2.154 184.199 6.459
 c 130.918 43.498 l 111.789 56.799 100.387 78.62 100.387 101.916 c 100.387
 323.284 l 309.219 323.284 l 309.219 101.916 l 309.219 78.62 297.812 56.799
 278.684 43.502 c h
278.684 43.502 m f
1 0.713726 0.333333 rg
100.383 101.916 m 100.383 78.62 111.789 56.799 130.918 43.502 c 184.199
 6.459 l 196.582 -2.154 213.016 -2.154 225.402 6.459 c 263.527 32.963 l 
198.41 67.065 187.691 142.545 188.504 192.038 c 188.906 216.471 206.18 237.534
 230.098 242.545 c 267.957 250.479 284.645 268.592 284.645 268.592 c 284.625
 323.288 l 100.383 323.288 l h
100.383 101.916 m f
0.341176 0.337255 0.360784 rg
191.875 36.717 m 166.602 18.694 l 184.199 6.459 l 196.582 -2.154 213.016
 -2.154 225.402 6.459 c 243 18.694 l 217.727 36.717 l 209.992 42.233 199.609
 42.233 191.875 36.717 c h
191.875 36.717 m f
1 0.854902 0.560784 rg
100.383 101.916 m 100.383 92.924 102.086 84.147 105.273 75.998 c 139.637
 97.6 l 148.492 103.166 159.758 103.166 168.613 97.6 c 190.309 83.963 l 
199.164 78.397 210.43 78.397 219.285 83.963 c 240.98 97.6 l 249.836 103.166
 261.098 103.166 269.957 97.6 c 304.328 75.998 l 307.516 84.147 309.219 
92.924 309.219 101.916 c 309.219 323.284 l 100.383 323.284 l h
100.383 101.916 m f
0.988235 0.823529 0.427451 rg
100.383 101.916 m 100.383 92.924 102.086 84.147 105.273 75.998 c 139.637
 97.6 l 148.492 103.166 159.758 103.166 168.613 97.6 c 190.309 83.963 l 
197.254 79.6 205.691 78.663 213.277 81.143 c 192.328 116.76 187.977 159.889
 188.504 192.038 c 188.906 216.471 206.18 237.534 230.098 242.545 c 267.957
 250.479 284.645 268.592 284.645 268.592 c 284.625 323.288 l 100.383 323.288
 l h
100.383 101.916 m f
0.878431 0.682353 0.580392 rg
255.484 323.284 m 154.117 323.284 l 154.117 101.772 l 159.148 101.776 164.184
 100.381 168.613 97.6 c 190.309 83.963 l 199.168 78.397 210.43 78.397 219.285
 83.963 c 240.98 97.6 l 245.414 100.385 250.453 101.776 255.484 101.772 
c h
255.484 323.284 m f
0.776471 0.552941 0.427451 rg
190.309 83.963 m 197.254 79.6 205.691 78.663 213.277 81.143 c 192.328 116.76
 187.977 159.889 188.504 192.038 c 188.906 216.471 206.18 237.534 230.098
 242.545 c 239.98 244.616 248.406 247.381 255.484 250.338 c 255.484 323.284
 l 154.117 323.284 l 154.117 101.772 l 159.148 101.772 164.18 100.381 168.613
 97.596 c h
190.309 83.963 m f
0.341176 0.337255 0.360784 rg
271.273 193.459 m 267.859 193.459 265.094 196.229 265.094 199.643 c 265.094
 209.905 l 265.094 213.319 267.859 216.084 271.273 216.084 c 274.688 216.084
 277.453 213.319 277.453 209.905 c 277.453 199.643 l 277.453 196.229 274.688
 193.459 271.273 193.459 c h
271.273 193.459 m f
138.328 193.459 m 134.914 193.459 132.145 196.229 132.145 199.643 c 132.145
 209.905 l 132.145 213.319 134.914 216.084 138.328 216.084 c 141.742 216.084
 144.508 213.319 144.508 209.905 c 144.508 199.643 l 144.508 196.229 141.742
 193.459 138.328 193.459 c h
138.328 193.459 m f
204.801 186.991 m 196.801 186.991 188.801 189.577 182.125 194.756 c 179.426
 196.846 178.938 200.729 181.031 203.428 c 183.121 206.127 187.004 206.616
 189.703 204.526 c 198.594 197.627 211.008 197.627 219.898 204.526 c 222.594
 206.616 226.48 206.127 228.57 203.428 c 230.664 200.729 230.172 196.846
 227.477 194.756 c 220.801 189.577 212.801 186.991 204.801 186.991 c h
204.801 186.991 m f
0.792157 0.905882 0.988235 rg
307.23 268.588 m 102.371 268.588 l 87.332 268.588 75.027 280.897 75.027
 295.936 c 75.027 310.975 87.332 323.284 102.371 323.284 c 307.227 323.284
 l 322.27 323.284 334.574 310.975 334.574 295.936 c 334.574 280.897 322.27
 268.588 307.23 268.588 c h
307.23 268.588 m f
0.580392 0.796078 0.929412 rg
166.602 295.936 m 166.602 310.979 178.91 323.284 193.949 323.284 c 102.371
 323.284 l 87.332 323.284 75.027 310.979 75.027 295.936 c 75.027 280.897
 87.332 268.592 102.371 268.592 c 193.949 268.592 l 178.906 268.588 166.602
 280.897 166.602 295.936 c h
166.602 295.936 m f
Q Q
showpage
%%Trailer
end restore
%%EOF
