/* XPM */
static const char *const libesys_not_text_128px_xpm[] = {
/* columns rows colors chars-per-pixel */
"128 128 98 2 ",
"   c None",
".  c #231F1F",
"X  c #24221F",
"o  c #28271F",
"O  c #2C2B1F",
"+  c #302F1F",
"@  c #32331F",
"#  c #37391F",
"$  c #3A3D1F",
"%  c #231F20",
"&  c #242120",
"*  c #292620",
"=  c #2D2D20",
"-  c #2B2728",
";  c #2E2B2B",
":  c #312F20",
">  c #302C2D",
",  c #323320",
"<  c #332F30",
"1  c #353233",
"2  c #393637",
"3  c #3D393A",
"4  c #413E3F",
"5  c #3E421F",
"6  c #41461E",
"7  c #454C1E",
"8  c #484F1E",
"9  c #47501E",
"0  c #4C541E",
"q  c #4E591D",
"w  c #525D1D",
"e  c #56611D",
"r  c #59651D",
"t  c #5C6B1D",
"y  c #606F1D",
"u  c #64741C",
"i  c #66781C",
"p  c #6A7D1C",
"a  c #474445",
"s  c #484546",
"d  c #4C4849",
"f  c #575454",
"g  c #5A5758",
"h  c #5F5C5C",
"j  c #605D5E",
"k  c #646162",
"l  c #696667",
"z  c #6C6A6A",
"x  c #716E6F",
"c  c #747172",
"v  c #787677",
"b  c #7C7A7A",
"n  c #6F821C",
"m  c #71851C",
"M  c #758B1C",
"N  c #798F1B",
"B  c #7B931B",
"V  c #7E981A",
"C  c #829C1B",
"Z  c #86A11B",
"A  c #89A51A",
"S  c #8EAC1A",
"D  c #91AF1A",
"F  c #94B41A",
"G  c #97B819",
"H  c #9BBD19",
"J  c #9FC119",
"K  c #A2C619",
"L  c #A5CB19",
"P  c #A9CE18",
"I  c #ACD418",
"U  c #B2DB17",
"Y  c #B2DB18",
"T  c #858384",
"R  c #8D8B8C",
"E  c #908E8E",
"W  c #939192",
"Q  c #989697",
"!  c #9F9D9E",
"~  c #A09E9F",
"^  c #A3A1A1",
"/  c #A9A7A8",
"(  c #ADACAC",
")  c #B0AFAF",
"_  c #B7B5B6",
"`  c #B8B7B7",
"'  c #BCBBBB",
"]  c #C0BFBF",
"[  c #C3C2C2",
"{  c #CBCACA",
"}  c #D4D3D3",
"|  c #DDDCDC",
" . c #E0DFE0",
".. c #E4E3E3",
"X. c #E8E7E7",
"o. c #EDEDED",
"O. c #F5F4F4",
"+. c #FFFFFF",
/* pixels */
"                                                                                                                                                                                                                                                                ",
"                                                                                                                                                                                                                                                                ",
"                                                                                                                                                                                                                                                                ",
"                                                                                                                                                                                                                                                                ",
"                                                                                                                                                                                                                                                                ",
"                                                                                                                                                                                                                                                                ",
"                                                                                                                                                                                                                                                                ",
"                                                                                                                                                                                                                                                                ",
"                                                                                                                                                                                                                                                                ",
"                                                                                                                                                                                                                                                                ",
"                                                                                                                                                                                                                                                                ",
"                                                                                                                                                                                                                                                                ",
"                                                                                                                                                                                                                                                                ",
"                                                                                                                                                                                                                                                                ",
"                                                                                                                                                                                                                                                                ",
"                                                                                                                                                                                                                                                                ",
"                                                                                                                                                                                                                                                                ",
"                                                                                                                                                                                                                                                                ",
"                                                                                                                                                                                                                                                                ",
"                                                                                                                                                                                                                                                                ",
"                                                                                                                                                                                                                                                                ",
"                                                                                                                                                                                                                                                                ",
"                                                                                                                                                                                                                                                                ",
"                                                                                                                                                                                                                                                                ",
"                                                                                          % % % % % % . % %                                                                                                                                                     ",
"                                                                                  % % % % % % % % % % % % % % % &                                                                                                                                               ",
"                                                                              & % % % % % % % % % % % % % % % % % % &                                                                                                                                           ",
"                                                                          % % % % % % % % % % & % % % % % % % % % % % %                                                                                                                                         ",
"                                                                      % % % % % % % % % % * # 0         % % % % % % % % %                                                                                                                                       ",
"                                                                  % % % % % % % % & 6 V I Y Y Y Y Y Y         % % % % % % &                                                                                                                                     ",
"                                                              % % % % % % % % = p K Y Y Y Y Y Y Y Y Y Y Y         % % % % %                                                                                                                                     ",
"                                                            % % % % % % & O N Y Y Y Y Y Y Y Y Y Y Y Y Y Y Y Y       % % % % %                                                                                                                                   ",
"                                                        % % % % % % % O m I U Y Y Y Y Y Y Y Y Y Y Y Y Y Y Y Y Y     & & % % %                                                                                                                                   ",
"                                                    . % % % % % % * i I Y Y Y Y Y Y Y Y Y Y Y Y Y Y Y Y Y Y Y Y       & % % %                                     % % % % % % % % % % . % %                                                                     ",
"                                                  % % % . % % . 7 H Y Y Y Y Y Y Y Y Y Y Y Y Y Y Y Y Y Y Y Y Y Y Y     % % % %                           % % % % % % % % % % % % % % % % % % % % % % %                                                           ",
"                                                % % % % & & * B Y Y Y Y Y Y Y Y Y Y Y Y Y Y Y Y Y Y Y Y Y Y Y Y Y     % % % % %                   % % % % % % % % % % % % % % % % % % % % % % % % % % % % .                                                     ",
"                                            . % & % % % % w L Y Y Y Y Y Y I S p u e t u C K Y Y Y Y Y Y Y Y Y Y Y     % % % % %             & . % % % % % % % % % % % % % % % & % % % % % % % % % % % % % % % %                                                 ",
"                                          % % % % % % @ A Y Y Y Y Y Y A w & % % . % % % % % 5 N I Y Y Y Y Y Y Y Y     % % % % %         % % % % % % % % % % % % * 6 w u m C C A S C B m u 9 : % % % % % % % % % % %                                             ",
"                                        % % % % % % 0 L Y Y Y Y Y F 6 % % % % % % % % % % % % % , Z Y Y Y Y Y Y Y     % % % % %   % % % % % % % & * % % = e B G I Y Y Y Y Y Y Y Y Y Y Y Y Y Y P C w O % % & % % % % % %                                         ",
"                                      % % % % % & m Y Y Y Y Y Y p & X & % % % % % % % % % % % % % % y Y Y Y Y Y Y     % % % % % % % % % % % % % & , p G Y Y Y Y Y Y Y Y Y Y Y Y Y Y Y Y Y Y Y Y Y Y Y S w & % % % % % % %                                       ",
"                                    % % % % & = A Y Y Y Y U I 0 % % % . % % % 3 j x k a * % % % % % % w Y Y Y Y Y     % % % % % % % % % % % = u H Y Y Y Y Y Y Y Y Y Y Y Y Y Y Y Y Y Y Y Y Y Y Y Y Y Y Y Y K u = % % % % % % %                                   ",
"                                  % % % % % @ J Y Y Y Y Y I 7 % % % % . 1 R ..+.+.+.+.+.o.! 4 % % % % % t Y Y Y Y     % % % % % % % % & # B I Y Y Y Y Y Y Y Y Y Y Y Y Y Y Y Y Y Y Y Y Y Y Y Y Y Y Y Y Y Y Y Y P t & % % % % % %                                 ",
"                                % % % % % 5 K Y Y Y Y Y Y r % % % % . b O.+.+.+.+.+.+.+.+.+.O.T % % . . % C Y Y Y     . % % % % % & 6 C Y Y Y Y Y Y Y Y Y Y Y Y Y Y Y Y Y Y Y Y Y Y Y Y Y Y Y Y Y Y Y Y Y Y Y Y Y F $ % % % % % %                               ",
"                              % % % % X 6 I Y Y Y Y Y Y N & % % % * _ +.+.+.+.+.+.+.+.+.+.+.+.+.~ % % . % : P Y Y     % % % % % $ Z Y Y Y Y Y Y Y Y Y Y Y Y Y Y Y Y Y Y Y Y Y Y Y Y Y Y Y Y Y Y Y Y Y Y Y Y Y Y Y Y Y y % % % % % %                             ",
"                            % % % % % 6 P Y Y Y Y Y Y P * & % % * ] +.+.+.+.+.+.+.+.+.+.+.+.+.+.+.R . . % % n Y Y     : % % = N Y Y Y Y Y Y Y Y Y Y Y Y Y Y Y Y Y Y Y Y Y Y Y Y Y Y Y Y Y Y Y Y Y Y Y Y Y Y Y Y Y Y Y Y C . % % % % %                           ",
"                          & % % % % 5 P Y Y Y Y Y Y Y t % % % % ! +.+.+.+.+.+.+.+.+.+.+.+.+.+.+.+.+.a . % X # Y Y Y Y I V m L Y Y Y Y Y Y Y Y Y Y Y Y Y Y Y Y Y Y Y Y Y Y Y Y Y Y Y Y Y Y Y Y Y Y Y Y Y Y Y Y Y Y Y Y Y Y S % % % % % %                         ",
"                        & % % % & @ K Y Y Y Y Y Y Y K * % % % g +.+.+.+.+.+.+.+.+.+.+.+.+.+.+.+.+.+.' % % % & S Y Y Y Y Y Y Y Y Y Y Y Y Y Y Y Y Y Y Y Y Y Y Y Y Y Y Y Y Y Y Y Y Y Y Y Y Y Y Y Y Y Y Y Y Y Y Y Y Y Y Y Y Y Y A % % % % % %                       ",
"                        % % % % o H Y Y Y Y Y Y Y Y n % % % % } +.+.+.+.+.+.+.+.+.+.o.R j  .+.+.+.+.+.1 % % & i Y Y Y Y Y Y Y Y Y Y Y Y Y Y Y Y Y Y Y Y Y Y Y Y Y Y Y Y Y Y Y Y Y Y Y Y Y Y Y Y Y Y Y Y Y Y Y Y Y Y Y Y Y Y Y   % % % % %                       ",
"                      . % % % & C Y Y Y Y Y Y Y Y Y 5 % % % f +.+.+.+.+.+.+.+.+.+.X.2 % h +.+.+.+.+.+.v . % % 0 Y Y Y Y Y Y Y Y Y Y Y Y Y Y Y Y Y Y Y Y Y Y Y Y Y Y Y Y Y Y Y Y Y Y Y Y Y Y Y Y Y Y Y Y Y Y Y Y Y Y Y Y Y Y Y Y   % % % % %                     ",
"                    % % % % % u Y Y Y Y Y Y Y U Y P % % % % ( +.+.+.+.+.+.+.+.+.+.z % % f +.+.+.+.+.+.! % % % @ Y Y Y Y Y Y Y Y Y Y Y Y Y Y Y Y Y Y Y Y Y Y Y Y Y Y Y Y Y Y Y Y Y Y Y Y Y Y Y Y Y Y Y Y Y Y Y Y Y Y Y Y Y Y Y Y     % % % % %                   ",
"                    % % % & 6 Y Y Y Y Y Y Y Y Y Y S % % % % ..+.+.+.+.+.+.+.+.+.+.; % % % W | ( Q +.+.' % % % * Y Y Y Y Y Y Y Y Y Y Y Y Y Y Y Y Y Y Y Y Y Y Y Y Y Y I L J J J L I Y Y Y Y Y Y Y Y Y Y Y Y Y Y Y Y Y Y Y Y Y Y Y U   % % % % %                   ",
"                  % % % % * H U Y Y Y Y Y Y Y Y Y N % % % < +.+.+.+.+.+.+.+.+.+.+.1 % . % % & % T +.+.' % % & o Y Y Y Y Y Y Y Y Y Y Y Y Y Y Y Y Y Y Y Y L A u w 5 * % % % % % % % , 7 t B K Y Y Y Y Y Y Y Y Y Y Y Y Y Y Y Y Y Y Y     % % % % %                 ",
"                  % % % % m Y Y Y Y Y Y Y Y Y Y Y M % % % a +.+.+.+.+.+.+.+.+.+.+.c % % % % % % [ +.+._ % % % o Y Y Y Y Y Y Y Y Y Y Y Y Y Y Y Y Y L m 5 % % % % % % % % % % % % % % % % % % 5 m L U Y Y Y Y Y Y Y Y Y Y Y Y Y Y Y Y     % % % %                 ",
"                % % % % , I Y Y Y Y Y Y Y Y Y Y Y M % % % d +.+.+.+.+.+.+.+.+.+.+...2 % % % % c +.+.+.W % % % $ Y Y Y Y Y Y Y Y Y Y Y Y Y Y Y G w X % % % % % % % % % % % % % % % % % % % % % % * y L Y Y Y Y Y Y Y Y Y Y Y Y Y Y Y     % % % % %               ",
"              % % % % & S Y Y Y Y Y Y Y Y Y Y Y Y M % % % 4 +.+.+.+.+.+.+.+.+.+.+.+.o.T f l _ +.+.+.+.l % % % e Y Y Y Y Y Y Y Y Y Y Y Y Y K w & % % % % % % % % & % % & % % & % % % % % % % % % % % O N Y Y Y Y Y Y Y Y Y Y Y Y Y Y Y     % % % %               ",
"              % % % % 9 Y Y Y Y Y Y Y Y Y Y Y Y Y A % % % & O.+.+.+.+.+.+.+.+.+.+.+.+.+.+.+.+.+.+.+.O.; % % % m Y Y Y Y Y Y Y Y Y Y Y Y m * % % % % % % % % , w u B D F H K G D V r , % % % % % % % % % w I Y Y Y Y Y Y Y Y Y Y Y Y Y     % % % % .             ",
"              % % % % S Y Y Y Y Y Y Y Y Y Y Y Y Y L . % % % { +.+.+.+.+.+.+.+.+.+.+.+.+.+.+.+.+.+.+./ . % % % G Y Y Y Y Y Y Y Y Y Y K 7 % % % % % % % 8 C K Y Y Y Y Y Y Y Y Y Y Y Y Y Y J   % % % % % % % 5 L Y Y Y Y Y Y Y Y Y Y Y Y     % % % % %             ",
"            . % % % 6 Y Y Y Y Y Y Y Y Y Y Y Y Y Y Y @ % % % b +.+.+.+.+.+.+.+.+.+.+.+.+.+.+.+.+.+.+.a . % % , Y Y Y Y Y Y Y Y Y Y F + % % % % % & r K Y Y Y Y Y Y Y Y Y Y Y Y Y Y Y Y Y U Y     % % % % % % 5 P Y Y Y Y Y Y Y Y Y Y Y U     % % % %             ",
"            % % % . V Y Y Y Y Y Y Y Y Y Y Y Y Y Y Y y . % % > o.+.+.+.+.+.+.+.+.+.+.+.+.+.+.+.+.+.Q . . % % M Y Y Y Y Y Y Y Y Y C * % % % % % 0 H Y Y Y Y Y Y Y Y Y Y Y Y Y Y Y Y Y Y Y Y Y Y Y     % % . % % 0 Y Y Y Y Y Y Y Y Y Y Y Y     % % % % %           ",
"          & % % % O I Y Y Y Y Y Y Y Y Y Y Y Y Y Y Y G % % % % c +.+.+.+.+.+.+.+.+.+.+.+.+.+.+.+.{ * % % & , I Y Y Y Y Y Y Y Y V % % % % % * N Y U Y Y Y Y Y Y Y Y Y Y Y Y Y Y Y Y Y Y Y Y Y Y Y Y     % % % & X m Y Y Y Y Y Y Y Y Y Y Y     . % % % %           ",
"          % % % % r Y Y Y Y Y Y Y Y Y Y Y Y Y Y Y Y Y 7 % % % % ( +.+.+.+.+.+.+.+.+.+.+.+.+.+.} < % & % % C Y Y Y Y Y Y Y Y C & % % % % $ J Y Y Y Y Y Y Y Y Y Y Y Y Y Y Y Y Y Y Y Y Y Y Y Y Y Y Y Y     % % % % O K Y Y Y Y Y Y Y Y Y Y       % % % .           ",
"          % % % % C Y Y Y Y Y Y Y Y Y Y Y Y Y Y Y Y Y H * % % % * ) +.+.+.+.+.+.+.+.+.+.+.+.` ; % % % % e Y Y Y Y Y Y Y Y D & % % % % 0 P Y Y Y Y Y Y Y Y Y Y Y Y Y Y Y Y Y Y Y Y Y Y Y Y Y Y Y Y Y Y     % % % % t Y Y Y Y Y Y Y Y Y Y       % % % %           ",
"          % % % % P Y Y Y Y Y Y Y Y Y Y Y Y Y Y Y Y Y Y p % % % % % x o.+.+.+.+.+.+.+.+...x % % % % % 6 I Y Y Y Y Y Y Y K : % % % % q Y Y Y Y Y Y Y Y Y Y Y Y Y Y Y Y Y Y Y Y Y Y Y Y Y Y Y Y Y Y Y Y     % % % % * L Y Y Y Y Y Y Y Y Y Y     % % % %           ",
"          % % % @ Y Y Y Y Y Y Y Y Y Y Y Y Y Y Y Y Y Y Y Y 0 % % % % % - x ' | O.O.| ( k * % % % % % , P Y Y Y Y Y Y Y Y 5 % % % % 0 I Y Y Y Y Y Y Y Y Y Y Y Y Y Y Y Y Y Y Y Y Y Y Y Y Y Y Y Y Y Y Y Y Y     % % % % m Y Y Y Y Y Y Y Y Y Y     % % % %           ",
"        . % % % 0 Y Y Y Y Y Y Y Y Y Y Y Y Y Y Y Y Y Y Y Y I 0 X % % % % % % % % % % % % % % % % % 7 P Y Y Y Y Y Y Y Y p % % % % 5 I Y Y Y Y Y Y Y Y Y Y Y Y Y Y Y Y Y Y Y Y Y Y Y Y Y Y Y Y Y Y Y Y Y Y     & % % % 5 Y Y Y Y Y Y Y Y Y Y     * % % % %         ",
"        % % % % r Y Y Y Y Y Y Y Y Y Y Y Y Y Y Y Y Y Y Y Y Y Y u & % % % % % % % % % % % % % % & p Y Y Y Y Y Y Y Y Y G X % % % = J Y Y Y Y Y Y Y Y Y Y Y Y Y Y Y Y Y Y Y Y Y Y Y Y Y Y Y Y Y Y Y Y Y Y Y Y     % % % & L Y Y Y Y Y Y Y Y Y     % % % % %         ",
"        % % % % t Y Y Y Y Y Y Y Y Y Y Y Y Y Y Y Y Y Y Y Y Y Y Y F 7 X & % % % % % % & X % & q J Y Y Y Y Y Y Y Y Y Y 6 % % % % A Y Y Y Y Y Y Y Y Y Y Y Y Y Y Y     # + = , 9 m K Y Y Y Y Y Y Y Y Y Y Y Y Y     % % % % Z Y Y Y Y Y Y Y Y Y     % % % % %         ",
"        % % % % r Y Y Y Y Y Y Y Y Y Y Y Y Y Y Y Y Y Y Y Y Y Y Y Y Y F t # % % & % % * 6 n K Y Y Y Y Y Y Y Y Y Y Y C % % % % r Y Y Y Y Y Y Y Y Y Y Y Y Y       % % % % % & & % % r L Y Y Y Y Y Y Y Y Y Y Y     % % % % m Y Y Y Y Y Y Y Y Y     % % % % %         ",
"        & % % % 7 Y Y Y Y Y Y Y Y Y Y Y Y Y Y Y Y Y Y Y Y Y Y Y Y Y Y Y Y I F S D J I Y Y Y Y Y Y Y Y Y Y Y Y Y Y 5 % % % + P Y Y Y Y Y Y Y Y Y Y Y       % % % % % % % % % % % % @ K Y Y Y Y Y Y Y Y Y Y     % % % % t Y Y Y Y Y Y Y Y Y     % % % % %         ",
"          % % % o I Y Y Y Y Y Y Y Y Y Y Y Y Y Y Y Y Y Y Y Y Y Y Y Y Y Y Y Y Y Y Y Y Y Y Y Y Y Y Y Y Y Y Y Y Y Y C % % % % M Y Y Y Y Y Y Y Y Y Y U     % % % % % % . % % % % % % % % p Y Y Y Y Y Y Y Y Y Y     % % % % r Y Y Y Y Y Y Y Y Y     % % % % &         ",
"          % % % % V Y Y Y Y Y Y Y Y Y Y Y Y Y Y Y Y Y Y Y Y Y Y Y Y Y Y Y Y Y Y Y Y Y Y Y Y Y Y Y Y Y Y Y Y Y Y 8 % % % @ Y Y Y Y Y Y Y Y Y Y Y     . % % % % % & @ w u u 9 X % % % m Y Y Y Y Y Y Y Y Y Y     . % % & r Y Y Y Y Y Y Y Y Y     % % % % %         ",
"          % % % % , P Y Y Y Y Y Y Y Y Y Y Y Y Y Y Y Y Y Y Y Y Y Y Y Y Y Y Y Y Y Y Y Y Y Y Y Y Y Y Y Y Y Y Y Y L & % % % m Y Y Y Y Y Y Y Y Y Y     % % % % % % 8 A Y Y Y Y Y H 7 % 0 I Y Y Y Y Y Y Y Y Y Y     % % % % p Y Y Y Y Y Y Y Y       % % % %           ",
"            % % % % # S Y Y Y Y Y Y Y Y Y Y Y Y I H F C B n p i u t t t t t y i n m B C D H P Y Y Y Y Y Y Y Y N % % % * P Y Y Y Y Y Y Y Y Y     & % % % % O C Y Y Y Y Y Y Y Y Y Y Y Y Y Y Y Y Y Y Y Y Y Y     % % % % B Y Y Y Y Y Y Y Y       % % % %           ",
"            % % % % % % , e u m n m u r 0 7 @ * % % % % % % % % % % % % % % % % % % & % % & % & + $ 8 t p V D 7 % % % 0 Y Y Y Y Y Y Y Y Y Y     % % % % , G Y Y Y Y Y Y Y Y Y Y Y Y Y Y Y Y Y Y Y Y Y Y Y     % % % & G Y Y Y Y Y Y Y Y       % % % %           ",
"              % % % % % % % % % % % % % % % . % % % % % % % % % % % % % % % % % % % % % % % % % % % % % % % % % % % % N Y Y Y Y Y Y Y Y Y     % % % % O H Y Y Y Y Y Y Y Y Y Y Y Y Y Y Y Y Y Y Y Y Y Y Y     % % % % @ Y Y Y Y Y Y Y Y Y       % % % %           ",
"                % % % % % % % % % % % % % % % % % % % % % % % % % % % % % % % % % % % % % & % % % % % % % % % % % % % G Y Y Y Y Y Y Y Y Y     % % % % N Y Y Y Y Y Y Y Y Y Y Y Y Y Y Y Y Y Y Y Y Y Y Y Y     % % % % p Y Y Y Y Y Y Y Y Y     . % % % %           ",
"                  % % % % % % % % % % % % % % % % % % % % % % % . & & & % X . % % % % % % % % % % % % % % % % % % % * Y Y Y Y Y Y Y Y Y Y     % % % & Y Y Y Y Y Y Y Y Y Y Y Y Y Y Y Y Y Y Y Y Y Y Y Y     & % % % & K Y Y Y Y Y Y Y Y       & % % % %           ",
"                          % % % % % . % % &                                                         % % % % % % % & # Y Y Y Y Y Y Y Y Y Y     % % % @ Y Y Y Y Y Y Y Y Y Y Y Y Y Y Y Y Y Y Y Y Y Y Y     % % % % % u Y Y Y Y Y Y Y Y Y       % % % %             ",
"                                                                                                            . % % % 6 Y Y Y Y Y Y Y Y Y Y     % % % & I Y Y Y Y Y Y Y Y Y Y Y Y Y Y Y Y Y Y Y Y Y     % % % % % + P Y Y Y Y Y Y Y Y U       % % % %             ",
"                                                                                                              % . & 6 Y Y Y Y Y Y Y Y Y Y     % % % . C Y Y Y Y Y Y Y Y Y Y Y Y Y Y Y Y Y Y Y Y     . % % % % X D Y Y Y Y Y Y Y Y Y       % % % % %             ",
"                                                                                                              % % % # Y Y Y Y Y Y Y Y Y Y     & % % % 7 Y Y Y Y Y Y Y Y Y Y Y Y Y Y Y Y Y Y Y     % % % % % % N Y Y Y Y Y Y Y Y Y Y       % % % %               ",
"                                                                                                              % % % & Y Y Y Y Y Y Y Y Y Y Y     % % % % B Y Y Y Y Y Y Y Y Y Y Y Y Y Y Y U     % % % % % % & n Y Y Y Y Y Y Y Y Y Y       % % % % %               ",
"                                                                                                              % % % % F Y Y Y Y Y Y Y Y Y Y     % % % % X C Y Y Y Y Y Y Y Y Y Y Y Y Y     & % % % % % % & M Y Y Y Y Y Y Y Y Y Y Y       . % % % %               ",
"                                                                                                              % % % % i Y Y Y Y Y Y Y Y Y Y Y     % % % % % 9 D Y Y Y Y Y Y Y Y Y     . % % % % % % % + S Y Y Y Y Y Y Y Y Y Y Y       & % % % %                 ",
"                                                                                                              % % % % + I Y Y Y Y Y Y Y Y Y Y     % % % % % % % o $ 0 w 9 6 * X % % % % % % % % % % w L Y Y Y Y Y Y Y Y Y Y Y Y       % % % % %                 ",
"                                                                                                                % % % % N Y Y Y Y Y Y Y Y Y Y Y     % % % % % % % % % % % % % % % % % % % % % % $ S Y U Y Y Y Y Y Y Y Y Y Y Y       % % % % %                   ",
"                                                                                                                % % % % @ I Y Y Y Y Y Y Y Y Y Y Y Y   . % % % % % % % % % % % % % % % % % % 6 A Y Y Y Y Y Y Y Y Y Y Y Y Y Y         % % % % %                   ",
"                                                                                                                  % % % % u Y Y Y Y Y Y Y Y Y Y Y Y Y Y   X . % % % % % % % % % % % % $ p K Y Y Y Y Y Y Y Y Y Y Y Y Y Y Y U       . % % % %                     ",
"                                                                                                                  . % % & & S Y Y Y Y Y Y Y Y Y Y Y Y Y Y Y I B w $ , = , @ $ w n A P Y Y Y Y Y Y Y Y Y Y Y Y Y Y Y Y Y Y       % % % % %                       ",
"                                                                                                                    . % % & , L Y Y Y Y Y Y Y Y Y Y Y Y Y Y Y Y Y Y Y Y Y Y Y Y Y Y Y Y Y Y Y Y Y Y Y Y Y Y Y Y Y Y Y Y       % % % % % %                       ",
"                                                                                                                    % % % % % 6 I Y Y Y Y Y Y Y Y Y Y Y Y Y Y Y Y Y Y Y Y Y Y Y Y Y Y Y Y Y Y Y Y Y Y Y Y Y Y Y Y Y Y       % % % % % &                         ",
"                                                                                                                      % % % % % 0 I Y Y Y Y Y Y Y Y Y Y Y Y Y Y Y Y Y Y Y Y Y Y Y Y Y Y Y Y Y Y Y Y Y Y Y Y Y Y Y Y       & % % % % %                           ",
"                                                                                                                        % % % % % 7 I Y Y Y Y Y Y Y Y Y Y Y Y Y Y Y Y Y Y Y Y Y Y Y Y Y Y Y Y Y Y Y Y Y Y Y Y Y         % % % % % %                             ",
"                                                                                                                          % % % X & $ H Y Y Y Y Y Y Y Y Y Y Y Y Y Y Y Y Y Y Y Y Y Y Y Y Y Y Y Y Y Y Y Y Y Y Y         % % % % % %                               ",
"                                                                                                                            % % % % % = C Y Y Y Y Y Y Y Y Y Y Y Y Y Y Y Y Y Y Y Y Y Y Y Y Y Y Y Y Y Y Y Y         % % % % % % %                                 ",
"                                                                                                                              % % % % % % 0 K Y Y Y Y Y Y Y Y Y Y Y Y Y Y Y Y Y Y Y Y Y Y Y Y Y Y Y Y         . . % % % % % %                                   ",
"                                                                                                                                % % % % % % * u L Y Y Y Y Y Y Y Y Y Y Y Y Y Y Y Y Y Y Y Y Y Y Y Y         % % % % % % % % &                                     ",
"                                                                                                                                  % % % % % % % * t F Y Y Y Y Y Y Y Y Y Y Y Y Y Y Y Y Y Y Y         % % % % % % % % % %                                         ",
"                                                                                                                                      % % % % % % % % # u A I Y Y Y Y Y Y Y Y Y Y Y           & % % % % % % % % % % %                                           ",
"                                                                                                                                        % % % % % % % % & & X : 6 r t u p u       . . % % % % % % % % % % % % % %                                               ",
"                                                                                                                                            % % % % % % % % % % & % % . % % % % % % % % % % % % % % % % % % %                                                   ",
"                                                                                                                                                % % % % % % % % & & & % % % % % % % % % % % % % % % % %                                                         ",
"                                                                                                                                                      % % % % % % % % % % % % % % % % % % % % & %                                                               ",
"                                                                                                                                                              % & % % % % % . % % % & %                                                                         ",
"                                                                                                                                                                                                                                                                ",
"                                                                                                                                                                                                                                                                ",
"                                                                                                                                                                                                                                                                ",
"                                                                                                                                                                                                                                                                ",
"                                                                                                                                                                                                                                                                ",
"                                                                                                                                                                                                                                                                ",
"                                                                                                                                                                                                                                                                ",
"                                                                                                                                                                                                                                                                ",
"                                                                                                                                                                                                                                                                ",
"                                                                                                                                                                                                                                                                ",
"                                                                                                                                                                                                                                                                ",
"                                                                                                                                                                                                                                                                ",
"                                                                                                                                                                                                                                                                ",
"                                                                                                                                                                                                                                                                ",
"                                                                                                                                                                                                                                                                ",
"                                                                                                                                                                                                                                                                ",
"                                                                                                                                                                                                                                                                ",
"                                                                                                                                                                                                                                                                ",
"                                                                                                                                                                                                                                                                ",
"                                                                                                                                                                                                                                                                ",
"                                                                                                                                                                                                                                                                ",
"                                                                                                                                                                                                                                                                ",
"                                                                                                                                                                                                                                                                ",
"                                                                                                                                                                                                                                                                "
};
