<?xml version="1.0" encoding="UTF-8" standalone="no"?>
<svg
   xmlns:dc="http://purl.org/dc/elements/1.1/"
   xmlns:cc="http://creativecommons.org/ns#"
   xmlns:rdf="http://www.w3.org/1999/02/22-rdf-syntax-ns#"
   xmlns:svg="http://www.w3.org/2000/svg"
   xmlns="http://www.w3.org/2000/svg"
   viewBox="0 0 351.60001 295.69333"
   height="295.69333"
   width="351.60001"
   xml:space="preserve"
   id="svg2"
   version="1.1"><metadata
     id="metadata8"><rdf:RDF><cc:Work
         rdf:about=""><dc:format>image/svg+xml</dc:format><dc:type
           rdf:resource="http://purl.org/dc/dcmitype/StillImage" /></cc:Work></rdf:RDF></metadata><defs
     id="defs6" /><g
     transform="matrix(1.3333333,0,0,-1.3333333,0,295.69333)"
     id="g10"><g
       transform="scale(0.1)"
       id="g12"><g
         transform="scale(10)"
         id="g14"><text
           id="text18"
           style="font-variant:normal;font-weight:normal;font-size:81.26452637px;font-family:MavenProRegular;-inkscape-font-specification:MavenProRegular;writing-mode:lr-tb;fill:#231f20;fill-opacity:1;fill-rule:nonzero;stroke:none"
           transform="matrix(1.0001,0,0,-1,1.82813,17.141)"><tspan
             id="tspan16"
             y="0"
             x="0 37.799301 53.456444">Lib</tspan></text>
<text
           id="text22"
           style="font-variant:normal;font-weight:normal;font-size:81.26462555px;font-family:MavenProBold;-inkscape-font-specification:MavenProBold;writing-mode:lr-tb;fill:#231f20;fill-opacity:1;fill-rule:nonzero;stroke:none"
           transform="matrix(1.0001,0,0,-1,101.252,17.0609)"><tspan
             id="tspan20"
             y="0"
             x="0 43.472675 84.089874 122.88091">ESys</tspan></text>
</g><path
         id="path24"
         style="fill:#b2db18;fill-opacity:1;fill-rule:nonzero;stroke:none"
         d="m 1208.05,1335.63 c 44.81,179.42 144.29,351.16 328.1,381.08 615.37,100.16 639.53,-559.77 128.59,-599.07 -327.07,-25.15 -349.44,330.5 -76.11,380.18 42.63,7.77 109.31,1.53 140.45,-35.23 32.44,-36.07 -21.64,-48.34 -54.1,-12.27 -61.86,47.23 -207.5,-71.72 -203.87,-137 13.59,-246.09 562.05,-100.96 474.96,192.14 -37.38,125.84 -159.18,214.73 -398.24,175.81 -220.07,-35.82 -403.25,-304.56 -336.75,-477.15 69.62,-180.71 277.12,-362.171 657.72,-224.382 642.13,232.412 347.76,1390.172 -498.98,946.302 -21.09,-11.06 -186.01,-122.03 -168.28,-29.47 0,0 9.15,47.76 6.09,101.67 -3.27,57.7 -55.83,103.26 -89.82,120.24 -89.63,44.82 -218.744,10.55 -435.568,-125.3 -255.566,-160.13 -365.328,-413.37 -333.265,-543.23 26.632,-107.84 193.289,-107.27 271.847,-98.76 167.02,18.12 419.636,9.93 587.226,-15.56" /><path
         id="path26"
         style="fill:#231f20;fill-opacity:1;fill-rule:nonzero;stroke:none"
         d="m 1684.94,1688.12 c -32.8,0 -67.78,-2.97 -104.79,-8.99 -114.39,-18.62 -231.91,-106.66 -299.42,-224.3 -51.24,-89.31 -64.86,-181.47 -37.36,-252.86 64.67,-167.78 302.86,-366.048 694.13,-224.4 180.05,65.17 309.64,252.52 322.5,466.2 12.71,211.46 -91.39,394.09 -278.46,488.5 -331.29,167.19 -687.83,-72.29 -691.39,-74.73 -12.17,-8.34 -28.19,-8.49 -40.52,-0.41 -12.33,8.08 -18.58,22.81 -15.78,37.29 9.59,50.32 19.79,188.35 -47.36,221.92 -83.41,41.69 -188.568,66.37 -471.939,-125.3 -247.387,-167.35 -365.602,-412.28 -333.266,-543.24 20.215,-81.86 87.692,-82.43 261.227,-63.53 l 10.609,1.16 c 206.801,22.42 433.039,-4.37 514.909,-15.91 9.99,40.39 26.59,81.4 49.6,121.52 79.17,137.98 213.6,237.57 350.84,259.89 246.29,40.1 425.55,-44.75 479.67,-226.89 25.31,-85.21 12.79,-167.89 -36.21,-239.1 -64.1,-93.16 -187.7,-159.67 -314.88,-169.45 -86.33,-6.64 -154.18,10.98 -201.43,52.38 -38.73,33.92 -61.76,83.38 -64.84,139.28 -5.26,94.44 107.2,173.45 190.15,188.53 90.76,16.49 135.65,-29.88 140.45,-35.23 13.44,-14.93 12.23,-37.93 -2.71,-51.36 -14.92,-13.44 -37.93,-12.23 -51.37,2.7 -0.23,0.18 -22.66,21.55 -73.36,12.31 -63.3,-11.51 -132.81,-71.65 -130.53,-112.92 1.16,-20.97 7.91,-60.36 40.14,-88.59 31.99,-28.02 81.84,-39.64 147.93,-34.56 104.49,8.03 209.18,63.55 260.51,138.15 36.62,53.23 45.51,112.82 26.42,177.14 -35.7,120.13 -140.47,184.8 -293.47,184.8 z m -3.52,-832.132 c -275.78,-0.019 -448.5,170.782 -505.93,319.832 -14.42,37.41 -20.41,78.64 -18.27,121.66 -79.26,11 -300.31,36.86 -496.251,15.62 l -10.574,-1.15 C 494.902,1294.98 348.031,1279 310.66,1430.36 c -44.531,180.32 114.977,453.07 363.133,620.94 284.117,192.2 423.447,191 545.237,130.11 84.05,-42.02 96.26,-151.29 93.89,-225.96 125.69,67.09 416.22,185.7 701.39,41.77 213.83,-107.92 332.81,-316.45 318.3,-557.81 -14.55,-242.26 -163.4,-455.34 -370.37,-530.25 -102.95,-37.262 -196.7,-53.16 -280.82,-53.172" /><path
         id="path28"
         style="fill:#ffffff;fill-opacity:1;fill-rule:evenodd;stroke:none"
         d="m 728.258,1835.13 c 59.945,117.64 195.898,168.48 303.692,113.57 107.78,-54.92 146.55,-194.8 86.61,-312.44 -59.95,-117.63 -195.9,-168.49 -303.677,-113.58 -107.781,54.92 -146.555,194.8 -86.625,312.45" /><path
         id="path30"
         style="fill:#231f20;fill-opacity:1;fill-rule:nonzero;stroke:none"
         d="m 939.363,1934.45 c -72.691,0 -142.836,-45.47 -178.695,-115.84 -50.727,-99.58 -19.004,-217.8 70.727,-263.52 23.64,-12.04 49.234,-18.16 76.066,-18.16 72.695,0 142.829,45.48 178.689,115.84 50.74,99.59 19.02,217.8 -70.71,263.52 -23.655,12.05 -49.245,18.16 -76.077,18.16 z m -31.902,-470.27 c -38.422,0 -75.121,8.78 -109.098,26.09 -125.457,63.93 -171.453,226.04 -102.523,361.36 48.164,94.51 143.75,155.56 243.523,155.56 38.418,0 75.117,-8.77 109.097,-26.08 125.48,-63.93 171.46,-226.04 102.52,-361.37 -48.17,-94.49 -143.74,-155.56 -243.519,-155.56" /><path
         id="path32"
         style="fill:#231f20;fill-opacity:1;fill-rule:nonzero;stroke:none"
         d="m 1053.01,1779.39 c -0.25,-0.55 -0.37,-1.13 -0.66,-1.68 -8.39,-16.46 -28.5,-22.99 -44.98,-14.61 -16.425,8.38 -22.995,28.52 -14.604,44.96 2.859,5.62 7.144,9.97 12.134,13.07 -27.83,5.67 -57.091,-7.28 -70.603,-33.81 -16.227,-31.87 -3.555,-70.89 28.316,-87.14 31.891,-16.23 70.887,-3.55 87.147,28.32 8.37,16.44 8.93,34.75 3.25,50.89" /></g></g></svg>