/* XPM */
static const char *const libesys_not_text_64px_xpm[] = {
/* columns rows colors chars-per-pixel */
"64 64 69 1 ",
"  c None",
". c #231F1F",
"X c #25211F",
"o c #2B291F",
"O c #32331F",
"+ c #3A3C1F",
"@ c #231F20",
"# c #242120",
"$ c #292622",
"% c #2D2B20",
"& c #2B2728",
"* c #2C2829",
"= c #373334",
"- c #3A3738",
"; c #3D3A3A",
": c #3D421E",
"> c #41461E",
", c #444B1E",
"< c #484F1E",
"1 c #4B541E",
"2 c #4F591D",
"3 c #525D1D",
"4 c #55611D",
"5 c #5B6A1D",
"6 c #64751C",
"7 c #6A7D1C",
"8 c #444041",
"9 c #4C494A",
"0 c #5A5758",
"q c #5F5C5D",
"w c #6D6A6B",
"e c #747272",
"r c #6E811C",
"t c #70851C",
"y c #758A1C",
"u c #798F1B",
"i c #7B931B",
"p c #7F991B",
"a c #80971B",
"s c #829B1B",
"d c #87A21B",
"f c #88A41A",
"g c #8DAA1A",
"h c #91AF1A",
"j c #94B31A",
"k c #97B91A",
"l c #9BBC1A",
"z c #9FC119",
"x c #A2C619",
"c c #A5CA19",
"v c #A9CE18",
"b c #ACD418",
"n c #B2DB17",
"m c #B2DB18",
"M c #848182",
"N c #8D8B8B",
"B c #9B999A",
"V c #A3A1A2",
"C c #ADABAC",
"Z c #B0AFAF",
"A c #BEBDBD",
"S c #C3C2C2",
"D c #CAC9CA",
"F c #D4D3D3",
"G c #DEDDDE",
"H c #E2E1E1",
"J c #ECECEC",
"K c #F3F3F3",
"L c #FFFFFF",
/* pixels */
"                                                                ",
"                                                                ",
"                                                                ",
"                                                                ",
"                                                                ",
"                                                                ",
"                                                                ",
"                                                                ",
"                                                                ",
"                                                                ",
"                                                                ",
"                                                                ",
"                      .@@@@@                                    ",
"                   @@@@@@@@@@#                                  ",
"                 #@#@O5sj  @@@#                                 ",
"               @@@#3zmmmmmm  @@                                 ",
"              @@@3xmmmmmmmmm @@@           #                    ",
"            @@@Ojmmmmmmmmmmm  @#     @@@@@@.#@@@@@              ",
"           @@#7mmcy3>,5gmmmmm @.  ..@@@@o:3331+###@@            ",
"          @@Ohmmuo@@@@@@,zmmm @@.@@@#3ykmmmmmmmmh6o@@@          ",
"         @@<cmb6..-NCCe&@Olmm @@@@+ivmmmmmmmmmmmmmbuo@@#        ",
"        @@2bmm7@@NLLLLLG8@>mm @@:gmmmmmmmmmmmmmmmmnmv3@@@       ",
"       @@3mmml##BLLLLLLLH*#smg1pmmmmmmmmmmmmmmmmmmmmmm7@@#      ",
"      @@>bmmm5#0LLLLLGDLLM@3mmmmmmmmmmmmmmmmmmmmmmmmmmm6@@#     ",
"     @@Ocmmmno@SLLLLF&CLLS@Ommmmmmmmmmmmmmmnmmmmmmmmmmmm @.     ",
"     @#gmmmml@#KLLLLB@;eDG##mmmmmmmnmmcfy766rfxmmmmmmmmmm@@@    ",
"    @@5mmmmmj@=LLLLLF*#-KF@ommmmmmmby+@@X#@@@@@,immmmmmmm @@    ",
"    @ovmmmmmk.&LLLLLLGZJLV@,mmmmmmio.@X$O:<>O#@@@:lmmmmmm @@@   ",
"   @@6mmmmmmb$@FLLLLLLLLL9.7nmmmb1##orxnmmmmmmlO@@%jmmmmmm @@   ",
"   @#cmmmmmmn2@wLLLLLLLLB.$xmmmc+@#6bmmmmmmnmmmn ##ocmmmmm @@   ",
"   @,mmmmmmmnjX@VLLLLLLV@.7mmmv+@$fmmmmmmmmmmmmmm #@4mmmmm .@@  ",
"  @@7mmmmmmmmm6@@wDKJAq@.3mmmm1@ogmmmmmmmmmmmmmmmm @Xxmmmm  @@  ",
"  @@pmmmmmmmmmm6XX@@@@@#7mmmmy@Xgnmmmmnmmmmmmmmmmm @@tmmmm  @@  ",
"  @@ammmmmmmmmmmj3$@@%4jmmmmco@rnnmmmnm o$o1lmmmmmm#.3mmmm  @@  ",
"  #@tmmmmmmmmmmmmmmccmmmmmmm7@+bmmmmm #@#@@@#lmmmmm @>mmmm  @@  ",
"   #+mmmmmmmmmmmmmmmmmmmmmmb%@immmmm @@o5dd<%xmmmmm @,mmmm  @.  ",
"   @@:idgfir6531,:<<1357taka@%mmmmm @@<xmmmmmmmmmm @@5mmmm @@#  ",
"    @@@@@@##@@#@@@@@@@@@@@@#@3mmmmm.@+bmmmmmmmmmmm @@smmmm @@   ",
"     .@@@@#@#@        @#@.@@@rmmmm .@rmmmmmmmmmmm @@+mmmmn @@   ",
"                           @#ymmmm @@4mmmmmmmmmm @@#fmmmm  @@   ",
"                           @@rmmmmm @ocmmmmmmmm @@@tmmmmm @@#   ",
"                            @1mmmmm @@Ohmmmmv6@.@#immmmm  @@    ",
"                            @#zmmmmm ##@#oo@@@@@:xmmmmmm @@@    ",
"                            @@4mmmmmmg$X@@@@@#2kmmmmmmn  @@     ",
"                             @Xammmmmmmxarrpkbmmmmmmmn  @@      ",
"                             .#$kmmmmmmmmmmmmmmmmmmmn  .@@      ",
"                              .@$dmmmmmmmmmmmmmmmmmm  @@@       ",
"                               @@@6bmmmmmmmmmmmmmn  @@@@        ",
"                                @@#%ybmmmmmmmmmm  .@@@.         ",
"                                  @@@#:6agkdy X@@@@@@           ",
"                                    @@@@@@@@#@@@@@@             ",
"                                       @@.@@@@@                 ",
"                                                                ",
"                                                                ",
"                                                                ",
"                                                                ",
"                                                                ",
"                                                                ",
"                                                                ",
"                                                                ",
"                                                                ",
"                                                                ",
"                                                                ",
"                                                                "
};
