%!PS-Adobe-3.0 EPSF-3.0
%%Creator: cairo 1.16.0 (https://cairographics.org)
%%CreationDate: Fri Nov 29 10:41:02 2019
%%Pages: 1
%%DocumentData: Clean7Bit
%%LanguageLevel: 2
%%BoundingBox: 6 6 378 378
%%EndComments
%%BeginProlog
50 dict begin
/q { gsave } bind def
/Q { grestore } bind def
/cm { 6 array astore concat } bind def
/w { setlinewidth } bind def
/J { setlinecap } bind def
/j { setlinejoin } bind def
/M { setmiterlimit } bind def
/d { setdash } bind def
/m { moveto } bind def
/l { lineto } bind def
/c { curveto } bind def
/h { closepath } bind def
/re { exch dup neg 3 1 roll 5 3 roll moveto 0 rlineto
      0 exch rlineto 0 rlineto closepath } bind def
/S { stroke } bind def
/f { fill } bind def
/f* { eofill } bind def
/n { newpath } bind def
/W { clip } bind def
/W* { eoclip } bind def
/BT { } bind def
/ET { } bind def
/BDC { mark 3 1 roll /BDC pdfmark } bind def
/EMC { mark /EMC pdfmark } bind def
/cairo_store_point { /cairo_point_y exch def /cairo_point_x exch def } def
/Tj { show currentpoint cairo_store_point } bind def
/TJ {
  {
    dup
    type /stringtype eq
    { show } { -0.001 mul 0 cairo_font_matrix dtransform rmoveto } ifelse
  } forall
  currentpoint cairo_store_point
} bind def
/cairo_selectfont { cairo_font_matrix aload pop pop pop 0 0 6 array astore
    cairo_font exch selectfont cairo_point_x cairo_point_y moveto } bind def
/Tf { pop /cairo_font exch def /cairo_font_matrix where
      { pop cairo_selectfont } if } bind def
/Td { matrix translate cairo_font_matrix matrix concatmatrix dup
      /cairo_font_matrix exch def dup 4 get exch 5 get cairo_store_point
      /cairo_font where { pop cairo_selectfont } if } bind def
/Tm { 2 copy 8 2 roll 6 array astore /cairo_font_matrix exch def
      cairo_store_point /cairo_font where { pop cairo_selectfont } if } bind def
/g { setgray } bind def
/rg { setrgbcolor } bind def
/d1 { setcachedevice } bind def
/cairo_data_source {
  CairoDataIndex CairoData length lt
    { CairoData CairoDataIndex get /CairoDataIndex CairoDataIndex 1 add def }
    { () } ifelse
} def
/cairo_flush_ascii85_file { cairo_ascii85_file status { cairo_ascii85_file flushfile } if } def
/cairo_image { image cairo_flush_ascii85_file } def
/cairo_imagemask { imagemask cairo_flush_ascii85_file } def
%%EndProlog
%%BeginSetup
%%EndSetup
%%Page: 1 1
%%BeginPageSetup
%%PageBoundingBox: 6 6 378 378
%%EndPageSetup
q 6 6 372 372 rectclip
1 0 0 -1 0 384 cm q
0.34902 0.231373 0.172549 rg
51.199 128 m 51.199 109.895 l 50.898 53.039 96.746 6.703 153.602 6.398 
c 210.457 6.703 256.301 53.039 256 109.895 c 256 128 l 249.602 140.801 l
 57.602 140.801 l h
51.199 128 m f
0.298039 g
217.602 275.199 m 224 275.199 l 242.801 275.152 260.961 282.035 275.008
 294.527 c 300.801 313.602 l 300.801 371.199 l 300.801 374.734 297.934 377.602
 294.398 377.602 c 12.801 377.602 l 9.266 377.602 6.398 374.734 6.398 371.199
 c 6.398 352 l 6.398 309.586 40.785 275.199 83.199 275.199 c h
217.602 275.199 m f
1 g
217.602 275.199 m 217.602 275.199 217.602 358.398 179.199 377.602 c 128
 377.602 l 89.602 364.801 89.602 275.199 89.602 275.199 c h
217.602 275.199 m f
0.54902 0.34902 0.235294 rg
192 237.004 m 192 288 l 115.199 288 l 115.199 236.801 l h
192 237.004 m f
0.92549 0.227451 0.282353 rg
125.246 304.449 m 140.801 320 l 166.398 320 l 181.953 304.449 l 185.602
 288 l 121.602 288 l h
125.246 304.449 m f
0.85098 0.160784 0.211765 rg
179.199 377.602 m 166.398 320 l 140.801 320 l 128 377.602 l h
179.199 377.602 m f
0.627451 0.411765 0.294118 rg
256 128 m 256 143.551 256 152.512 249.984 164.672 c 247.277 170.367 242.195
 174.582 236.098 176.191 c 233.605 176.965 231.863 179.219 231.742 181.824
 c 229.375 223.309 195.152 255.793 153.602 256 c 132.789 255.996 112.852
 247.652 98.238 232.832 c 84.719 219.148 76.625 201.023 75.457 181.824 c
 75.336 179.219 73.598 176.965 71.105 176.191 c 65.004 174.582 59.926 170.367
 57.215 164.672 c 51.199 152.512 51.199 143.551 51.199 128 c 51.066 124.074
 52.898 120.34 56.082 118.043 c 59.266 115.742 63.387 115.18 67.07 116.543
 c 76.543 119.938 76.801 133.633 76.801 134.91 c 76.801 103.617 l 76.758
 97.117 81.832 91.734 88.32 91.391 c 110.016 90.434 154.879 82.176 179.199
 65.855 c 182.094 64.023 185.633 63.512 188.93 64.449 c 201.855 67.648 230.398
 82.879 230.398 116.16 c 230.398 134.91 l 230.398 133.633 230.656 119.938
 240.129 116.543 c 243.812 115.18 247.934 115.742 251.117 118.043 c 254.301
 120.34 256.133 124.074 256 128 c h
256 128 m f
0.145098 0.639216 0.854902 rg
345.602 275.199 m 345.602 289.344 354.176 300.801 364.801 300.801 c 366.414
 300.801 368.016 300.531 369.543 300.008 c 371.48 299.465 373.562 299.871
 375.148 301.109 c 376.738 302.344 377.648 304.262 377.602 306.273 c 377.602
 318.078 l 377.984 321.758 376.824 325.43 374.398 328.219 c 371.973 331.012
 368.496 332.668 364.801 332.801 c 339.672 332.801 l 337.203 332.836 335.703
 335.535 336.98 337.652 c 338.418 340.008 339.188 342.711 339.199 345.473
 c 339.199 356.098 327.742 364.672 313.602 364.672 c 299.457 364.672 288
 356.098 288 345.473 c 288.012 342.711 288.781 340.008 290.223 337.652 c
 291.496 335.535 289.996 332.836 287.527 332.801 c 262.398 332.801 l 255.332
 332.801 249.602 327.07 249.602 320 c 249.602 306.273 l 249.551 304.262 
250.461 302.344 252.051 301.109 c 253.637 299.871 255.719 299.465 257.656
 300.008 c 259.184 300.531 260.785 300.801 262.398 300.801 c 273.023 300.801
 281.602 289.344 281.602 275.199 c 281.602 261.055 273.023 249.602 262.398
 249.602 c 260.785 249.602 259.18 249.867 257.652 250.395 c 255.715 250.938
 253.637 250.527 252.047 249.293 c 250.461 248.059 249.551 246.145 249.602
 244.133 c 249.602 232.141 l 249.246 228.488 250.426 224.852 252.848 222.098
 c 255.273 219.344 258.73 217.715 262.398 217.602 c 287.527 217.602 l 289.996
 217.562 291.496 214.863 290.223 212.75 c 288.781 210.395 288.012 207.688
 288 204.93 c 288 194.305 299.457 185.727 313.602 185.727 c 327.742 185.727
 339.199 194.305 339.199 204.93 c 339.188 207.688 338.418 210.395 336.98
 212.75 c 335.703 214.863 337.203 217.562 339.672 217.602 c 364.801 217.602
 l 371.871 217.602 377.602 223.332 377.602 230.398 c 377.602 244.129 l 377.648
 246.141 376.738 248.055 375.148 249.293 c 373.562 250.527 371.48 250.938
 369.543 250.395 c 368.016 249.867 366.414 249.602 364.801 249.602 c 354.176
 249.602 345.602 261.055 345.602 275.199 c h
345.602 275.199 m f
0.941176 0.94902 0.960784 rg
153.602 288 m 138.383 288.344 125.277 298.828 121.602 313.602 c 121.602
 313.602 89.602 300.801 89.602 275.199 c 96 262.398 115.199 262.398 115.199
 262.398 c 115.199 262.398 121.602 281.602 153.602 288 c h
153.602 288 m f
153.602 288 m 168.816 288.344 181.922 298.828 185.602 313.602 c 185.602
 313.602 217.602 300.801 217.602 275.199 c 211.199 262.398 192 262.398 192
 262.398 c 192 262.398 185.602 281.602 153.602 288 c h
153.602 288 m f
Q Q
showpage
%%Trailer
end
%%EOF
