%!PS-Adobe-3.0 EPSF-3.0
%%Creator: cairo 1.16.0 (https://cairographics.org)
%%CreationDate: Fri Nov 29 10:41:03 2019
%%Pages: 1
%%DocumentData: Clean7Bit
%%LanguageLevel: 2
%%BoundingBox: 6 6 378 378
%%EndComments
%%BeginProlog
50 dict begin
/q { gsave } bind def
/Q { grestore } bind def
/cm { 6 array astore concat } bind def
/w { setlinewidth } bind def
/J { setlinecap } bind def
/j { setlinejoin } bind def
/M { setmiterlimit } bind def
/d { setdash } bind def
/m { moveto } bind def
/l { lineto } bind def
/c { curveto } bind def
/h { closepath } bind def
/re { exch dup neg 3 1 roll 5 3 roll moveto 0 rlineto
      0 exch rlineto 0 rlineto closepath } bind def
/S { stroke } bind def
/f { fill } bind def
/f* { eofill } bind def
/n { newpath } bind def
/W { clip } bind def
/W* { eoclip } bind def
/BT { } bind def
/ET { } bind def
/BDC { mark 3 1 roll /BDC pdfmark } bind def
/EMC { mark /EMC pdfmark } bind def
/cairo_store_point { /cairo_point_y exch def /cairo_point_x exch def } def
/Tj { show currentpoint cairo_store_point } bind def
/TJ {
  {
    dup
    type /stringtype eq
    { show } { -0.001 mul 0 cairo_font_matrix dtransform rmoveto } ifelse
  } forall
  currentpoint cairo_store_point
} bind def
/cairo_selectfont { cairo_font_matrix aload pop pop pop 0 0 6 array astore
    cairo_font exch selectfont cairo_point_x cairo_point_y moveto } bind def
/Tf { pop /cairo_font exch def /cairo_font_matrix where
      { pop cairo_selectfont } if } bind def
/Td { matrix translate cairo_font_matrix matrix concatmatrix dup
      /cairo_font_matrix exch def dup 4 get exch 5 get cairo_store_point
      /cairo_font where { pop cairo_selectfont } if } bind def
/Tm { 2 copy 8 2 roll 6 array astore /cairo_font_matrix exch def
      cairo_store_point /cairo_font where { pop cairo_selectfont } if } bind def
/g { setgray } bind def
/rg { setrgbcolor } bind def
/d1 { setcachedevice } bind def
/cairo_data_source {
  CairoDataIndex CairoData length lt
    { CairoData CairoDataIndex get /CairoDataIndex CairoDataIndex 1 add def }
    { () } ifelse
} def
/cairo_flush_ascii85_file { cairo_ascii85_file status { cairo_ascii85_file flushfile } if } def
/cairo_image { image cairo_flush_ascii85_file } def
/cairo_imagemask { imagemask cairo_flush_ascii85_file } def
%%EndProlog
%%BeginSetup
%%EndSetup
%%Page: 1 1
%%BeginPageSetup
%%PageBoundingBox: 6 6 378 378
%%EndPageSetup
q 6 6 372 372 rectclip
1 0 0 -1 0 384 cm q
0.501961 0.384314 0.294118 rg
254.91 285.887 m 263.578 281.98 271.727 277.016 279.168 271.105 c 280.949
 269.734 281.863 267.52 281.574 265.293 c 281.285 263.062 279.832 261.156
 277.762 260.289 c 262.91 254.398 249.602 236.992 249.602 211.199 c 249.602
 108.801 l 249.602 52.246 203.754 6.398 147.199 6.398 c 90.645 6.398 44.801
 52.246 44.801 108.801 c 44.801 211.199 l 44.801 236.992 31.488 254.398 
16.641 260.289 c 14.57 261.156 13.117 263.062 12.828 265.293 c 12.535 267.52
 13.453 269.734 15.23 271.105 c 22.676 277.016 30.824 281.98 39.488 285.887
 c h
254.91 285.887 m f
0.298039 g
211.199 275.199 m 217.602 275.199 l 240.965 275.172 262.816 286.754 275.902
 306.113 c 288 326.398 l 288 371.199 l 288 374.734 285.133 377.602 281.602
 377.602 c 12.801 377.602 l 9.266 377.602 6.398 374.734 6.398 371.199 c 
6.398 345.602 l 6.398 306.719 37.918 275.199 76.801 275.199 c h
211.199 275.199 m f
0.886275 0.67451 0.498039 rg
185.602 235.52 m 185.602 262.398 l 147.199 377.602 l 108.801 262.398 l 
108.801 235.52 l h
185.602 235.52 m f
0.933333 0.741176 0.568627 rg
228.723 165.762 m 225.938 166.426 223.934 168.859 223.812 171.719 c 222.414
 193.57 212.062 213.871 195.199 227.84 c 169.984 248 l 156.668 258.668 137.73
 258.668 124.414 248 c 99.199 227.84 l 82.34 213.875 71.988 193.578 70.586
 171.73 c 70.465 168.871 68.461 166.438 65.676 165.773 c 59.711 164.594 
54.484 161.039 51.199 155.922 c 44.801 145.445 44.801 138.988 44.801 119.848
 c 44.672 116.004 46.633 112.391 49.922 110.398 c 53.211 108.41 57.32 108.352
 60.664 110.246 c 65.816 113.531 69.266 118.914 70.094 124.965 c 70.371 
126.648 71.953 127.793 73.637 127.527 c 85.715 125.691 128.23 117.094 143.719
 85.785 c 146.543 80.383 152.73 77.656 158.625 79.219 c 177.012 83.762 212.07
 95.035 221.574 116.551 c 222.574 118.902 225.816 119.129 227.137 116.941
 c 228.715 114.168 230.992 111.852 233.734 110.223 c 237.086 108.32 241.199
 108.383 244.492 110.379 c 247.781 112.379 249.738 116 249.602 119.848 c
 249.602 138.988 249.602 145.445 243.199 155.922 c 239.914 161.035 234.684
 164.586 228.723 165.762 c h
228.723 165.762 m f
0.145098 0.639216 0.854902 rg
345.602 287.871 m 345.602 302.016 354.176 313.473 364.801 313.473 c 366.414
 313.473 368.016 313.203 369.543 312.68 c 371.48 312.137 373.562 312.547
 375.148 313.781 c 376.738 315.016 377.648 316.934 377.602 318.945 c 377.602
 330.719 l 377.984 334.398 376.824 338.07 374.398 340.859 c 371.973 343.652
 368.496 345.309 364.801 345.441 c 339.672 345.441 l 337.203 345.477 335.703
 348.176 336.98 350.293 c 338.426 352.656 339.191 355.371 339.199 358.145
 c 339.199 368.77 327.742 377.344 313.602 377.344 c 299.457 377.344 288 
368.77 288 358.145 c 288.012 355.383 288.781 352.68 290.223 350.324 c 291.496
 348.207 289.996 345.508 287.527 345.473 c 262.398 345.473 l 255.332 345.473
 249.602 339.742 249.602 332.672 c 249.602 318.945 l 249.551 316.934 250.461
 315.016 252.051 313.781 c 253.637 312.547 255.719 312.137 257.656 312.68
 c 259.184 313.203 260.785 313.473 262.398 313.473 c 273.023 313.473 281.602
 302.016 281.602 287.871 c 281.602 273.727 273.023 262.273 262.398 262.273
 c 260.785 262.273 259.18 262.539 257.652 263.066 c 255.715 263.609 253.637
 263.199 252.047 261.965 c 250.461 260.73 249.551 258.816 249.602 256.805
 c 249.602 244.812 l 249.246 241.16 250.426 237.523 252.848 234.77 c 255.273
 232.016 258.73 230.387 262.398 230.273 c 287.527 230.273 l 289.992 230.234
 291.488 227.539 290.223 225.426 c 288.781 223.07 288.016 220.363 288 217.602
 c 288 206.977 299.457 198.398 313.602 198.398 c 327.742 198.398 339.199
 206.977 339.199 217.602 c 339.188 220.363 338.418 223.07 336.98 225.426
 c 335.711 227.539 337.211 230.234 339.672 230.273 c 364.801 230.273 l 371.871
 230.273 377.602 236.004 377.602 243.07 c 377.602 256.801 l 377.648 258.812
 376.738 260.727 375.148 261.965 c 373.562 263.199 371.48 263.609 369.543
 263.066 c 368.016 262.539 366.414 262.273 364.801 262.273 c 354.176 262.273
 345.602 273.727 345.602 287.871 c h
345.602 287.871 m f
0.941176 0.94902 0.960784 rg
147.199 377.602 m 121.602 377.602 l 101.586 324.152 l 100.652 321.656 98.266
 320 95.598 320 c 73.707 320 l 71.555 320 69.547 318.922 68.363 317.125 
c 67.176 315.328 66.973 313.059 67.82 311.078 c 83.199 275.199 l 108.801
 262.398 l h
147.199 377.602 m f
147.199 377.602 m 172.801 377.602 l 192.812 324.152 l 193.75 321.656 196.137
 320 198.805 320 c 220.691 320 l 222.844 320 224.852 318.922 226.039 317.125
 c 227.223 315.328 227.426 313.059 226.578 311.078 c 211.199 275.199 l 185.602
 262.398 l h
147.199 377.602 m f
Q Q
showpage
%%Trailer
end
%%EOF
