%!PS-Adobe-3.0 EPSF-3.0
%%Creator: cairo 1.16.0 (https://cairographics.org)
%%CreationDate: Fri Nov 29 10:41:04 2019
%%Pages: 1
%%DocumentData: Clean7Bit
%%LanguageLevel: 2
%%BoundingBox: 6 6 378 378
%%EndComments
%%BeginProlog
50 dict begin
/q { gsave } bind def
/Q { grestore } bind def
/cm { 6 array astore concat } bind def
/w { setlinewidth } bind def
/J { setlinecap } bind def
/j { setlinejoin } bind def
/M { setmiterlimit } bind def
/d { setdash } bind def
/m { moveto } bind def
/l { lineto } bind def
/c { curveto } bind def
/h { closepath } bind def
/re { exch dup neg 3 1 roll 5 3 roll moveto 0 rlineto
      0 exch rlineto 0 rlineto closepath } bind def
/S { stroke } bind def
/f { fill } bind def
/f* { eofill } bind def
/n { newpath } bind def
/W { clip } bind def
/W* { eoclip } bind def
/BT { } bind def
/ET { } bind def
/BDC { mark 3 1 roll /BDC pdfmark } bind def
/EMC { mark /EMC pdfmark } bind def
/cairo_store_point { /cairo_point_y exch def /cairo_point_x exch def } def
/Tj { show currentpoint cairo_store_point } bind def
/TJ {
  {
    dup
    type /stringtype eq
    { show } { -0.001 mul 0 cairo_font_matrix dtransform rmoveto } ifelse
  } forall
  currentpoint cairo_store_point
} bind def
/cairo_selectfont { cairo_font_matrix aload pop pop pop 0 0 6 array astore
    cairo_font exch selectfont cairo_point_x cairo_point_y moveto } bind def
/Tf { pop /cairo_font exch def /cairo_font_matrix where
      { pop cairo_selectfont } if } bind def
/Td { matrix translate cairo_font_matrix matrix concatmatrix dup
      /cairo_font_matrix exch def dup 4 get exch 5 get cairo_store_point
      /cairo_font where { pop cairo_selectfont } if } bind def
/Tm { 2 copy 8 2 roll 6 array astore /cairo_font_matrix exch def
      cairo_store_point /cairo_font where { pop cairo_selectfont } if } bind def
/g { setgray } bind def
/rg { setrgbcolor } bind def
/d1 { setcachedevice } bind def
/cairo_data_source {
  CairoDataIndex CairoData length lt
    { CairoData CairoDataIndex get /CairoDataIndex CairoDataIndex 1 add def }
    { () } ifelse
} def
/cairo_flush_ascii85_file { cairo_ascii85_file status { cairo_ascii85_file flushfile } if } def
/cairo_image { image cairo_flush_ascii85_file } def
/cairo_imagemask { imagemask cairo_flush_ascii85_file } def
%%EndProlog
%%BeginSetup
%%EndSetup
%%Page: 1 1
%%BeginPageSetup
%%PageBoundingBox: 6 6 378 378
%%EndPageSetup
q 6 6 372 372 rectclip
1 0 0 -1 0 384 cm q
0.54902 0.34902 0.235294 rg
286.207 272.449 m 367.359 332.289 l 376.105 338.73 379.719 350.066 376.309
 360.379 c 372.898 370.691 363.238 377.641 352.379 377.602 c 345.688 377.598
 339.27 374.953 334.523 370.238 c 260.098 296.062 l h
286.207 272.449 m f
0.298039 g
326.398 166.398 m 326.398 254.766 254.766 326.398 166.398 326.398 c 78.035
 326.398 6.398 254.766 6.398 166.398 c 6.398 78.035 78.035 6.398 166.398
 6.398 c 254.766 6.398 326.398 78.035 326.398 166.398 c h
326.398 166.398 m f
0.25098 0.8 0.945098 rg
300.801 166.398 m 300.801 240.629 240.629 300.801 166.398 300.801 c 92.172
 300.801 32 240.629 32 166.398 c 32 92.172 92.172 32 166.398 32 c 240.629
 32 300.801 92.172 300.801 166.398 c h
300.801 166.398 m f
0.145098 0.639216 0.854902 rg
300.801 166.398 m 300.836 188.758 295.246 210.77 284.543 230.398 c 48.258
 230.398 l 26.582 190.484 26.582 142.312 48.258 102.398 c 284.543 102.398
 l 295.246 122.031 300.836 144.039 300.801 166.398 c h
300.801 166.398 m f
0.168627 0.713726 0.909804 rg
166.398 307.199 m 96.879 307.215 37.754 256.484 27.203 187.766 c 16.652
 119.051 57.836 52.918 124.16 32.078 c 125.793 31.512 127.586 31.629 129.133
 32.406 c 130.68 33.184 131.844 34.555 132.363 36.203 c 132.879 37.852 132.711
 39.641 131.887 41.164 c 131.066 42.688 129.664 43.809 128 44.281 c 64.145
 64.336 26.508 130.191 41.645 195.387 c 56.781 260.586 119.582 303.121 185.742
 292.988 c 251.906 282.855 299.094 223.473 294.023 156.73 c 288.953 89.992
 233.332 38.422 166.398 38.398 c 162.867 38.398 160 35.535 160 32 c 160 
28.465 162.867 25.602 166.398 25.602 c 244.16 25.602 307.199 88.637 307.199
 166.398 c 307.199 244.16 244.16 307.199 166.398 307.199 c h
166.398 307.199 m f
0.109804 0.490196 0.627451 rg
96 192 m 93.574 192 91.355 190.629 90.273 188.461 c 83.199 174.309 l 76.16
 188.461 l 75.02 190.793 72.566 192.191 69.977 191.988 c 67.395 191.801 
65.18 190.078 64.363 187.621 c 51.566 149.223 l 50.449 145.863 52.266 142.238
 55.621 141.121 c 58.98 140.004 62.609 141.82 63.727 145.176 c 71.648 168.922
 l 77.531 157.141 l 78.734 155.121 80.91 153.887 83.258 153.887 c 85.605
 153.887 87.781 155.121 88.984 157.141 c 94.867 168.922 l 102.789 145.176
 l 103.328 143.566 104.48 142.23 106 141.473 c 107.52 140.711 109.281 140.582
 110.895 141.121 c 112.504 141.656 113.84 142.812 114.602 144.332 c 115.359
 145.852 115.488 147.609 114.949 149.223 c 102.152 187.621 l 101.336 190.078
 99.117 191.801 96.539 191.988 c h
96 192 m f
172.801 192 m 170.375 192 168.156 190.629 167.07 188.461 c 160 174.309 
l 152.961 188.461 l 151.801 190.777 149.363 192.164 146.781 191.98 c 144.199
 191.797 141.984 190.078 141.164 187.621 c 128.363 149.223 l 127.828 147.609
 127.953 145.852 128.715 144.332 c 129.477 142.812 130.809 141.656 132.422
 141.121 c 134.035 140.582 135.793 140.711 137.312 141.473 c 138.832 142.23
 139.988 143.566 140.523 145.176 c 148.449 168.922 l 154.328 157.141 l 155.531
 155.121 157.707 153.887 160.059 153.887 c 162.406 153.887 164.582 155.121
 165.785 157.141 c 171.668 168.922 l 179.59 145.176 l 180.125 143.566 181.281
 142.23 182.801 141.473 c 184.32 140.711 186.082 140.582 187.691 141.121
 c 189.305 141.656 190.641 142.812 191.398 144.332 c 192.16 145.852 192.285
 147.609 191.75 149.223 c 178.949 187.621 l 178.133 190.078 175.918 191.801
 173.336 191.988 c h
172.801 192 m f
249.602 192 m 247.164 192.012 244.93 190.641 243.84 188.461 c 236.801 174.309
 l 229.762 188.461 l 228.617 190.793 226.168 192.191 223.578 191.988 c 220.996
 191.801 218.781 190.078 217.965 187.621 c 205.164 149.223 l 204.047 145.863
 205.863 142.238 209.223 141.121 c 212.582 140.004 216.207 141.82 217.324
 145.176 c 225.246 168.922 l 231.129 157.141 l 232.332 155.121 234.508 153.887
 236.859 153.887 c 239.207 153.887 241.383 155.121 242.586 157.141 c 248.469
 168.922 l 256.391 145.176 l 256.926 143.566 258.082 142.23 259.602 141.473
 c 261.121 140.711 262.879 140.582 264.492 141.121 c 266.105 141.656 267.438
 142.812 268.199 144.332 c 268.961 145.852 269.086 147.609 268.551 149.223
 c 255.75 187.621 l 254.934 190.078 252.719 191.801 250.137 191.988 c h
249.602 192 m f
275.199 192 m 271.664 192 268.801 189.133 268.801 185.602 c 268.801 179.199
 l 268.801 175.664 271.664 172.801 275.199 172.801 c 278.734 172.801 281.602
 175.664 281.602 179.199 c 281.602 185.602 l 281.602 189.133 278.734 192
 275.199 192 c h
275.199 192 m f
Q Q
showpage
%%Trailer
end
%%EOF
