%!PS-Adobe-3.0 EPSF-3.0
%%Creator: cairo 1.16.0 (https://cairographics.org)
%%CreationDate: Fri Nov 29 10:41:05 2019
%%Pages: 1
%%DocumentData: Clean7Bit
%%LanguageLevel: 2
%%BoundingBox: 57 6 327 378
%%EndComments
%%BeginProlog
50 dict begin
/q { gsave } bind def
/Q { grestore } bind def
/cm { 6 array astore concat } bind def
/w { setlinewidth } bind def
/J { setlinecap } bind def
/j { setlinejoin } bind def
/M { setmiterlimit } bind def
/d { setdash } bind def
/m { moveto } bind def
/l { lineto } bind def
/c { curveto } bind def
/h { closepath } bind def
/re { exch dup neg 3 1 roll 5 3 roll moveto 0 rlineto
      0 exch rlineto 0 rlineto closepath } bind def
/S { stroke } bind def
/f { fill } bind def
/f* { eofill } bind def
/n { newpath } bind def
/W { clip } bind def
/W* { eoclip } bind def
/BT { } bind def
/ET { } bind def
/BDC { mark 3 1 roll /BDC pdfmark } bind def
/EMC { mark /EMC pdfmark } bind def
/cairo_store_point { /cairo_point_y exch def /cairo_point_x exch def } def
/Tj { show currentpoint cairo_store_point } bind def
/TJ {
  {
    dup
    type /stringtype eq
    { show } { -0.001 mul 0 cairo_font_matrix dtransform rmoveto } ifelse
  } forall
  currentpoint cairo_store_point
} bind def
/cairo_selectfont { cairo_font_matrix aload pop pop pop 0 0 6 array astore
    cairo_font exch selectfont cairo_point_x cairo_point_y moveto } bind def
/Tf { pop /cairo_font exch def /cairo_font_matrix where
      { pop cairo_selectfont } if } bind def
/Td { matrix translate cairo_font_matrix matrix concatmatrix dup
      /cairo_font_matrix exch def dup 4 get exch 5 get cairo_store_point
      /cairo_font where { pop cairo_selectfont } if } bind def
/Tm { 2 copy 8 2 roll 6 array astore /cairo_font_matrix exch def
      cairo_store_point /cairo_font where { pop cairo_selectfont } if } bind def
/g { setgray } bind def
/rg { setrgbcolor } bind def
/d1 { setcachedevice } bind def
/cairo_data_source {
  CairoDataIndex CairoData length lt
    { CairoData CairoDataIndex get /CairoDataIndex CairoDataIndex 1 add def }
    { () } ifelse
} def
/cairo_flush_ascii85_file { cairo_ascii85_file status { cairo_ascii85_file flushfile } if } def
/cairo_image { image cairo_flush_ascii85_file } def
/cairo_imagemask { imagemask cairo_flush_ascii85_file } def
%%EndProlog
%%BeginSetup
%%EndSetup
%%Page: 1 1
%%BeginPageSetup
%%PageBoundingBox: 57 6 327 378
%%EndPageSetup
q 57 6 270 372 rectclip
1 0 0 -1 0 384 cm q
0.85098 0.160784 0.211765 rg
249.602 173.375 m 325.824 342.789 l 326.73 344.844 326.5 347.219 325.219
 349.062 c 323.938 350.902 321.793 351.945 319.551 351.812 c 289.535 350.344
 l 287.484 350.242 285.504 351.094 284.16 352.645 c 264.895 375.301 l 263.418
 377.004 261.18 377.848 258.945 377.535 c 256.711 377.227 254.781 375.809
 253.824 373.766 c 180.734 211.199 l h
249.602 173.375 m f
0.92549 0.227451 0.282353 rg
207.629 201.672 m 130.176 373.762 l 129.219 375.801 127.289 377.219 125.055
 377.531 c 122.82 377.84 120.582 377 119.105 375.297 c 99.84 352.641 l 98.496
 351.086 96.516 350.234 94.465 350.336 c 64.449 351.809 l 62.207 351.941
 60.062 350.898 58.781 349.055 c 57.5 347.215 57.27 344.836 58.176 342.785
 c 132.414 176.832 l h
207.629 201.672 m f
0.8 0.815686 0.854902 rg
296.398 129.746 m 298.609 128.891 300.156 126.867 300.398 124.504 c 300.672
 121.434 300.801 118.316 300.801 115.199 c 300.801 112.082 300.672 108.973
 300.398 105.902 c 300.152 103.539 298.609 101.516 296.398 100.652 c 278.867
 93.613 l 276.719 84.949 273.277 76.66 268.66 69.023 c 276.109 51.641 l 
277.043 49.473 276.695 46.961 275.199 45.133 c 273.223 42.766 271.109 40.473
 268.91 38.266 c 266.707 36.059 264.43 33.953 262.043 31.973 c 260.199 30.48
 257.68 30.137 255.508 31.09 c 238.152 38.539 l 230.516 33.914 222.227 30.461
 213.562 28.301 c 206.523 10.77 l 205.664 8.559 203.641 7.012 201.281 6.77
 c 198.234 6.527 195.117 6.398 192 6.398 c 188.883 6.398 185.766 6.527 182.695
 6.805 c 180.336 7.047 178.309 8.59 177.453 10.805 c 170.414 28.332 l 161.75
 30.492 153.461 33.945 145.824 38.574 c 128.469 31.09 l 126.289 30.145 123.77
 30.496 121.934 32 c 119.566 33.977 117.266 36.09 115.066 38.293 c 112.863
 40.492 110.754 42.77 108.773 45.16 c 107.277 47 106.938 49.52 107.891 51.691
 c 115.34 69.074 l 110.723 76.715 107.281 85.004 105.133 93.664 c 87.602
 100.703 l 85.391 101.566 83.848 103.59 83.602 105.953 c 83.328 108.973 
83.199 112.082 83.199 115.199 c 83.199 118.316 83.328 121.434 83.602 124.504
 c 83.844 126.867 85.391 128.891 87.602 129.746 c 105.133 136.789 l 107.281
 145.449 110.723 153.738 115.34 161.375 c 107.891 178.766 l 106.957 180.934
 107.305 183.445 108.801 185.273 c 110.777 187.641 112.891 189.934 115.09
 192.133 c 117.293 194.336 119.57 196.453 121.957 198.426 c 123.797 199.922
 126.32 200.266 128.492 199.309 c 145.875 191.859 l 153.512 196.488 161.801
 199.938 170.465 202.098 c 177.504 219.629 l 178.363 221.84 180.387 223.379
 182.746 223.621 c 185.816 223.902 188.934 224.031 192.051 224.031 c 195.168
 224.031 198.285 223.902 201.355 223.621 c 203.715 223.379 205.738 221.84
 206.598 219.629 c 213.637 202.098 l 222.301 199.938 230.59 196.488 238.227
 191.859 c 255.609 199.309 l 257.766 200.227 260.25 199.875 262.066 198.398
 c 264.434 196.43 266.734 194.316 268.934 192.109 c 271.137 189.902 273.246
 187.629 275.227 185.246 c 276.723 183.406 277.062 180.887 276.109 178.715
 c 268.66 161.324 l 273.277 153.688 276.719 145.398 278.867 136.734 c h
296.398 129.746 m f
0.215686 0.796078 0.631373 rg
256 115.199 m 256 150.547 227.348 179.199 192 179.199 c 156.652 179.199
 128 150.547 128 115.199 c 128 79.855 156.652 51.199 192 51.199 c 227.348
 51.199 256 79.855 256 115.199 c h
256 115.199 m f
0.192157 0.717647 0.568627 rg
192 185.602 m 159.176 185.617 130.699 162.949 123.352 130.957 c 116.008
 98.969 131.738 66.148 161.281 51.84 c 162.809 51.098 164.566 50.996 166.172
 51.551 c 167.773 52.109 169.094 53.277 169.832 54.805 c 170.574 56.336 
170.68 58.094 170.121 59.699 c 169.566 61.301 168.395 62.617 166.867 63.359
 c 140.496 76.133 127.914 106.668 137.637 134.309 c 147.355 161.949 176.281
 177.891 204.84 171.344 c 233.402 164.797 252.5 137.855 249.211 108.738 
c 245.922 79.621 221.301 57.613 192 57.602 c 188.465 57.602 185.602 54.734
 185.602 51.199 c 185.602 47.664 188.465 44.801 192 44.801 c 230.879 44.801
 262.398 76.32 262.398 115.199 c 262.398 154.082 230.879 185.602 192 185.602
 c h
192 185.602 m f
1 g
179.199 147.199 m 177.504 147.199 175.875 146.523 174.676 145.324 c 161.875
 132.523 l 159.449 130.012 159.484 126.023 161.953 123.555 c 164.422 121.086
 168.414 121.051 170.926 123.477 c 178.508 131.059 l 212.48 85.762 l 213.5
 84.402 215.016 83.504 216.695 83.266 c 218.375 83.023 220.082 83.461 221.441
 84.48 c 222.797 85.5 223.695 87.016 223.938 88.695 c 224.176 90.375 223.738
 92.082 222.719 93.441 c 184.32 144.641 l 183.211 146.129 181.508 147.062
 179.656 147.199 c h
179.199 147.199 m f
0.972549 0.32549 0.423529 rg
99.336 320 m 97.164 320 95.141 318.898 93.961 317.074 c 92.781 315.254 
92.609 312.957 93.496 310.977 c 130.867 227.777 l 131.551 226.207 132.832
 224.977 134.426 224.359 c 136.023 223.742 137.801 223.789 139.359 224.488
 c 140.922 225.191 142.137 226.488 142.734 228.094 c 143.332 229.695 143.262
 231.473 142.539 233.023 c 105.176 316.223 l 104.145 318.523 101.855 320.004
 99.336 320 c h
99.336 320 m f
0.92549 0.227451 0.282353 rg
283.91 320 m 281.391 320.004 279.102 318.523 278.066 316.223 c 240.699 
233.023 l 239.25 229.797 240.688 226.008 243.914 224.559 c 247.141 223.109
 250.93 224.551 252.379 227.777 c 289.742 310.977 l 290.629 312.957 290.457
 315.25 289.277 317.074 c 288.102 318.895 286.082 319.996 283.91 320 c h
283.91 320 m f
Q Q
showpage
%%Trailer
end
%%EOF
