%!PS-Adobe-3.0 EPSF-3.0
%%Creator: cairo 1.16.0 (https://cairographics.org)
%%CreationDate: Fri Nov 29 10:41:05 2019
%%Pages: 1
%%DocumentData: Clean7Bit
%%LanguageLevel: 2
%%BoundingBox: 6 6 378 378
%%EndComments
%%BeginProlog
50 dict begin
/q { gsave } bind def
/Q { grestore } bind def
/cm { 6 array astore concat } bind def
/w { setlinewidth } bind def
/J { setlinecap } bind def
/j { setlinejoin } bind def
/M { setmiterlimit } bind def
/d { setdash } bind def
/m { moveto } bind def
/l { lineto } bind def
/c { curveto } bind def
/h { closepath } bind def
/re { exch dup neg 3 1 roll 5 3 roll moveto 0 rlineto
      0 exch rlineto 0 rlineto closepath } bind def
/S { stroke } bind def
/f { fill } bind def
/f* { eofill } bind def
/n { newpath } bind def
/W { clip } bind def
/W* { eoclip } bind def
/BT { } bind def
/ET { } bind def
/BDC { mark 3 1 roll /BDC pdfmark } bind def
/EMC { mark /EMC pdfmark } bind def
/cairo_store_point { /cairo_point_y exch def /cairo_point_x exch def } def
/Tj { show currentpoint cairo_store_point } bind def
/TJ {
  {
    dup
    type /stringtype eq
    { show } { -0.001 mul 0 cairo_font_matrix dtransform rmoveto } ifelse
  } forall
  currentpoint cairo_store_point
} bind def
/cairo_selectfont { cairo_font_matrix aload pop pop pop 0 0 6 array astore
    cairo_font exch selectfont cairo_point_x cairo_point_y moveto } bind def
/Tf { pop /cairo_font exch def /cairo_font_matrix where
      { pop cairo_selectfont } if } bind def
/Td { matrix translate cairo_font_matrix matrix concatmatrix dup
      /cairo_font_matrix exch def dup 4 get exch 5 get cairo_store_point
      /cairo_font where { pop cairo_selectfont } if } bind def
/Tm { 2 copy 8 2 roll 6 array astore /cairo_font_matrix exch def
      cairo_store_point /cairo_font where { pop cairo_selectfont } if } bind def
/g { setgray } bind def
/rg { setrgbcolor } bind def
/d1 { setcachedevice } bind def
/cairo_data_source {
  CairoDataIndex CairoData length lt
    { CairoData CairoDataIndex get /CairoDataIndex CairoDataIndex 1 add def }
    { () } ifelse
} def
/cairo_flush_ascii85_file { cairo_ascii85_file status { cairo_ascii85_file flushfile } if } def
/cairo_image { image cairo_flush_ascii85_file } def
/cairo_imagemask { imagemask cairo_flush_ascii85_file } def
%%EndProlog
%%BeginSetup
%%EndSetup
%%Page: 1 1
%%BeginPageSetup
%%PageBoundingBox: 6 6 378 378
%%EndPageSetup
q 6 6 372 372 rectclip
1 0 0 -1 0 384 cm q
0.627451 0.411765 0.294118 rg
288 275.199 m 288 364.801 l 287.98 371.859 282.262 377.578 275.199 377.602
 c 108.801 377.602 l 101.738 377.578 96.02 371.859 96 364.801 c 96 275.199
 l h
288 275.199 m f
0.54902 0.34902 0.235294 rg
288 236.801 m 288 275.199 l 288 289.34 276.539 300.801 262.398 300.801 
c 121.602 300.801 l 107.461 300.801 96 289.34 96 275.199 c 96 236.801 l 
96.02 229.738 101.738 224.02 108.801 224 c 275.199 224 l 282.262 224.02 
287.98 229.738 288 236.801 c h
288 236.801 m f
0.960784 0.670588 0.00392157 rg
140.801 281.602 m 147.891 281.602 153.602 287.309 153.602 294.398 c 153.602
 313.602 l 153.602 320.691 147.891 326.398 140.801 326.398 c 133.707 326.398
 128 320.691 128 313.602 c 128 294.398 l 128 287.309 133.707 281.602 140.801
 281.602 c h
140.801 281.602 m f
243.199 281.602 m 250.293 281.602 256 287.309 256 294.398 c 256 313.602
 l 256 320.691 250.293 326.398 243.199 326.398 c 236.109 326.398 230.398
 320.691 230.398 313.602 c 230.398 294.398 l 230.398 287.309 236.109 281.602
 243.199 281.602 c h
243.199 281.602 m f
0.8 0.815686 0.854902 rg
191.68 91.266 m 191.453 89.242 190.121 87.516 188.223 86.785 c 173.312 
80.832 l 171.453 73.445 168.52 66.375 164.609 59.84 c 170.945 44.992 l 171.734
 43.137 171.438 40.996 170.176 39.426 c 168.484 37.391 166.691 35.445 164.801
 33.602 c 162.953 31.707 161.008 29.914 158.977 28.223 c 157.402 26.961 
155.266 26.668 153.406 27.457 c 138.559 33.793 l 132.027 29.879 124.953 
26.945 117.566 25.09 c 111.617 10.176 l 110.883 8.277 109.156 6.945 107.137
 6.719 c 104.512 6.527 101.887 6.398 99.199 6.398 c 96.512 6.398 93.887 
6.527 91.266 6.719 c 89.242 6.945 87.516 8.277 86.785 10.176 c 80.832 25.09
 l 73.445 26.945 66.375 29.879 59.84 33.793 c 44.992 27.457 l 43.137 26.668
 40.996 26.961 39.426 28.223 c 37.391 29.914 35.445 31.707 33.602 33.602
 c 31.707 35.445 29.914 37.391 28.223 39.426 c 26.961 40.996 26.668 43.137
 27.457 44.992 c 33.793 59.84 l 29.879 66.375 26.945 73.445 25.09 80.832
 c 10.176 86.785 l 8.277 87.516 6.945 89.242 6.719 91.266 c 6.527 93.887
 6.398 96.512 6.398 99.199 c 6.398 101.887 6.527 104.512 6.719 107.137 c
 6.945 109.156 8.277 110.883 10.176 111.617 c 25.09 117.566 l 26.945 124.953
 29.879 132.027 33.793 138.559 c 27.457 153.406 l 26.668 155.266 26.961 
157.402 28.223 158.977 c 29.914 161.008 31.707 162.953 33.602 164.801 c 
35.445 166.691 37.391 168.484 39.426 170.176 c 40.996 171.438 43.137 171.734
 44.992 170.945 c 59.84 164.609 l 66.375 168.52 73.445 171.453 80.832 173.312
 c 86.785 188.223 l 87.516 190.121 89.242 191.453 91.266 191.68 c 93.887
 191.871 96.512 192 99.199 192 c 101.887 192 104.512 191.871 107.137 191.68
 c 109.156 191.453 110.883 190.121 111.617 188.223 c 117.566 173.312 l 124.953
 171.453 132.027 168.52 138.559 164.609 c 153.406 170.945 l 155.266 171.734
 157.402 171.438 158.977 170.176 c 161.008 168.484 162.953 166.691 164.801
 164.801 c 166.691 162.953 168.484 161.008 170.176 158.977 c 171.438 157.402
 171.734 155.266 170.945 153.406 c 164.609 138.559 l 168.52 132.027 171.453
 124.953 173.312 117.566 c 188.223 111.617 l 190.121 110.883 191.453 109.156
 191.68 107.137 c 191.871 104.512 192 101.887 192 99.199 c 192 96.512 191.871
 93.887 191.68 91.266 c h
99.199 147.199 m 79.785 147.199 62.285 135.504 54.855 117.57 c 47.426 99.633
 51.531 78.988 65.258 65.258 c 78.988 51.531 99.633 47.426 117.57 54.855
 c 135.504 62.285 147.199 79.785 147.199 99.199 c 147.199 125.711 125.711
 147.199 99.199 147.199 c h
99.199 147.199 m f
366.539 70.816 m 357.023 80.363 343.125 84.082 330.113 80.562 c 291.797
 118.965 l 295.617 133.188 290.797 148.336 279.461 157.738 c 268.121 167.141
 252.344 169.074 239.07 162.688 c 259.77 142.055 l 262.242 139.582 262.242
 135.57 259.77 133.094 c 250.879 124.23 l 248.406 121.758 244.395 121.758
 241.922 124.23 c 221.285 144.93 l 214.898 131.656 216.832 115.879 226.234
 104.539 c 235.641 93.203 250.785 88.383 265.012 92.203 c 303.41 53.887 
l 299.586 39.668 304.395 24.52 315.719 15.105 c 327.043 5.695 342.812 3.738
 356.098 10.098 c 335.398 30.797 l 334.219 31.973 333.555 33.566 333.555
 35.23 c 333.555 36.898 334.219 38.492 335.398 39.668 c 344.359 48.629 l
 345.531 49.809 347.129 50.469 348.793 50.469 c 350.457 50.469 352.055 49.809
 353.23 48.629 c 373.902 27.902 l 380.82 42.316 377.867 59.531 366.539 70.816
 c h
366.539 70.816 m f
0.54902 0.34902 0.235294 rg
217.602 358.398 m 166.398 358.398 l 162.867 358.398 160 355.535 160 352
 c 160 348.465 162.867 345.602 166.398 345.602 c 217.602 345.602 l 221.133
 345.602 224 348.465 224 352 c 224 355.535 221.133 358.398 217.602 358.398
 c h
217.602 358.398 m f
0.72549 0.74902 0.8 rg
99.199 38.398 m 74.609 38.398 52.438 53.215 43.027 75.934 c 33.617 98.652
 38.82 124.805 56.207 142.191 c 73.598 159.582 99.746 164.781 122.469 155.371
 c 145.188 145.961 160 123.793 160 99.199 c 160 65.621 132.777 38.398 99.199
 38.398 c h
99.199 147.199 m 79.785 147.199 62.285 135.504 54.855 117.57 c 47.426 99.633
 51.531 78.988 65.258 65.258 c 78.988 51.531 99.633 47.426 117.57 54.855
 c 135.504 62.285 147.199 79.785 147.199 99.199 c 147.199 125.711 125.711
 147.199 99.199 147.199 c h
99.199 147.199 m f
0.298039 g
236.801 204.801 m 236.801 224 l 224 224 l 224 204.801 l 160 204.801 l 160
 224 l 147.199 224 l 147.199 204.801 l 147.223 197.738 152.941 192.02 160
 192 c 224 192 l 231.059 192.02 236.777 197.738 236.801 204.801 c h
236.801 204.801 m f
Q Q
showpage
%%Trailer
end
%%EOF
