%!PS-Adobe-3.0 EPSF-3.0
%%Creator: cairo 1.16.0 (https://cairographics.org)
%%CreationDate: Fri Nov 29 10:41:05 2019
%%Pages: 1
%%DocumentData: Clean7Bit
%%LanguageLevel: 2
%%BoundingBox: 6 6 378 378
%%EndComments
%%BeginProlog
50 dict begin
/q { gsave } bind def
/Q { grestore } bind def
/cm { 6 array astore concat } bind def
/w { setlinewidth } bind def
/J { setlinecap } bind def
/j { setlinejoin } bind def
/M { setmiterlimit } bind def
/d { setdash } bind def
/m { moveto } bind def
/l { lineto } bind def
/c { curveto } bind def
/h { closepath } bind def
/re { exch dup neg 3 1 roll 5 3 roll moveto 0 rlineto
      0 exch rlineto 0 rlineto closepath } bind def
/S { stroke } bind def
/f { fill } bind def
/f* { eofill } bind def
/n { newpath } bind def
/W { clip } bind def
/W* { eoclip } bind def
/BT { } bind def
/ET { } bind def
/BDC { mark 3 1 roll /BDC pdfmark } bind def
/EMC { mark /EMC pdfmark } bind def
/cairo_store_point { /cairo_point_y exch def /cairo_point_x exch def } def
/Tj { show currentpoint cairo_store_point } bind def
/TJ {
  {
    dup
    type /stringtype eq
    { show } { -0.001 mul 0 cairo_font_matrix dtransform rmoveto } ifelse
  } forall
  currentpoint cairo_store_point
} bind def
/cairo_selectfont { cairo_font_matrix aload pop pop pop 0 0 6 array astore
    cairo_font exch selectfont cairo_point_x cairo_point_y moveto } bind def
/Tf { pop /cairo_font exch def /cairo_font_matrix where
      { pop cairo_selectfont } if } bind def
/Td { matrix translate cairo_font_matrix matrix concatmatrix dup
      /cairo_font_matrix exch def dup 4 get exch 5 get cairo_store_point
      /cairo_font where { pop cairo_selectfont } if } bind def
/Tm { 2 copy 8 2 roll 6 array astore /cairo_font_matrix exch def
      cairo_store_point /cairo_font where { pop cairo_selectfont } if } bind def
/g { setgray } bind def
/rg { setrgbcolor } bind def
/d1 { setcachedevice } bind def
/cairo_data_source {
  CairoDataIndex CairoData length lt
    { CairoData CairoDataIndex get /CairoDataIndex CairoDataIndex 1 add def }
    { () } ifelse
} def
/cairo_flush_ascii85_file { cairo_ascii85_file status { cairo_ascii85_file flushfile } if } def
/cairo_image { image cairo_flush_ascii85_file } def
/cairo_imagemask { imagemask cairo_flush_ascii85_file } def
%%EndProlog
%%BeginSetup
%%EndSetup
%%Page: 1 1
%%BeginPageSetup
%%PageBoundingBox: 6 6 378 378
%%EndPageSetup
q 6 6 372 372 rectclip
1 0 0 -1 0 384 cm q
0.47451 0.501961 0.560784 rg
281.602 230.398 25.598 37.441 re f
0.34902 0.231373 0.172549 rg
51.199 128 m 51.199 109.895 l 50.898 53.039 96.746 6.703 153.602 6.398 
c 210.457 6.703 256.301 53.039 256 109.895 c 256 128 l 249.602 140.801 l
 57.602 140.801 l h
51.199 128 m f
0.298039 g
217.602 275.199 m 224 275.199 l 242.801 275.152 260.961 282.035 275.008
 294.527 c 300.801 313.602 l 300.801 371.199 l 300.801 374.734 297.934 377.602
 294.398 377.602 c 12.801 377.602 l 9.266 377.602 6.398 374.734 6.398 371.199
 c 6.398 352 l 6.398 309.586 40.785 275.199 83.199 275.199 c h
217.602 275.199 m f
1 g
217.602 275.199 m 217.602 275.199 217.602 358.398 179.199 377.602 c 128
 377.602 l 89.602 364.801 89.602 275.199 89.602 275.199 c h
217.602 275.199 m f
0.54902 0.34902 0.235294 rg
192 237.004 m 192 288 l 115.199 288 l 115.199 236.801 l h
192 237.004 m f
0.92549 0.227451 0.282353 rg
125.246 304.449 m 140.801 320 l 166.398 320 l 181.953 304.449 l 185.602
 288 l 121.602 288 l h
125.246 304.449 m f
0.85098 0.160784 0.211765 rg
179.199 377.602 m 166.398 320 l 140.801 320 l 128 377.602 l h
179.199 377.602 m f
0.627451 0.411765 0.294118 rg
256 128 m 256 143.551 256 152.512 249.984 164.672 c 247.277 170.367 242.195
 174.582 236.098 176.191 c 233.605 176.965 231.863 179.219 231.742 181.824
 c 229.375 223.309 195.152 255.793 153.602 256 c 132.789 255.996 112.852
 247.652 98.238 232.832 c 84.719 219.148 76.625 201.023 75.457 181.824 c
 75.336 179.219 73.598 176.965 71.105 176.191 c 65.004 174.582 59.926 170.367
 57.215 164.672 c 51.199 152.512 51.199 143.551 51.199 128 c 51.066 124.074
 52.898 120.34 56.082 118.043 c 59.266 115.742 63.387 115.18 67.07 116.543
 c 76.543 119.938 76.801 133.633 76.801 134.91 c 76.801 103.617 l 76.758
 97.117 81.832 91.734 88.32 91.391 c 110.016 90.434 154.879 82.176 179.199
 65.855 c 182.094 64.023 185.633 63.512 188.93 64.449 c 201.855 67.648 230.398
 82.879 230.398 116.16 c 230.398 134.91 l 230.398 133.633 230.656 119.938
 240.129 116.543 c 243.812 115.18 247.934 115.742 251.117 118.043 c 254.301
 120.34 256.133 124.074 256 128 c h
256 128 m f
0.941176 0.94902 0.960784 rg
153.602 288 m 138.383 288.344 125.277 298.828 121.602 313.602 c 121.602
 313.602 89.602 300.801 89.602 275.199 c 96 262.398 115.199 262.398 115.199
 262.398 c 115.199 262.398 121.602 281.602 153.602 288 c h
153.602 288 m f
153.602 288 m 168.816 288.344 181.922 298.828 185.602 313.602 c 185.602
 313.602 217.602 300.801 217.602 275.199 c 211.199 262.398 192 262.398 192
 262.398 c 192 262.398 185.602 281.602 153.602 288 c h
153.602 288 m f
0.298039 g
377.602 153.602 m 377.602 199.551 340.352 236.801 294.398 236.801 c 248.449
 236.801 211.199 199.551 211.199 153.602 c 211.199 107.648 248.449 70.398
 294.398 70.398 c 340.352 70.398 377.602 107.648 377.602 153.602 c h
377.602 153.602 m f
0.168627 0.713726 0.909804 rg
352 153.602 m 352 185.41 326.211 211.199 294.398 211.199 c 262.59 211.199
 236.801 185.41 236.801 153.602 c 236.801 121.789 262.59 96 294.398 96 c
 326.211 96 352 121.789 352 153.602 c h
352 153.602 m f
0.54902 0.34902 0.235294 rg
281.602 262.398 m 307.199 262.398 l 310.734 262.398 313.602 265.266 313.602
 268.801 c 313.602 358.398 l 313.602 369.004 305.004 377.602 294.398 377.602
 c 283.797 377.602 275.199 369.004 275.199 358.398 c 275.199 268.801 l 275.199
 265.266 278.066 262.398 281.602 262.398 c h
281.602 262.398 m f
0.145098 0.639216 0.854902 rg
294.398 217.602 m 266.223 217.59 241.367 199.148 233.184 172.188 c 225.004
 145.223 235.418 116.078 258.836 100.41 c 261.773 98.441 265.75 99.227 267.719
 102.164 c 269.688 105.102 268.902 109.078 265.965 111.047 c 244.875 125.156
 237.301 152.59 248.168 175.52 c 259.031 198.453 285.055 209.969 309.332
 202.586 c 333.609 195.203 348.816 171.152 345.078 146.051 c 341.336 120.953
 319.777 102.383 294.398 102.398 c 290.867 102.398 288 99.535 288 96 c 288
 92.465 290.867 89.602 294.398 89.602 c 329.746 89.602 358.398 118.254 358.398
 153.602 c 358.398 188.945 329.746 217.602 294.398 217.602 c h
294.398 217.602 m f
0.25098 0.8 0.945098 rg
275.199 140.801 m 272.613 140.801 270.277 139.238 269.289 136.848 c 268.297
 134.457 268.844 131.707 270.676 129.875 c 277.074 123.477 l 279.586 121.051
 283.578 121.086 286.047 123.555 c 288.516 126.023 288.551 130.012 286.125
 132.523 c 279.727 138.926 l 278.523 140.125 276.898 140.801 275.199 140.801
 c h
275.199 140.801 m f
281.602 179.199 m 279.012 179.199 276.68 177.641 275.688 175.25 c 274.699
 172.859 275.246 170.105 277.074 168.273 c 315.477 129.875 l 317.988 127.449
 321.977 127.484 324.445 129.953 c 326.914 132.422 326.949 136.414 324.523
 138.926 c 286.125 177.324 l 284.926 178.523 283.297 179.199 281.602 179.199
 c h
281.602 179.199 m f
Q Q
showpage
%%Trailer
end
%%EOF
