%!PS-Adobe-3.0 EPSF-3.0
%%Creator: cairo 1.16.0 (https://cairographics.org)
%%CreationDate: Fri Nov 29 10:41:05 2019
%%Pages: 1
%%DocumentData: Clean7Bit
%%LanguageLevel: 2
%%BoundingBox: 6 6 378 378
%%EndComments
%%BeginProlog
50 dict begin
/q { gsave } bind def
/Q { grestore } bind def
/cm { 6 array astore concat } bind def
/w { setlinewidth } bind def
/J { setlinecap } bind def
/j { setlinejoin } bind def
/M { setmiterlimit } bind def
/d { setdash } bind def
/m { moveto } bind def
/l { lineto } bind def
/c { curveto } bind def
/h { closepath } bind def
/re { exch dup neg 3 1 roll 5 3 roll moveto 0 rlineto
      0 exch rlineto 0 rlineto closepath } bind def
/S { stroke } bind def
/f { fill } bind def
/f* { eofill } bind def
/n { newpath } bind def
/W { clip } bind def
/W* { eoclip } bind def
/BT { } bind def
/ET { } bind def
/BDC { mark 3 1 roll /BDC pdfmark } bind def
/EMC { mark /EMC pdfmark } bind def
/cairo_store_point { /cairo_point_y exch def /cairo_point_x exch def } def
/Tj { show currentpoint cairo_store_point } bind def
/TJ {
  {
    dup
    type /stringtype eq
    { show } { -0.001 mul 0 cairo_font_matrix dtransform rmoveto } ifelse
  } forall
  currentpoint cairo_store_point
} bind def
/cairo_selectfont { cairo_font_matrix aload pop pop pop 0 0 6 array astore
    cairo_font exch selectfont cairo_point_x cairo_point_y moveto } bind def
/Tf { pop /cairo_font exch def /cairo_font_matrix where
      { pop cairo_selectfont } if } bind def
/Td { matrix translate cairo_font_matrix matrix concatmatrix dup
      /cairo_font_matrix exch def dup 4 get exch 5 get cairo_store_point
      /cairo_font where { pop cairo_selectfont } if } bind def
/Tm { 2 copy 8 2 roll 6 array astore /cairo_font_matrix exch def
      cairo_store_point /cairo_font where { pop cairo_selectfont } if } bind def
/g { setgray } bind def
/rg { setrgbcolor } bind def
/d1 { setcachedevice } bind def
/cairo_data_source {
  CairoDataIndex CairoData length lt
    { CairoData CairoDataIndex get /CairoDataIndex CairoDataIndex 1 add def }
    { () } ifelse
} def
/cairo_flush_ascii85_file { cairo_ascii85_file status { cairo_ascii85_file flushfile } if } def
/cairo_image { image cairo_flush_ascii85_file } def
/cairo_imagemask { imagemask cairo_flush_ascii85_file } def
%%EndProlog
%%BeginSetup
%%EndSetup
%%Page: 1 1
%%BeginPageSetup
%%PageBoundingBox: 6 6 378 378
%%EndPageSetup
q 6 6 372 372 rectclip
1 0 0 -1 0 384 cm q
0.501961 0.384314 0.294118 rg
254.91 285.887 m 263.578 281.98 271.727 277.016 279.168 271.105 c 280.949
 269.734 281.863 267.52 281.574 265.293 c 281.285 263.062 279.832 261.156
 277.762 260.289 c 262.91 254.398 249.602 236.992 249.602 211.199 c 249.602
 108.801 l 249.602 52.246 203.754 6.398 147.199 6.398 c 90.645 6.398 44.801
 52.246 44.801 108.801 c 44.801 211.199 l 44.801 236.992 31.488 254.398 
16.641 260.289 c 14.57 261.156 13.117 263.062 12.828 265.293 c 12.535 267.52
 13.453 269.734 15.23 271.105 c 22.676 277.016 30.824 281.98 39.488 285.887
 c h
254.91 285.887 m f
0.298039 g
211.199 275.199 m 217.602 275.199 l 240.965 275.172 262.816 286.754 275.902
 306.113 c 288 326.398 l 288 371.199 l 288 374.734 285.133 377.602 281.602
 377.602 c 12.801 377.602 l 9.266 377.602 6.398 374.734 6.398 371.199 c 
6.398 345.602 l 6.398 306.719 37.918 275.199 76.801 275.199 c h
211.199 275.199 m f
0.886275 0.67451 0.498039 rg
185.602 235.52 m 185.602 262.398 l 147.199 377.602 l 108.801 262.398 l 
108.801 235.52 l h
185.602 235.52 m f
0.933333 0.741176 0.568627 rg
228.723 165.762 m 225.938 166.426 223.934 168.859 223.812 171.719 c 222.414
 193.57 212.062 213.871 195.199 227.84 c 169.984 248 l 156.668 258.668 137.73
 258.668 124.414 248 c 99.199 227.84 l 82.34 213.875 71.988 193.578 70.586
 171.73 c 70.465 168.871 68.461 166.438 65.676 165.773 c 59.711 164.594 
54.484 161.039 51.199 155.922 c 44.801 145.445 44.801 138.988 44.801 119.848
 c 44.672 116.004 46.633 112.391 49.922 110.398 c 53.211 108.41 57.32 108.352
 60.664 110.246 c 65.816 113.531 69.266 118.914 70.094 124.965 c 70.371 
126.648 71.953 127.793 73.637 127.527 c 85.715 125.691 128.23 117.094 143.719
 85.785 c 146.543 80.383 152.73 77.656 158.625 79.219 c 177.012 83.762 212.07
 95.035 221.574 116.551 c 222.574 118.902 225.816 119.129 227.137 116.941
 c 228.715 114.168 230.992 111.852 233.734 110.223 c 237.086 108.32 241.199
 108.383 244.492 110.379 c 247.781 112.379 249.738 116 249.602 119.848 c
 249.602 138.988 249.602 145.445 243.199 155.922 c 239.914 161.035 234.684
 164.586 228.723 165.762 c h
228.723 165.762 m f
0.941176 0.94902 0.960784 rg
147.199 377.602 m 121.602 377.602 l 101.586 324.152 l 100.652 321.656 98.266
 320 95.598 320 c 73.707 320 l 71.555 320 69.547 318.922 68.363 317.125 
c 67.176 315.328 66.973 313.059 67.82 311.078 c 83.199 275.199 l 108.801
 262.398 l h
147.199 377.602 m f
147.199 377.602 m 172.801 377.602 l 192.812 324.152 l 193.75 321.656 196.137
 320 198.805 320 c 220.691 320 l 222.844 320 224.852 318.922 226.039 317.125
 c 227.223 315.328 227.426 313.059 226.578 311.078 c 211.199 275.199 l 185.602
 262.398 l h
147.199 377.602 m f
0.47451 0.501961 0.560784 rg
281.602 230.398 25.598 37.441 re f
0.298039 g
377.602 153.602 m 377.602 199.551 340.352 236.801 294.398 236.801 c 248.449
 236.801 211.199 199.551 211.199 153.602 c 211.199 107.648 248.449 70.398
 294.398 70.398 c 340.352 70.398 377.602 107.648 377.602 153.602 c h
377.602 153.602 m f
0.168627 0.713726 0.909804 rg
352 153.602 m 352 185.41 326.211 211.199 294.398 211.199 c 262.59 211.199
 236.801 185.41 236.801 153.602 c 236.801 121.789 262.59 96 294.398 96 c
 326.211 96 352 121.789 352 153.602 c h
352 153.602 m f
0.54902 0.34902 0.235294 rg
281.602 262.398 m 307.199 262.398 l 310.734 262.398 313.602 265.266 313.602
 268.801 c 313.602 358.398 l 313.602 369.004 305.004 377.602 294.398 377.602
 c 283.797 377.602 275.199 369.004 275.199 358.398 c 275.199 268.801 l 275.199
 265.266 278.066 262.398 281.602 262.398 c h
281.602 262.398 m f
0.145098 0.639216 0.854902 rg
294.398 217.602 m 266.223 217.59 241.367 199.148 233.184 172.188 c 225.004
 145.223 235.418 116.078 258.836 100.41 c 261.773 98.441 265.75 99.227 267.719
 102.164 c 269.688 105.102 268.902 109.078 265.965 111.047 c 244.875 125.156
 237.301 152.59 248.168 175.52 c 259.031 198.453 285.055 209.969 309.332
 202.586 c 333.609 195.203 348.816 171.152 345.078 146.051 c 341.336 120.953
 319.777 102.383 294.398 102.398 c 290.867 102.398 288 99.535 288 96 c 288
 92.465 290.867 89.602 294.398 89.602 c 329.746 89.602 358.398 118.254 358.398
 153.602 c 358.398 188.945 329.746 217.602 294.398 217.602 c h
294.398 217.602 m f
0.25098 0.8 0.945098 rg
275.199 140.801 m 272.613 140.801 270.277 139.238 269.289 136.848 c 268.297
 134.457 268.844 131.707 270.676 129.875 c 277.074 123.477 l 279.586 121.051
 283.578 121.086 286.047 123.555 c 288.516 126.023 288.551 130.012 286.125
 132.523 c 279.727 138.926 l 278.523 140.125 276.898 140.801 275.199 140.801
 c h
275.199 140.801 m f
281.602 179.199 m 279.012 179.199 276.68 177.641 275.688 175.25 c 274.699
 172.859 275.246 170.105 277.074 168.273 c 315.477 129.875 l 317.988 127.449
 321.977 127.484 324.445 129.953 c 326.914 132.422 326.949 136.414 324.523
 138.926 c 286.125 177.324 l 284.926 178.523 283.297 179.199 281.602 179.199
 c h
281.602 179.199 m f
Q Q
showpage
%%Trailer
end
%%EOF
