%!PS-Adobe-3.0 EPSF-3.0
%%Creator: cairo 1.16.0 (https://cairographics.org)
%%CreationDate: Fri Nov 29 10:41:07 2019
%%Pages: 1
%%DocumentData: Clean7Bit
%%LanguageLevel: 2
%%BoundingBox: 44 6 340 378
%%EndComments
%%BeginProlog
50 dict begin
/q { gsave } bind def
/Q { grestore } bind def
/cm { 6 array astore concat } bind def
/w { setlinewidth } bind def
/J { setlinecap } bind def
/j { setlinejoin } bind def
/M { setmiterlimit } bind def
/d { setdash } bind def
/m { moveto } bind def
/l { lineto } bind def
/c { curveto } bind def
/h { closepath } bind def
/re { exch dup neg 3 1 roll 5 3 roll moveto 0 rlineto
      0 exch rlineto 0 rlineto closepath } bind def
/S { stroke } bind def
/f { fill } bind def
/f* { eofill } bind def
/n { newpath } bind def
/W { clip } bind def
/W* { eoclip } bind def
/BT { } bind def
/ET { } bind def
/BDC { mark 3 1 roll /BDC pdfmark } bind def
/EMC { mark /EMC pdfmark } bind def
/cairo_store_point { /cairo_point_y exch def /cairo_point_x exch def } def
/Tj { show currentpoint cairo_store_point } bind def
/TJ {
  {
    dup
    type /stringtype eq
    { show } { -0.001 mul 0 cairo_font_matrix dtransform rmoveto } ifelse
  } forall
  currentpoint cairo_store_point
} bind def
/cairo_selectfont { cairo_font_matrix aload pop pop pop 0 0 6 array astore
    cairo_font exch selectfont cairo_point_x cairo_point_y moveto } bind def
/Tf { pop /cairo_font exch def /cairo_font_matrix where
      { pop cairo_selectfont } if } bind def
/Td { matrix translate cairo_font_matrix matrix concatmatrix dup
      /cairo_font_matrix exch def dup 4 get exch 5 get cairo_store_point
      /cairo_font where { pop cairo_selectfont } if } bind def
/Tm { 2 copy 8 2 roll 6 array astore /cairo_font_matrix exch def
      cairo_store_point /cairo_font where { pop cairo_selectfont } if } bind def
/g { setgray } bind def
/rg { setrgbcolor } bind def
/d1 { setcachedevice } bind def
/cairo_data_source {
  CairoDataIndex CairoData length lt
    { CairoData CairoDataIndex get /CairoDataIndex CairoDataIndex 1 add def }
    { () } ifelse
} def
/cairo_flush_ascii85_file { cairo_ascii85_file status { cairo_ascii85_file flushfile } if } def
/cairo_image { image cairo_flush_ascii85_file } def
/cairo_imagemask { imagemask cairo_flush_ascii85_file } def
%%EndProlog
%%BeginSetup
%%EndSetup
%%Page: 1 1
%%BeginPageSetup
%%PageBoundingBox: 44 6 340 378
%%EndPageSetup
q 44 6 296 372 rectclip
1 0 0 -1 0 384 cm q
0.756863 g
147.199 102.398 m 147.199 62.898 l 147.199 59.504 148.551 56.25 150.949
 53.848 c 194.648 10.152 l 197.051 7.75 200.305 6.402 203.699 6.398 c 332.801
 6.398 l 334.496 6.398 336.125 7.074 337.324 8.273 c 338.527 9.477 339.199
 11.102 339.199 12.801 c 339.199 256 l 339.199 259.535 336.336 262.398 332.801
 262.398 c 288 262.398 l h
147.199 102.398 m f
0.858824 g
236.801 121.602 m 236.801 89.602 l 236.801 86.066 233.934 83.199 230.398
 83.199 c 101.312 83.199 l 97.902 83.203 94.633 84.559 92.223 86.977 c 48.574
 130.625 l 46.16 133.031 44.801 136.301 44.801 139.711 c 44.801 332.801 
l 44.801 336.336 47.664 339.199 51.199 339.199 c 96 339.199 l h
236.801 121.602 m f
0.94902 g
288 128 m 288 371.199 l 288 374.734 285.133 377.602 281.602 377.602 c 102.398
 377.602 l 98.867 377.602 96 374.734 96 371.199 c 96 178.098 l 96 174.703
 97.352 171.449 99.75 169.051 c 143.449 125.352 l 145.848 122.949 149.105
 121.602 152.5 121.602 c 281.602 121.602 l 285.133 121.602 288 124.465 288
 128 c h
288 128 m f
0.756863 g
147.199 122.754 m 147.199 166.398 l 147.199 169.934 144.336 172.801 140.801
 172.801 c 97.152 172.801 l 97.793 171.395 98.684 170.117 99.777 169.023
 c 143.426 125.375 l 144.516 124.281 145.793 123.395 147.199 122.754 c h
147.199 122.754 m f
96 84.352 m 96 128 l 96 131.535 93.133 134.398 89.602 134.398 c 45.953 
134.398 l 46.594 132.996 47.48 131.715 48.574 130.625 c 92.223 86.977 l 
93.316 85.883 94.594 84.992 96 84.352 c h
96 84.352 m f
0.666667 g
198.398 7.551 m 198.398 51.199 l 198.398 54.734 195.535 57.602 192 57.602
 c 148.352 57.602 l 148.992 56.195 149.883 54.914 150.977 53.824 c 194.625
 10.176 l 195.715 9.082 196.996 8.195 198.398 7.551 c h
198.398 7.551 m f
0.152941 0.435294 0.509804 rg
144 339.199 m 131.629 339.199 121.602 329.172 121.602 316.801 c 121.602
 297.602 l 121.602 287.957 127.77 279.398 136.918 276.348 c 146.062 273.301
 156.137 276.445 161.922 284.16 c 164.039 286.988 163.469 291 160.641 293.121
 c 157.812 295.242 153.801 294.668 151.68 291.84 c 149.875 289.41 147.023
 287.984 144 288 c 138.699 288 134.398 292.297 134.398 297.602 c 134.398
 316.801 l 134.398 322.102 138.699 326.398 144 326.398 c 147.023 326.414
 149.875 324.988 151.68 322.559 c 153.801 319.73 157.812 319.16 160.641 
321.281 c 163.469 323.402 164.039 327.414 161.922 330.238 c 157.707 335.902
 151.059 339.227 144 339.199 c h
144 339.199 m f
0.666667 g
160 249.602 m 158.305 249.602 156.676 248.926 155.477 247.727 c 136.273
 228.523 l 133.777 226.027 133.777 221.973 136.273 219.477 c 155.477 200.273
 l 157.988 197.852 161.977 197.883 164.445 200.352 c 166.914 202.82 166.949
 206.812 164.523 209.324 c 149.848 224 l 164.523 238.676 l 166.355 240.504
 166.902 243.258 165.91 245.648 c 164.922 248.039 162.59 249.598 160 249.602
 c h
160 249.602 m f
224 249.602 m 221.41 249.598 219.078 248.039 218.09 245.648 c 217.098 243.258
 217.645 240.504 219.477 238.676 c 234.152 224 l 219.477 209.324 l 217.051
 206.812 217.086 202.82 219.555 200.352 c 222.023 197.883 226.012 197.852
 228.523 200.273 c 247.727 219.477 l 250.223 221.973 250.223 226.027 247.727
 228.523 c 228.523 247.727 l 227.324 248.926 225.695 249.602 224 249.602
 c h
224 249.602 m f
185.602 249.602 m 183.543 249.598 181.613 248.609 180.41 246.941 c 179.211
 245.273 178.883 243.129 179.531 241.176 c 192.332 202.777 l 192.871 201.164
 194.023 199.832 195.543 199.07 c 197.062 198.309 198.824 198.184 200.434
 198.719 c 202.047 199.258 203.383 200.41 204.141 201.93 c 204.902 203.449
 205.027 205.211 204.492 206.824 c 191.691 245.223 l 190.82 247.844 188.363
 249.609 185.602 249.602 c h
185.602 249.602 m f
0.152941 0.435294 0.509804 rg
192 339.199 m 185.141 339.191 178.801 335.535 175.359 329.602 c 173.719
 326.555 174.797 322.758 177.793 321.027 c 180.789 319.293 184.617 320.258
 186.438 323.199 c 187.582 325.18 189.691 326.398 191.977 326.398 c 194.262
 326.402 196.375 325.184 197.52 323.207 c 198.664 321.23 198.668 318.793
 197.531 316.812 c 196.395 314.832 194.285 313.605 192 313.602 c 185.141
 313.594 178.805 309.934 175.379 303.992 c 171.953 298.051 171.957 290.734
 175.387 284.793 c 178.82 278.855 185.156 275.199 192.016 275.199 c 198.875
 275.199 205.211 278.859 208.641 284.801 c 210.281 287.848 209.203 291.645
 206.207 293.375 c 203.211 295.105 199.383 294.141 197.562 291.199 c 196.418
 289.223 194.309 288 192.023 288 c 189.738 288 187.625 289.215 186.48 291.191
 c 185.336 293.168 185.332 295.605 186.469 297.586 c 187.605 299.57 189.715
 300.793 192 300.801 c 202.605 300.801 211.199 309.395 211.199 320 c 211.199
 330.605 202.605 339.199 192 339.199 c h
192 339.199 m f
243.199 339.199 m 236.34 339.191 230 335.535 226.559 329.602 c 224.922 
326.555 226 322.758 228.996 321.027 c 231.988 319.293 235.816 320.258 237.637
 323.199 c 238.781 325.18 240.891 326.398 243.176 326.398 c 245.461 326.402
 247.574 325.184 248.719 323.207 c 249.863 321.23 249.867 318.793 248.73
 316.812 c 247.594 314.832 245.484 313.605 243.199 313.602 c 236.34 313.594
 230.008 309.934 226.578 303.992 c 223.152 298.051 223.156 290.734 226.586
 284.793 c 230.02 278.855 236.355 275.199 243.215 275.199 c 250.074 275.199
 256.41 278.859 259.84 284.801 c 261.48 287.848 260.402 291.645 257.406 
293.375 c 254.41 295.105 250.582 294.141 248.762 291.199 c 247.621 289.223
 245.508 288 243.223 288 c 240.938 288 238.828 289.215 237.68 291.191 c 
236.535 293.168 236.531 295.605 237.668 297.586 c 238.809 299.57 240.914
 300.793 243.199 300.801 c 253.805 300.801 262.398 309.395 262.398 320 c
 262.398 330.605 253.805 339.199 243.199 339.199 c h
243.199 339.199 m f
Q Q
showpage
%%Trailer
end
%%EOF
