%!PS-Adobe-3.0 EPSF-3.0
%%Creator: cairo 1.16.0 (https://cairographics.org)
%%CreationDate: Fri Nov 29 10:41:08 2019
%%Pages: 1
%%DocumentData: Clean7Bit
%%LanguageLevel: 2
%%BoundingBox: 0 6 378 384
%%EndComments
%%BeginProlog
50 dict begin
/q { gsave } bind def
/Q { grestore } bind def
/cm { 6 array astore concat } bind def
/w { setlinewidth } bind def
/J { setlinecap } bind def
/j { setlinejoin } bind def
/M { setmiterlimit } bind def
/d { setdash } bind def
/m { moveto } bind def
/l { lineto } bind def
/c { curveto } bind def
/h { closepath } bind def
/re { exch dup neg 3 1 roll 5 3 roll moveto 0 rlineto
      0 exch rlineto 0 rlineto closepath } bind def
/S { stroke } bind def
/f { fill } bind def
/f* { eofill } bind def
/n { newpath } bind def
/W { clip } bind def
/W* { eoclip } bind def
/BT { } bind def
/ET { } bind def
/BDC { mark 3 1 roll /BDC pdfmark } bind def
/EMC { mark /EMC pdfmark } bind def
/cairo_store_point { /cairo_point_y exch def /cairo_point_x exch def } def
/Tj { show currentpoint cairo_store_point } bind def
/TJ {
  {
    dup
    type /stringtype eq
    { show } { -0.001 mul 0 cairo_font_matrix dtransform rmoveto } ifelse
  } forall
  currentpoint cairo_store_point
} bind def
/cairo_selectfont { cairo_font_matrix aload pop pop pop 0 0 6 array astore
    cairo_font exch selectfont cairo_point_x cairo_point_y moveto } bind def
/Tf { pop /cairo_font exch def /cairo_font_matrix where
      { pop cairo_selectfont } if } bind def
/Td { matrix translate cairo_font_matrix matrix concatmatrix dup
      /cairo_font_matrix exch def dup 4 get exch 5 get cairo_store_point
      /cairo_font where { pop cairo_selectfont } if } bind def
/Tm { 2 copy 8 2 roll 6 array astore /cairo_font_matrix exch def
      cairo_store_point /cairo_font where { pop cairo_selectfont } if } bind def
/g { setgray } bind def
/rg { setrgbcolor } bind def
/d1 { setcachedevice } bind def
/cairo_data_source {
  CairoDataIndex CairoData length lt
    { CairoData CairoDataIndex get /CairoDataIndex CairoDataIndex 1 add def }
    { () } ifelse
} def
/cairo_flush_ascii85_file { cairo_ascii85_file status { cairo_ascii85_file flushfile } if } def
/cairo_image { image cairo_flush_ascii85_file } def
/cairo_imagemask { imagemask cairo_flush_ascii85_file } def
%%EndProlog
%%BeginSetup
%%EndSetup
%%Page: 1 1
%%BeginPageSetup
%%PageBoundingBox: 0 6 378 384
%%EndPageSetup
q 0 6 378 378 rectclip
1 0 0 -1 0 384 cm q
0.988235 0.756863 0.0392157 rg
76.801 76.801 m 64.457 76.801 52.867 70.867 45.648 60.852 c 38.43 50.84
 36.469 37.969 40.371 26.258 c 44.273 14.547 53.57 5.426 65.352 1.746 c 
77.133 -1.934 89.965 0.273 99.84 7.68 c 101.199 8.699 102.094 10.215 102.336
 11.895 c 102.574 13.574 102.137 15.281 101.121 16.641 c 100.102 17.996 
98.586 18.895 96.906 19.137 c 95.227 19.375 93.52 18.938 92.16 17.922 c 
85.578 12.984 77.023 11.512 69.168 13.965 c 61.312 16.418 55.117 22.496 
52.516 30.305 c 49.91 38.109 51.219 46.691 56.031 53.367 c 60.844 60.043
 68.57 64 76.801 64 c 80.668 64.027 84.492 63.152 87.961 61.441 c 89.484
 60.637 91.27 60.48 92.906 61.008 c 94.547 61.535 95.906 62.699 96.676 64.242
 c 97.445 65.781 97.559 67.57 96.996 69.195 c 96.43 70.824 95.234 72.156
 93.676 72.891 c 88.434 75.496 82.652 76.832 76.801 76.801 c h
76.801 76.801 m f
0.145098 0.639216 0.854902 rg
198.398 352 m 194.867 352 192 349.133 192 345.602 c 192 342.066 194.867
 339.199 198.398 339.199 c 260.527 339.199 316.535 301.777 340.309 244.379
 c 364.082 186.984 350.941 120.918 307.012 76.988 c 263.082 33.059 197.016
 19.918 139.621 43.691 c 82.223 67.465 44.801 123.473 44.801 185.602 c 44.801
 204.801 l 44.801 208.336 41.934 211.199 38.398 211.199 c 34.867 211.199
 32 208.336 32 204.801 c 32 185.602 l 32 118.297 72.543 57.621 134.723 31.867
 c 196.902 6.109 268.473 20.348 316.062 67.938 c 363.652 115.527 377.891
 187.098 352.133 249.277 c 326.379 311.457 265.703 352 198.398 352 c h
198.398 352 m f
332.801 352 m 6.398 352 l 2.867 352 0 349.133 0 345.602 c 0 342.066 2.867
 339.199 6.398 339.199 c 332.801 339.199 l 336.336 339.199 339.199 342.066
 339.199 345.602 c 339.199 349.133 336.336 352 332.801 352 c h
332.801 352 m f
0.168627 0.713726 0.909804 rg
33.172 247.098 m 7.992 216.211 l 6.289 214.152 5.914 211.297 7.027 208.863
 c 8.141 206.434 10.547 204.855 13.223 204.801 c 63.578 204.801 l 66.25 
204.855 68.66 206.434 69.773 208.863 c 70.887 211.297 70.512 214.152 68.805
 216.211 c 43.629 247.098 l 42.355 248.68 40.434 249.602 38.398 249.602 
c 36.367 249.602 34.445 248.68 33.172 247.098 c h
33.172 247.098 m f
375.098 350.828 m 344.211 376.008 l 342.152 377.711 339.297 378.086 336.863
 376.973 c 334.434 375.859 332.855 373.453 332.801 370.777 c 332.801 320.422
 l 332.855 317.75 334.434 315.34 336.863 314.227 c 339.297 313.113 342.152
 313.488 344.211 315.195 c 375.098 340.371 l 376.68 341.645 377.602 343.566
 377.602 345.602 c 377.602 347.633 376.68 349.555 375.098 350.828 c h
375.098 350.828 m f
0.8 0.815686 0.854902 rg
302.797 193.746 m 305.008 192.891 306.555 190.867 306.797 188.504 c 307.07
 185.434 307.199 182.316 307.199 179.199 c 307.199 176.082 307.07 172.965
 306.797 169.895 c 306.555 167.535 305.008 165.508 302.797 164.652 c 285.266
 157.613 l 283.117 148.949 279.676 140.66 275.059 133.023 c 282.508 115.641
 l 283.445 113.473 283.094 110.961 281.602 109.133 c 279.621 106.766 277.512
 104.469 275.309 102.266 c 273.105 100.062 270.828 97.953 268.441 95.973
 c 266.602 94.477 264.078 94.137 261.906 95.09 c 244.523 102.539 l 236.887
 97.926 228.598 94.484 219.938 92.332 c 212.895 74.805 l 212.039 72.59 210.016
 71.047 207.656 70.805 c 204.633 70.527 201.516 70.398 198.398 70.398 c 
195.281 70.398 192.168 70.527 189.094 70.805 c 186.734 71.047 184.711 72.59
 183.852 74.805 c 176.812 92.332 l 168.152 94.484 159.863 97.926 152.223
 102.539 c 134.84 95.09 l 132.672 94.152 130.16 94.504 128.332 96 c 125.965
 97.977 123.668 100.09 121.465 102.293 c 119.266 104.492 117.152 106.77 
115.176 109.16 c 113.68 111 113.34 113.52 114.293 115.691 c 121.742 133.074
 l 117.125 140.715 113.684 149.004 111.531 157.664 c 94.004 164.703 l 91.789
 165.559 90.246 167.586 90.004 169.945 c 89.727 172.965 89.602 176.082 89.602
 179.199 c 89.602 182.316 89.727 185.434 90.004 188.504 c 90.246 190.867
 91.789 192.891 94.004 193.746 c 111.531 200.789 l 113.684 209.449 117.125
 217.738 121.742 225.375 c 114.293 242.758 l 113.355 244.926 113.707 247.438
 115.199 249.266 c 117.176 251.637 119.289 253.934 121.492 256.133 c 123.691
 258.336 125.973 260.449 128.359 262.426 c 130.199 263.922 132.723 264.262
 134.895 263.309 c 152.273 255.859 l 159.914 260.477 168.203 263.918 176.863
 266.066 c 183.902 283.598 l 184.762 285.809 186.785 287.355 189.145 287.598
 c 192.219 287.871 195.336 288 198.453 288 c 201.566 288 204.684 287.871
 207.758 287.598 c 210.117 287.355 212.141 285.809 213 283.598 c 220.039
 266.066 l 228.699 263.918 236.988 260.477 244.629 255.859 c 262.008 263.309
 l 264.164 264.223 266.648 263.875 268.469 262.398 c 270.836 260.422 273.133
 258.309 275.336 256.109 c 277.535 253.906 279.648 251.629 281.625 249.242
 c 283.121 247.402 283.461 244.879 282.508 242.707 c 275.059 225.324 l 279.676
 217.688 283.117 209.398 285.266 200.734 c h
302.797 193.746 m f
0.537255 0.568627 0.627451 rg
262.398 179.199 m 262.398 214.547 233.746 243.199 198.398 243.199 c 163.055
 243.199 134.398 214.547 134.398 179.199 c 134.398 143.855 163.055 115.199
 198.398 115.199 c 215.375 115.199 231.652 121.941 243.656 133.945 c 255.656
 145.949 262.398 162.227 262.398 179.199 c h
262.398 179.199 m f
0.8 0.815686 0.854902 rg
236.801 179.199 m 236.801 200.406 219.609 217.602 198.398 217.602 c 177.191
 217.602 160 200.406 160 179.199 c 160 157.992 177.191 140.801 198.398 140.801
 c 219.609 140.801 236.801 157.992 236.801 179.199 c h
236.801 179.199 m f
0.941176 0.94902 0.960784 rg
185.602 185.602 m 182.066 185.602 179.199 182.734 179.199 179.199 c 179.199
 168.598 187.797 160 198.398 160 c 201.934 160 204.801 162.867 204.801 166.398
 c 204.801 169.934 201.934 172.801 198.398 172.801 c 194.867 172.801 192
 175.664 192 179.199 c 192 182.734 189.133 185.602 185.602 185.602 c h
185.602 185.602 m f
Q Q
showpage
%%Trailer
end
%%EOF
