%!PS-Adobe-3.0 EPSF-3.0
%%Creator: cairo 1.16.0 (https://cairographics.org)
%%CreationDate: Fri Nov 29 10:41:10 2019
%%Pages: 1
%%DocumentData: Clean7Bit
%%LanguageLevel: 2
%%BoundingBox: 6 6 372 378
%%EndComments
%%BeginProlog
50 dict begin
/q { gsave } bind def
/Q { grestore } bind def
/cm { 6 array astore concat } bind def
/w { setlinewidth } bind def
/J { setlinecap } bind def
/j { setlinejoin } bind def
/M { setmiterlimit } bind def
/d { setdash } bind def
/m { moveto } bind def
/l { lineto } bind def
/c { curveto } bind def
/h { closepath } bind def
/re { exch dup neg 3 1 roll 5 3 roll moveto 0 rlineto
      0 exch rlineto 0 rlineto closepath } bind def
/S { stroke } bind def
/f { fill } bind def
/f* { eofill } bind def
/n { newpath } bind def
/W { clip } bind def
/W* { eoclip } bind def
/BT { } bind def
/ET { } bind def
/BDC { mark 3 1 roll /BDC pdfmark } bind def
/EMC { mark /EMC pdfmark } bind def
/cairo_store_point { /cairo_point_y exch def /cairo_point_x exch def } def
/Tj { show currentpoint cairo_store_point } bind def
/TJ {
  {
    dup
    type /stringtype eq
    { show } { -0.001 mul 0 cairo_font_matrix dtransform rmoveto } ifelse
  } forall
  currentpoint cairo_store_point
} bind def
/cairo_selectfont { cairo_font_matrix aload pop pop pop 0 0 6 array astore
    cairo_font exch selectfont cairo_point_x cairo_point_y moveto } bind def
/Tf { pop /cairo_font exch def /cairo_font_matrix where
      { pop cairo_selectfont } if } bind def
/Td { matrix translate cairo_font_matrix matrix concatmatrix dup
      /cairo_font_matrix exch def dup 4 get exch 5 get cairo_store_point
      /cairo_font where { pop cairo_selectfont } if } bind def
/Tm { 2 copy 8 2 roll 6 array astore /cairo_font_matrix exch def
      cairo_store_point /cairo_font where { pop cairo_selectfont } if } bind def
/g { setgray } bind def
/rg { setrgbcolor } bind def
/d1 { setcachedevice } bind def
/cairo_data_source {
  CairoDataIndex CairoData length lt
    { CairoData CairoDataIndex get /CairoDataIndex CairoDataIndex 1 add def }
    { () } ifelse
} def
/cairo_flush_ascii85_file { cairo_ascii85_file status { cairo_ascii85_file flushfile } if } def
/cairo_image { image cairo_flush_ascii85_file } def
/cairo_imagemask { imagemask cairo_flush_ascii85_file } def
%%EndProlog
%%BeginSetup
%%EndSetup
%%Page: 1 1
%%BeginPageSetup
%%PageBoundingBox: 6 6 372 378
%%EndPageSetup
q 6 6 366 372 rectclip
1 0 0 -1 0 384 cm q
0.34902 0.231373 0.172549 rg
51.199 128 m 51.199 109.895 l 50.898 53.039 96.746 6.703 153.602 6.398 
c 210.457 6.703 256.301 53.039 256 109.895 c 256 128 l 249.602 140.801 l
 57.602 140.801 l h
51.199 128 m f
0.298039 g
217.602 275.199 m 224 275.199 l 242.801 275.152 260.961 282.035 275.008
 294.527 c 300.801 313.602 l 300.801 371.199 l 300.801 374.734 297.934 377.602
 294.398 377.602 c 12.801 377.602 l 9.266 377.602 6.398 374.734 6.398 371.199
 c 6.398 352 l 6.398 309.586 40.785 275.199 83.199 275.199 c h
217.602 275.199 m f
1 g
217.602 275.199 m 217.602 275.199 217.602 358.398 179.199 377.602 c 128
 377.602 l 89.602 364.801 89.602 275.199 89.602 275.199 c h
217.602 275.199 m f
0.54902 0.34902 0.235294 rg
192 237.004 m 192 288 l 115.199 288 l 115.199 236.801 l h
192 237.004 m f
0.92549 0.227451 0.282353 rg
125.246 304.449 m 140.801 320 l 166.398 320 l 181.953 304.449 l 185.602
 288 l 121.602 288 l h
125.246 304.449 m f
0.85098 0.160784 0.211765 rg
179.199 377.602 m 166.398 320 l 140.801 320 l 128 377.602 l h
179.199 377.602 m f
0.627451 0.411765 0.294118 rg
256 128 m 256 143.551 256 152.512 249.984 164.672 c 247.277 170.367 242.195
 174.582 236.098 176.191 c 233.605 176.965 231.863 179.219 231.742 181.824
 c 229.375 223.309 195.152 255.793 153.602 256 c 132.789 255.996 112.852
 247.652 98.238 232.832 c 84.719 219.148 76.625 201.023 75.457 181.824 c
 75.336 179.219 73.598 176.965 71.105 176.191 c 65.004 174.582 59.926 170.367
 57.215 164.672 c 51.199 152.512 51.199 143.551 51.199 128 c 51.066 124.074
 52.898 120.34 56.082 118.043 c 59.266 115.742 63.387 115.18 67.07 116.543
 c 76.543 119.938 76.801 133.633 76.801 134.91 c 76.801 103.617 l 76.758
 97.117 81.832 91.734 88.32 91.391 c 110.016 90.434 154.879 82.176 179.199
 65.855 c 182.094 64.023 185.633 63.512 188.93 64.449 c 201.855 67.648 230.398
 82.879 230.398 116.16 c 230.398 134.91 l 230.398 133.633 230.656 119.938
 240.129 116.543 c 243.812 115.18 247.934 115.742 251.117 118.043 c 254.301
 120.34 256.133 124.074 256 128 c h
256 128 m f
0.941176 0.94902 0.960784 rg
153.602 288 m 138.383 288.344 125.277 298.828 121.602 313.602 c 121.602
 313.602 89.602 300.801 89.602 275.199 c 96 262.398 115.199 262.398 115.199
 262.398 c 115.199 262.398 121.602 281.602 153.602 288 c h
153.602 288 m f
153.602 288 m 168.816 288.344 181.922 298.828 185.602 313.602 c 185.602
 313.602 217.602 300.801 217.602 275.199 c 211.199 262.398 192 262.398 192
 262.398 c 192 262.398 185.602 281.602 153.602 288 c h
153.602 288 m f
0.145098 0.639216 0.854902 rg
338.754 249.922 m 339.059 250.625 339.211 251.391 339.199 252.16 c 339.199
 313.602 l 275.199 313.602 l 275.199 252.16 l 275.188 251.391 275.34 250.625
 275.648 249.922 c h
338.754 249.922 m f
0.168627 0.713726 0.909804 rg
338.754 249.922 m 310.465 267.84 l 308.477 269.121 305.922 269.121 303.938
 267.84 c 275.648 249.922 l 276.125 248.547 277.078 247.391 278.336 246.656
 c 303.938 231.297 l 305.941 230.082 308.457 230.082 310.465 231.297 c 336.062
 246.656 l 337.32 247.391 338.273 248.547 338.754 249.922 c h
338.754 249.922 m f
0.192157 0.717647 0.568627 rg
307.199 313.602 m 313.602 339.199 l 307.199 359.488 l 278.465 376.703 l
 276.457 377.918 273.941 377.918 271.938 376.703 c 246.336 361.344 l 244.383
 360.199 243.188 358.102 243.199 355.84 c 243.199 317.246 l 243.18 316.145
 243.469 315.059 244.031 314.113 c h
307.199 313.602 m f
0.215686 0.796078 0.631373 rg
307.199 313.602 m 278.465 331.84 l 276.477 333.121 273.922 333.121 271.938
 331.84 c 244.031 314.113 l 244.555 313.117 245.355 312.297 246.336 311.742
 c 275.199 294.398 l h
307.199 313.602 m f
0.52549 0.415686 0.862745 rg
370.367 314.113 m 370.934 315.059 371.223 316.145 371.199 317.246 c 371.199
 355.84 l 371.211 358.102 370.016 360.199 368.062 361.344 c 342.465 376.703
 l 340.457 377.918 337.941 377.918 335.938 376.703 c 307.199 359.488 l 307.199
 313.602 l h
370.367 314.113 m f
0.619608 0.509804 0.92549 rg
370.367 314.113 m 342.465 331.84 l 340.477 333.121 337.922 333.121 335.938
 331.84 c 307.199 313.602 l 339.199 294.398 l 368.062 311.742 l 369.043 
312.297 369.844 313.117 370.367 314.113 c h
370.367 314.113 m f
0.160784 0.607843 0.470588 rg
278.465 331.84 m 281.602 329.855 l 281.602 345.602 l 281.602 349.133 278.734
 352 275.199 352 c 271.664 352 268.801 349.133 268.801 345.602 c 268.801
 329.855 l 271.938 331.84 l 273.922 333.121 276.477 333.121 278.465 331.84
 c h
278.465 331.84 m f
0.427451 0.356863 0.737255 rg
345.602 329.855 m 345.602 345.602 l 345.602 349.133 342.734 352 339.199
 352 c 335.664 352 332.801 349.133 332.801 345.602 c 332.801 329.855 l 335.938
 331.84 l 337.922 333.121 340.477 333.121 342.465 331.84 c h
345.602 329.855 m f
0.109804 0.490196 0.627451 rg
313.602 265.855 m 313.602 281.602 l 313.602 285.133 310.734 288 307.199
 288 c 303.664 288 300.801 285.133 300.801 281.602 c 300.801 265.855 l 303.938
 267.84 l 305.922 269.121 308.477 269.121 310.465 267.84 c h
313.602 265.855 m f
Q Q
showpage
%%Trailer
end
%%EOF
