%!PS-Adobe-3.0 EPSF-3.0
%%Creator: cairo 1.16.0 (https://cairographics.org)
%%CreationDate: Fri Nov 29 10:41:10 2019
%%Pages: 1
%%DocumentData: Clean7Bit
%%LanguageLevel: 2
%%BoundingBox: 6 6 372 378
%%EndComments
%%BeginProlog
50 dict begin
/q { gsave } bind def
/Q { grestore } bind def
/cm { 6 array astore concat } bind def
/w { setlinewidth } bind def
/J { setlinecap } bind def
/j { setlinejoin } bind def
/M { setmiterlimit } bind def
/d { setdash } bind def
/m { moveto } bind def
/l { lineto } bind def
/c { curveto } bind def
/h { closepath } bind def
/re { exch dup neg 3 1 roll 5 3 roll moveto 0 rlineto
      0 exch rlineto 0 rlineto closepath } bind def
/S { stroke } bind def
/f { fill } bind def
/f* { eofill } bind def
/n { newpath } bind def
/W { clip } bind def
/W* { eoclip } bind def
/BT { } bind def
/ET { } bind def
/BDC { mark 3 1 roll /BDC pdfmark } bind def
/EMC { mark /EMC pdfmark } bind def
/cairo_store_point { /cairo_point_y exch def /cairo_point_x exch def } def
/Tj { show currentpoint cairo_store_point } bind def
/TJ {
  {
    dup
    type /stringtype eq
    { show } { -0.001 mul 0 cairo_font_matrix dtransform rmoveto } ifelse
  } forall
  currentpoint cairo_store_point
} bind def
/cairo_selectfont { cairo_font_matrix aload pop pop pop 0 0 6 array astore
    cairo_font exch selectfont cairo_point_x cairo_point_y moveto } bind def
/Tf { pop /cairo_font exch def /cairo_font_matrix where
      { pop cairo_selectfont } if } bind def
/Td { matrix translate cairo_font_matrix matrix concatmatrix dup
      /cairo_font_matrix exch def dup 4 get exch 5 get cairo_store_point
      /cairo_font where { pop cairo_selectfont } if } bind def
/Tm { 2 copy 8 2 roll 6 array astore /cairo_font_matrix exch def
      cairo_store_point /cairo_font where { pop cairo_selectfont } if } bind def
/g { setgray } bind def
/rg { setrgbcolor } bind def
/d1 { setcachedevice } bind def
/cairo_data_source {
  CairoDataIndex CairoData length lt
    { CairoData CairoDataIndex get /CairoDataIndex CairoDataIndex 1 add def }
    { () } ifelse
} def
/cairo_flush_ascii85_file { cairo_ascii85_file status { cairo_ascii85_file flushfile } if } def
/cairo_image { image cairo_flush_ascii85_file } def
/cairo_imagemask { imagemask cairo_flush_ascii85_file } def
%%EndProlog
%%BeginSetup
%%EndSetup
%%Page: 1 1
%%BeginPageSetup
%%PageBoundingBox: 6 6 372 378
%%EndPageSetup
q 6 6 366 372 rectclip
1 0 0 -1 0 384 cm q
0.501961 0.384314 0.294118 rg
254.91 285.887 m 263.578 281.98 271.727 277.016 279.168 271.105 c 280.949
 269.734 281.863 267.52 281.574 265.293 c 281.285 263.062 279.832 261.156
 277.762 260.289 c 262.91 254.398 249.602 236.992 249.602 211.199 c 249.602
 108.801 l 249.602 52.246 203.754 6.398 147.199 6.398 c 90.645 6.398 44.801
 52.246 44.801 108.801 c 44.801 211.199 l 44.801 236.992 31.488 254.398 
16.641 260.289 c 14.57 261.156 13.117 263.062 12.828 265.293 c 12.535 267.52
 13.453 269.734 15.23 271.105 c 22.676 277.016 30.824 281.98 39.488 285.887
 c h
254.91 285.887 m f
0.298039 g
211.199 275.199 m 217.602 275.199 l 240.965 275.172 262.816 286.754 275.902
 306.113 c 288 326.398 l 288 371.199 l 288 374.734 285.133 377.602 281.602
 377.602 c 12.801 377.602 l 9.266 377.602 6.398 374.734 6.398 371.199 c 
6.398 345.602 l 6.398 306.719 37.918 275.199 76.801 275.199 c h
211.199 275.199 m f
0.886275 0.67451 0.498039 rg
185.602 235.52 m 185.602 262.398 l 147.199 377.602 l 108.801 262.398 l 
108.801 235.52 l h
185.602 235.52 m f
0.933333 0.741176 0.568627 rg
228.723 165.762 m 225.938 166.426 223.934 168.859 223.812 171.719 c 222.414
 193.57 212.062 213.871 195.199 227.84 c 169.984 248 l 156.668 258.668 137.73
 258.668 124.414 248 c 99.199 227.84 l 82.34 213.875 71.988 193.578 70.586
 171.73 c 70.465 168.871 68.461 166.438 65.676 165.773 c 59.711 164.594 
54.484 161.039 51.199 155.922 c 44.801 145.445 44.801 138.988 44.801 119.848
 c 44.672 116.004 46.633 112.391 49.922 110.398 c 53.211 108.41 57.32 108.352
 60.664 110.246 c 65.816 113.531 69.266 118.914 70.094 124.965 c 70.371 
126.648 71.953 127.793 73.637 127.527 c 85.715 125.691 128.23 117.094 143.719
 85.785 c 146.543 80.383 152.73 77.656 158.625 79.219 c 177.012 83.762 212.07
 95.035 221.574 116.551 c 222.574 118.902 225.816 119.129 227.137 116.941
 c 228.715 114.168 230.992 111.852 233.734 110.223 c 237.086 108.32 241.199
 108.383 244.492 110.379 c 247.781 112.379 249.738 116 249.602 119.848 c
 249.602 138.988 249.602 145.445 243.199 155.922 c 239.914 161.035 234.684
 164.586 228.723 165.762 c h
228.723 165.762 m f
0.941176 0.94902 0.960784 rg
147.199 377.602 m 121.602 377.602 l 101.586 324.152 l 100.652 321.656 98.266
 320 95.598 320 c 73.707 320 l 71.555 320 69.547 318.922 68.363 317.125 
c 67.176 315.328 66.973 313.059 67.82 311.078 c 83.199 275.199 l 108.801
 262.398 l h
147.199 377.602 m f
147.199 377.602 m 172.801 377.602 l 192.812 324.152 l 193.75 321.656 196.137
 320 198.805 320 c 220.691 320 l 222.844 320 224.852 318.922 226.039 317.125
 c 227.223 315.328 227.426 313.059 226.578 311.078 c 211.199 275.199 l 185.602
 262.398 l h
147.199 377.602 m f
0.145098 0.639216 0.854902 rg
338.754 249.922 m 339.059 250.625 339.211 251.391 339.199 252.16 c 339.199
 313.602 l 275.199 313.602 l 275.199 252.16 l 275.188 251.391 275.34 250.625
 275.648 249.922 c h
338.754 249.922 m f
0.168627 0.713726 0.909804 rg
338.754 249.922 m 310.465 267.84 l 308.477 269.121 305.922 269.121 303.938
 267.84 c 275.648 249.922 l 276.125 248.547 277.078 247.391 278.336 246.656
 c 303.938 231.297 l 305.941 230.082 308.457 230.082 310.465 231.297 c 336.062
 246.656 l 337.32 247.391 338.273 248.547 338.754 249.922 c h
338.754 249.922 m f
0.192157 0.717647 0.568627 rg
307.199 313.602 m 313.602 339.199 l 307.199 359.488 l 278.465 376.703 l
 276.457 377.918 273.941 377.918 271.938 376.703 c 246.336 361.344 l 244.383
 360.199 243.188 358.102 243.199 355.84 c 243.199 317.246 l 243.18 316.145
 243.469 315.059 244.031 314.113 c h
307.199 313.602 m f
0.215686 0.796078 0.631373 rg
307.199 313.602 m 278.465 331.84 l 276.477 333.121 273.922 333.121 271.938
 331.84 c 244.031 314.113 l 244.555 313.117 245.355 312.297 246.336 311.742
 c 275.199 294.398 l h
307.199 313.602 m f
0.52549 0.415686 0.862745 rg
370.367 314.113 m 370.934 315.059 371.223 316.145 371.199 317.246 c 371.199
 355.84 l 371.211 358.102 370.016 360.199 368.062 361.344 c 342.465 376.703
 l 340.457 377.918 337.941 377.918 335.938 376.703 c 307.199 359.488 l 307.199
 313.602 l h
370.367 314.113 m f
0.619608 0.509804 0.92549 rg
370.367 314.113 m 342.465 331.84 l 340.477 333.121 337.922 333.121 335.938
 331.84 c 307.199 313.602 l 339.199 294.398 l 368.062 311.742 l 369.043 
312.297 369.844 313.117 370.367 314.113 c h
370.367 314.113 m f
0.160784 0.607843 0.470588 rg
278.465 331.84 m 281.602 329.855 l 281.602 345.602 l 281.602 349.133 278.734
 352 275.199 352 c 271.664 352 268.801 349.133 268.801 345.602 c 268.801
 329.855 l 271.938 331.84 l 273.922 333.121 276.477 333.121 278.465 331.84
 c h
278.465 331.84 m f
0.427451 0.356863 0.737255 rg
345.602 329.855 m 345.602 345.602 l 345.602 349.133 342.734 352 339.199
 352 c 335.664 352 332.801 349.133 332.801 345.602 c 332.801 329.855 l 335.938
 331.84 l 337.922 333.121 340.477 333.121 342.465 331.84 c h
345.602 329.855 m f
0.109804 0.490196 0.627451 rg
313.602 265.855 m 313.602 281.602 l 313.602 285.133 310.734 288 307.199
 288 c 303.664 288 300.801 285.133 300.801 281.602 c 300.801 265.855 l 303.938
 267.84 l 305.922 269.121 308.477 269.121 310.465 267.84 c h
313.602 265.855 m f
Q Q
showpage
%%Trailer
end
%%EOF
