%!PS-Adobe-3.0 EPSF-3.0
%%Creator: cairo 1.16.0 (https://cairographics.org)
%%CreationDate: Fri Nov 29 10:41:11 2019
%%Pages: 1
%%DocumentData: Clean7Bit
%%LanguageLevel: 2
%%BoundingBox: 6 6 378 378
%%EndComments
%%BeginProlog
50 dict begin
/q { gsave } bind def
/Q { grestore } bind def
/cm { 6 array astore concat } bind def
/w { setlinewidth } bind def
/J { setlinecap } bind def
/j { setlinejoin } bind def
/M { setmiterlimit } bind def
/d { setdash } bind def
/m { moveto } bind def
/l { lineto } bind def
/c { curveto } bind def
/h { closepath } bind def
/re { exch dup neg 3 1 roll 5 3 roll moveto 0 rlineto
      0 exch rlineto 0 rlineto closepath } bind def
/S { stroke } bind def
/f { fill } bind def
/f* { eofill } bind def
/n { newpath } bind def
/W { clip } bind def
/W* { eoclip } bind def
/BT { } bind def
/ET { } bind def
/BDC { mark 3 1 roll /BDC pdfmark } bind def
/EMC { mark /EMC pdfmark } bind def
/cairo_store_point { /cairo_point_y exch def /cairo_point_x exch def } def
/Tj { show currentpoint cairo_store_point } bind def
/TJ {
  {
    dup
    type /stringtype eq
    { show } { -0.001 mul 0 cairo_font_matrix dtransform rmoveto } ifelse
  } forall
  currentpoint cairo_store_point
} bind def
/cairo_selectfont { cairo_font_matrix aload pop pop pop 0 0 6 array astore
    cairo_font exch selectfont cairo_point_x cairo_point_y moveto } bind def
/Tf { pop /cairo_font exch def /cairo_font_matrix where
      { pop cairo_selectfont } if } bind def
/Td { matrix translate cairo_font_matrix matrix concatmatrix dup
      /cairo_font_matrix exch def dup 4 get exch 5 get cairo_store_point
      /cairo_font where { pop cairo_selectfont } if } bind def
/Tm { 2 copy 8 2 roll 6 array astore /cairo_font_matrix exch def
      cairo_store_point /cairo_font where { pop cairo_selectfont } if } bind def
/g { setgray } bind def
/rg { setrgbcolor } bind def
/d1 { setcachedevice } bind def
/cairo_data_source {
  CairoDataIndex CairoData length lt
    { CairoData CairoDataIndex get /CairoDataIndex CairoDataIndex 1 add def }
    { () } ifelse
} def
/cairo_flush_ascii85_file { cairo_ascii85_file status { cairo_ascii85_file flushfile } if } def
/cairo_image { image cairo_flush_ascii85_file } def
/cairo_imagemask { imagemask cairo_flush_ascii85_file } def
%%EndProlog
%%BeginSetup
%%EndSetup
%%Page: 1 1
%%BeginPageSetup
%%PageBoundingBox: 6 6 378 378
%%EndPageSetup
q 6 6 372 372 rectclip
1 0 0 -1 0 384 cm q
0.54902 0.34902 0.235294 rg
286.207 272.449 m 367.359 332.289 l 376.105 338.73 379.719 350.066 376.309
 360.379 c 372.898 370.691 363.238 377.641 352.379 377.602 c 345.688 377.598
 339.27 374.953 334.523 370.238 c 260.098 296.062 l h
286.207 272.449 m f
0.298039 g
326.398 166.398 m 326.398 254.766 254.766 326.398 166.398 326.398 c 78.035
 326.398 6.398 254.766 6.398 166.398 c 6.398 78.035 78.035 6.398 166.398
 6.398 c 254.766 6.398 326.398 78.035 326.398 166.398 c h
326.398 166.398 m f
0.25098 0.8 0.945098 rg
300.801 166.398 m 300.801 240.629 240.629 300.801 166.398 300.801 c 92.172
 300.801 32 240.629 32 166.398 c 32 92.172 92.172 32 166.398 32 c 240.629
 32 300.801 92.172 300.801 166.398 c h
300.801 166.398 m f
0.298039 g
204.801 153.602 m 204.801 192 l 204.801 213.207 187.609 230.398 166.398
 230.398 c 145.191 230.398 128 213.207 128 192 c 128 153.602 l 166.398 147.199
 l h
204.801 153.602 m f
166.398 96 m 180.539 96 192 107.461 192 121.602 c 192 134.398 l 140.801
 134.398 l 140.801 121.602 l 140.801 107.461 152.262 96 166.398 96 c h
166.398 96 m f
0.356863 g
204.801 140.801 m 204.801 153.602 l 128 153.602 l 128 140.801 l 128.02 
133.738 133.738 128.02 140.801 128 c 192 128 l 199.059 128.02 204.777 133.738
 204.801 140.801 c h
204.801 140.801 m f
0.168627 0.713726 0.909804 rg
166.398 307.199 m 96.879 307.215 37.754 256.484 27.203 187.766 c 16.652
 119.051 57.836 52.918 124.16 32.078 c 125.793 31.512 127.586 31.629 129.133
 32.406 c 130.68 33.184 131.844 34.555 132.363 36.203 c 132.879 37.852 132.711
 39.641 131.887 41.164 c 131.066 42.688 129.664 43.809 128 44.281 c 64.145
 64.336 26.508 130.191 41.645 195.387 c 56.781 260.586 119.582 303.121 185.742
 292.988 c 251.906 282.855 299.094 223.473 294.023 156.73 c 288.953 89.992
 233.332 38.422 166.398 38.398 c 162.867 38.398 160 35.535 160 32 c 160 
28.465 162.867 25.602 166.398 25.602 c 244.16 25.602 307.199 88.637 307.199
 166.398 c 307.199 244.16 244.16 307.199 166.398 307.199 c h
166.398 307.199 m f
0.356863 g
166.398 211.199 m 162.867 211.199 160 208.336 160 204.801 c 160 153.602
 l 160 150.066 162.867 147.199 166.398 147.199 c 169.934 147.199 172.801
 150.066 172.801 153.602 c 172.801 204.801 l 172.801 208.336 169.934 211.199
 166.398 211.199 c h
166.398 211.199 m f
0.145098 0.639216 0.854902 rg
76.801 192 m 75.102 192 73.477 191.324 72.273 190.125 c 53.074 170.926 
l 50.578 168.426 50.578 164.375 53.074 161.875 c 72.273 142.676 l 74.785
 140.25 78.777 140.285 81.246 142.754 c 83.715 145.223 83.75 149.215 81.324
 151.727 c 66.648 166.398 l 81.324 181.074 l 83.156 182.906 83.703 185.656
 82.711 188.051 c 81.723 190.441 79.387 192 76.801 192 c h
76.801 192 m f
256 192 m 253.41 192 251.078 190.441 250.09 188.051 c 249.098 185.656 249.645
 182.906 251.477 181.074 c 266.152 166.398 l 251.477 151.727 l 249.051 149.215
 249.086 145.223 251.555 142.754 c 254.023 140.285 258.012 140.25 260.523
 142.676 c 279.727 161.875 l 282.223 164.375 282.223 168.426 279.727 170.926
 c 260.523 190.125 l 259.324 191.324 257.695 192 256 192 c h
256 192 m f
0.219608 g
236.801 204.801 m 236.801 230.398 l 236.801 233.934 233.934 236.801 230.398
 236.801 c 226.867 236.801 224 233.934 224 230.398 c 224 204.801 l 224 201.266
 221.133 198.398 217.602 198.398 c 204.223 198.398 l 204.613 196.289 204.805
 194.145 204.801 192 c 204.801 185.602 l 217.602 185.602 l 228.191 185.633
 236.77 194.211 236.801 204.801 c h
236.801 204.801 m f
145.664 72.641 m 165.566 96.062 l 160.852 96.199 156.266 97.641 152.32 
100.223 c 135.938 80.961 l 133.637 78.273 133.953 74.234 136.641 71.938 
c 139.328 69.637 143.367 69.953 145.664 72.641 c h
145.664 72.641 m f
96 172.801 m 92.465 172.801 89.602 169.934 89.602 166.398 c 89.602 162.867
 92.465 160 96 160 c 128 160 l 128 172.801 l h
96 172.801 m f
204.801 140.801 m 204.797 138.551 204.199 136.344 203.07 134.398 c 217.602
 134.398 l 221.133 134.398 224 131.535 224 128 c 224 102.398 l 224 98.867
 226.867 96 230.398 96 c 233.934 96 236.801 98.867 236.801 102.398 c 236.801
 128 l 236.77 138.59 228.191 147.168 217.602 147.199 c 204.801 147.199 l
 h
204.801 140.801 m f
243.199 166.398 m 243.199 169.934 240.336 172.801 236.801 172.801 c 204.801
 172.801 l 204.801 160 l 236.801 160 l 240.336 160 243.199 162.867 243.199
 166.398 c h
243.199 166.398 m f
196.16 71.938 m 197.449 73.039 198.25 74.609 198.383 76.301 c 198.512 77.996
 197.969 79.672 196.863 80.961 c 180.48 100.223 l 176.535 97.641 171.949
 96.199 167.23 96.062 c 187.137 72.641 l 188.238 71.352 189.809 70.551 191.504
 70.418 c 193.195 70.285 194.871 70.832 196.16 71.938 c h
196.16 71.938 m f
115.199 134.398 m 129.727 134.398 l 128.602 136.344 128.004 138.551 128
 140.801 c 128 147.199 l 115.199 147.199 l 104.609 147.168 96.031 138.59
 96 128 c 96 102.398 l 96 98.867 98.867 96 102.398 96 c 105.934 96 108.801
 98.867 108.801 102.398 c 108.801 128 l 108.801 131.535 111.664 134.398 
115.199 134.398 c h
115.199 134.398 m f
128 192 m 127.996 194.145 128.188 196.289 128.574 198.398 c 115.199 198.398
 l 111.664 198.398 108.801 201.266 108.801 204.801 c 108.801 230.398 l 108.801
 233.934 105.934 236.801 102.398 236.801 c 98.867 236.801 96 233.934 96 
230.398 c 96 204.801 l 96.031 194.211 104.609 185.633 115.199 185.602 c 
128 185.602 l h
128 192 m f
Q Q
showpage
%%Trailer
end
%%EOF
