%!PS-Adobe-3.0 EPSF-3.0
%%Creator: cairo 1.16.0 (https://cairographics.org)
%%CreationDate: Fri Nov 29 10:41:11 2019
%%Pages: 1
%%DocumentData: Clean7Bit
%%LanguageLevel: 2
%%BoundingBox: 51 6 333 378
%%EndComments
%%BeginProlog
50 dict begin
/q { gsave } bind def
/Q { grestore } bind def
/cm { 6 array astore concat } bind def
/w { setlinewidth } bind def
/J { setlinecap } bind def
/j { setlinejoin } bind def
/M { setmiterlimit } bind def
/d { setdash } bind def
/m { moveto } bind def
/l { lineto } bind def
/c { curveto } bind def
/h { closepath } bind def
/re { exch dup neg 3 1 roll 5 3 roll moveto 0 rlineto
      0 exch rlineto 0 rlineto closepath } bind def
/S { stroke } bind def
/f { fill } bind def
/f* { eofill } bind def
/n { newpath } bind def
/W { clip } bind def
/W* { eoclip } bind def
/BT { } bind def
/ET { } bind def
/BDC { mark 3 1 roll /BDC pdfmark } bind def
/EMC { mark /EMC pdfmark } bind def
/cairo_store_point { /cairo_point_y exch def /cairo_point_x exch def } def
/Tj { show currentpoint cairo_store_point } bind def
/TJ {
  {
    dup
    type /stringtype eq
    { show } { -0.001 mul 0 cairo_font_matrix dtransform rmoveto } ifelse
  } forall
  currentpoint cairo_store_point
} bind def
/cairo_selectfont { cairo_font_matrix aload pop pop pop 0 0 6 array astore
    cairo_font exch selectfont cairo_point_x cairo_point_y moveto } bind def
/Tf { pop /cairo_font exch def /cairo_font_matrix where
      { pop cairo_selectfont } if } bind def
/Td { matrix translate cairo_font_matrix matrix concatmatrix dup
      /cairo_font_matrix exch def dup 4 get exch 5 get cairo_store_point
      /cairo_font where { pop cairo_selectfont } if } bind def
/Tm { 2 copy 8 2 roll 6 array astore /cairo_font_matrix exch def
      cairo_store_point /cairo_font where { pop cairo_selectfont } if } bind def
/g { setgray } bind def
/rg { setrgbcolor } bind def
/d1 { setcachedevice } bind def
/cairo_data_source {
  CairoDataIndex CairoData length lt
    { CairoData CairoDataIndex get /CairoDataIndex CairoDataIndex 1 add def }
    { () } ifelse
} def
/cairo_flush_ascii85_file { cairo_ascii85_file status { cairo_ascii85_file flushfile } if } def
/cairo_image { image cairo_flush_ascii85_file } def
/cairo_imagemask { imagemask cairo_flush_ascii85_file } def
%%EndProlog
%%BeginSetup
%%EndSetup
%%Page: 1 1
%%BeginPageSetup
%%PageBoundingBox: 51 6 333 378
%%EndPageSetup
q 51 6 282 372 rectclip
1 0 0 -1 0 384 cm q
0.72549 0.74902 0.8 rg
76.801 6.398 m 307.199 6.398 l 321.383 6.398 332.801 17.816 332.801 32 
c 332.801 352 l 332.801 366.184 321.383 377.602 307.199 377.602 c 76.801
 377.602 l 62.617 377.602 51.199 366.184 51.199 352 c 51.199 32 l 51.199
 17.816 62.617 6.398 76.801 6.398 c h
76.801 6.398 m f
0.152941 0.435294 0.509804 rg
83.199 57.602 m 300.801 57.602 l 304.344 57.602 307.199 60.453 307.199 
64 c 307.199 320 l 307.199 323.547 304.344 326.398 300.801 326.398 c 83.199
 326.398 l 79.656 326.398 76.801 323.547 76.801 320 c 76.801 64 l 76.801
 60.453 79.656 57.602 83.199 57.602 c h
83.199 57.602 m f
0.839216 0.858824 0.890196 rg
265.695 234.238 m 267.258 233.637 268.344 232.207 268.512 230.539 c 268.711
 228.371 268.801 226.176 268.801 223.973 c 268.801 221.773 268.711 219.578
 268.512 217.406 c 268.344 215.742 267.258 214.312 265.695 213.707 c 253.32
 208.754 l 251.801 202.641 249.371 196.789 246.113 191.398 c 251.371 179.125
 l 252.035 177.59 251.789 175.812 250.734 174.516 c 249.336 172.844 247.848
 171.227 246.293 169.672 c 244.734 168.113 243.09 166.625 241.445 165.23
 c 240.148 164.172 238.375 163.926 236.84 164.59 c 224.562 169.848 l 219.172
 166.59 213.32 164.164 207.207 162.645 c 202.238 150.305 l 201.637 148.742
 200.207 147.656 198.539 147.488 c 196.398 147.289 194.203 147.199 192 147.199
 c 189.797 147.199 187.602 147.289 185.434 147.488 c 183.77 147.656 182.34
 148.742 181.734 150.305 c 176.781 162.68 l 170.668 164.199 164.816 166.629
 159.426 169.887 c 147.148 164.629 l 145.613 163.965 143.836 164.211 142.539
 165.266 c 140.871 166.664 139.25 168.152 137.695 169.707 c 136.141 171.266
 134.648 172.91 133.254 174.555 c 132.199 175.852 131.949 177.625 132.613
 179.16 c 137.875 191.438 l 134.617 196.828 132.188 202.68 130.668 208.793
 c 118.293 213.746 l 116.73 214.352 115.641 215.781 115.477 217.445 c 115.289
 219.602 115.199 221.797 115.199 224 c 115.199 226.203 115.289 228.398 115.488
 230.566 c 115.656 232.23 116.742 233.66 118.305 234.266 c 130.68 239.219
 l 132.199 245.332 134.629 251.184 137.887 256.574 c 132.629 268.852 l 131.965
 270.387 132.211 272.164 133.266 273.461 c 134.664 275.129 136.152 276.75
 137.707 278.305 c 139.266 279.859 140.91 281.352 142.555 282.746 c 143.852
 283.801 145.625 284.051 147.16 283.387 c 159.438 278.125 l 164.828 281.383
 170.68 283.812 176.793 285.332 c 181.746 297.707 l 182.352 299.27 183.781
 300.359 185.445 300.523 c 187.617 300.723 189.812 300.812 192.012 300.812
 c 194.215 300.812 196.41 300.723 198.578 300.523 c 200.246 300.359 201.676
 299.27 202.277 297.707 c 207.23 285.332 l 213.348 283.812 219.195 281.383
 224.59 278.125 c 236.863 283.387 l 238.398 284.051 240.176 283.801 241.473
 282.746 c 243.141 281.352 244.762 279.859 246.316 278.305 c 247.871 276.75
 249.363 275.105 250.758 273.461 c 251.816 272.164 252.062 270.387 251.398
 268.852 c 246.137 256.574 l 249.395 251.184 251.824 245.332 253.344 239.219
 c h
265.695 234.238 m f
0.8 0.815686 0.854902 rg
230.398 224 m 230.398 245.207 213.207 262.398 192 262.398 c 170.793 262.398
 153.602 245.207 153.602 224 c 153.602 202.793 170.793 185.602 192 185.602
 c 213.207 185.602 230.398 202.793 230.398 224 c h
230.398 224 m f
0.537255 0.568627 0.627451 rg
166.398 38.398 m 160 38.398 l 156.465 38.398 153.602 35.535 153.602 32 
c 153.602 28.465 156.465 25.602 160 25.602 c 166.398 25.602 l 169.934 25.602
 172.801 28.465 172.801 32 c 172.801 35.535 169.934 38.398 166.398 38.398
 c h
166.398 38.398 m f
224 38.398 m 192 38.398 l 188.465 38.398 185.602 35.535 185.602 32 c 185.602
 28.465 188.465 25.602 192 25.602 c 224 25.602 l 227.535 25.602 230.398 
28.465 230.398 32 c 230.398 35.535 227.535 38.398 224 38.398 c h
224 38.398 m f
204.801 358.398 m 179.199 358.398 l 175.664 358.398 172.801 355.535 172.801
 352 c 172.801 348.465 175.664 345.602 179.199 345.602 c 204.801 345.602
 l 208.336 345.602 211.199 348.465 211.199 352 c 211.199 355.535 208.336
 358.398 204.801 358.398 c h
204.801 358.398 m f
0.117647 0.313726 0.356863 rg
160 128 m 158.305 128 156.676 127.324 155.477 126.125 c 136.273 106.926
 l 133.777 104.426 133.777 100.375 136.273 97.875 c 155.477 78.676 l 157.988
 76.25 161.977 76.285 164.445 78.754 c 166.914 81.223 166.949 85.215 164.523
 87.727 c 149.848 102.398 l 164.523 117.074 l 166.355 118.906 166.902 121.656
 165.91 124.051 c 164.922 126.441 162.59 128 160 128 c h
160 128 m f
224 128 m 221.41 128 219.078 126.441 218.09 124.051 c 217.098 121.656 217.645
 118.906 219.477 117.074 c 234.152 102.398 l 219.477 87.727 l 217.051 85.215
 217.086 81.223 219.555 78.754 c 222.023 76.285 226.012 76.25 228.523 78.676
 c 247.727 97.875 l 250.223 100.375 250.223 104.426 247.727 106.926 c 228.523
 126.125 l 227.324 127.324 225.695 128 224 128 c h
224 128 m f
185.602 128 m 183.543 128 181.613 127.008 180.41 125.34 c 179.211 123.672
 178.883 121.527 179.531 119.578 c 192.332 81.176 l 193.449 77.82 197.078
 76.004 200.434 77.121 c 203.793 78.238 205.609 81.863 204.492 85.223 c 
191.691 123.621 l 190.82 126.242 188.363 128.008 185.602 128 c h
185.602 128 m f
0.137255 0.384314 0.439216 rg
300.801 332.801 m 83.199 332.801 l 76.129 332.801 70.398 327.07 70.398 
320 c 70.398 64 l 70.398 56.93 76.129 51.199 83.199 51.199 c 300.801 51.199
 l 307.871 51.199 313.602 56.93 313.602 64 c 313.602 320 l 313.602 327.07
 307.871 332.801 300.801 332.801 c h
83.199 64 m 83.199 320 l 300.801 320 l 300.801 64 l h
83.199 64 m f
0.72549 0.74902 0.8 rg
192 268.801 m 173.426 268.801 156.777 257.34 150.152 239.988 c 143.523 
222.637 148.289 202.996 162.133 190.609 c 163.395 189.461 165.062 188.863
 166.77 188.949 c 168.473 189.035 170.074 189.797 171.211 191.07 c 172.352
 192.344 172.934 194.02 172.832 195.723 c 172.73 197.426 171.953 199.02 
170.668 200.148 c 159.164 210.438 156.645 227.469 164.676 240.652 c 172.703
 253.832 189 259.402 203.418 253.895 c 217.836 248.387 226.27 233.371 223.469
 218.195 c 220.668 203.016 207.434 192 192 192 c 188.465 192 185.602 189.133
 185.602 185.602 c 185.602 182.066 188.465 179.199 192 179.199 c 216.742
 179.199 236.801 199.258 236.801 224 c 236.801 248.742 216.742 268.801 192
 268.801 c h
192 268.801 m f
Q Q
showpage
%%Trailer
end
%%EOF
