%!PS-Adobe-3.0 EPSF-3.0
%%Creator: cairo 1.16.0 (https://cairographics.org)
%%CreationDate: Fri Nov 29 10:41:12 2019
%%Pages: 1
%%DocumentData: Clean7Bit
%%LanguageLevel: 2
%%BoundingBox: 6 6 378 378
%%EndComments
%%BeginProlog
50 dict begin
/q { gsave } bind def
/Q { grestore } bind def
/cm { 6 array astore concat } bind def
/w { setlinewidth } bind def
/J { setlinecap } bind def
/j { setlinejoin } bind def
/M { setmiterlimit } bind def
/d { setdash } bind def
/m { moveto } bind def
/l { lineto } bind def
/c { curveto } bind def
/h { closepath } bind def
/re { exch dup neg 3 1 roll 5 3 roll moveto 0 rlineto
      0 exch rlineto 0 rlineto closepath } bind def
/S { stroke } bind def
/f { fill } bind def
/f* { eofill } bind def
/n { newpath } bind def
/W { clip } bind def
/W* { eoclip } bind def
/BT { } bind def
/ET { } bind def
/BDC { mark 3 1 roll /BDC pdfmark } bind def
/EMC { mark /EMC pdfmark } bind def
/cairo_store_point { /cairo_point_y exch def /cairo_point_x exch def } def
/Tj { show currentpoint cairo_store_point } bind def
/TJ {
  {
    dup
    type /stringtype eq
    { show } { -0.001 mul 0 cairo_font_matrix dtransform rmoveto } ifelse
  } forall
  currentpoint cairo_store_point
} bind def
/cairo_selectfont { cairo_font_matrix aload pop pop pop 0 0 6 array astore
    cairo_font exch selectfont cairo_point_x cairo_point_y moveto } bind def
/Tf { pop /cairo_font exch def /cairo_font_matrix where
      { pop cairo_selectfont } if } bind def
/Td { matrix translate cairo_font_matrix matrix concatmatrix dup
      /cairo_font_matrix exch def dup 4 get exch 5 get cairo_store_point
      /cairo_font where { pop cairo_selectfont } if } bind def
/Tm { 2 copy 8 2 roll 6 array astore /cairo_font_matrix exch def
      cairo_store_point /cairo_font where { pop cairo_selectfont } if } bind def
/g { setgray } bind def
/rg { setrgbcolor } bind def
/d1 { setcachedevice } bind def
/cairo_data_source {
  CairoDataIndex CairoData length lt
    { CairoData CairoDataIndex get /CairoDataIndex CairoDataIndex 1 add def }
    { () } ifelse
} def
/cairo_flush_ascii85_file { cairo_ascii85_file status { cairo_ascii85_file flushfile } if } def
/cairo_image { image cairo_flush_ascii85_file } def
/cairo_imagemask { imagemask cairo_flush_ascii85_file } def
%%EndProlog
%%BeginSetup
%%EndSetup
%%Page: 1 1
%%BeginPageSetup
%%PageBoundingBox: 6 6 378 378
%%EndPageSetup
q 6 6 372 372 rectclip
1 0 0 -1 0 384 cm q
0.858824 g
211.199 12.801 m 211.199 268.801 l 211.199 272.336 208.336 275.199 204.801
 275.199 c 12.801 275.199 l 9.266 275.199 6.398 272.336 6.398 268.801 c 
6.398 62.898 l 6.402 59.504 7.75 56.25 10.152 53.848 c 53.848 10.152 l 56.25
 7.75 59.504 6.402 62.898 6.398 c 204.801 6.398 l 208.336 6.398 211.199 
9.266 211.199 12.801 c h
211.199 12.801 m f
0.756863 g
57.602 7.551 m 57.602 51.199 l 57.602 54.734 54.734 57.602 51.199 57.602
 c 7.551 57.602 l 8.195 56.195 9.082 54.914 10.176 53.824 c 53.824 10.176
 l 54.914 9.082 56.195 8.195 57.602 7.551 c h
57.602 7.551 m f
0.72549 0.74902 0.8 rg
373.461 288.891 m 375.539 288.078 376.988 286.176 377.215 283.957 c 377.477
 281.062 377.602 278.133 377.602 275.199 c 377.602 272.27 377.477 269.336
 377.215 266.445 c 376.988 264.227 375.539 262.32 373.461 261.512 c 356.961
 254.906 l 354.938 246.754 351.699 238.953 347.359 231.762 c 354.398 215.406
 l 355.297 213.359 354.977 210.984 353.566 209.254 c 351.707 207.027 349.727
 204.863 347.648 202.789 c 345.566 200.719 343.41 198.734 341.184 196.871
 c 339.453 195.461 337.078 195.141 335.035 196.039 c 318.676 203.078 l 311.484
 198.738 303.684 195.5 295.531 193.477 c 288.93 176.98 l 288.117 174.898
 286.215 173.449 283.992 173.223 c 281.102 172.961 278.168 172.84 275.238
 172.84 c 272.309 172.84 269.375 172.961 266.484 173.223 c 264.266 173.449
 262.359 174.898 261.547 176.98 c 254.945 193.477 l 246.793 195.5 238.992
 198.738 231.801 203.078 c 215.441 196.039 l 213.398 195.141 211.023 195.461
 209.293 196.871 c 207.066 198.734 204.902 200.711 202.828 202.789 c 200.754
 204.871 198.77 207.027 196.91 209.254 c 195.5 210.984 195.18 213.359 196.078
 215.406 c 203.117 231.762 l 198.777 238.953 195.539 246.754 193.516 254.906
 c 177.02 261.512 l 174.938 262.32 173.488 264.227 173.262 266.445 c 173
 269.336 172.875 272.27 172.875 275.199 c 172.875 278.133 173 281.062 173.262
 283.957 c 173.488 286.176 174.938 288.078 177.02 288.891 c 193.516 295.496
 l 195.539 303.645 198.777 311.445 203.117 318.637 c 196.078 334.996 l 195.18
 337.039 195.5 339.414 196.91 341.145 c 198.77 343.371 200.75 345.535 202.828
 347.609 c 204.91 349.684 207.066 351.668 209.293 353.531 c 211.023 354.938
 213.398 355.258 215.441 354.363 c 231.801 347.32 l 238.992 351.664 246.793
 354.898 254.945 356.922 c 261.547 373.422 l 262.359 375.5 264.266 376.949
 266.484 377.176 c 269.375 377.441 272.309 377.562 275.238 377.562 c 278.168
 377.562 281.102 377.441 283.992 377.176 c 286.215 376.949 288.117 375.5
 288.93 373.422 c 295.531 356.922 l 303.684 354.898 311.484 351.664 318.676
 347.32 c 335.035 354.363 l 337.078 355.258 339.453 354.938 341.184 353.531
 c 343.41 351.668 345.574 349.691 347.648 347.609 c 349.723 345.531 351.707
 343.371 353.566 341.145 c 354.977 339.414 355.297 337.039 354.398 334.996
 c 347.359 318.637 l 351.699 311.445 354.938 303.645 356.961 295.496 c h
373.461 288.891 m f
0.537255 0.568627 0.627451 rg
332.801 275.199 m 332.801 307.012 307.012 332.801 275.199 332.801 c 243.387
 332.801 217.602 307.012 217.602 275.199 c 217.602 243.387 243.387 217.602
 275.199 217.602 c 307.012 217.602 332.801 243.387 332.801 275.199 c h
332.801 275.199 m f
0.72549 0.74902 0.8 rg
307.199 275.199 m 307.199 292.875 292.875 307.199 275.199 307.199 c 257.527
 307.199 243.199 292.875 243.199 275.199 c 243.199 257.527 257.527 243.199
 275.199 243.199 c 292.875 243.199 307.199 257.527 307.199 275.199 c h
307.199 275.199 m f
0.666667 g
57.602 83.199 m 54.066 83.199 51.199 86.066 51.199 89.602 c 51.199 102.398
 l 38.398 102.398 l 38.398 89.602 l 38.398 86.066 35.535 83.199 32 83.199
 c 28.465 83.199 25.602 86.066 25.602 89.602 c 25.602 128 l 25.602 131.535
 28.465 134.398 32 134.398 c 35.535 134.398 38.398 131.535 38.398 128 c 
38.398 115.199 l 51.199 115.199 l 51.199 128 l 51.199 131.535 54.066 134.398
 57.602 134.398 c 61.133 134.398 64 131.535 64 128 c 64 89.602 l 64 86.066
 61.133 83.199 57.602 83.199 c h
57.602 83.199 m f
96 83.199 m 83.199 83.199 l 79.664 83.199 76.801 86.066 76.801 89.602 c
 76.801 93.133 79.664 96 83.199 96 c 83.199 128 l 83.199 131.535 86.066 
134.398 89.602 134.398 c 93.133 134.398 96 131.535 96 128 c 96 96 l 99.535
 96 102.398 93.133 102.398 89.602 c 102.398 86.066 99.535 83.199 96 83.199
 c h
96 83.199 m f
149.055 83.477 m 146.359 82.656 143.445 83.695 141.875 86.035 c 134.398
 97.281 l 126.926 86.066 l 125.363 83.723 122.449 82.676 119.754 83.488 
c 117.055 84.301 115.207 86.781 115.199 89.602 c 115.199 128 l 115.199 131.535
 118.066 134.398 121.602 134.398 c 125.133 134.398 128 131.535 128 128 c
 128 110.719 l 129.074 112.332 l 130.332 114.012 132.305 115 134.398 115
 c 136.496 115 138.469 114.012 139.727 112.332 c 140.801 110.719 l 140.801
 128 l 140.801 131.535 143.664 134.398 147.199 134.398 c 150.734 134.398
 153.602 131.535 153.602 128 c 153.602 89.602 l 153.602 86.781 151.754 84.293
 149.055 83.477 c h
149.055 83.477 m f
185.602 121.602 m 179.199 121.602 l 179.199 89.602 l 179.199 86.066 176.336
 83.199 172.801 83.199 c 169.266 83.199 166.398 86.066 166.398 89.602 c 
166.398 128 l 166.398 131.535 169.266 134.398 172.801 134.398 c 185.602 
134.398 l 189.133 134.398 192 131.535 192 128 c 192 124.465 189.133 121.602
 185.602 121.602 c h
185.602 121.602 m f
1 g
38.398 166.398 m 32 166.398 l 28.465 166.398 25.602 163.535 25.602 160 
c 25.602 156.465 28.465 153.602 32 153.602 c 38.398 153.602 l 41.934 153.602
 44.801 156.465 44.801 160 c 44.801 163.535 41.934 166.398 38.398 166.398
 c h
38.398 166.398 m f
38.398 192 m 32 192 l 28.465 192 25.602 189.133 25.602 185.602 c 25.602
 182.066 28.465 179.199 32 179.199 c 38.398 179.199 l 41.934 179.199 44.801
 182.066 44.801 185.602 c 44.801 189.133 41.934 192 38.398 192 c h
38.398 192 m f
38.398 217.602 m 32 217.602 l 28.465 217.602 25.602 214.734 25.602 211.199
 c 25.602 207.664 28.465 204.801 32 204.801 c 38.398 204.801 l 41.934 204.801
 44.801 207.664 44.801 211.199 c 44.801 214.734 41.934 217.602 38.398 217.602
 c h
38.398 217.602 m f
38.398 243.199 m 32 243.199 l 28.465 243.199 25.602 240.336 25.602 236.801
 c 25.602 233.266 28.465 230.398 32 230.398 c 38.398 230.398 l 41.934 230.398
 44.801 233.266 44.801 236.801 c 44.801 240.336 41.934 243.199 38.398 243.199
 c h
38.398 243.199 m f
0.168627 0.713726 0.909804 rg
96 166.398 m 64 166.398 l 60.465 166.398 57.602 163.535 57.602 160 c 57.602
 156.465 60.465 153.602 64 153.602 c 96 153.602 l 99.535 153.602 102.398
 156.465 102.398 160 c 102.398 163.535 99.535 166.398 96 166.398 c h
96 166.398 m f
96 217.602 m 64 217.602 l 60.465 217.602 57.602 214.734 57.602 211.199 
c 57.602 207.664 60.465 204.801 64 204.801 c 96 204.801 l 99.535 204.801
 102.398 207.664 102.398 211.199 c 102.398 214.734 99.535 217.602 96 217.602
 c h
96 217.602 m f
128 192 m 64 192 l 60.465 192 57.602 189.133 57.602 185.602 c 57.602 182.066
 60.465 179.199 64 179.199 c 128 179.199 l 131.535 179.199 134.398 182.066
 134.398 185.602 c 134.398 189.133 131.535 192 128 192 c h
128 192 m f
0.619608 0.509804 0.92549 rg
134.398 166.398 m 121.602 166.398 l 118.066 166.398 115.199 163.535 115.199
 160 c 115.199 156.465 118.066 153.602 121.602 153.602 c 134.398 153.602
 l 137.934 153.602 140.801 156.465 140.801 160 c 140.801 163.535 137.934
 166.398 134.398 166.398 c h
134.398 166.398 m f
160 192 m 153.602 192 l 150.066 192 147.199 189.133 147.199 185.602 c 147.199
 182.066 150.066 179.199 153.602 179.199 c 160 179.199 l 163.535 179.199
 166.398 182.066 166.398 185.602 c 166.398 189.133 163.535 192 160 192 c
 h
160 192 m f
0.168627 0.713726 0.909804 rg
70.398 243.199 m 64 243.199 l 60.465 243.199 57.602 240.336 57.602 236.801
 c 57.602 233.266 60.465 230.398 64 230.398 c 70.398 230.398 l 73.934 230.398
 76.801 233.266 76.801 236.801 c 76.801 240.336 73.934 243.199 70.398 243.199
 c h
70.398 243.199 m f
0.619608 0.509804 0.92549 rg
115.199 243.199 m 96 243.199 l 92.465 243.199 89.602 240.336 89.602 236.801
 c 89.602 233.266 92.465 230.398 96 230.398 c 115.199 230.398 l 118.734 
230.398 121.602 233.266 121.602 236.801 c 121.602 240.336 118.734 243.199
 115.199 243.199 c h
115.199 243.199 m f
Q Q
showpage
%%Trailer
end
%%EOF
