%!PS-Adobe-3.0 EPSF-3.0
%%Creator: cairo 1.16.0 (https://cairographics.org)
%%CreationDate: Fri Nov 29 10:41:12 2019
%%Pages: 1
%%DocumentData: Clean7Bit
%%LanguageLevel: 2
%%BoundingBox: 6 6 378 378
%%EndComments
%%BeginProlog
50 dict begin
/q { gsave } bind def
/Q { grestore } bind def
/cm { 6 array astore concat } bind def
/w { setlinewidth } bind def
/J { setlinecap } bind def
/j { setlinejoin } bind def
/M { setmiterlimit } bind def
/d { setdash } bind def
/m { moveto } bind def
/l { lineto } bind def
/c { curveto } bind def
/h { closepath } bind def
/re { exch dup neg 3 1 roll 5 3 roll moveto 0 rlineto
      0 exch rlineto 0 rlineto closepath } bind def
/S { stroke } bind def
/f { fill } bind def
/f* { eofill } bind def
/n { newpath } bind def
/W { clip } bind def
/W* { eoclip } bind def
/BT { } bind def
/ET { } bind def
/BDC { mark 3 1 roll /BDC pdfmark } bind def
/EMC { mark /EMC pdfmark } bind def
/cairo_store_point { /cairo_point_y exch def /cairo_point_x exch def } def
/Tj { show currentpoint cairo_store_point } bind def
/TJ {
  {
    dup
    type /stringtype eq
    { show } { -0.001 mul 0 cairo_font_matrix dtransform rmoveto } ifelse
  } forall
  currentpoint cairo_store_point
} bind def
/cairo_selectfont { cairo_font_matrix aload pop pop pop 0 0 6 array astore
    cairo_font exch selectfont cairo_point_x cairo_point_y moveto } bind def
/Tf { pop /cairo_font exch def /cairo_font_matrix where
      { pop cairo_selectfont } if } bind def
/Td { matrix translate cairo_font_matrix matrix concatmatrix dup
      /cairo_font_matrix exch def dup 4 get exch 5 get cairo_store_point
      /cairo_font where { pop cairo_selectfont } if } bind def
/Tm { 2 copy 8 2 roll 6 array astore /cairo_font_matrix exch def
      cairo_store_point /cairo_font where { pop cairo_selectfont } if } bind def
/g { setgray } bind def
/rg { setrgbcolor } bind def
/d1 { setcachedevice } bind def
/cairo_data_source {
  CairoDataIndex CairoData length lt
    { CairoData CairoDataIndex get /CairoDataIndex CairoDataIndex 1 add def }
    { () } ifelse
} def
/cairo_flush_ascii85_file { cairo_ascii85_file status { cairo_ascii85_file flushfile } if } def
/cairo_image { image cairo_flush_ascii85_file } def
/cairo_imagemask { imagemask cairo_flush_ascii85_file } def
%%EndProlog
%%BeginSetup
%%EndSetup
%%Page: 1 1
%%BeginPageSetup
%%PageBoundingBox: 6 6 378 378
%%EndPageSetup
q 6 6 372 372 rectclip
1 0 0 -1 0 384 cm q
0.298039 g
217.602 249.602 m 224 249.602 l 242.801 249.555 260.961 256.434 275.008
 268.93 c 300.801 288 l 300.801 371.199 l 300.801 374.734 297.934 377.602
 294.398 377.602 c 12.801 377.602 l 9.266 377.602 6.398 374.734 6.398 371.199
 c 6.398 326.398 l 6.398 283.984 40.785 249.602 83.199 249.602 c h
217.602 249.602 m f
1 g
217.602 249.602 m 217.602 249.602 217.602 353.602 179.199 377.602 c 128
 377.602 l 89.602 361.602 89.602 249.602 89.602 249.602 c h
217.602 249.602 m f
0.54902 0.34902 0.235294 rg
192 211.406 m 192 262.398 l 115.199 262.398 l 115.199 211.199 l h
192 211.406 m f
0.92549 0.227451 0.282353 rg
125.246 278.848 m 140.801 294.398 l 166.398 294.398 l 181.953 278.848 l
 185.602 262.398 l 121.602 262.398 l h
125.246 278.848 m f
0.85098 0.160784 0.211765 rg
179.199 377.602 m 166.398 294.398 l 140.801 294.398 l 128 377.602 l h
179.199 377.602 m f
0.941176 0.94902 0.960784 rg
153.602 262.398 m 138.383 262.746 125.277 273.23 121.602 288 c 121.602 
288 89.602 275.199 89.602 249.602 c 96 236.801 115.199 236.801 115.199 236.801
 c 115.199 236.801 121.602 256 153.602 262.398 c h
153.602 262.398 m f
153.602 262.398 m 168.816 262.746 181.922 273.23 185.602 288 c 185.602 
288 217.602 275.199 217.602 249.602 c 211.199 236.801 192 236.801 192 236.801
 c 192 236.801 185.602 256 153.602 262.398 c h
153.602 262.398 m f
0.627451 0.411765 0.294118 rg
166.398 6.398 m 201.746 6.398 230.398 35.055 230.398 70.398 c 230.398 109.312
 l 230.398 108.031 230.656 94.336 240.129 90.945 c 243.812 89.582 247.934
 90.145 251.117 92.441 c 254.301 94.742 256.133 98.473 256 102.398 c 256
 117.953 256 126.91 249.984 139.07 c 247.277 144.77 242.195 148.984 236.098
 150.594 c 233.605 151.367 231.863 153.617 231.742 156.223 c 229.375 197.707
 195.152 230.195 153.602 230.398 c 132.789 230.395 112.852 222.051 98.238
 207.23 c 84.719 193.551 76.625 175.426 75.457 156.223 c 75.336 153.617 
73.598 151.367 71.105 150.594 c 65.004 148.984 59.926 144.77 57.215 139.07
 c 51.199 126.91 51.199 117.953 51.199 102.398 c 51.066 98.473 52.898 94.742
 56.082 92.441 c 59.266 90.145 63.387 89.582 67.07 90.945 c 76.543 94.336
 76.801 108.031 76.801 109.312 c 76.801 70.398 l 76.801 35.055 105.453 6.398
 140.801 6.398 c h
166.398 6.398 m f
0.662745 0.862745 0.384314 rg
377.602 294.398 m 377.602 281.602 l 377.602 278.066 374.734 275.199 371.199
 275.199 c 371.199 268.801 l 256 268.801 l 256 275.199 l 252.465 275.199
 249.602 278.066 249.602 281.602 c 249.602 294.398 l 249.602 297.934 252.465
 300.801 256 300.801 c 252.465 300.801 249.602 303.664 249.602 307.199 c
 249.602 320 l 249.602 323.535 252.465 326.398 256 326.398 c 252.465 326.398
 249.602 329.266 249.602 332.801 c 249.602 345.602 l 249.602 349.133 252.465
 352 256 352 c 252.465 352 249.602 354.867 249.602 358.398 c 249.602 371.199
 l 249.602 374.734 252.465 377.602 256 377.602 c 371.199 377.602 l 374.734
 377.602 377.602 374.734 377.602 371.199 c 377.602 358.398 l 377.602 354.867
 374.734 352 371.199 352 c 374.734 352 377.602 349.133 377.602 345.602 c
 377.602 332.801 l 377.602 329.266 374.734 326.398 371.199 326.398 c 374.734
 326.398 377.602 323.535 377.602 320 c 377.602 307.199 l 377.602 303.664
 374.734 300.801 371.199 300.801 c 374.734 300.801 377.602 297.934 377.602
 294.398 c h
377.602 294.398 m f
0.635294 0.807843 0.356863 rg
256 275.199 m 371.199 275.199 l 374.746 275.199 377.602 278.055 377.602
 281.602 c 377.602 294.398 l 377.602 297.945 374.746 300.801 371.199 300.801
 c 256 300.801 l 252.453 300.801 249.602 297.945 249.602 294.398 c 249.602
 281.602 l 249.602 278.055 252.453 275.199 256 275.199 c h
256 275.199 m f
256 326.398 m 371.199 326.398 l 374.746 326.398 377.602 329.254 377.602
 332.801 c 377.602 345.602 l 377.602 349.145 374.746 352 371.199 352 c 256
 352 l 252.453 352 249.602 349.145 249.602 345.602 c 249.602 332.801 l 249.602
 329.254 252.453 326.398 256 326.398 c h
256 326.398 m f
0.662745 0.862745 0.384314 rg
256 185.602 m 371.199 185.602 l 374.746 185.602 377.602 188.453 377.602
 192 c 377.602 268.801 l 377.602 272.344 374.746 275.199 371.199 275.199
 c 256 275.199 l 252.453 275.199 249.602 272.344 249.602 268.801 c 249.602
 192 l 249.602 188.453 252.453 185.602 256 185.602 c h
256 185.602 m f
0.576471 0.729412 0.329412 rg
326.398 230.398 m 326.398 237.469 320.668 243.199 313.602 243.199 c 306.531
 243.199 300.801 237.469 300.801 230.398 c 300.801 223.332 306.531 217.602
 313.602 217.602 c 320.668 217.602 326.398 223.332 326.398 230.398 c h
326.398 230.398 m f
275.199 185.602 m 275.199 199.738 263.738 211.199 249.602 211.199 c 249.602
 192 l 249.602 188.465 252.465 185.602 256 185.602 c h
275.199 185.602 m f
377.602 192 m 377.602 211.199 l 363.461 211.199 352 199.738 352 185.602
 c 371.199 185.602 l 374.734 185.602 377.602 188.465 377.602 192 c h
377.602 192 m f
275.199 275.199 m 256 275.199 l 252.465 275.199 249.602 272.336 249.602
 268.801 c 249.602 249.602 l 263.738 249.602 275.199 261.062 275.199 275.199
 c h
275.199 275.199 m f
377.602 249.602 m 377.602 268.801 l 377.602 272.336 374.734 275.199 371.199
 275.199 c 352 275.199 l 352 261.062 363.461 249.602 377.602 249.602 c h
377.602 249.602 m f
0.678431 0.466667 0.376471 rg
102.398 76.801 m 98.867 76.801 96 73.934 96 70.398 c 96.031 45.672 116.07
 25.633 140.801 25.602 c 144.336 25.602 147.199 28.465 147.199 32 c 147.199
 35.535 144.336 38.398 140.801 38.398 c 123.137 38.422 108.82 52.734 108.801
 70.398 c 108.801 73.934 105.934 76.801 102.398 76.801 c h
102.398 76.801 m f
0.576471 0.729412 0.329412 rg
275.199 243.199 m 271.664 243.199 268.801 240.336 268.801 236.801 c 268.801
 224 l 268.801 220.465 271.664 217.602 275.199 217.602 c 278.734 217.602
 281.602 220.465 281.602 224 c 281.602 236.801 l 281.602 240.336 278.734
 243.199 275.199 243.199 c h
275.199 243.199 m f
352 243.199 m 348.465 243.199 345.602 240.336 345.602 236.801 c 345.602
 224 l 345.602 220.465 348.465 217.602 352 217.602 c 355.535 217.602 358.398
 220.465 358.398 224 c 358.398 236.801 l 358.398 240.336 355.535 243.199
 352 243.199 c h
352 243.199 m f
Q Q
showpage
%%Trailer
end
%%EOF
