%!PS-Adobe-3.0 EPSF-3.0
%%Creator: cairo 1.16.0 (https://cairographics.org)
%%CreationDate: Fri Nov 29 10:41:13 2019
%%Pages: 1
%%DocumentData: Clean7Bit
%%LanguageLevel: 2
%%BoundingBox: 51 6 333 378
%%EndComments
%%BeginProlog
50 dict begin
/q { gsave } bind def
/Q { grestore } bind def
/cm { 6 array astore concat } bind def
/w { setlinewidth } bind def
/J { setlinecap } bind def
/j { setlinejoin } bind def
/M { setmiterlimit } bind def
/d { setdash } bind def
/m { moveto } bind def
/l { lineto } bind def
/c { curveto } bind def
/h { closepath } bind def
/re { exch dup neg 3 1 roll 5 3 roll moveto 0 rlineto
      0 exch rlineto 0 rlineto closepath } bind def
/S { stroke } bind def
/f { fill } bind def
/f* { eofill } bind def
/n { newpath } bind def
/W { clip } bind def
/W* { eoclip } bind def
/BT { } bind def
/ET { } bind def
/BDC { mark 3 1 roll /BDC pdfmark } bind def
/EMC { mark /EMC pdfmark } bind def
/cairo_store_point { /cairo_point_y exch def /cairo_point_x exch def } def
/Tj { show currentpoint cairo_store_point } bind def
/TJ {
  {
    dup
    type /stringtype eq
    { show } { -0.001 mul 0 cairo_font_matrix dtransform rmoveto } ifelse
  } forall
  currentpoint cairo_store_point
} bind def
/cairo_selectfont { cairo_font_matrix aload pop pop pop 0 0 6 array astore
    cairo_font exch selectfont cairo_point_x cairo_point_y moveto } bind def
/Tf { pop /cairo_font exch def /cairo_font_matrix where
      { pop cairo_selectfont } if } bind def
/Td { matrix translate cairo_font_matrix matrix concatmatrix dup
      /cairo_font_matrix exch def dup 4 get exch 5 get cairo_store_point
      /cairo_font where { pop cairo_selectfont } if } bind def
/Tm { 2 copy 8 2 roll 6 array astore /cairo_font_matrix exch def
      cairo_store_point /cairo_font where { pop cairo_selectfont } if } bind def
/g { setgray } bind def
/rg { setrgbcolor } bind def
/d1 { setcachedevice } bind def
/cairo_data_source {
  CairoDataIndex CairoData length lt
    { CairoData CairoDataIndex get /CairoDataIndex CairoDataIndex 1 add def }
    { () } ifelse
} def
/cairo_flush_ascii85_file { cairo_ascii85_file status { cairo_ascii85_file flushfile } if } def
/cairo_image { image cairo_flush_ascii85_file } def
/cairo_imagemask { imagemask cairo_flush_ascii85_file } def
%%EndProlog
%%BeginSetup
%%EndSetup
%%Page: 1 1
%%BeginPageSetup
%%PageBoundingBox: 51 6 333 378
%%EndPageSetup
q 51 6 282 372 rectclip
1 0 0 -1 0 384 cm q
0.988235 0.756863 0.0392157 rg
214.738 376.914 m 201.262 370.176 l 199.461 369.277 197.34 369.277 195.539
 370.176 c 182.062 376.914 l 180.078 377.906 177.727 377.801 175.84 376.637
 c 173.953 375.473 172.805 373.418 172.801 371.199 c 172.801 326.398 l 224
 326.398 l 224 371.199 l 223.996 373.418 222.848 375.473 220.961 376.637
 c 219.074 377.801 216.723 377.906 214.738 376.914 c h
214.738 376.914 m f
0.172549 0.494118 0.607843 rg
51.199 32 m 51.199 313.602 l 51.199 327.738 62.66 339.199 76.801 339.199
 c 326.398 339.199 l 329.934 339.199 332.801 336.336 332.801 332.801 c 332.801
 64 l 332.801 60.465 329.934 57.602 326.398 57.602 c 307.199 57.602 l h
51.199 32 m f
0.858824 g
76.801 6.398 m 300.801 6.398 l 304.336 6.398 307.199 9.266 307.199 12.801
 c 307.199 57.602 l 76.801 57.602 l 62.66 57.602 51.199 46.137 51.199 32
 c 51.199 17.863 62.66 6.398 76.801 6.398 c h
76.801 6.398 m f
0.117647 0.313726 0.356863 rg
128 96 m 281.602 96 l 285.145 96 288 98.855 288 102.398 c 288 192 l 288
 195.547 285.145 198.398 281.602 198.398 c 128 198.398 l 124.453 198.398
 121.602 195.547 121.602 192 c 121.602 102.398 l 121.602 98.855 124.453 
96 128 96 c h
128 96 m f
1 g
172.801 172.801 m 171.102 172.801 169.477 172.125 168.273 170.926 c 149.074
 151.727 l 146.578 149.227 146.578 145.176 149.074 142.676 c 168.273 123.477
 l 170.785 121.051 174.777 121.086 177.246 123.555 c 179.715 126.023 179.75
 130.012 177.324 132.523 c 162.648 147.199 l 177.324 161.875 l 179.156 163.707
 179.703 166.457 178.711 168.848 c 177.723 171.238 175.387 172.801 172.801
 172.801 c h
172.801 172.801 m f
236.801 172.801 m 234.211 172.801 231.879 171.238 230.887 168.848 c 229.898
 166.457 230.445 163.707 232.273 161.875 c 246.949 147.199 l 232.273 132.523
 l 229.852 130.012 229.883 126.023 232.352 123.555 c 234.82 121.086 238.812
 121.051 241.324 123.477 c 260.523 142.676 l 263.023 145.176 263.023 149.227
 260.523 151.727 c 241.324 170.926 l 240.125 172.125 238.496 172.801 236.801
 172.801 c h
236.801 172.801 m f
198.398 172.801 m 196.344 172.797 194.414 171.809 193.211 170.141 c 192.012
 168.473 191.684 166.328 192.332 164.379 c 205.133 125.977 l 206.25 122.621
 209.879 120.805 213.234 121.922 c 216.594 123.035 218.41 126.664 217.293
 130.023 c 204.492 168.422 l 203.621 171.043 201.164 172.809 198.398 172.801
 c h
198.398 172.801 m f
0.756863 g
172.801 38.398 m 89.602 38.398 l 86.066 38.398 83.199 35.535 83.199 32 
c 83.199 28.465 86.066 25.602 89.602 25.602 c 172.801 25.602 l 176.336 25.602
 179.199 28.465 179.199 32 c 179.199 35.535 176.336 38.398 172.801 38.398
 c h
172.801 38.398 m f
0.117647 0.313726 0.356863 rg
262.398 256 m 147.199 256 l 143.664 256 140.801 253.133 140.801 249.602
 c 140.801 246.066 143.664 243.199 147.199 243.199 c 262.398 243.199 l 265.934
 243.199 268.801 246.066 268.801 249.602 c 268.801 253.133 265.934 256 262.398
 256 c h
262.398 256 m f
236.801 288 m 172.801 288 l 169.266 288 166.398 285.133 166.398 281.602
 c 166.398 278.066 169.266 275.199 172.801 275.199 c 236.801 275.199 l 240.336
 275.199 243.199 278.066 243.199 281.602 c 243.199 285.133 240.336 288 236.801
 288 c h
236.801 288 m f
0.756863 g
275.199 38.398 m 198.398 38.398 l 194.867 38.398 192 35.535 192 32 c 192
 28.465 194.867 25.602 198.398 25.602 c 275.199 25.602 l 278.734 25.602 
281.602 28.465 281.602 32 c 281.602 35.535 278.734 38.398 275.199 38.398
 c h
275.199 38.398 m f
0.152941 0.435294 0.509804 rg
83.199 57.602 m 83.199 307.199 l 83.199 310.734 80.336 313.602 76.801 313.602
 c 73.266 313.602 70.398 310.734 70.398 307.199 c 70.398 56.77 l 72.484 
57.34 74.637 57.621 76.801 57.602 c h
83.199 57.602 m f
Q Q
showpage
%%Trailer
end
%%EOF
