%!PS-Adobe-3.0 EPSF-3.0
%%Creator: cairo 1.16.0 (https://cairographics.org)
%%CreationDate: Fri Nov 29 10:41:14 2019
%%Pages: 1
%%DocumentData: Clean7Bit
%%LanguageLevel: 2
%%BoundingBox: 6 6 378 378
%%EndComments
%%BeginProlog
50 dict begin
/q { gsave } bind def
/Q { grestore } bind def
/cm { 6 array astore concat } bind def
/w { setlinewidth } bind def
/J { setlinecap } bind def
/j { setlinejoin } bind def
/M { setmiterlimit } bind def
/d { setdash } bind def
/m { moveto } bind def
/l { lineto } bind def
/c { curveto } bind def
/h { closepath } bind def
/re { exch dup neg 3 1 roll 5 3 roll moveto 0 rlineto
      0 exch rlineto 0 rlineto closepath } bind def
/S { stroke } bind def
/f { fill } bind def
/f* { eofill } bind def
/n { newpath } bind def
/W { clip } bind def
/W* { eoclip } bind def
/BT { } bind def
/ET { } bind def
/BDC { mark 3 1 roll /BDC pdfmark } bind def
/EMC { mark /EMC pdfmark } bind def
/cairo_store_point { /cairo_point_y exch def /cairo_point_x exch def } def
/Tj { show currentpoint cairo_store_point } bind def
/TJ {
  {
    dup
    type /stringtype eq
    { show } { -0.001 mul 0 cairo_font_matrix dtransform rmoveto } ifelse
  } forall
  currentpoint cairo_store_point
} bind def
/cairo_selectfont { cairo_font_matrix aload pop pop pop 0 0 6 array astore
    cairo_font exch selectfont cairo_point_x cairo_point_y moveto } bind def
/Tf { pop /cairo_font exch def /cairo_font_matrix where
      { pop cairo_selectfont } if } bind def
/Td { matrix translate cairo_font_matrix matrix concatmatrix dup
      /cairo_font_matrix exch def dup 4 get exch 5 get cairo_store_point
      /cairo_font where { pop cairo_selectfont } if } bind def
/Tm { 2 copy 8 2 roll 6 array astore /cairo_font_matrix exch def
      cairo_store_point /cairo_font where { pop cairo_selectfont } if } bind def
/g { setgray } bind def
/rg { setrgbcolor } bind def
/d1 { setcachedevice } bind def
/cairo_data_source {
  CairoDataIndex CairoData length lt
    { CairoData CairoDataIndex get /CairoDataIndex CairoDataIndex 1 add def }
    { () } ifelse
} def
/cairo_flush_ascii85_file { cairo_ascii85_file status { cairo_ascii85_file flushfile } if } def
/cairo_image { image cairo_flush_ascii85_file } def
/cairo_imagemask { imagemask cairo_flush_ascii85_file } def
%%EndProlog
%%BeginSetup
%%EndSetup
%%Page: 1 1
%%BeginPageSetup
%%PageBoundingBox: 6 6 378 378
%%EndPageSetup
q 6 6 372 372 rectclip
1 0 0 -1 0 384 cm q
0.8 0.815686 0.854902 rg
376.895 176.129 m 376.492 172.105 373.871 168.648 370.113 167.168 c 340.16
 155.199 l 336.512 140.426 330.641 126.293 322.754 113.281 c 335.488 83.648
 l 337.129 79.922 336.535 75.594 333.953 72.449 c 330.625 68.414 326.977
 64.512 323.266 60.734 c 319.551 56.961 315.586 53.375 311.551 50.047 c 
308.406 47.465 304.078 46.871 300.352 48.512 c 270.719 61.246 l 257.707 
53.359 243.574 47.488 228.801 43.84 c 216.832 13.887 l 215.352 10.129 211.895
 7.508 207.871 7.105 c 202.625 6.594 197.312 6.398 192 6.398 c 186.688 6.398
 181.375 6.594 176.129 7.105 c 172.105 7.508 168.648 10.129 167.168 13.887
 c 155.199 43.84 l 140.426 47.488 126.293 53.359 113.281 61.246 c 83.648
 48.512 l 79.922 46.871 75.594 47.465 72.449 50.047 c 68.414 53.375 64.512
 57.023 60.734 60.734 c 56.961 64.449 53.375 68.414 50.047 72.449 c 47.465
 75.594 46.871 79.922 48.512 83.648 c 61.246 113.281 l 53.359 126.293 47.488
 140.426 43.84 155.199 c 13.887 167.168 l 10.129 168.648 7.508 172.105 7.105
 176.129 c 6.594 181.375 6.398 186.688 6.398 192 c 6.398 197.312 6.594 202.625
 7.105 207.871 c 7.508 211.895 10.129 215.352 13.887 216.832 c 43.84 228.801
 l 47.488 243.574 53.359 257.707 61.246 270.719 c 48.512 300.352 l 46.871
 304.078 47.465 308.406 50.047 311.551 c 53.375 315.586 57.023 319.488 60.734
 323.266 c 64.449 327.039 68.414 330.625 72.449 333.953 c 75.594 336.535
 79.922 337.129 83.648 335.488 c 113.281 322.754 l 126.293 330.641 140.426
 336.512 155.199 340.16 c 167.168 370.113 l 168.648 373.871 172.105 376.492
 176.129 376.895 c 181.375 377.406 186.688 377.602 192 377.602 c 197.312
 377.602 202.625 377.406 207.871 376.895 c 211.895 376.492 215.352 373.871
 216.832 370.113 c 228.801 340.16 l 243.574 336.512 257.707 330.641 270.719
 322.754 c 300.352 335.488 l 304.078 337.129 308.406 336.535 311.551 333.953
 c 315.586 330.625 319.488 326.977 323.266 323.266 c 327.039 319.551 330.625
 315.586 333.953 311.551 c 336.535 308.406 337.129 304.078 335.488 300.352
 c 322.754 270.719 l 330.641 257.707 336.512 243.574 340.16 228.801 c 370.113
 216.832 l 373.871 215.352 376.492 211.895 376.895 207.871 c 377.406 202.625
 377.602 197.312 377.602 192 c 377.602 186.688 377.406 181.375 376.895 176.129
 c h
192 307.199 m 145.406 307.199 103.398 279.133 85.57 236.086 c 67.738 193.039
 77.594 143.488 110.543 110.543 c 143.488 77.594 193.039 67.738 236.086 
85.57 c 279.133 103.398 307.199 145.406 307.199 192 c 307.105 255.582 255.582
 307.105 192 307.199 c h
192 307.199 m f
0.145098 0.639216 0.854902 rg
273.324 238.676 m 260.523 225.875 l 258.012 223.449 254.023 223.484 251.555
 225.953 c 249.086 228.422 249.051 232.414 251.477 234.926 c 253.352 236.801
 l 225.953 236.801 l 245.922 222.832 257.242 199.527 255.871 175.195 c 254.5
 150.867 240.637 128.977 219.227 117.34 c 197.816 105.703 171.906 105.977
 150.746 118.062 c 129.586 130.148 116.184 152.324 115.328 176.68 c 113.324
 174.676 l 110.812 172.25 106.82 172.285 104.352 174.754 c 101.883 177.223
 101.852 181.215 104.273 183.727 c 117.074 196.523 l 119.574 199.023 123.625
 199.023 126.125 196.523 c 138.926 183.727 l 141.352 181.215 141.316 177.223
 138.848 174.754 c 136.379 172.285 132.387 172.25 129.875 174.676 c 128.141
 176.41 l 129.273 153.41 144.004 133.297 165.59 125.281 c 187.176 117.262
 211.461 122.879 227.336 139.562 c 243.207 156.242 247.609 180.781 238.527
 201.941 c 229.445 223.102 208.629 236.812 185.602 236.801 c 121.602 236.801
 l 118.066 236.801 115.199 239.664 115.199 243.199 c 115.199 246.734 118.066
 249.602 121.602 249.602 c 253.352 249.602 l 251.477 251.477 l 250.242 252.668
 249.535 254.305 249.523 256.023 c 249.508 257.738 250.184 259.391 251.395
 260.605 c 252.609 261.816 254.262 262.492 255.977 262.477 c 257.695 262.465
 259.332 261.758 260.523 260.523 c 273.324 247.727 l 275.824 245.227 275.824
 241.176 273.324 238.676 c h
273.324 238.676 m f
0.72549 0.74902 0.8 rg
192 64 m 140.23 64 93.555 95.188 73.742 143.016 c 53.93 190.848 64.883 
245.902 101.492 282.508 c 138.098 319.117 193.152 330.07 240.984 310.258
 c 288.812 290.445 320 243.77 320 192 c 319.93 121.336 262.664 64.07 192
 64 c h
192 307.199 m 145.406 307.199 103.398 279.133 85.57 236.086 c 67.738 193.039
 77.594 143.488 110.543 110.543 c 143.488 77.594 193.039 67.738 236.086 
85.57 c 279.133 103.398 307.199 145.406 307.199 192 c 307.105 255.582 255.582
 307.105 192 307.199 c h
192 307.199 m f
Q Q
showpage
%%Trailer
end
%%EOF
