%!PS-Adobe-3.0 EPSF-3.0
%%Creator: cairo 1.16.0 (https://cairographics.org)
%%CreationDate: Fri Nov 29 10:41:14 2019
%%Pages: 1
%%DocumentData: Clean7Bit
%%LanguageLevel: 2
%%BoundingBox: 6 6 378 378
%%EndComments
%%BeginProlog
50 dict begin
/q { gsave } bind def
/Q { grestore } bind def
/cm { 6 array astore concat } bind def
/w { setlinewidth } bind def
/J { setlinecap } bind def
/j { setlinejoin } bind def
/M { setmiterlimit } bind def
/d { setdash } bind def
/m { moveto } bind def
/l { lineto } bind def
/c { curveto } bind def
/h { closepath } bind def
/re { exch dup neg 3 1 roll 5 3 roll moveto 0 rlineto
      0 exch rlineto 0 rlineto closepath } bind def
/S { stroke } bind def
/f { fill } bind def
/f* { eofill } bind def
/n { newpath } bind def
/W { clip } bind def
/W* { eoclip } bind def
/BT { } bind def
/ET { } bind def
/BDC { mark 3 1 roll /BDC pdfmark } bind def
/EMC { mark /EMC pdfmark } bind def
/cairo_store_point { /cairo_point_y exch def /cairo_point_x exch def } def
/Tj { show currentpoint cairo_store_point } bind def
/TJ {
  {
    dup
    type /stringtype eq
    { show } { -0.001 mul 0 cairo_font_matrix dtransform rmoveto } ifelse
  } forall
  currentpoint cairo_store_point
} bind def
/cairo_selectfont { cairo_font_matrix aload pop pop pop 0 0 6 array astore
    cairo_font exch selectfont cairo_point_x cairo_point_y moveto } bind def
/Tf { pop /cairo_font exch def /cairo_font_matrix where
      { pop cairo_selectfont } if } bind def
/Td { matrix translate cairo_font_matrix matrix concatmatrix dup
      /cairo_font_matrix exch def dup 4 get exch 5 get cairo_store_point
      /cairo_font where { pop cairo_selectfont } if } bind def
/Tm { 2 copy 8 2 roll 6 array astore /cairo_font_matrix exch def
      cairo_store_point /cairo_font where { pop cairo_selectfont } if } bind def
/g { setgray } bind def
/rg { setrgbcolor } bind def
/d1 { setcachedevice } bind def
/cairo_data_source {
  CairoDataIndex CairoData length lt
    { CairoData CairoDataIndex get /CairoDataIndex CairoDataIndex 1 add def }
    { () } ifelse
} def
/cairo_flush_ascii85_file { cairo_ascii85_file status { cairo_ascii85_file flushfile } if } def
/cairo_image { image cairo_flush_ascii85_file } def
/cairo_imagemask { imagemask cairo_flush_ascii85_file } def
%%EndProlog
%%BeginSetup
%%EndSetup
%%Page: 1 1
%%BeginPageSetup
%%PageBoundingBox: 6 6 378 378
%%EndPageSetup
q 6 6 372 372 rectclip
1 0 0 -1 0 384 cm q
0.686275 0.709804 0.74902 rg
108.801 288 140.801 44.801 re f
0.8 0.815686 0.854902 rg
108.801 326.398 m 67.199 350.156 l 65.215 351.301 63.996 353.422 64 355.711
 c 64 371.199 l 64 374.734 66.867 377.602 70.398 377.602 c 249.602 377.602
 l 249.602 326.398 l h
108.801 326.398 m f
364.801 249.602 m 364.801 300.801 l 25.602 300.801 l 14.996 300.801 6.398
 292.203 6.398 281.602 c 6.398 249.602 l 12.801 243.199 l 358.398 243.199
 l h
364.801 249.602 m f
0.686275 0.709804 0.74902 rg
249.602 352 m 249.602 377.602 l 70.398 377.602 l 66.867 377.602 64 374.734
 64 371.199 c 64 355.711 l 64.008 354.379 64.434 353.082 65.215 352 c h
249.602 352 m f
0.172549 0.494118 0.607843 rg
364.801 25.602 m 364.801 249.602 l 6.398 249.602 l 6.398 25.602 l 6.398
 14.996 14.996 6.398 25.602 6.398 c 345.602 6.398 l 356.203 6.398 364.801
 14.996 364.801 25.602 c h
364.801 25.602 m f
0.839216 0.858824 0.890196 rg
195.035 151.922 m 196.723 151.266 197.902 149.719 198.094 147.918 c 198.305
 145.566 198.398 143.18 198.398 140.801 c 198.398 138.418 198.305 136.031
 198.094 133.684 c 197.902 131.879 196.723 130.332 195.035 129.676 c 181.625
 124.312 l 179.984 117.688 177.355 111.348 173.816 105.512 c 179.52 92.211
 l 180.246 90.551 179.984 88.625 178.84 87.219 c 177.332 85.406 175.719 
83.656 174.027 81.973 c 172.34 80.289 170.594 78.668 168.781 77.16 c 167.375
 76.016 165.445 75.754 163.781 76.48 c 150.488 82.184 l 144.652 78.648 138.312
 76.016 131.688 74.375 c 126.324 60.934 l 125.668 59.246 124.121 58.062 
122.316 57.875 c 119.969 57.695 117.582 57.602 115.199 57.602 c 112.82 57.602
 110.434 57.695 108.082 57.906 c 106.281 58.098 104.734 59.277 104.078 60.965
 c 98.715 74.406 l 92.09 76.047 85.75 78.68 79.91 82.215 c 66.617 76.512
 l 64.957 75.785 63.027 76.047 61.621 77.191 c 59.809 78.699 58.055 80.312
 56.371 82.004 c 54.688 83.691 53.07 85.441 51.559 87.25 c 50.414 88.656
 50.152 90.582 50.879 92.242 c 56.582 105.543 l 53.047 111.379 50.414 117.719
 48.773 124.344 c 35.336 129.707 l 33.645 130.367 32.465 131.91 32.273 133.715
 c 32.098 136.031 32 138.418 32 140.801 c 32 143.18 32.098 145.566 32.309
 147.918 c 32.496 149.719 33.676 151.266 35.367 151.922 c 48.805 157.285
 l 50.445 163.91 53.078 170.25 56.613 176.09 c 50.879 189.391 l 50.152 191.047
 50.414 192.977 51.559 194.379 c 53.07 196.191 54.68 197.945 56.371 199.629
 c 58.062 201.312 59.809 202.93 61.621 204.441 c 63.027 205.586 64.957 205.848
 66.617 205.121 c 79.91 199.418 l 85.75 202.953 92.09 205.586 98.715 207.227
 c 104.078 220.633 l 104.734 222.324 106.281 223.504 108.082 223.691 c 110.434
 223.902 112.82 224 115.199 224 c 117.582 224 119.969 223.902 122.316 223.691
 c 124.121 223.504 125.668 222.324 126.324 220.633 c 131.688 207.227 l 138.312
 205.586 144.652 202.953 150.488 199.418 c 163.781 205.121 l 165.445 205.848
 167.375 205.586 168.781 204.441 c 170.594 202.93 172.344 201.32 174.027
 199.629 c 175.711 197.938 177.332 196.191 178.84 194.379 c 179.984 192.977
 180.246 191.047 179.52 189.391 c 173.816 176.09 l 177.352 170.25 179.984
 163.91 181.625 157.285 c h
195.035 151.922 m f
0.145098 0.639216 0.854902 rg
377.602 179.199 m 377.602 345.602 l 371.199 352 l 243.199 352 l 236.801
 345.602 l 236.801 179.199 l 243.199 172.801 l 371.199 172.801 l h
377.602 179.199 m f
0.72549 0.74902 0.8 rg
377.602 158.465 m 377.602 179.199 l 236.801 179.199 l 236.801 158.465 l
 236.812 152.246 241.848 147.211 248.062 147.199 c 366.336 147.199 l 372.551
 147.211 377.59 152.246 377.602 158.465 c h
377.602 158.465 m f
236.801 345.602 m 377.602 345.602 l 377.602 366.336 l 377.59 372.551 372.551
 377.59 366.336 377.602 c 248.062 377.602 l 241.848 377.59 236.812 372.551
 236.801 366.336 c h
236.801 345.602 m f
0.839216 0.858824 0.890196 rg
300.16 84.203 m 301.039 79.309 301.039 74.293 300.16 69.395 c 293.121 67.348
 l 292.215 63.797 290.805 60.395 288.93 57.246 c 292.453 50.848 l 289.613
 46.762 286.07 43.219 281.984 40.379 c 275.586 43.879 l 273.695 42.734 271.711
 41.758 269.652 40.961 c 268.273 40.484 266.867 40.086 265.445 39.77 c 263.406
 32.641 l 258.508 31.762 253.492 31.762 248.594 32.641 c 246.535 39.742 
l 245.113 40.062 243.707 40.461 242.328 40.934 c 240.27 41.73 238.285 42.707
 236.398 43.852 c 229.996 40.352 l 225.91 43.191 222.367 46.738 219.527 
50.824 c 223.055 57.223 l 221.18 60.371 219.766 63.77 218.859 67.32 c 211.82
 69.371 l 210.941 74.266 210.941 79.281 211.82 84.18 c 218.777 86.207 l 
219.684 89.793 221.105 93.223 223 96.398 c 219.512 102.754 l 222.359 106.859
 225.918 110.426 230.023 113.281 c 236.379 109.793 l 239.551 111.688 242.984
 113.109 246.566 114.016 c 248.594 120.973 l 253.492 121.852 258.508 121.852
 263.406 120.973 c 265.434 114.016 l 269.016 113.109 272.449 111.688 275.621
 109.793 c 281.977 113.281 l 286.078 110.434 289.633 106.879 292.48 102.777
 c 288.992 96.422 l 290.887 93.25 292.309 89.816 293.215 86.234 c h
300.16 84.203 m f
0.72549 0.74902 0.8 rg
268.801 76.801 m 268.801 83.871 263.07 89.602 256 89.602 c 248.93 89.602
 243.199 83.871 243.199 76.801 c 243.199 69.73 248.93 64 256 64 c 263.07
 64 268.801 69.73 268.801 76.801 c h
268.801 76.801 m f
0.839216 0.858824 0.890196 rg
351.359 269.805 m 352.238 264.906 352.238 259.895 351.359 254.996 c 344.32
 252.945 l 343.414 249.398 342.004 245.996 340.129 242.848 c 343.656 236.449
 l 340.816 232.363 337.27 228.816 333.184 225.977 c 326.785 229.477 l 324.895
 228.336 322.91 227.359 320.852 226.559 c 319.473 226.086 318.07 225.688
 316.645 225.371 c 314.605 218.238 l 309.707 217.359 304.691 217.359 299.797
 218.238 c 297.734 225.324 l 296.312 225.645 294.906 226.039 293.531 226.516
 c 291.469 227.312 289.484 228.289 287.598 229.434 c 281.195 225.934 l 277.113
 228.773 273.566 232.316 270.727 236.402 c 274.254 242.805 l 272.379 245.949
 270.965 249.352 270.062 252.902 c 263.02 254.949 l 262.141 259.848 262.141
 264.863 263.02 269.762 c 269.977 271.789 l 270.883 275.371 272.309 278.805
 274.203 281.977 c 270.715 288.332 l 273.559 292.449 277.117 296.02 281.223
 298.879 c 287.578 295.391 l 290.75 297.285 294.184 298.711 297.766 299.617
 c 299.797 306.574 l 304.691 307.453 309.707 307.453 314.605 306.574 c 316.633
 299.617 l 320.215 298.711 323.648 297.285 326.824 295.391 c 333.176 298.879
 l 337.277 296.035 340.836 292.477 343.68 288.379 c 340.191 282.023 l 342.086
 278.848 343.508 275.418 344.414 271.832 c h
351.359 269.805 m f
0.72549 0.74902 0.8 rg
320 262.398 m 320 269.469 314.27 275.199 307.199 275.199 c 300.129 275.199
 294.398 269.469 294.398 262.398 c 294.398 255.332 300.129 249.602 307.199
 249.602 c 314.27 249.602 320 255.332 320 262.398 c h
320 262.398 m f
0.8 0.815686 0.854902 rg
160 140.801 m 160 165.543 139.941 185.602 115.199 185.602 c 90.457 185.602
 70.398 165.543 70.398 140.801 c 70.398 116.059 90.457 96 115.199 96 c 139.941
 96 160 116.059 160 140.801 c h
160 140.801 m f
0.537255 0.568627 0.627451 rg
198.398 281.602 m 172.801 281.602 l 169.266 281.602 166.398 278.734 166.398
 275.199 c 166.398 271.664 169.266 268.801 172.801 268.801 c 198.398 268.801
 l 201.934 268.801 204.801 271.664 204.801 275.199 c 204.801 278.734 201.934
 281.602 198.398 281.602 c h
198.398 281.602 m f
0.72549 0.74902 0.8 rg
256 96 m 248.234 96 241.234 91.32 238.262 84.148 c 235.289 76.973 236.934
 68.715 242.422 63.223 c 247.914 57.73 256.172 56.09 263.348 59.062 c 270.523
 62.035 275.199 69.035 275.199 76.801 c 275.199 87.402 266.605 96 256 96
 c h
256 70.398 m 253.41 70.398 251.078 71.961 250.086 74.352 c 249.098 76.742
 249.645 79.496 251.473 81.324 c 253.305 83.156 256.059 83.703 258.449 82.711
 c 260.84 81.723 262.398 79.387 262.398 76.801 c 262.398 73.266 259.535 
70.398 256 70.398 c h
256 70.398 m f
307.199 281.602 m 299.434 281.602 292.434 276.922 289.461 269.746 c 286.488
 262.574 288.133 254.316 293.625 248.824 c 299.113 243.332 307.371 241.691
 314.547 244.66 c 321.723 247.633 326.398 254.633 326.398 262.398 c 326.398
 273.004 317.805 281.602 307.199 281.602 c h
307.199 256 m 304.613 256 302.277 257.559 301.289 259.949 c 300.297 262.344
 300.844 265.094 302.676 266.926 c 304.504 268.758 307.258 269.305 309.648
 268.312 c 312.039 267.32 313.602 264.988 313.602 262.398 c 313.602 258.867
 310.734 256 307.199 256 c h
307.199 256 m f
115.199 192 m 94.492 192 75.82 179.527 67.898 160.395 c 59.973 141.262 
64.352 119.238 78.996 104.598 c 93.641 89.953 115.66 85.574 134.793 93.496
 c 153.926 101.422 166.398 120.09 166.398 140.801 c 166.367 169.062 143.465
 191.969 115.199 192 c h
115.199 102.398 m 99.668 102.398 85.668 111.758 79.723 126.105 c 73.781
 140.453 77.066 156.969 88.047 167.953 c 99.031 178.934 115.547 182.219 
129.895 176.277 c 144.242 170.332 153.602 156.332 153.602 140.801 c 153.578
 119.602 136.398 102.422 115.199 102.398 c h
115.199 102.398 m f
Q Q
showpage
%%Trailer
end
%%EOF
