%!PS-Adobe-3.0 EPSF-3.0
%%Creator: cairo 1.16.0 (https://cairographics.org)
%%CreationDate: Fri Nov 29 10:41:14 2019
%%Pages: 1
%%DocumentData: Clean7Bit
%%LanguageLevel: 2
%%BoundingBox: 6 6 378 378
%%EndComments
%%BeginProlog
50 dict begin
/q { gsave } bind def
/Q { grestore } bind def
/cm { 6 array astore concat } bind def
/w { setlinewidth } bind def
/J { setlinecap } bind def
/j { setlinejoin } bind def
/M { setmiterlimit } bind def
/d { setdash } bind def
/m { moveto } bind def
/l { lineto } bind def
/c { curveto } bind def
/h { closepath } bind def
/re { exch dup neg 3 1 roll 5 3 roll moveto 0 rlineto
      0 exch rlineto 0 rlineto closepath } bind def
/S { stroke } bind def
/f { fill } bind def
/f* { eofill } bind def
/n { newpath } bind def
/W { clip } bind def
/W* { eoclip } bind def
/BT { } bind def
/ET { } bind def
/BDC { mark 3 1 roll /BDC pdfmark } bind def
/EMC { mark /EMC pdfmark } bind def
/cairo_store_point { /cairo_point_y exch def /cairo_point_x exch def } def
/Tj { show currentpoint cairo_store_point } bind def
/TJ {
  {
    dup
    type /stringtype eq
    { show } { -0.001 mul 0 cairo_font_matrix dtransform rmoveto } ifelse
  } forall
  currentpoint cairo_store_point
} bind def
/cairo_selectfont { cairo_font_matrix aload pop pop pop 0 0 6 array astore
    cairo_font exch selectfont cairo_point_x cairo_point_y moveto } bind def
/Tf { pop /cairo_font exch def /cairo_font_matrix where
      { pop cairo_selectfont } if } bind def
/Td { matrix translate cairo_font_matrix matrix concatmatrix dup
      /cairo_font_matrix exch def dup 4 get exch 5 get cairo_store_point
      /cairo_font where { pop cairo_selectfont } if } bind def
/Tm { 2 copy 8 2 roll 6 array astore /cairo_font_matrix exch def
      cairo_store_point /cairo_font where { pop cairo_selectfont } if } bind def
/g { setgray } bind def
/rg { setrgbcolor } bind def
/d1 { setcachedevice } bind def
/cairo_data_source {
  CairoDataIndex CairoData length lt
    { CairoData CairoDataIndex get /CairoDataIndex CairoDataIndex 1 add def }
    { () } ifelse
} def
/cairo_flush_ascii85_file { cairo_ascii85_file status { cairo_ascii85_file flushfile } if } def
/cairo_image { image cairo_flush_ascii85_file } def
/cairo_imagemask { imagemask cairo_flush_ascii85_file } def
%%EndProlog
%%BeginSetup
%%EndSetup
%%Page: 1 1
%%BeginPageSetup
%%PageBoundingBox: 6 6 378 378
%%EndPageSetup
q 6 6 372 372 rectclip
1 0 0 -1 0 384 cm q
0.298039 g
240.191 259.902 m 227.82 241.281 206.867 230.18 184.512 230.398 c 71.488
 230.398 l 36.48 230.398 6.398 256.832 6.398 291.902 c 6.398 372.289 l 6.395
 375.227 8.773 377.605 11.711 377.602 c 249.602 377.602 l h
240.191 259.902 m f
1 g
179.199 230.398 m 179.199 230.398 180.871 361.742 149.121 377.602 c 106.879
 377.602 l 75.129 367.027 76.801 230.398 76.801 230.398 c h
179.199 230.398 m f
0.54902 0.34902 0.235294 rg
96 198.398 64 44.801 re f
0.34902 0.231373 0.172549 rg
44.801 106.176 m 44.801 91.316 l 44.332 44.895 81.578 6.879 128 6.398 c
 174.422 6.879 211.668 44.895 211.199 91.316 c 211.199 106.176 l h
44.801 106.176 m f
0.941176 0.94902 0.960784 rg
128 239.027 m 128 239.027 101.285 241.281 96 262.398 c 84.664 255.602 77.461
 243.602 76.801 230.398 c 81.086 223.598 88.07 218.941 96 217.602 c 96 217.602
 101.566 233.742 128 239.027 c h
128 239.027 m f
128 239.027 m 128 239.027 154.715 241.281 160 262.398 c 171.336 255.602
 178.539 243.602 179.199 230.398 c 174.914 223.598 167.93 218.941 160 217.602
 c 160 217.602 154.434 233.742 128 239.027 c h
128 239.027 m f
0.85098 0.160784 0.211765 rg
149.145 377.602 m 140.801 275.199 l 115.199 275.199 l 106.855 377.602 l
 h
149.145 377.602 m f
0.627451 0.411765 0.294118 rg
211.199 106.176 m 212.199 116.453 210.523 126.816 206.336 136.258 c 204.141
 140.93 199.996 144.395 195.008 145.727 c 192.98 146.367 191.57 148.211 
191.488 150.336 c 190.039 184.348 162.043 211.176 128 211.176 c 93.957 211.176
 65.961 184.348 64.512 150.336 c 64.43 148.211 63.02 146.367 60.992 145.727
 c 56.004 144.395 51.859 140.93 49.664 136.258 c 45.477 126.816 43.801 116.453
 44.801 106.176 c 44.648 102.891 46.043 99.723 48.566 97.613 c 51.09 95.504
 54.457 94.691 57.664 95.426 c 60.852 96.48 63.254 99.125 64 102.398 c 64
 89.535 l 63.93 84.227 68.043 79.801 73.344 79.488 c 91.008 78.719 127.039
 72.961 146.754 59.586 c 149.105 58.074 151.988 57.633 154.688 58.367 c 
165.184 60.992 192 72.512 192 99.84 c 192 102.398 l 192.746 99.125 195.148
 96.48 198.336 95.426 c 201.543 94.691 204.91 95.504 207.434 97.613 c 209.957
 99.723 211.352 102.891 211.199 106.176 c h
211.199 106.176 m f
0.858824 g
236.801 345.602 m 198.398 345.602 l 194.867 345.602 192 348.465 192 352
 c 192 371.199 l 192 374.734 194.867 377.602 198.398 377.602 c 236.801 377.602
 l h
236.801 345.602 m f
377.602 12.801 m 377.602 128 l 377.602 131.535 374.734 134.398 371.199 
134.398 c 344.512 134.398 l 316.223 162.625 l 313.848 165.051 310.594 166.414
 307.199 166.414 c 303.805 166.414 300.551 165.051 298.176 162.625 c 269.887
 134.398 l 243.199 134.398 l 239.664 134.398 236.801 131.535 236.801 128
 c 236.801 12.801 l 236.801 9.266 239.664 6.398 243.199 6.398 c 371.199 
6.398 l 372.898 6.398 374.523 7.074 375.727 8.273 c 376.926 9.477 377.602
 11.102 377.602 12.801 c h
377.602 12.801 m f
0.92549 0.227451 0.282353 rg
151.426 248.641 m 140.801 275.199 l 115.199 275.199 l 104.574 248.641 l
 104.641 248.641 l 111.375 243.316 119.469 239.992 128 239.039 c 136.531
 239.992 144.625 243.316 151.359 248.641 c h
151.426 248.641 m f
0.756863 g
364.801 377.602 m 230.398 377.602 l 242.715 229.867 l 242.992 226.543 245.777
 223.988 249.113 224 c 370.645 224 l 372.438 223.992 374.152 224.742 375.367
 226.059 c 376.586 227.375 377.191 229.145 377.043 230.93 c h
364.801 377.602 m f
0.858824 g
322.723 274.098 m 329.277 281.262 327.664 293.406 319.117 301.223 c 310.574
 309.039 298.332 309.566 291.777 302.402 c 285.223 295.234 286.84 283.09
 295.383 275.273 c 303.93 267.457 316.172 266.93 322.723 274.098 c h
322.723 274.098 m f
0.168627 0.713726 0.909804 rg
288 115.199 m 284.465 115.199 281.602 112.336 281.602 108.801 c 281.602
 76.801 l 281.602 73.266 284.465 70.398 288 70.398 c 291.535 70.398 294.398
 73.266 294.398 76.801 c 294.398 108.801 l 294.398 112.336 291.535 115.199
 288 115.199 c h
288 115.199 m f
0.52549 0.415686 0.862745 rg
313.602 115.199 m 310.066 115.199 307.199 112.336 307.199 108.801 c 307.199
 51.199 l 307.199 47.664 310.066 44.801 313.602 44.801 c 317.133 44.801 
320 47.664 320 51.199 c 320 108.801 l 320 112.336 317.133 115.199 313.602
 115.199 c h
313.602 115.199 m f
0.85098 0.160784 0.211765 rg
339.199 115.199 m 335.664 115.199 332.801 112.336 332.801 108.801 c 332.801
 64 l 332.801 60.465 335.664 57.602 339.199 57.602 c 342.734 57.602 345.602
 60.465 345.602 64 c 345.602 108.801 l 345.602 112.336 342.734 115.199 339.199
 115.199 c h
339.199 115.199 m f
0.686275 g
313.602 339.199 m 288 339.199 l 284.465 339.199 281.602 336.336 281.602
 332.801 c 281.602 329.266 284.465 326.398 288 326.398 c 313.602 326.398
 l 317.133 326.398 320 329.266 320 332.801 c 320 336.336 317.133 339.199
 313.602 339.199 c h
313.602 339.199 m f
352 115.199 m 262.398 115.199 l 258.867 115.199 256 112.336 256 108.801
 c 256 32 l 256 28.465 258.867 25.602 262.398 25.602 c 265.934 25.602 268.801
 28.465 268.801 32 c 268.801 102.398 l 352 102.398 l 355.535 102.398 358.398
 105.266 358.398 108.801 c 358.398 112.336 355.535 115.199 352 115.199 c
 h
352 115.199 m f
Q Q
showpage
%%Trailer
end
%%EOF
