%!PS-Adobe-3.0 EPSF-3.0
%%Creator: cairo 1.16.0 (https://cairographics.org)
%%CreationDate: Fri Nov 29 10:41:14 2019
%%Pages: 1
%%DocumentData: Clean7Bit
%%LanguageLevel: 2
%%BoundingBox: 6 6 378 378
%%EndComments
%%BeginProlog
50 dict begin
/q { gsave } bind def
/Q { grestore } bind def
/cm { 6 array astore concat } bind def
/w { setlinewidth } bind def
/J { setlinecap } bind def
/j { setlinejoin } bind def
/M { setmiterlimit } bind def
/d { setdash } bind def
/m { moveto } bind def
/l { lineto } bind def
/c { curveto } bind def
/h { closepath } bind def
/re { exch dup neg 3 1 roll 5 3 roll moveto 0 rlineto
      0 exch rlineto 0 rlineto closepath } bind def
/S { stroke } bind def
/f { fill } bind def
/f* { eofill } bind def
/n { newpath } bind def
/W { clip } bind def
/W* { eoclip } bind def
/BT { } bind def
/ET { } bind def
/BDC { mark 3 1 roll /BDC pdfmark } bind def
/EMC { mark /EMC pdfmark } bind def
/cairo_store_point { /cairo_point_y exch def /cairo_point_x exch def } def
/Tj { show currentpoint cairo_store_point } bind def
/TJ {
  {
    dup
    type /stringtype eq
    { show } { -0.001 mul 0 cairo_font_matrix dtransform rmoveto } ifelse
  } forall
  currentpoint cairo_store_point
} bind def
/cairo_selectfont { cairo_font_matrix aload pop pop pop 0 0 6 array astore
    cairo_font exch selectfont cairo_point_x cairo_point_y moveto } bind def
/Tf { pop /cairo_font exch def /cairo_font_matrix where
      { pop cairo_selectfont } if } bind def
/Td { matrix translate cairo_font_matrix matrix concatmatrix dup
      /cairo_font_matrix exch def dup 4 get exch 5 get cairo_store_point
      /cairo_font where { pop cairo_selectfont } if } bind def
/Tm { 2 copy 8 2 roll 6 array astore /cairo_font_matrix exch def
      cairo_store_point /cairo_font where { pop cairo_selectfont } if } bind def
/g { setgray } bind def
/rg { setrgbcolor } bind def
/d1 { setcachedevice } bind def
/cairo_data_source {
  CairoDataIndex CairoData length lt
    { CairoData CairoDataIndex get /CairoDataIndex CairoDataIndex 1 add def }
    { () } ifelse
} def
/cairo_flush_ascii85_file { cairo_ascii85_file status { cairo_ascii85_file flushfile } if } def
/cairo_image { image cairo_flush_ascii85_file } def
/cairo_imagemask { imagemask cairo_flush_ascii85_file } def
%%EndProlog
%%BeginSetup
%%EndSetup
%%Page: 1 1
%%BeginPageSetup
%%PageBoundingBox: 6 6 378 378
%%EndPageSetup
q 6 6 372 372 rectclip
1 0 0 -1 0 384 cm q
0.501961 0.384314 0.294118 rg
208 235.199 m 215.168 231.324 222 226.848 228.414 221.824 c 231.52 219.418
 230.922 214.57 227.328 212.992 c 215.426 208.129 204.801 193.922 204.801
 172.801 c 204.801 90.176 l 204.859 67.98 196.113 46.668 180.48 30.91 c 
156.656 6.957 120.707 -0.195 89.527 12.809 c 58.348 25.812 38.141 56.395
 38.398 90.176 c 38.398 172.801 l 38.398 193.922 27.777 208.129 15.871 212.992
 c 12.277 214.57 11.68 219.418 14.785 221.824 c 21.203 226.848 28.031 231.324
 35.199 235.199 c h
208 235.199 m f
0.298039 g
179.199 230.398 m 184.449 230.398 l 216.258 230.398 236.801 252.098 236.801
 283.902 c 236.801 300.672 l 243.199 377.602 l 19.199 377.602 l 12.129 377.602
 6.398 371.871 6.398 364.801 c 6.398 283.93 l 6.398 252.113 26.949 230.398
 58.766 230.398 c h
179.199 230.398 m f
0.886275 0.67451 0.498039 rg
153.602 193.473 m 153.602 224 l 121.602 326.398 l 89.602 224 l 89.602 193.473
 l h
153.602 193.473 m f
0.933333 0.741176 0.568627 rg
187.84 136.223 m 185.559 136.805 183.938 138.82 183.852 141.172 c 182.758
 159.227 174.363 176.062 160.602 187.801 c 140.121 204.551 l 129.371 213.414
 113.848 213.414 103.098 204.551 c 82.617 187.801 l 68.855 176.062 60.461
 159.227 59.367 141.172 c 59.281 138.82 57.66 136.805 55.379 136.223 c 50.5
 135.227 46.246 132.266 43.617 128.039 c 39.215 118.695 37.41 108.34 38.398
 98.062 c 38.73 94.699 40.715 91.727 43.688 90.129 c 46.664 88.531 50.238
 88.516 53.223 90.094 c 57.441 92.863 60.246 97.332 60.902 102.336 c 61.117
 103.719 62.398 104.672 63.781 104.48 c 73.594 102.945 106.207 95.809 118.824
 69.793 c 121.059 65.336 126.113 63.055 130.93 64.332 c 145.867 68.109 172.613
 77.473 180.332 95.355 c 181.109 97.309 183.801 97.504 184.852 95.68 c 186.129
 93.387 187.977 91.461 190.215 90.094 c 193.172 88.539 196.711 88.57 199.641
 90.172 c 202.57 91.773 204.508 94.734 204.801 98.062 c 204.801 113.965 
204.801 119.336 199.598 128.039 c 196.969 132.266 192.715 135.227 187.84
 136.223 c h
187.84 136.223 m f
0.858824 g
236.801 345.602 m 198.398 345.602 l 194.867 345.602 192 348.465 192 352
 c 192 371.199 l 192 374.734 194.867 377.602 198.398 377.602 c 236.801 377.602
 l h
236.801 345.602 m f
377.602 12.801 m 377.602 128 l 377.602 131.535 374.734 134.398 371.199 
134.398 c 344.512 134.398 l 316.223 162.625 l 313.848 165.051 310.594 166.414
 307.199 166.414 c 303.805 166.414 300.551 165.051 298.176 162.625 c 269.887
 134.398 l 243.199 134.398 l 239.664 134.398 236.801 131.535 236.801 128
 c 236.801 12.801 l 236.801 9.266 239.664 6.398 243.199 6.398 c 371.199 
6.398 l 372.898 6.398 374.523 7.074 375.727 8.273 c 376.926 9.477 377.602
 11.102 377.602 12.801 c h
377.602 12.801 m f
0.756863 g
364.801 377.602 m 230.398 377.602 l 242.715 229.867 l 242.992 226.543 245.777
 223.988 249.113 224 c 370.645 224 l 372.438 223.992 374.152 224.742 375.367
 226.059 c 376.586 227.375 377.191 229.145 377.043 230.93 c h
364.801 377.602 m f
0.858824 g
322.723 274.098 m 329.277 281.262 327.664 293.406 319.117 301.223 c 310.574
 309.039 298.332 309.566 291.777 302.402 c 285.223 295.234 286.84 283.09
 295.383 275.273 c 303.93 267.457 316.172 266.93 322.723 274.098 c h
322.723 274.098 m f
0.941176 0.94902 0.960784 rg
113.727 377.602 m 79.23 265.793 l 78.461 263.77 76.531 262.426 74.367 262.398
 c 56.449 262.398 l 52.688 262.406 50.156 258.555 51.648 255.105 c 64 230.398
 l 89.602 217.602 l 121.602 320 l 121.602 377.602 l f
121.602 377.602 m 121.602 320 l 153.602 217.602 l 179.199 230.398 l 191.551
 255.105 l 193.043 258.555 190.512 262.406 186.754 262.398 c 168.832 262.398
 l 166.668 262.426 164.738 263.77 163.969 265.793 c 129.473 377.602 l f
0.168627 0.713726 0.909804 rg
288 115.199 m 284.465 115.199 281.602 112.336 281.602 108.801 c 281.602
 76.801 l 281.602 73.266 284.465 70.398 288 70.398 c 291.535 70.398 294.398
 73.266 294.398 76.801 c 294.398 108.801 l 294.398 112.336 291.535 115.199
 288 115.199 c h
288 115.199 m f
0.52549 0.415686 0.862745 rg
313.602 115.199 m 310.066 115.199 307.199 112.336 307.199 108.801 c 307.199
 51.199 l 307.199 47.664 310.066 44.801 313.602 44.801 c 317.133 44.801 
320 47.664 320 51.199 c 320 108.801 l 320 112.336 317.133 115.199 313.602
 115.199 c h
313.602 115.199 m f
0.85098 0.160784 0.211765 rg
339.199 115.199 m 335.664 115.199 332.801 112.336 332.801 108.801 c 332.801
 64 l 332.801 60.465 335.664 57.602 339.199 57.602 c 342.734 57.602 345.602
 60.465 345.602 64 c 345.602 108.801 l 345.602 112.336 342.734 115.199 339.199
 115.199 c h
339.199 115.199 m f
0.686275 g
313.602 339.199 m 288 339.199 l 284.465 339.199 281.602 336.336 281.602
 332.801 c 281.602 329.266 284.465 326.398 288 326.398 c 313.602 326.398
 l 317.133 326.398 320 329.266 320 332.801 c 320 336.336 317.133 339.199
 313.602 339.199 c h
313.602 339.199 m f
352 115.199 m 262.398 115.199 l 258.867 115.199 256 112.336 256 108.801
 c 256 32 l 256 28.465 258.867 25.602 262.398 25.602 c 265.934 25.602 268.801
 28.465 268.801 32 c 268.801 102.398 l 352 102.398 l 355.535 102.398 358.398
 105.266 358.398 108.801 c 358.398 112.336 355.535 115.199 352 115.199 c
 h
352 115.199 m f
Q Q
showpage
%%Trailer
end
%%EOF
