%!PS-Adobe-3.0 EPSF-3.0
%%Creator: cairo 1.16.0 (https://cairographics.org)
%%CreationDate: Fri Nov 29 10:41:15 2019
%%Pages: 1
%%DocumentData: Clean7Bit
%%LanguageLevel: 2
%%BoundingBox: 6 6 378 378
%%EndComments
%%BeginProlog
50 dict begin
/q { gsave } bind def
/Q { grestore } bind def
/cm { 6 array astore concat } bind def
/w { setlinewidth } bind def
/J { setlinecap } bind def
/j { setlinejoin } bind def
/M { setmiterlimit } bind def
/d { setdash } bind def
/m { moveto } bind def
/l { lineto } bind def
/c { curveto } bind def
/h { closepath } bind def
/re { exch dup neg 3 1 roll 5 3 roll moveto 0 rlineto
      0 exch rlineto 0 rlineto closepath } bind def
/S { stroke } bind def
/f { fill } bind def
/f* { eofill } bind def
/n { newpath } bind def
/W { clip } bind def
/W* { eoclip } bind def
/BT { } bind def
/ET { } bind def
/BDC { mark 3 1 roll /BDC pdfmark } bind def
/EMC { mark /EMC pdfmark } bind def
/cairo_store_point { /cairo_point_y exch def /cairo_point_x exch def } def
/Tj { show currentpoint cairo_store_point } bind def
/TJ {
  {
    dup
    type /stringtype eq
    { show } { -0.001 mul 0 cairo_font_matrix dtransform rmoveto } ifelse
  } forall
  currentpoint cairo_store_point
} bind def
/cairo_selectfont { cairo_font_matrix aload pop pop pop 0 0 6 array astore
    cairo_font exch selectfont cairo_point_x cairo_point_y moveto } bind def
/Tf { pop /cairo_font exch def /cairo_font_matrix where
      { pop cairo_selectfont } if } bind def
/Td { matrix translate cairo_font_matrix matrix concatmatrix dup
      /cairo_font_matrix exch def dup 4 get exch 5 get cairo_store_point
      /cairo_font where { pop cairo_selectfont } if } bind def
/Tm { 2 copy 8 2 roll 6 array astore /cairo_font_matrix exch def
      cairo_store_point /cairo_font where { pop cairo_selectfont } if } bind def
/g { setgray } bind def
/rg { setrgbcolor } bind def
/d1 { setcachedevice } bind def
/cairo_data_source {
  CairoDataIndex CairoData length lt
    { CairoData CairoDataIndex get /CairoDataIndex CairoDataIndex 1 add def }
    { () } ifelse
} def
/cairo_flush_ascii85_file { cairo_ascii85_file status { cairo_ascii85_file flushfile } if } def
/cairo_image { image cairo_flush_ascii85_file } def
/cairo_imagemask { imagemask cairo_flush_ascii85_file } def
%%EndProlog
%%BeginSetup
%%EndSetup
%%Page: 1 1
%%BeginPageSetup
%%PageBoundingBox: 6 6 378 378
%%EndPageSetup
q 6 6 372 372 rectclip
1 0 0 -1 0 384 cm q
0.8 0.815686 0.854902 rg
376.895 176.129 m 376.492 172.105 373.871 168.648 370.113 167.168 c 340.16
 155.199 l 336.512 140.426 330.641 126.293 322.754 113.281 c 335.488 83.648
 l 337.129 79.922 336.535 75.594 333.953 72.449 c 330.625 68.414 326.977
 64.512 323.266 60.734 c 319.551 56.961 315.586 53.375 311.551 50.047 c 
308.406 47.465 304.078 46.871 300.352 48.512 c 270.719 61.246 l 257.707 
53.359 243.574 47.488 228.801 43.84 c 216.832 13.887 l 215.352 10.129 211.895
 7.508 207.871 7.105 c 202.625 6.594 197.312 6.398 192 6.398 c 186.688 6.398
 181.375 6.594 176.129 7.105 c 172.105 7.508 168.648 10.129 167.168 13.887
 c 155.199 43.84 l 140.426 47.488 126.293 53.359 113.281 61.246 c 83.648
 48.512 l 79.922 46.871 75.594 47.465 72.449 50.047 c 68.414 53.375 64.512
 57.023 60.734 60.734 c 56.961 64.449 53.375 68.414 50.047 72.449 c 47.465
 75.594 46.871 79.922 48.512 83.648 c 61.246 113.281 l 53.359 126.293 47.488
 140.426 43.84 155.199 c 13.887 167.168 l 10.129 168.648 7.508 172.105 7.105
 176.129 c 6.594 181.375 6.398 186.688 6.398 192 c 6.398 197.312 6.594 202.625
 7.105 207.871 c 7.508 211.895 10.129 215.352 13.887 216.832 c 43.84 228.801
 l 47.488 243.574 53.359 257.707 61.246 270.719 c 48.512 300.352 l 46.871
 304.078 47.465 308.406 50.047 311.551 c 53.375 315.586 57.023 319.488 60.734
 323.266 c 64.449 327.039 68.414 330.625 72.449 333.953 c 75.594 336.535
 79.922 337.129 83.648 335.488 c 113.281 322.754 l 126.293 330.641 140.426
 336.512 155.199 340.16 c 167.168 370.113 l 168.648 373.871 172.105 376.492
 176.129 376.895 c 181.375 377.406 186.688 377.602 192 377.602 c 197.312
 377.602 202.625 377.406 207.871 376.895 c 211.895 376.492 215.352 373.871
 216.832 370.113 c 228.801 340.16 l 243.574 336.512 257.707 330.641 270.719
 322.754 c 300.352 335.488 l 304.078 337.129 308.406 336.535 311.551 333.953
 c 315.586 330.625 319.488 326.977 323.266 323.266 c 327.039 319.551 330.625
 315.586 333.953 311.551 c 336.535 308.406 337.129 304.078 335.488 300.352
 c 322.754 270.719 l 330.641 257.707 336.512 243.574 340.16 228.801 c 370.113
 216.832 l 373.871 215.352 376.492 211.895 376.895 207.871 c 377.406 202.625
 377.602 197.312 377.602 192 c 377.602 186.688 377.406 181.375 376.895 176.129
 c h
192 307.199 m 145.406 307.199 103.398 279.133 85.57 236.086 c 67.738 193.039
 77.594 143.488 110.543 110.543 c 143.488 77.594 193.039 67.738 236.086 
85.57 c 279.133 103.398 307.199 145.406 307.199 192 c 307.105 255.582 255.582
 307.105 192 307.199 c h
192 307.199 m f
0.172549 0.494118 0.607843 rg
288 192 m 288 245.02 245.02 288 192 288 c 138.98 288 96 245.02 96 192 c
 96 138.98 138.98 96 192 96 c 245.02 96 288 138.98 288 192 c h
288 192 m f
0.72549 0.74902 0.8 rg
192 64 m 140.23 64 93.555 95.188 73.742 143.016 c 53.93 190.848 64.883 
245.902 101.492 282.508 c 138.098 319.117 193.152 330.07 240.984 310.258
 c 288.812 290.445 320 243.77 320 192 c 319.93 121.336 262.664 64.07 192
 64 c h
192 307.199 m 145.406 307.199 103.398 279.133 85.57 236.086 c 67.738 193.039
 77.594 143.488 110.543 110.543 c 143.488 77.594 193.039 67.738 236.086 
85.57 c 279.133 103.398 307.199 145.406 307.199 192 c 307.105 255.582 255.582
 307.105 192 307.199 c h
192 307.199 m f
0.145098 0.639216 0.854902 rg
144 172.801 m 147.023 172.785 149.875 174.211 151.68 176.641 c 153.801 
179.469 157.812 180.039 160.641 177.922 c 163.469 175.801 164.039 171.789
 161.922 168.961 c 156.137 161.246 146.062 158.102 136.918 161.148 c 127.77
 164.199 121.602 172.758 121.602 182.398 c 121.602 201.602 l 121.602 211.242
 127.77 219.801 136.918 222.852 c 146.062 225.898 156.137 222.754 161.922
 215.039 c 164.039 212.211 163.469 208.199 160.641 206.078 c 157.812 203.961
 153.801 204.531 151.68 207.359 c 149.875 209.789 147.023 211.215 144 211.199
 c 138.699 211.199 134.398 206.902 134.398 201.602 c 134.398 182.398 l 134.398
 177.098 138.699 172.801 144 172.801 c h
144 172.801 m f
192 185.602 m 189.715 185.598 187.602 184.375 186.461 182.395 c 185.32 
180.414 185.32 177.977 186.465 175.996 c 187.609 174.02 189.723 172.801 
192.008 172.801 c 194.293 172.801 196.406 174.02 197.547 176 c 199.367 178.941
 203.199 179.906 206.191 178.176 c 209.188 176.445 210.266 172.645 208.629
 169.602 c 205.199 163.66 198.859 160 192 160 c 185.141 160 178.801 163.66
 175.371 169.602 c 171.941 175.539 171.941 182.859 175.371 188.801 c 178.801
 194.742 185.141 198.398 192 198.398 c 194.285 198.402 196.398 199.625 197.539
 201.605 c 198.68 203.586 198.68 206.023 197.535 208.004 c 196.391 209.98
 194.277 211.199 191.992 211.199 c 189.707 211.199 187.594 209.98 186.453
 208 c 184.633 205.059 180.801 204.094 177.809 205.824 c 174.812 207.555
 173.734 211.355 175.371 214.398 c 178.801 220.34 185.141 224 192 224 c 
198.859 224 205.199 220.34 208.629 214.398 c 212.059 208.461 212.059 201.141
 208.629 195.199 c 205.199 189.258 198.859 185.602 192 185.602 c h
192 185.602 m f
243.199 185.602 m 240.914 185.598 238.805 184.375 237.66 182.395 c 236.52
 180.414 236.52 177.977 237.664 175.996 c 238.809 174.02 240.922 172.801
 243.207 172.801 c 245.492 172.801 247.605 174.02 248.75 176 c 250.57 178.941
 254.398 179.906 257.395 178.176 c 260.387 176.445 261.465 172.645 259.828
 169.602 c 256.398 163.66 250.059 160 243.199 160 c 236.34 160 230 163.66
 226.57 169.602 c 223.141 175.539 223.141 182.859 226.57 188.801 c 230 194.742
 236.34 198.398 243.199 198.398 c 245.484 198.402 247.598 199.625 248.738
 201.605 c 249.879 203.586 249.879 206.023 248.734 208.004 c 247.59 209.98
 245.477 211.199 243.191 211.199 c 240.906 211.199 238.793 209.98 237.652
 208 c 235.832 205.059 232.004 204.094 229.008 205.824 c 226.012 207.555
 224.934 211.355 226.574 214.398 c 230.004 220.34 236.34 224 243.199 224
 c 250.059 224 256.398 220.34 259.828 214.398 c 263.258 208.461 263.258 
201.141 259.828 195.199 c 256.398 189.258 250.059 185.602 243.199 185.602
 c h
243.199 185.602 m f
Q Q
showpage
%%Trailer
end
%%EOF
