%!PS-Adobe-3.0 EPSF-3.0
%%Creator: cairo 1.16.0 (https://cairographics.org)
%%CreationDate: Fri Nov 29 10:41:16 2019
%%Pages: 1
%%DocumentData: Clean7Bit
%%LanguageLevel: 2
%%BoundingBox: 6 6 378 378
%%EndComments
%%BeginProlog
50 dict begin
/q { gsave } bind def
/Q { grestore } bind def
/cm { 6 array astore concat } bind def
/w { setlinewidth } bind def
/J { setlinecap } bind def
/j { setlinejoin } bind def
/M { setmiterlimit } bind def
/d { setdash } bind def
/m { moveto } bind def
/l { lineto } bind def
/c { curveto } bind def
/h { closepath } bind def
/re { exch dup neg 3 1 roll 5 3 roll moveto 0 rlineto
      0 exch rlineto 0 rlineto closepath } bind def
/S { stroke } bind def
/f { fill } bind def
/f* { eofill } bind def
/n { newpath } bind def
/W { clip } bind def
/W* { eoclip } bind def
/BT { } bind def
/ET { } bind def
/BDC { mark 3 1 roll /BDC pdfmark } bind def
/EMC { mark /EMC pdfmark } bind def
/cairo_store_point { /cairo_point_y exch def /cairo_point_x exch def } def
/Tj { show currentpoint cairo_store_point } bind def
/TJ {
  {
    dup
    type /stringtype eq
    { show } { -0.001 mul 0 cairo_font_matrix dtransform rmoveto } ifelse
  } forall
  currentpoint cairo_store_point
} bind def
/cairo_selectfont { cairo_font_matrix aload pop pop pop 0 0 6 array astore
    cairo_font exch selectfont cairo_point_x cairo_point_y moveto } bind def
/Tf { pop /cairo_font exch def /cairo_font_matrix where
      { pop cairo_selectfont } if } bind def
/Td { matrix translate cairo_font_matrix matrix concatmatrix dup
      /cairo_font_matrix exch def dup 4 get exch 5 get cairo_store_point
      /cairo_font where { pop cairo_selectfont } if } bind def
/Tm { 2 copy 8 2 roll 6 array astore /cairo_font_matrix exch def
      cairo_store_point /cairo_font where { pop cairo_selectfont } if } bind def
/g { setgray } bind def
/rg { setrgbcolor } bind def
/d1 { setcachedevice } bind def
/cairo_data_source {
  CairoDataIndex CairoData length lt
    { CairoData CairoDataIndex get /CairoDataIndex CairoDataIndex 1 add def }
    { () } ifelse
} def
/cairo_flush_ascii85_file { cairo_ascii85_file status { cairo_ascii85_file flushfile } if } def
/cairo_image { image cairo_flush_ascii85_file } def
/cairo_imagemask { imagemask cairo_flush_ascii85_file } def
%%EndProlog
%%BeginSetup
%%EndSetup
%%Page: 1 1
%%BeginPageSetup
%%PageBoundingBox: 6 6 378 378
%%EndPageSetup
q 6 6 372 372 rectclip
1 0 0 -1 0 384 cm q
0.686275 0.709804 0.74902 rg
115.199 294.398 153.602 38.402 re f
0.8 0.815686 0.854902 rg
312.383 352 m 311.887 351.227 311.207 350.586 310.398 350.145 c 268.801
 326.398 l 115.199 326.398 l 73.602 350.145 l 72.793 350.586 72.113 351.227
 71.617 352 c 70.832 353.082 70.41 354.379 70.398 355.711 c 70.398 371.199
 l 70.398 374.734 73.266 377.602 76.801 377.602 c 307.199 377.602 l 310.734
 377.602 313.602 374.734 313.602 371.199 c 313.602 355.711 l 313.59 354.379
 313.168 353.082 312.383 352 c h
312.383 352 m f
0.686275 0.709804 0.74902 rg
313.602 355.711 m 313.602 371.199 l 313.602 374.734 310.734 377.602 307.199
 377.602 c 76.801 377.602 l 73.266 377.602 70.398 374.734 70.398 371.199
 c 70.398 355.711 l 70.41 354.379 70.832 353.082 71.617 352 c 312.383 352
 l 313.168 353.082 313.59 354.379 313.602 355.711 c h
313.602 355.711 m f
0.8 0.815686 0.854902 rg
377.602 249.602 m 377.602 281.602 l 377.602 292.203 369.004 300.801 358.398
 300.801 c 25.602 300.801 l 14.996 300.801 6.398 292.203 6.398 281.602 c
 6.398 249.602 l 19.199 236.801 l 371.199 236.801 l h
377.602 249.602 m f
0.152941 0.435294 0.509804 rg
377.602 25.602 m 377.602 249.602 l 6.398 249.602 l 6.398 25.602 l 6.398
 14.996 14.996 6.398 25.602 6.398 c 358.398 6.398 l 369.004 6.398 377.602
 14.996 377.602 25.602 c h
377.602 25.602 m f
0.8 0.815686 0.854902 rg
182.496 138.238 m 184.055 137.637 185.145 136.207 185.312 134.539 c 185.512
 132.371 185.602 130.176 185.602 127.973 c 185.602 125.773 185.512 123.578
 185.312 121.406 c 185.145 119.742 184.055 118.312 182.496 117.707 c 170.117
 112.754 l 168.598 106.641 166.168 100.789 162.91 95.398 c 168.172 83.125
 l 168.836 81.59 168.59 79.812 167.531 78.516 c 166.137 76.844 164.645 75.227
 163.09 73.672 c 161.535 72.113 159.891 70.625 158.246 69.23 c 156.949 68.172
 155.172 67.926 153.637 68.59 c 141.363 73.848 l 135.973 70.59 130.121 68.164
 124.008 66.645 c 119.039 54.305 l 118.438 52.742 117.008 51.656 115.34 
51.488 c 113.195 51.289 111 51.199 108.801 51.199 c 106.598 51.199 104.402
 51.289 102.234 51.488 c 100.57 51.656 99.137 52.742 98.535 54.305 c 93.582
 66.68 l 87.469 68.199 81.617 70.629 76.223 73.887 c 63.949 68.629 l 62.414
 67.965 60.637 68.211 59.34 69.266 c 57.672 70.664 56.051 72.152 54.496 
73.707 c 52.941 75.266 51.449 76.91 50.055 78.555 c 48.996 79.852 48.75 
81.625 49.414 83.16 c 54.676 95.438 l 51.418 100.828 48.988 106.68 47.469
 112.793 c 35.105 117.762 l 33.543 118.363 32.453 119.793 32.289 121.461
 c 32.09 123.602 32 125.797 32 128 c 32 130.203 32.09 132.398 32.289 134.566
 c 32.453 136.23 33.543 137.66 35.105 138.266 c 47.48 143.219 l 49 149.332
 51.43 155.184 54.688 160.574 c 49.426 172.852 l 48.766 174.387 49.012 176.164
 50.066 177.461 c 51.461 179.129 52.953 180.75 54.508 182.305 c 56.062 183.859
 57.707 185.352 59.355 186.746 c 60.648 187.801 62.426 188.051 63.961 187.387
 c 76.238 182.125 l 81.629 185.383 87.48 187.812 93.594 189.332 c 98.547
 201.707 l 99.152 203.27 100.582 204.359 102.246 204.523 c 104.414 204.723
 106.609 204.812 108.812 204.812 c 111.016 204.812 113.211 204.723 115.379
 204.523 c 117.043 204.359 118.473 203.27 119.078 201.707 c 124.031 189.332
 l 130.145 187.812 135.996 185.383 141.391 182.125 c 153.664 187.387 l 155.199
 188.051 156.977 187.801 158.273 186.746 c 159.941 185.352 161.562 183.859
 163.117 182.305 c 164.672 180.75 166.164 179.105 167.559 177.461 c 168.613
 176.164 168.863 174.387 168.199 172.852 c 162.938 160.574 l 166.195 155.184
 168.625 149.332 170.145 143.219 c h
182.496 138.238 m f
0.698039 0.717647 0.756863 rg
147.199 128 m 147.199 149.207 130.008 166.398 108.801 166.398 c 87.594 
166.398 70.398 149.207 70.398 128 c 70.398 106.793 87.594 89.602 108.801
 89.602 c 130.008 89.602 147.199 106.793 147.199 128 c h
147.199 128 m f
0.537255 0.568627 0.627451 rg
204.801 281.602 m 179.199 281.602 l 175.664 281.602 172.801 278.734 172.801
 275.199 c 172.801 271.664 175.664 268.801 179.199 268.801 c 204.801 268.801
 l 208.336 268.801 211.199 271.664 211.199 275.199 c 211.199 278.734 208.336
 281.602 204.801 281.602 c h
204.801 281.602 m f
1 g
217.602 70.398 m 211.199 70.398 l 207.664 70.398 204.801 67.535 204.801
 64 c 204.801 60.465 207.664 57.602 211.199 57.602 c 217.602 57.602 l 221.133
 57.602 224 60.465 224 64 c 224 67.535 221.133 70.398 217.602 70.398 c h
217.602 70.398 m f
217.602 96 m 211.199 96 l 207.664 96 204.801 93.133 204.801 89.602 c 204.801
 86.066 207.664 83.199 211.199 83.199 c 217.602 83.199 l 221.133 83.199 
224 86.066 224 89.602 c 224 93.133 221.133 96 217.602 96 c h
217.602 96 m f
217.602 121.602 m 211.199 121.602 l 207.664 121.602 204.801 118.734 204.801
 115.199 c 204.801 111.664 207.664 108.801 211.199 108.801 c 217.602 108.801
 l 221.133 108.801 224 111.664 224 115.199 c 224 118.734 221.133 121.602
 217.602 121.602 c h
217.602 121.602 m f
217.602 147.199 m 211.199 147.199 l 207.664 147.199 204.801 144.336 204.801
 140.801 c 204.801 137.266 207.664 134.398 211.199 134.398 c 217.602 134.398
 l 221.133 134.398 224 137.266 224 140.801 c 224 144.336 221.133 147.199
 217.602 147.199 c h
217.602 147.199 m f
0.25098 0.8 0.945098 rg
275.199 70.398 m 243.199 70.398 l 239.664 70.398 236.801 67.535 236.801
 64 c 236.801 60.465 239.664 57.602 243.199 57.602 c 275.199 57.602 l 278.734
 57.602 281.602 60.465 281.602 64 c 281.602 67.535 278.734 70.398 275.199
 70.398 c h
275.199 70.398 m f
275.199 121.602 m 243.199 121.602 l 239.664 121.602 236.801 118.734 236.801
 115.199 c 236.801 111.664 239.664 108.801 243.199 108.801 c 275.199 108.801
 l 278.734 108.801 281.602 111.664 281.602 115.199 c 281.602 118.734 278.734
 121.602 275.199 121.602 c h
275.199 121.602 m f
307.199 96 m 243.199 96 l 239.664 96 236.801 93.133 236.801 89.602 c 236.801
 86.066 239.664 83.199 243.199 83.199 c 307.199 83.199 l 310.734 83.199 
313.602 86.066 313.602 89.602 c 313.602 93.133 310.734 96 307.199 96 c h
307.199 96 m f
0.65098 0.588235 0.941176 rg
313.602 70.398 m 300.801 70.398 l 297.266 70.398 294.398 67.535 294.398
 64 c 294.398 60.465 297.266 57.602 300.801 57.602 c 313.602 57.602 l 317.133
 57.602 320 60.465 320 64 c 320 67.535 317.133 70.398 313.602 70.398 c h
313.602 70.398 m f
339.199 96 m 332.801 96 l 329.266 96 326.398 93.133 326.398 89.602 c 326.398
 86.066 329.266 83.199 332.801 83.199 c 339.199 83.199 l 342.734 83.199 
345.602 86.066 345.602 89.602 c 345.602 93.133 342.734 96 339.199 96 c h
339.199 96 m f
1 g
217.602 172.801 m 211.199 172.801 l 207.664 172.801 204.801 169.934 204.801
 166.398 c 204.801 162.867 207.664 160 211.199 160 c 217.602 160 l 221.133
 160 224 162.867 224 166.398 c 224 169.934 221.133 172.801 217.602 172.801
 c h
217.602 172.801 m f
217.602 198.398 m 211.199 198.398 l 207.664 198.398 204.801 195.535 204.801
 192 c 204.801 188.465 207.664 185.602 211.199 185.602 c 217.602 185.602
 l 221.133 185.602 224 188.465 224 192 c 224 195.535 221.133 198.398 217.602
 198.398 c h
217.602 198.398 m f
0.25098 0.8 0.945098 rg
275.199 172.801 m 243.199 172.801 l 239.664 172.801 236.801 169.934 236.801
 166.398 c 236.801 162.867 239.664 160 243.199 160 c 275.199 160 l 278.734
 160 281.602 162.867 281.602 166.398 c 281.602 169.934 278.734 172.801 275.199
 172.801 c h
275.199 172.801 m f
275.199 198.398 m 243.199 198.398 l 239.664 198.398 236.801 195.535 236.801
 192 c 236.801 188.465 239.664 185.602 243.199 185.602 c 275.199 185.602
 l 278.734 185.602 281.602 188.465 281.602 192 c 281.602 195.535 278.734
 198.398 275.199 198.398 c h
275.199 198.398 m f
0.65098 0.588235 0.941176 rg
320 172.801 m 300.801 172.801 l 297.266 172.801 294.398 169.934 294.398
 166.398 c 294.398 162.867 297.266 160 300.801 160 c 320 160 l 323.535 160
 326.398 162.867 326.398 166.398 c 326.398 169.934 323.535 172.801 320 172.801
 c h
320 172.801 m f
307.199 198.398 m 300.801 198.398 l 297.266 198.398 294.398 195.535 294.398
 192 c 294.398 188.465 297.266 185.602 300.801 185.602 c 307.199 185.602
 l 310.734 185.602 313.602 188.465 313.602 192 c 313.602 195.535 310.734
 198.398 307.199 198.398 c h
307.199 198.398 m f
0.25098 0.8 0.945098 rg
249.602 147.199 m 243.199 147.199 l 239.664 147.199 236.801 144.336 236.801
 140.801 c 236.801 137.266 239.664 134.398 243.199 134.398 c 249.602 134.398
 l 253.133 134.398 256 137.266 256 140.801 c 256 144.336 253.133 147.199
 249.602 147.199 c h
249.602 147.199 m f
0.65098 0.588235 0.941176 rg
294.398 147.199 m 275.199 147.199 l 271.664 147.199 268.801 144.336 268.801
 140.801 c 268.801 137.266 271.664 134.398 275.199 134.398 c 294.398 134.398
 l 297.934 134.398 300.801 137.266 300.801 140.801 c 300.801 144.336 297.934
 147.199 294.398 147.199 c h
294.398 147.199 m f
Q Q
showpage
%%Trailer
end
%%EOF
