%!PS-Adobe-3.0 EPSF-3.0
%%Creator: cairo 1.16.0 (https://cairographics.org)
%%CreationDate: Fri Nov 29 10:41:16 2019
%%Pages: 1
%%DocumentData: Clean7Bit
%%LanguageLevel: 2
%%BoundingBox: 6 6 378 378
%%EndComments
%%BeginProlog
50 dict begin
/q { gsave } bind def
/Q { grestore } bind def
/cm { 6 array astore concat } bind def
/w { setlinewidth } bind def
/J { setlinecap } bind def
/j { setlinejoin } bind def
/M { setmiterlimit } bind def
/d { setdash } bind def
/m { moveto } bind def
/l { lineto } bind def
/c { curveto } bind def
/h { closepath } bind def
/re { exch dup neg 3 1 roll 5 3 roll moveto 0 rlineto
      0 exch rlineto 0 rlineto closepath } bind def
/S { stroke } bind def
/f { fill } bind def
/f* { eofill } bind def
/n { newpath } bind def
/W { clip } bind def
/W* { eoclip } bind def
/BT { } bind def
/ET { } bind def
/BDC { mark 3 1 roll /BDC pdfmark } bind def
/EMC { mark /EMC pdfmark } bind def
/cairo_store_point { /cairo_point_y exch def /cairo_point_x exch def } def
/Tj { show currentpoint cairo_store_point } bind def
/TJ {
  {
    dup
    type /stringtype eq
    { show } { -0.001 mul 0 cairo_font_matrix dtransform rmoveto } ifelse
  } forall
  currentpoint cairo_store_point
} bind def
/cairo_selectfont { cairo_font_matrix aload pop pop pop 0 0 6 array astore
    cairo_font exch selectfont cairo_point_x cairo_point_y moveto } bind def
/Tf { pop /cairo_font exch def /cairo_font_matrix where
      { pop cairo_selectfont } if } bind def
/Td { matrix translate cairo_font_matrix matrix concatmatrix dup
      /cairo_font_matrix exch def dup 4 get exch 5 get cairo_store_point
      /cairo_font where { pop cairo_selectfont } if } bind def
/Tm { 2 copy 8 2 roll 6 array astore /cairo_font_matrix exch def
      cairo_store_point /cairo_font where { pop cairo_selectfont } if } bind def
/g { setgray } bind def
/rg { setrgbcolor } bind def
/d1 { setcachedevice } bind def
/cairo_data_source {
  CairoDataIndex CairoData length lt
    { CairoData CairoDataIndex get /CairoDataIndex CairoDataIndex 1 add def }
    { () } ifelse
} def
/cairo_flush_ascii85_file { cairo_ascii85_file status { cairo_ascii85_file flushfile } if } def
/cairo_image { image cairo_flush_ascii85_file } def
/cairo_imagemask { imagemask cairo_flush_ascii85_file } def
%%EndProlog
%%BeginSetup
%%EndSetup
%%Page: 1 1
%%BeginPageSetup
%%PageBoundingBox: 6 6 378 378
%%EndPageSetup
q 6 6 372 372 rectclip
1 0 0 -1 0 384 cm q
0.8 0.815686 0.854902 rg
370.094 216.82 m 373.863 215.344 376.492 211.887 376.91 207.859 c 377.383
 202.617 377.602 197.305 377.602 191.988 c 377.602 186.668 377.383 181.355
 376.91 176.113 c 376.492 172.086 373.863 168.629 370.094 167.156 c 340.188
 155.195 l 336.516 140.43 330.645 126.297 322.77 113.281 c 335.477 83.621
 l 337.105 79.918 336.523 75.613 333.973 72.473 c 330.605 68.434 326.996
 64.523 323.238 60.77 c 319.48 57.012 315.559 53.402 311.527 50.035 c 308.391
 47.48 304.086 46.898 300.383 48.523 c 270.719 61.23 l 257.691 53.352 243.551
 47.48 228.773 43.812 c 216.82 13.906 l 215.344 10.137 211.887 7.508 207.859
 7.09 c 202.629 6.617 197.32 6.398 192 6.398 c 186.68 6.398 181.371 6.617
 176.129 7.09 c 172.102 7.508 168.641 10.137 167.168 13.906 c 155.219 43.812
 l 140.445 47.48 126.309 53.352 113.281 61.23 c 83.617 48.52 l 79.914 46.891
 75.609 47.477 72.473 50.027 c 68.43 53.395 64.52 57.004 60.762 60.762 c
 57.004 64.52 53.395 68.441 50.027 72.469 c 47.477 75.605 46.895 79.91 48.523
 83.617 c 61.23 113.281 l 53.352 126.309 47.48 140.449 43.812 155.227 c 
13.906 167.18 l 10.137 168.656 7.508 172.113 7.09 176.141 c 6.617 181.371
 6.398 186.68 6.398 192 c 6.398 197.32 6.617 202.629 7.09 207.871 c 7.508
 211.898 10.137 215.359 13.906 216.832 c 43.812 228.793 l 47.484 243.562
 53.355 257.699 61.23 270.719 c 48.523 300.383 l 46.895 304.086 47.477 308.391
 50.027 311.527 c 53.395 315.57 57.004 319.48 60.762 323.238 c 64.52 326.996
 68.441 330.605 72.473 333.973 c 75.609 336.523 79.914 337.105 83.617 335.477
 c 113.281 322.77 l 126.309 330.648 140.449 336.52 155.227 340.188 c 167.188
 370.094 l 168.66 373.863 172.121 376.492 176.148 376.91 c 181.391 377.383
 186.699 377.602 192.02 377.602 c 197.336 377.602 202.648 377.383 207.891
 376.91 c 211.918 376.492 215.375 373.863 216.852 370.094 c 228.812 340.188
 l 243.574 336.516 257.703 330.645 270.719 322.77 c 300.379 335.477 l 304.078
 337.105 308.383 336.523 311.52 333.973 c 315.566 330.605 319.477 326.996
 323.23 323.238 c 326.988 319.48 330.598 315.559 333.965 311.527 c 336.52
 308.391 337.098 304.086 335.469 300.383 c 322.77 270.719 l 330.648 257.691
 336.52 243.551 340.188 228.773 c h
370.094 216.82 m f
0.0470588 0.439216 0.862745 rg
313.602 192 m 313.613 241.863 283.164 286.676 236.801 305.023 c 208.027
 316.457 175.973 316.457 147.199 305.023 c 105.328 288.43 76.059 250.055
 71.129 205.285 c 66.199 160.52 86.418 116.691 123.676 91.387 c 160.934 
66.082 209.125 63.441 248.922 84.523 c 288.723 105.609 313.609 146.961 313.602
 192 c h
313.602 192 m f
0.988235 0.796078 0.333333 rg
198.785 122.176 m 198.527 120.934 198.398 119.668 198.398 118.398 c 198.398
 107.797 206.996 99.199 217.602 99.199 c 228.203 99.199 236.801 107.797 
236.801 118.398 c 236.801 119.648 236.672 120.891 236.414 122.113 c 217.602
 134.398 l h
198.785 122.176 m f
0.298039 g
192 313.602 m 281.602 313.602 313.602 236.801 313.602 192 c 313.602 147.199
 295.359 128 295.359 128 c 267.008 128 l 264.406 127.953 261.871 127.152
 259.711 125.695 c 254.734 122.73 248.988 121.305 243.199 121.602 c 228.801
 121.602 224 128 224 128 c 160 128 l 160 128 155.199 121.602 140.801 121.602
 c 135.012 121.305 129.266 122.73 124.289 125.695 c 122.129 127.152 119.594
 127.953 116.992 128 c 88.641 128 l 88.641 128 70.398 147.199 70.398 192
 c 70.398 236.801 102.398 313.602 192 313.602 c h
192 313.602 m f
0.168627 0.713726 0.909804 rg
236.801 256 m 236.801 305.023 l 208.027 316.457 175.973 316.457 147.199
 305.023 c 147.199 256 l h
236.801 256 m f
224 229.055 m 224 128 l 218.621 123.551 211.773 121.27 204.801 121.602 
c 200.406 121.547 196.051 122.398 192 124.098 c 187.949 122.398 183.594 
121.547 179.199 121.602 c 172.227 121.27 165.379 123.551 160 128 c 160 229.055
 l h
224 229.055 m f
0.25098 0.8 0.945098 rg
134.398 262.398 m 256 262.398 l 246.336 245.246 l 242.77 239.949 236.789
 236.777 230.398 236.801 c 230.012 236.812 229.629 236.855 229.246 236.93
 c 226.586 229.227 219.352 224.043 211.199 224 c 208.672 223.988 206.168
 224.488 203.84 225.473 c 201.84 220.703 197.172 217.598 192 217.598 c 186.828
 217.598 182.16 220.703 180.16 225.473 c 177.832 224.488 175.328 223.988
 172.801 224 c 164.648 224.043 157.414 229.227 154.754 236.93 c 154.371 
236.855 153.988 236.812 153.602 236.801 c 147.211 236.777 141.23 239.949
 137.664 245.246 c h
134.398 262.398 m f
0.388235 g
312.062 211.266 m 303.703 263.078 263.078 303.703 211.266 312.062 c 211.586
 304.062 214.719 267.391 243.199 256 c 243.199 256 247.297 211.902 312.062
 211.266 c h
312.062 211.266 m f
172.734 312.062 m 120.922 303.703 80.297 263.078 71.938 211.266 c 136.703
 211.902 140.801 256 140.801 256 c 169.281 267.391 172.414 304.062 172.734
 312.062 c h
172.734 312.062 m f
0.145098 0.639216 0.854902 rg
185.602 166.398 m 182.066 166.398 179.199 163.535 179.199 160 c 179.199
 147.199 l 179.199 143.664 182.066 140.801 185.602 140.801 c 189.133 140.801
 192 143.664 192 147.199 c 192 160 l 192 163.535 189.133 166.398 185.602
 166.398 c h
185.602 166.398 m f
198.398 198.398 m 194.867 198.398 192 195.535 192 192 c 192 179.199 l 192
 175.664 194.867 172.801 198.398 172.801 c 201.934 172.801 204.801 175.664
 204.801 179.199 c 204.801 192 l 204.801 195.535 201.934 198.398 198.398
 198.398 c h
198.398 198.398 m f
0.219608 g
115.199 179.199 m 113.062 179.203 111.062 178.137 109.875 176.359 c 100.852
 162.848 l 99.676 161.066 97.684 159.996 95.551 160 c 76.672 160 l 73.137
 160 70.273 157.133 70.273 153.602 c 70.273 150.066 73.137 147.199 76.672
 147.199 c 95.551 147.199 l 101.973 147.188 107.973 150.406 111.512 155.762
 c 120.52 169.242 l 121.832 171.203 121.957 173.73 120.844 175.816 c 119.73
 177.898 117.562 179.199 115.199 179.199 c h
115.199 179.199 m f
268.801 179.199 m 266.438 179.195 264.273 177.895 263.16 175.812 c 262.051
 173.73 262.176 171.203 263.488 169.242 c 272.512 155.738 l 276.051 150.391
 282.039 147.184 288.449 147.199 c 307.328 147.199 l 310.863 147.199 313.727
 150.066 313.727 153.602 c 313.727 157.133 310.863 160 307.328 160 c 288.449
 160 l 286.324 159.992 284.336 161.051 283.16 162.824 c 274.117 176.359 
l 272.93 178.133 270.938 179.199 268.801 179.199 c h
268.801 179.199 m f
249.602 192 m 247.383 192 245.324 190.852 244.16 188.965 c 242.992 187.078
 242.887 184.723 243.879 182.738 c 246.746 177.012 l 249.98 170.496 256.637
 166.379 263.91 166.398 c 281.602 166.398 l 285.133 166.398 288 169.266 
288 172.801 c 288 176.336 285.133 179.199 281.602 179.199 c 263.91 179.199
 l 261.484 179.191 259.266 180.562 258.188 182.738 c 255.328 188.461 l 254.242
 190.629 252.027 192 249.602 192 c h
249.602 192 m f
134.398 192 m 131.961 192.012 129.73 190.641 128.641 188.461 c 125.777 
182.738 l 124.711 180.574 122.504 179.203 120.09 179.199 c 102.398 179.199
 l 98.867 179.199 96 176.336 96 172.801 c 96 169.266 98.867 166.398 102.398
 166.398 c 120.09 166.398 l 127.367 166.379 134.027 170.492 137.262 177.012
 c 140.129 182.738 l 141.121 184.723 141.012 187.078 139.848 188.965 c 138.68
 190.852 136.617 192 134.398 192 c h
134.398 192 m f
0.72549 0.74902 0.8 rg
192 320 m 140.23 320 93.555 288.812 73.742 240.984 c 53.93 193.152 64.883
 138.098 101.492 101.492 c 138.098 64.883 193.152 53.93 240.984 73.742 c
 288.812 93.555 320 140.23 320 192 c 319.918 262.66 262.66 319.918 192 320
 c h
192 76.801 m 145.406 76.801 103.398 104.867 85.57 147.914 c 67.738 190.961
 77.594 240.512 110.543 273.457 c 143.488 306.406 193.039 316.262 236.086
 298.43 c 279.133 280.602 307.199 238.594 307.199 192 c 307.125 128.406 
255.594 76.875 192 76.801 c h
192 76.801 m f
0.25098 0.8 0.945098 rg
204.801 294.398 m 179.199 294.398 l 175.664 294.398 172.801 291.535 172.801
 288 c 172.801 284.465 175.664 281.602 179.199 281.602 c 204.801 281.602
 l 208.336 281.602 211.199 284.465 211.199 288 c 211.199 291.535 208.336
 294.398 204.801 294.398 c h
204.801 294.398 m f
Q Q
showpage
%%Trailer
end
%%EOF
