%!PS-Adobe-3.0 EPSF-3.0
%%Creator: cairo 1.16.0 (https://cairographics.org)
%%CreationDate: Fri Nov 29 10:41:18 2019
%%Pages: 1
%%DocumentData: Clean7Bit
%%LanguageLevel: 2
%%BoundingBox: 6 32 378 352
%%EndComments
%%BeginProlog
50 dict begin
/q { gsave } bind def
/Q { grestore } bind def
/cm { 6 array astore concat } bind def
/w { setlinewidth } bind def
/J { setlinecap } bind def
/j { setlinejoin } bind def
/M { setmiterlimit } bind def
/d { setdash } bind def
/m { moveto } bind def
/l { lineto } bind def
/c { curveto } bind def
/h { closepath } bind def
/re { exch dup neg 3 1 roll 5 3 roll moveto 0 rlineto
      0 exch rlineto 0 rlineto closepath } bind def
/S { stroke } bind def
/f { fill } bind def
/f* { eofill } bind def
/n { newpath } bind def
/W { clip } bind def
/W* { eoclip } bind def
/BT { } bind def
/ET { } bind def
/BDC { mark 3 1 roll /BDC pdfmark } bind def
/EMC { mark /EMC pdfmark } bind def
/cairo_store_point { /cairo_point_y exch def /cairo_point_x exch def } def
/Tj { show currentpoint cairo_store_point } bind def
/TJ {
  {
    dup
    type /stringtype eq
    { show } { -0.001 mul 0 cairo_font_matrix dtransform rmoveto } ifelse
  } forall
  currentpoint cairo_store_point
} bind def
/cairo_selectfont { cairo_font_matrix aload pop pop pop 0 0 6 array astore
    cairo_font exch selectfont cairo_point_x cairo_point_y moveto } bind def
/Tf { pop /cairo_font exch def /cairo_font_matrix where
      { pop cairo_selectfont } if } bind def
/Td { matrix translate cairo_font_matrix matrix concatmatrix dup
      /cairo_font_matrix exch def dup 4 get exch 5 get cairo_store_point
      /cairo_font where { pop cairo_selectfont } if } bind def
/Tm { 2 copy 8 2 roll 6 array astore /cairo_font_matrix exch def
      cairo_store_point /cairo_font where { pop cairo_selectfont } if } bind def
/g { setgray } bind def
/rg { setrgbcolor } bind def
/d1 { setcachedevice } bind def
/cairo_data_source {
  CairoDataIndex CairoData length lt
    { CairoData CairoDataIndex get /CairoDataIndex CairoDataIndex 1 add def }
    { () } ifelse
} def
/cairo_flush_ascii85_file { cairo_ascii85_file status { cairo_ascii85_file flushfile } if } def
/cairo_image { image cairo_flush_ascii85_file } def
/cairo_imagemask { imagemask cairo_flush_ascii85_file } def
%%EndProlog
%%BeginSetup
%%EndSetup
%%Page: 1 1
%%BeginPageSetup
%%PageBoundingBox: 6 32 378 352
%%EndPageSetup
q 6 32 372 320 rectclip
1 0 0 -1 0 384 cm q
0.858824 g
38.398 32 m 345.602 32 l 363.328 32 377.602 46.273 377.602 64 c 377.602
 320 l 377.602 337.727 363.328 352 345.602 352 c 38.398 352 l 20.672 352
 6.398 337.727 6.398 320 c 6.398 64 l 6.398 46.273 20.672 32 38.398 32 c
 h
38.398 32 m f
0.980392 0.631373 0.0862745 rg
57.602 224 m 38.398 224 l 34.867 224 32 221.133 32 217.602 c 32 153.602
 l 32 150.066 34.867 147.199 38.398 147.199 c 83.199 147.199 l 86.734 147.199
 89.602 150.066 89.602 153.602 c 89.602 185.602 l h
57.602 224 m f
0.94902 0.560784 0.00784314 rg
57.602 224 m 57.602 192 l 57.602 188.465 60.465 185.602 64 185.602 c 89.602
 185.602 l h
57.602 224 m f
0.168627 0.713726 0.909804 rg
192 224 m 172.801 224 l 169.266 224 166.398 221.133 166.398 217.602 c 166.398
 153.602 l 166.398 150.066 169.266 147.199 172.801 147.199 c 217.602 147.199
 l 221.133 147.199 224 150.066 224 153.602 c 224 185.602 l h
192 224 m f
0.145098 0.639216 0.854902 rg
192 224 m 192 192 l 192 188.465 194.867 185.602 198.398 185.602 c 224 185.602
 l h
192 224 m f
0.168627 0.713726 0.909804 rg
192 326.398 m 172.801 326.398 l 169.266 326.398 166.398 323.535 166.398
 320 c 166.398 256 l 166.398 252.465 169.266 249.602 172.801 249.602 c 217.602
 249.602 l 221.133 249.602 224 252.465 224 256 c 224 288 l h
192 326.398 m f
0.145098 0.639216 0.854902 rg
192 326.398 m 192 294.398 l 192 290.867 194.867 288 198.398 288 c 224 288
 l h
192 326.398 m f
0.619608 0.509804 0.92549 rg
320 326.398 m 300.801 326.398 l 297.266 326.398 294.398 323.535 294.398
 320 c 294.398 256 l 294.398 252.465 297.266 249.602 300.801 249.602 c 345.602
 249.602 l 349.133 249.602 352 252.465 352 256 c 352 288 l h
320 326.398 m f
0.52549 0.415686 0.862745 rg
320 326.398 m 320 294.398 l 320 290.867 322.867 288 326.398 288 c 352 288
 l h
320 326.398 m f
0.666667 g
352 115.199 m 268.801 115.199 l 268.801 51.199 l 268.801 47.664 265.934
 44.801 262.398 44.801 c 258.867 44.801 256 47.664 256 51.199 c 256 115.199
 l 134.398 115.199 l 134.398 51.199 l 134.398 47.664 131.535 44.801 128 
44.801 c 124.465 44.801 121.602 47.664 121.602 51.199 c 121.602 115.199 
l 32 115.199 l 28.465 115.199 25.602 118.066 25.602 121.602 c 25.602 125.133
 28.465 128 32 128 c 121.602 128 l 121.602 326.398 l 121.602 329.934 124.465
 332.801 128 332.801 c 131.535 332.801 134.398 329.934 134.398 326.398 c
 134.398 128 l 256 128 l 256 326.398 l 256 329.934 258.867 332.801 262.398
 332.801 c 265.934 332.801 268.801 329.934 268.801 326.398 c 268.801 128
 l 352 128 l 355.535 128 358.398 125.133 358.398 121.602 c 358.398 118.066
 355.535 115.199 352 115.199 c h
352 115.199 m f
0.756863 g
89.602 83.199 m 51.199 83.199 l 47.664 83.199 44.801 80.336 44.801 76.801
 c 44.801 73.266 47.664 70.398 51.199 70.398 c 89.602 70.398 l 93.133 70.398
 96 73.266 96 76.801 c 96 80.336 93.133 83.199 89.602 83.199 c h
89.602 83.199 m f
211.199 83.199 m 172.801 83.199 l 169.266 83.199 166.398 80.336 166.398
 76.801 c 166.398 73.266 169.266 70.398 172.801 70.398 c 211.199 70.398 
l 214.734 70.398 217.602 73.266 217.602 76.801 c 217.602 80.336 214.734 
83.199 211.199 83.199 c h
211.199 83.199 m f
339.199 83.199 m 300.801 83.199 l 297.266 83.199 294.398 80.336 294.398
 76.801 c 294.398 73.266 297.266 70.398 300.801 70.398 c 339.199 70.398 
l 342.734 70.398 345.602 73.266 345.602 76.801 c 345.602 80.336 342.734 
83.199 339.199 83.199 c h
339.199 83.199 m f
Q Q
showpage
%%Trailer
end
%%EOF
