%!PS-Adobe-3.0 EPSF-3.0
%%Creator: cairo 1.16.0 (https://cairographics.org)
%%CreationDate: Fri Nov 29 10:41:18 2019
%%Pages: 1
%%DocumentData: Clean7Bit
%%LanguageLevel: 2
%%BoundingBox: 6 6 378 378
%%EndComments
%%BeginProlog
50 dict begin
/q { gsave } bind def
/Q { grestore } bind def
/cm { 6 array astore concat } bind def
/w { setlinewidth } bind def
/J { setlinecap } bind def
/j { setlinejoin } bind def
/M { setmiterlimit } bind def
/d { setdash } bind def
/m { moveto } bind def
/l { lineto } bind def
/c { curveto } bind def
/h { closepath } bind def
/re { exch dup neg 3 1 roll 5 3 roll moveto 0 rlineto
      0 exch rlineto 0 rlineto closepath } bind def
/S { stroke } bind def
/f { fill } bind def
/f* { eofill } bind def
/n { newpath } bind def
/W { clip } bind def
/W* { eoclip } bind def
/BT { } bind def
/ET { } bind def
/BDC { mark 3 1 roll /BDC pdfmark } bind def
/EMC { mark /EMC pdfmark } bind def
/cairo_store_point { /cairo_point_y exch def /cairo_point_x exch def } def
/Tj { show currentpoint cairo_store_point } bind def
/TJ {
  {
    dup
    type /stringtype eq
    { show } { -0.001 mul 0 cairo_font_matrix dtransform rmoveto } ifelse
  } forall
  currentpoint cairo_store_point
} bind def
/cairo_selectfont { cairo_font_matrix aload pop pop pop 0 0 6 array astore
    cairo_font exch selectfont cairo_point_x cairo_point_y moveto } bind def
/Tf { pop /cairo_font exch def /cairo_font_matrix where
      { pop cairo_selectfont } if } bind def
/Td { matrix translate cairo_font_matrix matrix concatmatrix dup
      /cairo_font_matrix exch def dup 4 get exch 5 get cairo_store_point
      /cairo_font where { pop cairo_selectfont } if } bind def
/Tm { 2 copy 8 2 roll 6 array astore /cairo_font_matrix exch def
      cairo_store_point /cairo_font where { pop cairo_selectfont } if } bind def
/g { setgray } bind def
/rg { setrgbcolor } bind def
/d1 { setcachedevice } bind def
/cairo_data_source {
  CairoDataIndex CairoData length lt
    { CairoData CairoDataIndex get /CairoDataIndex CairoDataIndex 1 add def }
    { () } ifelse
} def
/cairo_flush_ascii85_file { cairo_ascii85_file status { cairo_ascii85_file flushfile } if } def
/cairo_image { image cairo_flush_ascii85_file } def
/cairo_imagemask { imagemask cairo_flush_ascii85_file } def
%%EndProlog
%%BeginSetup
%%EndSetup
%%Page: 1 1
%%BeginPageSetup
%%PageBoundingBox: 6 6 378 378
%%EndPageSetup
q 6 6 372 372 rectclip
1 0 0 -1 0 384 cm q
0.686275 0.709804 0.74902 rg
115.199 294.398 153.602 38.402 re f
0.8 0.815686 0.854902 rg
312.383 352 m 311.887 351.227 311.207 350.586 310.398 350.145 c 268.801
 326.398 l 115.199 326.398 l 73.602 350.145 l 72.793 350.586 72.113 351.227
 71.617 352 c 70.832 353.082 70.41 354.379 70.398 355.711 c 70.398 371.199
 l 70.398 374.734 73.266 377.602 76.801 377.602 c 307.199 377.602 l 310.734
 377.602 313.602 374.734 313.602 371.199 c 313.602 355.711 l 313.59 354.379
 313.168 353.082 312.383 352 c h
312.383 352 m f
0.686275 0.709804 0.74902 rg
313.602 355.711 m 313.602 371.199 l 313.602 374.734 310.734 377.602 307.199
 377.602 c 76.801 377.602 l 73.266 377.602 70.398 374.734 70.398 371.199
 c 70.398 355.711 l 70.41 354.379 70.832 353.082 71.617 352 c 312.383 352
 l 313.168 353.082 313.59 354.379 313.602 355.711 c h
313.602 355.711 m f
0.8 0.815686 0.854902 rg
377.602 249.602 m 377.602 281.602 l 377.602 292.203 369.004 300.801 358.398
 300.801 c 25.602 300.801 l 14.996 300.801 6.398 292.203 6.398 281.602 c
 6.398 249.602 l 19.199 236.801 l 371.199 236.801 l h
377.602 249.602 m f
0.152941 0.435294 0.509804 rg
377.602 25.602 m 377.602 249.602 l 96 249.602 l 108.801 6.398 l 358.398
 6.398 l 369.004 6.398 377.602 14.996 377.602 25.602 c h
377.602 25.602 m f
0.117647 0.313726 0.356863 rg
108.801 6.398 m 108.801 249.602 l 6.398 249.602 l 6.398 25.602 l 6.398 
14.996 14.996 6.398 25.602 6.398 c h
108.801 6.398 m f
0.537255 0.568627 0.627451 rg
204.801 281.602 m 179.199 281.602 l 175.664 281.602 172.801 278.734 172.801
 275.199 c 172.801 271.664 175.664 268.801 179.199 268.801 c 204.801 268.801
 l 208.336 268.801 211.199 271.664 211.199 275.199 c 211.199 278.734 208.336
 281.602 204.801 281.602 c h
204.801 281.602 m f
1 g
38.398 44.801 m 32 44.801 l 28.465 44.801 25.602 41.934 25.602 38.398 c
 25.602 34.867 28.465 32 32 32 c 38.398 32 l 41.934 32 44.801 34.867 44.801
 38.398 c 44.801 41.934 41.934 44.801 38.398 44.801 c h
38.398 44.801 m f
83.199 44.801 m 64 44.801 l 60.465 44.801 57.602 41.934 57.602 38.398 c
 57.602 34.867 60.465 32 64 32 c 83.199 32 l 86.734 32 89.602 34.867 89.602
 38.398 c 89.602 41.934 86.734 44.801 83.199 44.801 c h
83.199 44.801 m f
38.398 70.398 m 32 70.398 l 28.465 70.398 25.602 67.535 25.602 64 c 25.602
 60.465 28.465 57.602 32 57.602 c 38.398 57.602 l 41.934 57.602 44.801 60.465
 44.801 64 c 44.801 67.535 41.934 70.398 38.398 70.398 c h
38.398 70.398 m f
83.199 70.398 m 64 70.398 l 60.465 70.398 57.602 67.535 57.602 64 c 57.602
 60.465 60.465 57.602 64 57.602 c 83.199 57.602 l 86.734 57.602 89.602 60.465
 89.602 64 c 89.602 67.535 86.734 70.398 83.199 70.398 c h
83.199 70.398 m f
38.398 96 m 32 96 l 28.465 96 25.602 93.133 25.602 89.602 c 25.602 86.066
 28.465 83.199 32 83.199 c 38.398 83.199 l 41.934 83.199 44.801 86.066 44.801
 89.602 c 44.801 93.133 41.934 96 38.398 96 c h
38.398 96 m f
83.199 96 m 64 96 l 60.465 96 57.602 93.133 57.602 89.602 c 57.602 86.066
 60.465 83.199 64 83.199 c 83.199 83.199 l 86.734 83.199 89.602 86.066 89.602
 89.602 c 89.602 93.133 86.734 96 83.199 96 c h
83.199 96 m f
38.398 121.602 m 32 121.602 l 28.465 121.602 25.602 118.734 25.602 115.199
 c 25.602 111.664 28.465 108.801 32 108.801 c 38.398 108.801 l 41.934 108.801
 44.801 111.664 44.801 115.199 c 44.801 118.734 41.934 121.602 38.398 121.602
 c h
38.398 121.602 m f
83.199 121.602 m 64 121.602 l 60.465 121.602 57.602 118.734 57.602 115.199
 c 57.602 111.664 60.465 108.801 64 108.801 c 83.199 108.801 l 86.734 108.801
 89.602 111.664 89.602 115.199 c 89.602 118.734 86.734 121.602 83.199 121.602
 c h
83.199 121.602 m f
38.398 147.199 m 32 147.199 l 28.465 147.199 25.602 144.336 25.602 140.801
 c 25.602 137.266 28.465 134.398 32 134.398 c 38.398 134.398 l 41.934 134.398
 44.801 137.266 44.801 140.801 c 44.801 144.336 41.934 147.199 38.398 147.199
 c h
38.398 147.199 m f
83.199 147.199 m 64 147.199 l 60.465 147.199 57.602 144.336 57.602 140.801
 c 57.602 137.266 60.465 134.398 64 134.398 c 83.199 134.398 l 86.734 134.398
 89.602 137.266 89.602 140.801 c 89.602 144.336 86.734 147.199 83.199 147.199
 c h
83.199 147.199 m f
38.398 172.801 m 32 172.801 l 28.465 172.801 25.602 169.934 25.602 166.398
 c 25.602 162.867 28.465 160 32 160 c 38.398 160 l 41.934 160 44.801 162.867
 44.801 166.398 c 44.801 169.934 41.934 172.801 38.398 172.801 c h
38.398 172.801 m f
83.199 172.801 m 64 172.801 l 60.465 172.801 57.602 169.934 57.602 166.398
 c 57.602 162.867 60.465 160 64 160 c 83.199 160 l 86.734 160 89.602 162.867
 89.602 166.398 c 89.602 169.934 86.734 172.801 83.199 172.801 c h
83.199 172.801 m f
38.398 198.398 m 32 198.398 l 28.465 198.398 25.602 195.535 25.602 192 
c 25.602 188.465 28.465 185.602 32 185.602 c 38.398 185.602 l 41.934 185.602
 44.801 188.465 44.801 192 c 44.801 195.535 41.934 198.398 38.398 198.398
 c h
38.398 198.398 m f
83.199 198.398 m 64 198.398 l 60.465 198.398 57.602 195.535 57.602 192 
c 57.602 188.465 60.465 185.602 64 185.602 c 83.199 185.602 l 86.734 185.602
 89.602 188.465 89.602 192 c 89.602 195.535 86.734 198.398 83.199 198.398
 c h
83.199 198.398 m f
38.398 224 m 32 224 l 28.465 224 25.602 221.133 25.602 217.602 c 25.602
 214.066 28.465 211.199 32 211.199 c 38.398 211.199 l 41.934 211.199 44.801
 214.066 44.801 217.602 c 44.801 221.133 41.934 224 38.398 224 c h
38.398 224 m f
83.199 224 m 64 224 l 60.465 224 57.602 221.133 57.602 217.602 c 57.602
 214.066 60.465 211.199 64 211.199 c 83.199 211.199 l 86.734 211.199 89.602
 214.066 89.602 217.602 c 89.602 221.133 86.734 224 83.199 224 c h
83.199 224 m f
0.25098 0.8 0.945098 rg
166.398 224 m 134.398 224 l 130.867 224 128 221.133 128 217.602 c 128 214.066
 130.867 211.199 134.398 211.199 c 166.398 211.199 l 169.934 211.199 172.801
 214.066 172.801 217.602 c 172.801 221.133 169.934 224 166.398 224 c h
166.398 224 m f
0.65098 0.588235 0.941176 rg
275.199 224 m 192 224 l 188.465 224 185.602 221.133 185.602 217.602 c 185.602
 214.066 188.465 211.199 192 211.199 c 275.199 211.199 l 278.734 211.199
 281.602 214.066 281.602 217.602 c 281.602 221.133 278.734 224 275.199 224
 c h
275.199 224 m f
0.25098 0.8 0.945098 rg
166.398 147.199 m 134.398 147.199 l 130.867 147.199 128 144.336 128 140.801
 c 128 137.266 130.867 134.398 134.398 134.398 c 166.398 134.398 l 169.934
 134.398 172.801 137.266 172.801 140.801 c 172.801 144.336 169.934 147.199
 166.398 147.199 c h
166.398 147.199 m f
166.398 172.801 m 134.398 172.801 l 130.867 172.801 128 169.934 128 166.398
 c 128 162.867 130.867 160 134.398 160 c 166.398 160 l 169.934 160 172.801
 162.867 172.801 166.398 c 172.801 169.934 169.934 172.801 166.398 172.801
 c h
166.398 172.801 m f
0.65098 0.588235 0.941176 rg
236.801 147.199 m 192 147.199 l 188.465 147.199 185.602 144.336 185.602
 140.801 c 185.602 137.266 188.465 134.398 192 134.398 c 236.801 134.398
 l 240.336 134.398 243.199 137.266 243.199 140.801 c 243.199 144.336 240.336
 147.199 236.801 147.199 c h
236.801 147.199 m f
224 172.801 m 192 172.801 l 188.465 172.801 185.602 169.934 185.602 166.398
 c 185.602 162.867 188.465 160 192 160 c 224 160 l 227.535 160 230.398 162.867
 230.398 166.398 c 230.398 169.934 227.535 172.801 224 172.801 c h
224 172.801 m f
0.25098 0.8 0.945098 rg
140.801 121.602 m 134.398 121.602 l 130.867 121.602 128 118.734 128 115.199
 c 128 111.664 130.867 108.801 134.398 108.801 c 140.801 108.801 l 144.336
 108.801 147.199 111.664 147.199 115.199 c 147.199 118.734 144.336 121.602
 140.801 121.602 c h
140.801 121.602 m f
0.65098 0.588235 0.941176 rg
211.199 121.602 m 166.398 121.602 l 162.867 121.602 160 118.734 160 115.199
 c 160 111.664 162.867 108.801 166.398 108.801 c 211.199 108.801 l 214.734
 108.801 217.602 111.664 217.602 115.199 c 217.602 118.734 214.734 121.602
 211.199 121.602 c h
211.199 121.602 m f
0.988235 0.796078 0.333333 rg
307.199 121.602 m 236.801 121.602 l 233.266 121.602 230.398 118.734 230.398
 115.199 c 230.398 111.664 233.266 108.801 236.801 108.801 c 307.199 108.801
 l 310.734 108.801 313.602 111.664 313.602 115.199 c 313.602 118.734 310.734
 121.602 307.199 121.602 c h
307.199 121.602 m f
0.25098 0.8 0.945098 rg
140.801 198.398 m 134.398 198.398 l 130.867 198.398 128 195.535 128 192
 c 128 188.465 130.867 185.602 134.398 185.602 c 140.801 185.602 l 144.336
 185.602 147.199 188.465 147.199 192 c 147.199 195.535 144.336 198.398 140.801
 198.398 c h
140.801 198.398 m f
0.65098 0.588235 0.941176 rg
211.199 198.398 m 166.398 198.398 l 162.867 198.398 160 195.535 160 192
 c 160 188.465 162.867 185.602 166.398 185.602 c 211.199 185.602 l 214.734
 185.602 217.602 188.465 217.602 192 c 217.602 195.535 214.734 198.398 211.199
 198.398 c h
211.199 198.398 m f
0.988235 0.796078 0.333333 rg
262.398 198.398 m 236.801 198.398 l 233.266 198.398 230.398 195.535 230.398
 192 c 230.398 188.465 233.266 185.602 236.801 185.602 c 262.398 185.602
 l 265.934 185.602 268.801 188.465 268.801 192 c 268.801 195.535 265.934
 198.398 262.398 198.398 c h
262.398 198.398 m f
0.0941176 0.258824 0.286275 rg
185.602 32 m 182.066 32 179.199 34.867 179.199 38.398 c 179.199 51.199 
l 166.398 51.199 l 166.398 38.398 l 166.398 34.867 163.535 32 160 32 c 156.465
 32 153.602 34.867 153.602 38.398 c 153.602 76.801 l 153.602 80.336 156.465
 83.199 160 83.199 c 163.535 83.199 166.398 80.336 166.398 76.801 c 166.398
 64 l 179.199 64 l 179.199 76.801 l 179.199 80.336 182.066 83.199 185.602
 83.199 c 189.133 83.199 192 80.336 192 76.801 c 192 38.398 l 192 34.867
 189.133 32 185.602 32 c h
185.602 32 m f
224 32 m 211.199 32 l 207.664 32 204.801 34.867 204.801 38.398 c 204.801
 41.934 207.664 44.801 211.199 44.801 c 211.199 76.801 l 211.199 80.336 
214.066 83.199 217.602 83.199 c 221.133 83.199 224 80.336 224 76.801 c 224
 44.801 l 227.535 44.801 230.398 41.934 230.398 38.398 c 230.398 34.867 
227.535 32 224 32 c h
224 32 m f
277.055 32.273 m 274.359 31.453 271.445 32.492 269.875 34.836 c 262.398
 46.078 l 254.926 34.848 l 253.359 32.5 250.445 31.457 247.746 32.273 c 
245.047 33.09 243.199 35.578 243.199 38.398 c 243.199 76.801 l 243.199 80.336
 246.066 83.199 249.602 83.199 c 253.133 83.199 256 80.336 256 76.801 c 
256 59.52 l 257.074 61.133 l 258.332 62.812 260.305 63.801 262.398 63.801
 c 264.496 63.801 266.469 62.812 267.727 61.133 c 268.801 59.52 l 268.801
 76.801 l 268.801 80.336 271.664 83.199 275.199 83.199 c 278.734 83.199 
281.602 80.336 281.602 76.801 c 281.602 38.398 l 281.602 35.582 279.754 
33.094 277.055 32.273 c h
277.055 32.273 m f
313.602 70.398 m 307.199 70.398 l 307.199 38.398 l 307.199 34.867 304.336
 32 300.801 32 c 297.266 32 294.398 34.867 294.398 38.398 c 294.398 76.801
 l 294.398 80.336 297.266 83.199 300.801 83.199 c 313.602 83.199 l 317.133
 83.199 320 80.336 320 76.801 c 320 73.266 317.133 70.398 313.602 70.398
 c h
313.602 70.398 m f
Q Q
showpage
%%Trailer
end
%%EOF
