%!PS-Adobe-3.0 EPSF-3.0
%%Creator: cairo 1.16.0 (https://cairographics.org)
%%CreationDate: Fri Nov 29 10:41:19 2019
%%Pages: 1
%%DocumentData: Clean7Bit
%%LanguageLevel: 2
%%BoundingBox: 0 0 384 384
%%EndComments
%%BeginProlog
50 dict begin
/q { gsave } bind def
/Q { grestore } bind def
/cm { 6 array astore concat } bind def
/w { setlinewidth } bind def
/J { setlinecap } bind def
/j { setlinejoin } bind def
/M { setmiterlimit } bind def
/d { setdash } bind def
/m { moveto } bind def
/l { lineto } bind def
/c { curveto } bind def
/h { closepath } bind def
/re { exch dup neg 3 1 roll 5 3 roll moveto 0 rlineto
      0 exch rlineto 0 rlineto closepath } bind def
/S { stroke } bind def
/f { fill } bind def
/f* { eofill } bind def
/n { newpath } bind def
/W { clip } bind def
/W* { eoclip } bind def
/BT { } bind def
/ET { } bind def
/BDC { mark 3 1 roll /BDC pdfmark } bind def
/EMC { mark /EMC pdfmark } bind def
/cairo_store_point { /cairo_point_y exch def /cairo_point_x exch def } def
/Tj { show currentpoint cairo_store_point } bind def
/TJ {
  {
    dup
    type /stringtype eq
    { show } { -0.001 mul 0 cairo_font_matrix dtransform rmoveto } ifelse
  } forall
  currentpoint cairo_store_point
} bind def
/cairo_selectfont { cairo_font_matrix aload pop pop pop 0 0 6 array astore
    cairo_font exch selectfont cairo_point_x cairo_point_y moveto } bind def
/Tf { pop /cairo_font exch def /cairo_font_matrix where
      { pop cairo_selectfont } if } bind def
/Td { matrix translate cairo_font_matrix matrix concatmatrix dup
      /cairo_font_matrix exch def dup 4 get exch 5 get cairo_store_point
      /cairo_font where { pop cairo_selectfont } if } bind def
/Tm { 2 copy 8 2 roll 6 array astore /cairo_font_matrix exch def
      cairo_store_point /cairo_font where { pop cairo_selectfont } if } bind def
/g { setgray } bind def
/rg { setrgbcolor } bind def
/d1 { setcachedevice } bind def
/cairo_data_source {
  CairoDataIndex CairoData length lt
    { CairoData CairoDataIndex get /CairoDataIndex CairoDataIndex 1 add def }
    { () } ifelse
} def
/cairo_flush_ascii85_file { cairo_ascii85_file status { cairo_ascii85_file flushfile } if } def
/cairo_image { image cairo_flush_ascii85_file } def
/cairo_imagemask { imagemask cairo_flush_ascii85_file } def
%%EndProlog
%%BeginSetup
%%EndSetup
%%Page: 1 1
%%BeginPageSetup
%%PageBoundingBox: 0 0 384 384
%%EndPageSetup
q 0 0 384 384 rectclip
1 0 0 -1 0 384 cm q
0.25098 0.8 0.945098 rg
134.398 166.398 m 147.199 166.398 l 150.734 166.398 153.602 169.266 153.602
 172.801 c 153.602 281.602 l 128 281.602 l 128 172.801 l 128 169.266 130.867
 166.398 134.398 166.398 c h
134.398 166.398 m f
0.619608 0.509804 0.92549 rg
185.602 128 m 198.398 128 l 201.934 128 204.801 130.867 204.801 134.398
 c 204.801 281.602 l 179.199 281.602 l 179.199 134.398 l 179.199 130.867
 182.066 128 185.602 128 c h
185.602 128 m f
0.988235 0.796078 0.333333 rg
236.801 179.199 m 249.602 179.199 l 253.133 179.199 256 182.066 256 185.602
 c 256 281.602 l 230.398 281.602 l 230.398 185.602 l 230.398 182.066 233.266
 179.199 236.801 179.199 c h
236.801 179.199 m f
0.117647 0.313726 0.356863 rg
281.602 275.199 m 108.801 275.199 l 108.801 102.398 l 108.801 98.867 105.934
 96 102.398 96 c 96 96 l 92.465 96 89.602 98.867 89.602 102.398 c 89.602
 105.934 92.465 108.801 96 108.801 c 96 121.602 l 92.465 121.602 89.602 
124.465 89.602 128 c 89.602 131.535 92.465 134.398 96 134.398 c 96 147.199
 l 92.465 147.199 89.602 150.066 89.602 153.602 c 89.602 157.133 92.465 
160 96 160 c 96 172.801 l 92.465 172.801 89.602 175.664 89.602 179.199 c
 89.602 182.734 92.465 185.602 96 185.602 c 96 198.398 l 92.465 198.398 
89.602 201.266 89.602 204.801 c 89.602 208.336 92.465 211.199 96 211.199
 c 96 224 l 92.465 224 89.602 226.867 89.602 230.398 c 89.602 233.934 92.465
 236.801 96 236.801 c 96 249.602 l 92.465 249.602 89.602 252.465 89.602 
256 c 89.602 259.535 92.465 262.398 96 262.398 c 96 275.199 l 92.465 275.199
 89.602 278.066 89.602 281.602 c 89.602 285.133 92.465 288 96 288 c 96 291.535
 98.867 294.398 102.398 294.398 c 105.934 294.398 108.801 291.535 108.801
 288 c 121.602 288 l 121.602 291.535 124.465 294.398 128 294.398 c 131.535
 294.398 134.398 291.535 134.398 288 c 147.199 288 l 147.199 291.535 150.066
 294.398 153.602 294.398 c 157.133 294.398 160 291.535 160 288 c 172.801
 288 l 172.801 291.535 175.664 294.398 179.199 294.398 c 182.734 294.398
 185.602 291.535 185.602 288 c 198.398 288 l 198.398 291.535 201.266 294.398
 204.801 294.398 c 208.336 294.398 211.199 291.535 211.199 288 c 224 288
 l 224 291.535 226.867 294.398 230.398 294.398 c 233.934 294.398 236.801
 291.535 236.801 288 c 249.602 288 l 249.602 291.535 252.465 294.398 256
 294.398 c 259.535 294.398 262.398 291.535 262.398 288 c 275.199 288 l 275.199
 291.535 278.066 294.398 281.602 294.398 c 285.133 294.398 288 291.535 288
 288 c 288 281.602 l 288 278.066 285.133 275.199 281.602 275.199 c h
281.602 275.199 m f
0.152941 0.435294 0.509804 rg
192 358.398 m 124.699 358.398 64.023 317.859 38.266 255.68 c 12.512 193.5
 26.746 121.926 74.336 74.336 c 121.926 26.746 193.5 12.512 255.68 38.266
 c 317.859 64.023 358.398 124.699 358.398 192 c 358.297 283.859 283.859 
358.297 192 358.398 c h
192 38.398 m 129.875 38.398 73.867 75.824 50.094 133.219 c 26.316 190.617
 39.461 256.684 83.387 300.613 c 127.316 344.539 193.383 357.684 250.781
 333.906 c 308.176 310.133 345.602 254.125 345.602 192 c 345.5 107.211 276.789
 38.5 192 38.398 c h
192 38.398 m f
0.117647 0.313726 0.356863 rg
192 64 m 188.465 64 185.602 61.133 185.602 57.602 c 185.602 6.398 l 185.602
 2.867 188.465 0 192 0 c 195.535 0 198.398 2.867 198.398 6.398 c 198.398
 57.602 l 198.398 61.133 195.535 64 192 64 c h
192 64 m f
57.602 198.398 m 6.398 198.398 l 2.867 198.398 0 195.535 0 192 c 0 188.465
 2.867 185.602 6.398 185.602 c 57.602 185.602 l 61.133 185.602 64 188.465
 64 192 c 64 195.535 61.133 198.398 57.602 198.398 c h
57.602 198.398 m f
192 384 m 188.465 384 185.602 381.133 185.602 377.602 c 185.602 326.398
 l 185.602 322.867 188.465 320 192 320 c 195.535 320 198.398 322.867 198.398
 326.398 c 198.398 377.602 l 198.398 381.133 195.535 384 192 384 c h
192 384 m f
377.602 198.398 m 326.398 198.398 l 322.867 198.398 320 195.535 320 192
 c 320 188.465 322.867 185.602 326.398 185.602 c 377.602 185.602 l 381.133
 185.602 384 188.465 384 192 c 384 195.535 381.133 198.398 377.602 198.398
 c h
377.602 198.398 m f
Q Q
showpage
%%Trailer
end
%%EOF
