%!PS-Adobe-3.0 EPSF-3.0
%%Creator: cairo 1.16.0 (https://cairographics.org)
%%CreationDate: Fri Nov 29 10:41:20 2019
%%Pages: 1
%%DocumentData: Clean7Bit
%%LanguageLevel: 2
%%BoundingBox: 6 6 378 378
%%EndComments
%%BeginProlog
50 dict begin
/q { gsave } bind def
/Q { grestore } bind def
/cm { 6 array astore concat } bind def
/w { setlinewidth } bind def
/J { setlinecap } bind def
/j { setlinejoin } bind def
/M { setmiterlimit } bind def
/d { setdash } bind def
/m { moveto } bind def
/l { lineto } bind def
/c { curveto } bind def
/h { closepath } bind def
/re { exch dup neg 3 1 roll 5 3 roll moveto 0 rlineto
      0 exch rlineto 0 rlineto closepath } bind def
/S { stroke } bind def
/f { fill } bind def
/f* { eofill } bind def
/n { newpath } bind def
/W { clip } bind def
/W* { eoclip } bind def
/BT { } bind def
/ET { } bind def
/BDC { mark 3 1 roll /BDC pdfmark } bind def
/EMC { mark /EMC pdfmark } bind def
/cairo_store_point { /cairo_point_y exch def /cairo_point_x exch def } def
/Tj { show currentpoint cairo_store_point } bind def
/TJ {
  {
    dup
    type /stringtype eq
    { show } { -0.001 mul 0 cairo_font_matrix dtransform rmoveto } ifelse
  } forall
  currentpoint cairo_store_point
} bind def
/cairo_selectfont { cairo_font_matrix aload pop pop pop 0 0 6 array astore
    cairo_font exch selectfont cairo_point_x cairo_point_y moveto } bind def
/Tf { pop /cairo_font exch def /cairo_font_matrix where
      { pop cairo_selectfont } if } bind def
/Td { matrix translate cairo_font_matrix matrix concatmatrix dup
      /cairo_font_matrix exch def dup 4 get exch 5 get cairo_store_point
      /cairo_font where { pop cairo_selectfont } if } bind def
/Tm { 2 copy 8 2 roll 6 array astore /cairo_font_matrix exch def
      cairo_store_point /cairo_font where { pop cairo_selectfont } if } bind def
/g { setgray } bind def
/rg { setrgbcolor } bind def
/d1 { setcachedevice } bind def
/cairo_data_source {
  CairoDataIndex CairoData length lt
    { CairoData CairoDataIndex get /CairoDataIndex CairoDataIndex 1 add def }
    { () } ifelse
} def
/cairo_flush_ascii85_file { cairo_ascii85_file status { cairo_ascii85_file flushfile } if } def
/cairo_image { image cairo_flush_ascii85_file } def
/cairo_imagemask { imagemask cairo_flush_ascii85_file } def
%%EndProlog
%%BeginSetup
%%EndSetup
%%Page: 1 1
%%BeginPageSetup
%%PageBoundingBox: 6 6 378 378
%%EndPageSetup
q 6 6 372 372 rectclip
1 0 0 -1 0 384 cm q
0.858824 g
313.602 192 m 313.602 259.156 259.156 313.602 192 313.602 c 124.844 313.602
 70.398 259.156 70.398 192 c 70.398 124.844 124.844 70.398 192 70.398 c 
259.156 70.398 313.602 124.844 313.602 192 c h
313.602 192 m f
0.8 0.815686 0.854902 rg
376.895 176.129 m 376.492 172.105 373.871 168.648 370.113 167.168 c 340.16
 155.199 l 336.512 140.426 330.641 126.293 322.754 113.281 c 335.488 83.648
 l 337.129 79.922 336.535 75.594 333.953 72.449 c 330.625 68.414 326.977
 64.512 323.266 60.734 c 319.551 56.961 315.586 53.375 311.551 50.047 c 
308.406 47.465 304.078 46.871 300.352 48.512 c 270.719 61.246 l 257.707 
53.359 243.574 47.488 228.801 43.84 c 216.832 13.887 l 215.352 10.129 211.895
 7.508 207.871 7.105 c 202.625 6.594 197.312 6.398 192 6.398 c 186.688 6.398
 181.375 6.594 176.129 7.105 c 172.105 7.508 168.648 10.129 167.168 13.887
 c 155.199 43.84 l 140.426 47.488 126.293 53.359 113.281 61.246 c 83.648
 48.512 l 79.922 46.871 75.594 47.465 72.449 50.047 c 68.414 53.375 64.512
 57.023 60.734 60.734 c 56.961 64.449 53.375 68.414 50.047 72.449 c 47.465
 75.594 46.871 79.922 48.512 83.648 c 61.246 113.281 l 53.359 126.293 47.488
 140.426 43.84 155.199 c 13.887 167.168 l 10.129 168.648 7.508 172.105 7.105
 176.129 c 6.594 181.375 6.398 186.688 6.398 192 c 6.398 197.312 6.594 202.625
 7.105 207.871 c 7.508 211.895 10.129 215.352 13.887 216.832 c 43.84 228.801
 l 47.488 243.574 53.359 257.707 61.246 270.719 c 48.512 300.352 l 46.871
 304.078 47.465 308.406 50.047 311.551 c 53.375 315.586 57.023 319.488 60.734
 323.266 c 64.449 327.039 68.414 330.625 72.449 333.953 c 75.594 336.535
 79.922 337.129 83.648 335.488 c 113.281 322.754 l 126.293 330.641 140.426
 336.512 155.199 340.16 c 167.168 370.113 l 168.648 373.871 172.105 376.492
 176.129 376.895 c 181.375 377.406 186.688 377.602 192 377.602 c 197.312
 377.602 202.625 377.406 207.871 376.895 c 211.895 376.492 215.352 373.871
 216.832 370.113 c 228.801 340.16 l 243.574 336.512 257.707 330.641 270.719
 322.754 c 300.352 335.488 l 304.078 337.129 308.406 336.535 311.551 333.953
 c 315.586 330.625 319.488 326.977 323.266 323.266 c 327.039 319.551 330.625
 315.586 333.953 311.551 c 336.535 308.406 337.129 304.078 335.488 300.352
 c 322.754 270.719 l 330.641 257.707 336.512 243.574 340.16 228.801 c 370.113
 216.832 l 373.871 215.352 376.492 211.895 376.895 207.871 c 377.406 202.625
 377.602 197.312 377.602 192 c 377.602 186.688 377.406 181.375 376.895 176.129
 c h
192 307.199 m 145.406 307.199 103.398 279.133 85.57 236.086 c 67.738 193.039
 77.594 143.488 110.543 110.543 c 143.488 77.594 193.039 67.738 236.086 
85.57 c 279.133 103.398 307.199 145.406 307.199 192 c 307.105 255.582 255.582
 307.105 192 307.199 c h
192 307.199 m f
0.980392 0.631373 0.0862745 rg
108.801 153.602 m 121.602 153.602 l 125.145 153.602 128 156.453 128 160
 c 128 172.801 l 128 176.344 125.145 179.199 121.602 179.199 c 108.801 179.199
 l 105.254 179.199 102.398 176.344 102.398 172.801 c 102.398 160 l 102.398
 156.453 105.254 153.602 108.801 153.602 c h
108.801 153.602 m f
0.168627 0.713726 0.909804 rg
185.602 153.602 m 198.398 153.602 l 201.945 153.602 204.801 156.453 204.801
 160 c 204.801 172.801 l 204.801 176.344 201.945 179.199 198.398 179.199
 c 185.602 179.199 l 182.055 179.199 179.199 176.344 179.199 172.801 c 179.199
 160 l 179.199 156.453 182.055 153.602 185.602 153.602 c h
185.602 153.602 m f
0.619608 0.509804 0.92549 rg
262.398 153.602 m 275.199 153.602 l 278.746 153.602 281.602 156.453 281.602
 160 c 281.602 172.801 l 281.602 176.344 278.746 179.199 275.199 179.199
 c 262.398 179.199 l 258.855 179.199 256 176.344 256 172.801 c 256 160 l
 256 156.453 258.855 153.602 262.398 153.602 c h
262.398 153.602 m f
0.980392 0.631373 0.0862745 rg
108.801 204.801 m 121.602 204.801 l 125.145 204.801 128 207.656 128 211.199
 c 128 224 l 128 227.547 125.145 230.398 121.602 230.398 c 108.801 230.398
 l 105.254 230.398 102.398 227.547 102.398 224 c 102.398 211.199 l 102.398
 207.656 105.254 204.801 108.801 204.801 c h
108.801 204.801 m f
0.168627 0.713726 0.909804 rg
185.602 204.801 m 198.398 204.801 l 201.945 204.801 204.801 207.656 204.801
 211.199 c 204.801 224 l 204.801 227.547 201.945 230.398 198.398 230.398
 c 185.602 230.398 l 182.055 230.398 179.199 227.547 179.199 224 c 179.199
 211.199 l 179.199 207.656 182.055 204.801 185.602 204.801 c h
185.602 204.801 m f
0.619608 0.509804 0.92549 rg
262.398 204.801 m 275.199 204.801 l 278.746 204.801 281.602 207.656 281.602
 211.199 c 281.602 224 l 281.602 227.547 278.746 230.398 275.199 230.398
 c 262.398 230.398 l 258.855 230.398 256 227.547 256 224 c 256 211.199 l
 256 207.656 258.855 204.801 262.398 204.801 c h
262.398 204.801 m f
0.980392 0.631373 0.0862745 rg
109.887 281.602 m 121.602 281.602 l 125.133 281.602 128 278.734 128 275.199
 c 128 262.398 l 128 258.867 125.133 256 121.602 256 c 108.801 256 l 105.266
 256 102.398 258.867 102.398 262.398 c 102.398 274.113 l f
0.168627 0.713726 0.909804 rg
185.602 256 m 198.398 256 l 201.945 256 204.801 258.855 204.801 262.398
 c 204.801 275.199 l 204.801 278.746 201.945 281.602 198.398 281.602 c 185.602
 281.602 l 182.055 281.602 179.199 278.746 179.199 275.199 c 179.199 262.398
 l 179.199 258.855 182.055 256 185.602 256 c h
185.602 256 m f
0.619608 0.509804 0.92549 rg
274.113 281.602 m 262.398 281.602 l 258.867 281.602 256 278.734 256 275.199
 c 256 262.398 l 256 258.867 258.867 256 262.398 256 c 275.199 256 l 278.734
 256 281.602 258.867 281.602 262.398 c 281.602 274.113 l f
0.666667 g
295.359 121.602 m 236.801 121.602 l 236.801 76.672 l 236.801 73.137 233.934
 70.273 230.398 70.273 c 226.867 70.273 224 73.137 224 76.672 c 224 121.602
 l 160 121.602 l 160 76.672 l 160 73.137 157.133 70.273 153.602 70.273 c
 150.066 70.273 147.199 73.137 147.199 76.672 c 147.199 121.602 l 88.641
 121.602 l 85.105 121.602 82.238 124.465 82.238 128 c 82.238 131.535 85.105
 134.398 88.641 134.398 c 147.199 134.398 l 147.199 307.328 l 147.199 310.863
 150.066 313.727 153.602 313.727 c 157.133 313.727 160 310.863 160 307.328
 c 160 134.398 l 224 134.398 l 224 307.328 l 224 310.863 226.867 313.727
 230.398 313.727 c 233.934 313.727 236.801 310.863 236.801 307.328 c 236.801
 134.398 l 295.359 134.398 l 297.059 134.398 298.684 133.727 299.887 132.527
 c 301.086 131.324 301.762 129.699 301.762 128 c 301.762 126.301 301.086
 124.676 299.887 123.473 c 298.684 122.273 297.059 121.602 295.359 121.602
 c h
295.359 121.602 m f
0.72549 0.74902 0.8 rg
192 64 m 140.23 64 93.555 95.188 73.742 143.016 c 53.93 190.848 64.883 
245.902 101.492 282.508 c 138.098 319.117 193.152 330.07 240.984 310.258
 c 288.812 290.445 320 243.77 320 192 c 319.93 121.336 262.664 64.07 192
 64 c h
192 307.199 m 145.406 307.199 103.398 279.133 85.57 236.086 c 67.738 193.039
 77.594 143.488 110.543 110.543 c 143.488 77.594 193.039 67.738 236.086 
85.57 c 279.133 103.398 307.199 145.406 307.199 192 c 307.105 255.582 255.582
 307.105 192 307.199 c h
192 307.199 m f
Q Q
showpage
%%Trailer
end
%%EOF
