%!PS-Adobe-3.0 EPSF-3.0
%%Creator: cairo 1.16.0 (https://cairographics.org)
%%CreationDate: Fri Nov 29 10:41:20 2019
%%Pages: 1
%%DocumentData: Clean7Bit
%%LanguageLevel: 2
%%BoundingBox: 6 6 384 378
%%EndComments
%%BeginProlog
50 dict begin
/q { gsave } bind def
/Q { grestore } bind def
/cm { 6 array astore concat } bind def
/w { setlinewidth } bind def
/J { setlinecap } bind def
/j { setlinejoin } bind def
/M { setmiterlimit } bind def
/d { setdash } bind def
/m { moveto } bind def
/l { lineto } bind def
/c { curveto } bind def
/h { closepath } bind def
/re { exch dup neg 3 1 roll 5 3 roll moveto 0 rlineto
      0 exch rlineto 0 rlineto closepath } bind def
/S { stroke } bind def
/f { fill } bind def
/f* { eofill } bind def
/n { newpath } bind def
/W { clip } bind def
/W* { eoclip } bind def
/BT { } bind def
/ET { } bind def
/BDC { mark 3 1 roll /BDC pdfmark } bind def
/EMC { mark /EMC pdfmark } bind def
/cairo_store_point { /cairo_point_y exch def /cairo_point_x exch def } def
/Tj { show currentpoint cairo_store_point } bind def
/TJ {
  {
    dup
    type /stringtype eq
    { show } { -0.001 mul 0 cairo_font_matrix dtransform rmoveto } ifelse
  } forall
  currentpoint cairo_store_point
} bind def
/cairo_selectfont { cairo_font_matrix aload pop pop pop 0 0 6 array astore
    cairo_font exch selectfont cairo_point_x cairo_point_y moveto } bind def
/Tf { pop /cairo_font exch def /cairo_font_matrix where
      { pop cairo_selectfont } if } bind def
/Td { matrix translate cairo_font_matrix matrix concatmatrix dup
      /cairo_font_matrix exch def dup 4 get exch 5 get cairo_store_point
      /cairo_font where { pop cairo_selectfont } if } bind def
/Tm { 2 copy 8 2 roll 6 array astore /cairo_font_matrix exch def
      cairo_store_point /cairo_font where { pop cairo_selectfont } if } bind def
/g { setgray } bind def
/rg { setrgbcolor } bind def
/d1 { setcachedevice } bind def
/cairo_data_source {
  CairoDataIndex CairoData length lt
    { CairoData CairoDataIndex get /CairoDataIndex CairoDataIndex 1 add def }
    { () } ifelse
} def
/cairo_flush_ascii85_file { cairo_ascii85_file status { cairo_ascii85_file flushfile } if } def
/cairo_image { image cairo_flush_ascii85_file } def
/cairo_imagemask { imagemask cairo_flush_ascii85_file } def
%%EndProlog
%%BeginSetup
%%EndSetup
%%Page: 1 1
%%BeginPageSetup
%%PageBoundingBox: 6 6 384 378
%%EndPageSetup
q 6 6 378 372 rectclip
1 0 0 -1 0 384 cm q
0.298039 g
44.801 364.801 m 377.602 364.801 l 381.133 364.801 384 367.664 384 371.199
 c 384 374.734 381.133 377.602 377.602 377.602 c 44.801 377.602 l h
44.801 364.801 m f
0.686275 0.709804 0.74902 rg
147.199 281.602 140.801 38.398 re f
0.8 0.815686 0.854902 rg
326.398 342.656 m 326.398 364.801 l 108.801 364.801 l 108.801 342.656 l
 108.805 341.43 109.16 340.23 109.824 339.199 c 110.289 338.426 110.922 
337.77 111.68 337.281 c 147.199 313.602 l 288 313.602 l 323.52 337.281 l
 324.277 337.77 324.914 338.426 325.375 339.199 c 326.039 340.23 326.395
 341.43 326.398 342.656 c h
326.398 342.656 m f
377.602 236.801 m 377.602 268.801 l 377.602 279.402 369.004 288 358.398
 288 c 57.602 288 l 57.602 236.801 l 64 230.398 l 371.199 230.398 l h
377.602 236.801 m f
0.152941 0.435294 0.509804 rg
377.602 25.602 m 377.602 236.801 l 57.602 236.801 l 57.602 25.602 l 57.602
 14.996 66.195 6.398 76.801 6.398 c 358.398 6.398 l 369.004 6.398 377.602
 14.996 377.602 25.602 c h
377.602 25.602 m f
0.8 0.815686 0.854902 rg
341.977 133.582 m 343.797 132.871 345.066 131.203 345.266 129.262 c 345.496
 126.734 345.602 124.141 345.602 121.582 c 345.602 119.02 345.496 116.461
 345.266 113.902 c 345.066 111.957 343.797 110.289 341.977 109.582 c 327.539
 103.82 l 325.766 96.688 322.934 89.859 319.129 83.57 c 325.266 69.254 l
 326.051 67.465 325.77 65.387 324.539 63.871 c 322.91 61.953 321.172 60.031
 319.355 58.223 c 317.535 56.41 315.656 54.664 313.703 53.035 c 312.188 
51.805 310.109 51.523 308.32 52.309 c 294.004 58.445 l 287.715 54.641 280.887
 51.809 273.754 50.035 c 267.992 35.598 l 267.285 33.777 265.617 32.508 
263.672 32.309 c 261.121 32.102 258.559 32 256 32 c 253.441 32 250.879 32.102
 248.32 32.332 c 246.379 32.531 244.711 33.805 244 35.621 c 238.238 50.062
 l 231.105 51.832 224.281 54.668 217.992 58.469 c 203.672 52.332 l 201.883
 51.547 199.805 51.828 198.293 53.062 c 196.34 54.688 194.453 56.43 192.641
 58.246 c 190.828 60.062 189.082 61.945 187.457 63.898 c 186.223 65.414 
185.941 67.492 186.727 69.281 c 192.863 83.598 l 189.062 89.887 186.227 
96.715 184.453 103.848 c 170.016 109.605 l 168.195 110.316 166.926 111.984
 166.727 113.926 c 166.504 116.48 166.398 119.039 166.398 121.602 c 166.398
 124.16 166.504 126.719 166.734 129.281 c 166.934 131.223 168.203 132.891
 170.023 133.602 c 184.461 139.359 l 186.234 146.492 189.066 153.32 192.871
 159.609 c 186.734 173.926 l 185.949 175.715 186.23 177.793 187.461 179.309
 c 189.09 181.262 190.828 183.148 192.645 184.961 c 194.465 186.77 196.344
 188.52 198.297 190.145 c 199.812 191.379 201.891 191.66 203.68 190.875 
c 217.996 184.734 l 224.285 188.539 231.113 191.375 238.246 193.145 c 244.008
 207.586 l 244.715 209.402 246.383 210.672 248.328 210.875 c 250.887 211.105
 253.445 211.207 256.008 211.207 c 258.566 211.207 261.125 211.105 263.688
 210.875 c 265.629 210.672 267.297 209.402 268.008 207.586 c 273.766 193.145
 l 280.898 191.375 287.727 188.539 294.016 184.734 c 308.332 190.875 l 310.121
 191.66 312.199 191.379 313.715 190.145 c 315.637 188.52 317.555 186.777
 319.367 184.961 c 321.176 183.141 322.926 181.262 324.551 179.309 c 325.785
 177.793 326.066 175.715 325.281 173.926 c 319.141 159.609 l 322.945 153.32
 325.781 146.492 327.551 139.359 c h
341.977 133.582 m f
0.686275 0.709804 0.74902 rg
307.199 121.602 m 307.199 149.879 284.277 172.801 256 172.801 c 227.723
 172.801 204.801 149.879 204.801 121.602 c 204.801 93.324 227.723 70.398
 256 70.398 c 284.277 70.398 307.199 93.324 307.199 121.602 c h
307.199 121.602 m f
0.8 0.815686 0.854902 rg
281.602 121.602 m 281.602 135.738 270.137 147.199 256 147.199 c 241.863
 147.199 230.398 135.738 230.398 121.602 c 230.398 107.461 241.863 96 256
 96 c 270.137 96 281.602 107.461 281.602 121.602 c h
281.602 121.602 m f
0.686275 0.709804 0.74902 rg
326.398 342.656 m 326.398 364.801 l 108.801 364.801 l 108.801 342.656 l
 108.805 341.43 109.16 340.23 109.824 339.199 c 325.375 339.199 l 326.039
 340.23 326.395 341.43 326.398 342.656 c h
326.398 342.656 m f
44.16 138.176 m 7.105 332.16 l 5.09 342.52 7.426 353.254 13.57 361.84 c
 19.711 370.422 29.117 376.102 39.574 377.535 c 50.031 378.973 60.617 376.039
 68.848 369.43 c 77.074 362.82 82.219 353.113 83.07 342.594 c 100.031 145.984
 l h
44.801 352 m 39.621 352 34.957 348.883 32.973 344.098 c 30.992 339.316 
32.09 333.809 35.75 330.148 c 39.41 326.488 44.914 325.395 49.699 327.375
 c 54.48 329.355 57.602 334.023 57.602 339.199 c 57.578 346.262 51.859 351.98
 44.801 352 c h
44.801 352 m f
0.8 0.815686 0.854902 rg
114.438 46.766 m 112.625 45.352 110.191 45.012 108.059 45.875 c 105.926
 46.742 104.418 48.676 104.102 50.957 c 97.984 95.156 l 97.754 96.84 96.867
 98.363 95.512 99.391 c 94.156 100.422 92.449 100.867 90.766 100.633 c 65.406
 97.141 l 63.723 96.906 62.203 96.016 61.176 94.66 c 60.152 93.305 59.707
 91.598 59.941 89.914 c 66.062 45.715 l 66.398 43.426 65.473 41.133 63.641
 39.719 c 61.809 38.305 59.359 37.988 57.23 38.895 c 37.59 46.926 23.949
 65.094 21.723 86.195 c 18.742 116.387 39.441 143.812 69.293 149.223 c 95.352
 153.594 121.051 139.727 131.707 115.547 c 142.359 91.371 135.25 63.043 
114.438 46.766 c h
114.438 46.766 m f
0.537255 0.568627 0.627451 rg
230.398 268.801 m 204.801 268.801 l 201.266 268.801 198.398 265.934 198.398
 262.398 c 198.398 258.867 201.266 256 204.801 256 c 230.398 256 l 233.934
 256 236.801 258.867 236.801 262.398 c 236.801 265.934 233.934 268.801 230.398
 268.801 c h
230.398 268.801 m f
Q Q
showpage
%%Trailer
end
%%EOF
