%!PS-Adobe-3.0 EPSF-3.0
%%Creator: cairo 1.16.0 (https://cairographics.org)
%%CreationDate: Fri Nov 29 10:41:21 2019
%%Pages: 1
%%DocumentData: Clean7Bit
%%LanguageLevel: 2
%%BoundingBox: 44 6 340 378
%%EndComments
%%BeginProlog
50 dict begin
/q { gsave } bind def
/Q { grestore } bind def
/cm { 6 array astore concat } bind def
/w { setlinewidth } bind def
/J { setlinecap } bind def
/j { setlinejoin } bind def
/M { setmiterlimit } bind def
/d { setdash } bind def
/m { moveto } bind def
/l { lineto } bind def
/c { curveto } bind def
/h { closepath } bind def
/re { exch dup neg 3 1 roll 5 3 roll moveto 0 rlineto
      0 exch rlineto 0 rlineto closepath } bind def
/S { stroke } bind def
/f { fill } bind def
/f* { eofill } bind def
/n { newpath } bind def
/W { clip } bind def
/W* { eoclip } bind def
/BT { } bind def
/ET { } bind def
/BDC { mark 3 1 roll /BDC pdfmark } bind def
/EMC { mark /EMC pdfmark } bind def
/cairo_store_point { /cairo_point_y exch def /cairo_point_x exch def } def
/Tj { show currentpoint cairo_store_point } bind def
/TJ {
  {
    dup
    type /stringtype eq
    { show } { -0.001 mul 0 cairo_font_matrix dtransform rmoveto } ifelse
  } forall
  currentpoint cairo_store_point
} bind def
/cairo_selectfont { cairo_font_matrix aload pop pop pop 0 0 6 array astore
    cairo_font exch selectfont cairo_point_x cairo_point_y moveto } bind def
/Tf { pop /cairo_font exch def /cairo_font_matrix where
      { pop cairo_selectfont } if } bind def
/Td { matrix translate cairo_font_matrix matrix concatmatrix dup
      /cairo_font_matrix exch def dup 4 get exch 5 get cairo_store_point
      /cairo_font where { pop cairo_selectfont } if } bind def
/Tm { 2 copy 8 2 roll 6 array astore /cairo_font_matrix exch def
      cairo_store_point /cairo_font where { pop cairo_selectfont } if } bind def
/g { setgray } bind def
/rg { setrgbcolor } bind def
/d1 { setcachedevice } bind def
/cairo_data_source {
  CairoDataIndex CairoData length lt
    { CairoData CairoDataIndex get /CairoDataIndex CairoDataIndex 1 add def }
    { () } ifelse
} def
/cairo_flush_ascii85_file { cairo_ascii85_file status { cairo_ascii85_file flushfile } if } def
/cairo_image { image cairo_flush_ascii85_file } def
/cairo_imagemask { imagemask cairo_flush_ascii85_file } def
%%EndProlog
%%BeginSetup
%%EndSetup
%%Page: 1 1
%%BeginPageSetup
%%PageBoundingBox: 44 6 340 378
%%EndPageSetup
q 44 6 296 372 rectclip
1 0 0 -1 0 384 cm q
0.298039 g
262.398 275.199 m 304.816 275.199 339.199 309.586 339.199 352 c 339.199
 371.199 l 339.199 374.734 336.336 377.602 332.801 377.602 c 51.199 377.602
 l 47.664 377.602 44.801 374.734 44.801 371.199 c 44.801 352 l 44.801 309.586
 79.184 275.199 121.602 275.199 c h
262.398 275.199 m f
1 g
256 275.199 m 256 275.199 256 358.398 217.602 377.602 c 166.398 377.602
 l 128 364.801 128 275.199 128 275.199 c h
256 275.199 m f
0.988235 0.796078 0.333333 rg
246.91 209.152 m 236.711 214.754 230.379 225.48 230.398 237.121 c 153.602
 237.121 l 153.594 234.863 153.359 232.609 152.895 230.398 c 150.863 221.457
 145.176 213.773 137.215 209.215 c 94.758 184.465 74.16 134.32 86.969 86.871
 c 99.773 39.422 142.797 6.449 191.945 6.422 c 241.094 6.391 284.156 39.316
 297.02 86.75 c 309.879 134.184 289.344 184.352 246.91 209.152 c h
246.91 209.152 m f
0.686275 g
230.398 237.184 m 230.398 288 l 153.602 288 l 153.602 237.121 l h
230.398 237.184 m f
0.941176 0.94902 0.960784 rg
192 288 m 180.387 288.367 169.73 294.547 163.648 304.449 c 162.008 307.312
 160.777 310.395 160 313.602 c 160 313.602 128 300.801 128 275.199 c 134.398
 262.398 153.602 262.398 153.602 262.398 c 154.512 264.707 155.762 266.863
 157.312 268.801 c 166.078 279.301 178.449 286.148 192 288 c h
192 288 m f
256 275.199 m 256 300.801 224 313.602 224 313.602 c 223.223 310.395 221.992
 307.312 220.352 304.449 c 214.27 294.547 203.613 288.367 192 288 c 205.551
 286.148 217.922 279.301 226.688 268.801 c 228.238 266.863 229.488 264.707
 230.398 262.398 c 230.398 262.398 249.602 262.398 256 275.199 c h
256 275.199 m f
0.92549 0.227451 0.282353 rg
220.352 304.449 m 204.801 320 l 179.199 320 l 163.648 304.449 l 169.73 
294.547 180.387 288.367 192 288 c 203.613 288.367 214.27 294.547 220.352
 304.449 c h
220.352 304.449 m f
0.85098 0.160784 0.211765 rg
217.602 377.602 m 204.801 320 l 179.199 320 l 166.398 377.602 l h
217.602 377.602 m f
1 0.87451 0.6 rg
115.199 89.602 m 113.059 89.602 111.059 88.531 109.871 86.746 c 108.684
 84.965 108.465 82.707 109.293 80.73 c 123.18 47.32 155.82 25.562 192 25.602
 c 195.535 25.602 198.398 28.465 198.398 32 c 198.398 35.535 195.535 38.398
 192 38.398 c 160.984 38.371 133.004 57.027 121.105 85.672 c 120.109 88.051
 117.781 89.602 115.199 89.602 c h
115.199 89.602 m f
108.801 121.602 m 105.266 121.602 102.398 118.734 102.398 115.199 c 102.398
 112.883 102.488 110.578 102.664 108.309 c 102.961 104.805 106.027 102.199
 109.531 102.469 c 113.035 102.738 115.668 105.785 115.426 109.293 c 115.277
 111.211 115.199 113.203 115.199 115.199 c 115.199 118.734 112.336 121.602
 108.801 121.602 c h
108.801 121.602 m f
0.839216 0.666667 0.278431 rg
204.801 243.199 m 202.762 243.199 200.844 242.23 199.641 240.586 c 198.434
 238.941 198.082 236.824 198.695 234.879 c 228.102 140.801 l 223.957 140.801
 l 219.52 140.824 215.238 139.18 211.957 136.199 c 210.266 134.855 209.707
 134.398 207.941 134.398 c 206.176 134.398 205.625 134.848 203.949 136.191
 c 197.133 142.328 186.785 142.328 179.969 136.191 c 178.293 134.848 177.727
 134.398 175.98 134.398 c 174.234 134.398 173.664 134.848 171.988 136.191
 c 168.715 139.18 164.434 140.828 160 140.801 c 155.902 140.801 l 185.305
 234.879 l 185.816 236.5 185.66 238.254 184.875 239.758 c 184.09 241.266
 182.738 242.395 181.121 242.906 c 179.5 243.414 177.746 243.262 176.242
 242.477 c 174.734 241.691 173.605 240.34 173.094 238.719 c 143.688 144.641
 l 142.465 140.75 143.168 136.512 145.578 133.223 c 147.992 129.938 151.828
 127.996 155.902 128 c 160 128 l 161.742 128 162.309 127.551 163.988 126.207
 c 170.805 120.07 181.152 120.07 187.969 126.207 c 189.645 127.551 190.215
 128 191.957 128 c 193.695 128 194.273 127.551 195.949 126.207 c 202.766
 120.062 213.125 120.062 219.941 126.207 c 221.633 127.551 222.195 128.008
 223.957 128.008 c 228.098 128.008 l 232.172 128.004 236.008 129.945 238.422
 133.23 c 240.832 136.516 241.535 140.758 240.312 144.645 c 210.906 238.719
 l 210.066 241.387 207.594 243.199 204.801 243.199 c h
204.801 243.199 m f
0.607843 g
230.398 256 m 230.398 262.398 l 229.488 264.707 228.238 266.863 226.688
 268.801 c 157.312 268.801 l 155.762 266.863 154.512 264.707 153.602 262.398
 c 153.602 256 l h
230.398 256 m f
153.602 243.199 m 153.602 237.121 l 230.398 237.184 l 230.398 243.199 l
 h
153.602 243.199 m f
230.398 237.121 m 153.602 237.121 l 153.594 234.863 153.359 232.609 152.895
 230.398 c 231.105 230.398 l 230.641 232.609 230.406 234.863 230.398 237.121
 c h
230.398 237.121 m f
Q Q
showpage
%%Trailer
end
%%EOF
