%!PS-Adobe-3.0 EPSF-3.0
%%Creator: cairo 1.16.0 (https://cairographics.org)
%%CreationDate: Fri Nov 29 10:41:21 2019
%%Pages: 1
%%DocumentData: Clean7Bit
%%LanguageLevel: 2
%%BoundingBox: 6 6 378 378
%%EndComments
%%BeginProlog
50 dict begin
/q { gsave } bind def
/Q { grestore } bind def
/cm { 6 array astore concat } bind def
/w { setlinewidth } bind def
/J { setlinecap } bind def
/j { setlinejoin } bind def
/M { setmiterlimit } bind def
/d { setdash } bind def
/m { moveto } bind def
/l { lineto } bind def
/c { curveto } bind def
/h { closepath } bind def
/re { exch dup neg 3 1 roll 5 3 roll moveto 0 rlineto
      0 exch rlineto 0 rlineto closepath } bind def
/S { stroke } bind def
/f { fill } bind def
/f* { eofill } bind def
/n { newpath } bind def
/W { clip } bind def
/W* { eoclip } bind def
/BT { } bind def
/ET { } bind def
/BDC { mark 3 1 roll /BDC pdfmark } bind def
/EMC { mark /EMC pdfmark } bind def
/cairo_store_point { /cairo_point_y exch def /cairo_point_x exch def } def
/Tj { show currentpoint cairo_store_point } bind def
/TJ {
  {
    dup
    type /stringtype eq
    { show } { -0.001 mul 0 cairo_font_matrix dtransform rmoveto } ifelse
  } forall
  currentpoint cairo_store_point
} bind def
/cairo_selectfont { cairo_font_matrix aload pop pop pop 0 0 6 array astore
    cairo_font exch selectfont cairo_point_x cairo_point_y moveto } bind def
/Tf { pop /cairo_font exch def /cairo_font_matrix where
      { pop cairo_selectfont } if } bind def
/Td { matrix translate cairo_font_matrix matrix concatmatrix dup
      /cairo_font_matrix exch def dup 4 get exch 5 get cairo_store_point
      /cairo_font where { pop cairo_selectfont } if } bind def
/Tm { 2 copy 8 2 roll 6 array astore /cairo_font_matrix exch def
      cairo_store_point /cairo_font where { pop cairo_selectfont } if } bind def
/g { setgray } bind def
/rg { setrgbcolor } bind def
/d1 { setcachedevice } bind def
/cairo_data_source {
  CairoDataIndex CairoData length lt
    { CairoData CairoDataIndex get /CairoDataIndex CairoDataIndex 1 add def }
    { () } ifelse
} def
/cairo_flush_ascii85_file { cairo_ascii85_file status { cairo_ascii85_file flushfile } if } def
/cairo_image { image cairo_flush_ascii85_file } def
/cairo_imagemask { imagemask cairo_flush_ascii85_file } def
%%EndProlog
%%BeginSetup
%%EndSetup
%%Page: 1 1
%%BeginPageSetup
%%PageBoundingBox: 6 6 378 378
%%EndPageSetup
q 6 6 372 372 rectclip
1 0 0 -1 0 384 cm q
0.717647 0.517647 0.337255 rg
108.801 243.199 m 102.398 377.602 l 101.559 377.621 100.727 377.445 99.969
 377.09 c 29.566 347.777 l 27.18 346.793 25.613 344.473 25.602 341.887 c
 25.602 243.199 l h
108.801 243.199 m f
0.815686 0.603922 0.384314 rg
179.199 243.199 m 179.199 341.887 l 179.188 344.473 177.621 346.793 175.23
 347.777 c 104.832 377.09 l 104.074 377.445 103.238 377.621 102.398 377.602
 c 102.398 243.199 l h
179.199 243.199 m f
0.8 0.815686 0.854902 rg
373.715 115.238 m 375.664 114.477 377.023 112.691 377.242 110.609 c 377.484
 107.898 377.602 105.152 377.602 102.398 c 377.602 99.648 377.484 96.902
 377.242 94.188 c 377.023 92.109 375.664 90.32 373.715 89.562 c 358.246 
83.379 l 356.352 75.734 353.316 68.418 349.242 61.676 c 355.812 46.316 l
 356.652 44.402 356.352 42.18 355.035 40.559 c 353.293 38.465 351.426 36.441
 349.484 34.496 c 347.547 32.551 345.516 30.688 343.426 28.945 c 341.801
 27.629 339.578 27.328 337.664 28.168 c 322.305 34.738 l 315.566 30.664 
308.25 27.629 300.609 25.734 c 294.426 10.266 l 293.664 8.316 291.879 6.957
 289.797 6.738 c 287.098 6.516 284.352 6.398 281.602 6.398 c 278.848 6.398
 276.102 6.516 273.391 6.758 c 271.309 6.977 269.523 8.336 268.762 10.285
 c 262.578 25.754 l 254.934 27.645 247.621 30.684 240.883 34.758 c 225.543
 28.16 l 223.629 27.324 221.406 27.625 219.781 28.941 c 217.691 30.68 215.668
 32.551 213.723 34.488 c 211.777 36.43 209.914 38.457 208.172 40.551 c 206.855
 42.172 206.555 44.395 207.391 46.309 c 213.965 61.672 l 209.891 68.41 206.855
 75.727 204.961 83.371 c 189.492 89.555 l 187.543 90.316 186.18 92.102 185.965
 94.184 c 185.715 96.902 185.602 99.648 185.602 102.398 c 185.602 105.152
 185.715 107.898 185.957 110.609 c 186.176 112.691 187.535 114.477 189.484
 115.238 c 204.953 121.422 l 206.848 129.066 209.883 136.379 213.957 143.117
 c 207.387 158.477 l 206.547 160.391 206.848 162.613 208.168 164.238 c 209.906
 166.328 211.777 168.352 213.715 170.297 c 215.656 172.242 217.684 174.137
 219.777 175.848 c 221.398 177.164 223.621 177.465 225.535 176.629 c 240.895
 170.055 l 247.637 174.129 254.953 177.164 262.598 179.059 c 268.781 194.527
 l 269.543 196.477 271.328 197.84 273.406 198.055 c 276.121 198.297 278.867
 198.414 281.621 198.414 c 284.371 198.414 287.117 198.297 289.832 198.055
 c 291.91 197.84 293.695 196.477 294.457 194.527 c 300.641 179.059 l 308.285
 177.164 315.602 174.129 322.344 170.055 c 337.703 176.629 l 339.617 177.465
 341.84 177.164 343.461 175.848 c 345.555 174.105 347.578 172.238 349.523
 170.297 c 351.469 168.359 353.332 166.328 355.07 164.238 c 356.391 162.613
 356.691 160.391 355.852 158.477 c 349.281 143.117 l 353.355 136.379 356.391
 129.066 358.285 121.422 c h
373.715 115.238 m f
0.686275 0.709804 0.74902 rg
332.801 102.398 m 332.801 130.676 309.879 153.602 281.602 153.602 c 253.324
 153.602 230.398 130.676 230.398 102.398 c 230.398 74.121 253.324 51.199
 281.602 51.199 c 309.879 51.199 332.801 74.121 332.801 102.398 c h
332.801 102.398 m f
0.8 0.815686 0.854902 rg
307.199 102.398 m 307.199 116.539 295.738 128 281.602 128 c 267.461 128
 256 116.539 256 102.398 c 256 88.262 267.461 76.801 281.602 76.801 c 295.738
 76.801 307.199 88.262 307.199 102.398 c h
307.199 102.398 m f
0.898039 0.682353 0.486275 rg
179.199 230.398 m 196.551 249.242 l 198.039 250.754 198.688 252.906 198.281
 254.992 c 197.879 257.078 196.469 258.828 194.523 259.672 c 131.496 286.348
 l 129.137 287.348 126.41 286.801 124.621 284.965 c 102.398 262.398 l 80.18
 284.965 l 78.391 286.801 75.664 287.348 73.305 286.348 c 10.277 259.668
 l 8.328 258.82 6.922 257.07 6.516 254.984 c 6.113 252.898 6.762 250.75 
8.25 249.234 c 25.602 230.398 l h
179.199 230.398 m f
179.199 230.398 m 196.551 211.199 l 198.043 209.648 198.688 207.469 198.285
 205.355 c 197.883 203.238 196.48 201.453 194.523 200.559 c 131.496 173.336
 l 129.133 172.316 126.391 172.879 124.621 174.746 c 102.398 198.398 l 80.18
 174.719 l 78.41 172.855 75.664 172.293 73.305 173.312 c 10.277 200.523 
l 8.32 201.418 6.918 203.207 6.516 205.324 c 6.113 207.438 6.758 209.617
 8.25 211.168 c 25.602 230.398 l h
179.199 230.398 m f
0.627451 0.447059 0.294118 rg
25.602 230.395 m 102.398 262.395 l 179.199 230.395 l 102.398 198.398 l 
h
25.602 230.395 m f
Q Q
showpage
%%Trailer
end
%%EOF
