%!PS-Adobe-3.0 EPSF-3.0
%%Creator: cairo 1.16.0 (https://cairographics.org)
%%CreationDate: Fri Nov 29 10:41:21 2019
%%Pages: 1
%%DocumentData: Clean7Bit
%%LanguageLevel: 2
%%BoundingBox: 0 6 378 384
%%EndComments
%%BeginProlog
50 dict begin
/q { gsave } bind def
/Q { grestore } bind def
/cm { 6 array astore concat } bind def
/w { setlinewidth } bind def
/J { setlinecap } bind def
/j { setlinejoin } bind def
/M { setmiterlimit } bind def
/d { setdash } bind def
/m { moveto } bind def
/l { lineto } bind def
/c { curveto } bind def
/h { closepath } bind def
/re { exch dup neg 3 1 roll 5 3 roll moveto 0 rlineto
      0 exch rlineto 0 rlineto closepath } bind def
/S { stroke } bind def
/f { fill } bind def
/f* { eofill } bind def
/n { newpath } bind def
/W { clip } bind def
/W* { eoclip } bind def
/BT { } bind def
/ET { } bind def
/BDC { mark 3 1 roll /BDC pdfmark } bind def
/EMC { mark /EMC pdfmark } bind def
/cairo_store_point { /cairo_point_y exch def /cairo_point_x exch def } def
/Tj { show currentpoint cairo_store_point } bind def
/TJ {
  {
    dup
    type /stringtype eq
    { show } { -0.001 mul 0 cairo_font_matrix dtransform rmoveto } ifelse
  } forall
  currentpoint cairo_store_point
} bind def
/cairo_selectfont { cairo_font_matrix aload pop pop pop 0 0 6 array astore
    cairo_font exch selectfont cairo_point_x cairo_point_y moveto } bind def
/Tf { pop /cairo_font exch def /cairo_font_matrix where
      { pop cairo_selectfont } if } bind def
/Td { matrix translate cairo_font_matrix matrix concatmatrix dup
      /cairo_font_matrix exch def dup 4 get exch 5 get cairo_store_point
      /cairo_font where { pop cairo_selectfont } if } bind def
/Tm { 2 copy 8 2 roll 6 array astore /cairo_font_matrix exch def
      cairo_store_point /cairo_font where { pop cairo_selectfont } if } bind def
/g { setgray } bind def
/rg { setrgbcolor } bind def
/d1 { setcachedevice } bind def
/cairo_data_source {
  CairoDataIndex CairoData length lt
    { CairoData CairoDataIndex get /CairoDataIndex CairoDataIndex 1 add def }
    { () } ifelse
} def
/cairo_flush_ascii85_file { cairo_ascii85_file status { cairo_ascii85_file flushfile } if } def
/cairo_image { image cairo_flush_ascii85_file } def
/cairo_imagemask { imagemask cairo_flush_ascii85_file } def
%%EndProlog
%%BeginSetup
%%EndSetup
%%Page: 1 1
%%BeginPageSetup
%%PageBoundingBox: 0 6 378 384
%%EndPageSetup
q 0 6 378 378 rectclip
1 0 0 -1 0 384 cm q
0.988235 0.756863 0.0392157 rg
76.801 76.801 m 64.457 76.801 52.867 70.867 45.648 60.852 c 38.43 50.84
 36.469 37.969 40.371 26.258 c 44.273 14.547 53.57 5.426 65.352 1.746 c 
77.133 -1.934 89.965 0.273 99.84 7.68 c 101.199 8.699 102.094 10.215 102.336
 11.895 c 102.574 13.574 102.137 15.281 101.121 16.641 c 100.102 17.996 
98.586 18.895 96.906 19.137 c 95.227 19.375 93.52 18.938 92.16 17.922 c 
85.578 12.984 77.023 11.512 69.168 13.965 c 61.312 16.418 55.117 22.496 
52.516 30.305 c 49.91 38.109 51.219 46.691 56.031 53.367 c 60.844 60.043
 68.57 64 76.801 64 c 80.668 64.027 84.492 63.152 87.961 61.441 c 89.484
 60.637 91.27 60.48 92.906 61.008 c 94.547 61.535 95.906 62.699 96.676 64.242
 c 97.445 65.781 97.559 67.57 96.996 69.195 c 96.43 70.824 95.234 72.156
 93.676 72.891 c 88.434 75.496 82.652 76.832 76.801 76.801 c h
76.801 76.801 m f
0.145098 0.639216 0.854902 rg
198.398 352 m 194.867 352 192 349.133 192 345.602 c 192 342.066 194.867
 339.199 198.398 339.199 c 260.527 339.199 316.535 301.777 340.309 244.379
 c 364.082 186.984 350.941 120.918 307.012 76.988 c 263.082 33.059 197.016
 19.918 139.621 43.691 c 82.223 67.465 44.801 123.473 44.801 185.602 c 44.801
 204.801 l 44.801 208.336 41.934 211.199 38.398 211.199 c 34.867 211.199
 32 208.336 32 204.801 c 32 185.602 l 32 118.297 72.543 57.621 134.723 31.867
 c 196.902 6.109 268.473 20.348 316.062 67.938 c 363.652 115.527 377.891
 187.098 352.133 249.277 c 326.379 311.457 265.703 352 198.398 352 c h
198.398 352 m f
332.801 352 m 6.398 352 l 2.867 352 0 349.133 0 345.602 c 0 342.066 2.867
 339.199 6.398 339.199 c 332.801 339.199 l 336.336 339.199 339.199 342.066
 339.199 345.602 c 339.199 349.133 336.336 352 332.801 352 c h
332.801 352 m f
0.168627 0.713726 0.909804 rg
33.172 247.098 m 7.992 216.211 l 6.289 214.152 5.914 211.297 7.027 208.863
 c 8.141 206.434 10.547 204.855 13.223 204.801 c 63.578 204.801 l 66.25 
204.855 68.66 206.434 69.773 208.863 c 70.887 211.297 70.512 214.152 68.805
 216.211 c 43.629 247.098 l 42.355 248.68 40.434 249.602 38.398 249.602 
c 36.367 249.602 34.445 248.68 33.172 247.098 c h
33.172 247.098 m f
375.098 350.828 m 344.211 376.008 l 342.152 377.711 339.297 378.086 336.863
 376.973 c 334.434 375.859 332.855 373.453 332.801 370.777 c 332.801 320.422
 l 332.855 317.75 334.434 315.34 336.863 314.227 c 339.297 313.113 342.152
 313.488 344.211 315.195 c 375.098 340.371 l 376.68 341.645 377.602 343.566
 377.602 345.602 c 377.602 347.633 376.68 349.555 375.098 350.828 c h
375.098 350.828 m f
0.152941 0.435294 0.509804 rg
172.801 102.398 m 198.398 102.398 l 209.004 102.398 217.602 110.996 217.602
 121.602 c 217.602 185.602 l 217.602 189.133 214.734 192 211.199 192 c 160
 192 l 156.465 192 153.602 189.133 153.602 185.602 c 153.602 121.602 l 153.602
 110.996 162.195 102.398 172.801 102.398 c h
172.801 102.398 m f
0.619608 0.509804 0.92549 rg
140.801 166.398 m 166.398 166.398 l 177.004 166.398 185.602 174.996 185.602
 185.602 c 185.602 249.602 l 185.602 253.133 182.734 256 179.199 256 c 128
 256 l 124.465 256 121.602 253.133 121.602 249.602 c 121.602 185.602 l 121.602
 174.996 130.195 166.398 140.801 166.398 c h
140.801 166.398 m f
0.52549 0.415686 0.862745 rg
204.801 166.398 m 230.398 166.398 l 241.004 166.398 249.602 174.996 249.602
 185.602 c 249.602 249.602 l 249.602 253.133 246.734 256 243.199 256 c 192
 256 l 188.465 256 185.602 253.133 185.602 249.602 c 185.602 185.602 l 185.602
 174.996 194.195 166.398 204.801 166.398 c h
204.801 166.398 m f
0.988235 0.796078 0.333333 rg
140.801 211.199 m 140.801 221.805 132.203 230.398 121.602 230.398 c 110.996
 230.398 102.398 221.805 102.398 211.199 c 102.398 200.598 110.996 192 121.602
 192 c 132.203 192 140.801 200.598 140.801 211.199 c h
140.801 211.199 m f
0.152941 0.435294 0.509804 rg
108.801 230.398 m 134.398 230.398 l 145.004 230.398 153.602 238.996 153.602
 249.602 c 153.602 288 l 153.602 291.535 150.734 294.398 147.199 294.398
 c 96 294.398 l 92.465 294.398 89.602 291.535 89.602 288 c 89.602 249.602
 l 89.602 238.996 98.195 230.398 108.801 230.398 c h
108.801 230.398 m f
0.988235 0.796078 0.333333 rg
204.801 211.199 m 204.801 221.805 196.203 230.398 185.602 230.398 c 174.996
 230.398 166.398 221.805 166.398 211.199 c 166.398 200.598 174.996 192 185.602
 192 c 196.203 192 204.801 200.598 204.801 211.199 c h
204.801 211.199 m f
0.168627 0.713726 0.909804 rg
172.801 230.398 m 198.398 230.398 l 209.004 230.398 217.602 238.996 217.602
 249.602 c 217.602 288 l 217.602 291.535 214.734 294.398 211.199 294.398
 c 160 294.398 l 156.465 294.398 153.602 291.535 153.602 288 c 153.602 249.602
 l 153.602 238.996 162.195 230.398 172.801 230.398 c h
172.801 230.398 m f
0.988235 0.796078 0.333333 rg
268.801 211.199 m 268.801 221.805 260.203 230.398 249.602 230.398 c 238.996
 230.398 230.398 221.805 230.398 211.199 c 230.398 200.598 238.996 192 249.602
 192 c 260.203 192 268.801 200.598 268.801 211.199 c h
268.801 211.199 m f
0.152941 0.435294 0.509804 rg
236.801 230.398 m 262.398 230.398 l 273.004 230.398 281.602 238.996 281.602
 249.602 c 281.602 288 l 281.602 291.535 278.734 294.398 275.199 294.398
 c 224 294.398 l 220.465 294.398 217.602 291.535 217.602 288 c 217.602 249.602
 l 217.602 238.996 226.195 230.398 236.801 230.398 c h
236.801 230.398 m f
0.988235 0.796078 0.333333 rg
236.801 147.199 m 236.801 157.805 228.203 166.398 217.602 166.398 c 206.996
 166.398 198.398 157.805 198.398 147.199 c 198.398 136.598 206.996 128 217.602
 128 c 228.203 128 236.801 136.598 236.801 147.199 c h
236.801 147.199 m f
204.801 83.199 m 204.801 93.805 196.203 102.398 185.602 102.398 c 174.996
 102.398 166.398 93.805 166.398 83.199 c 166.398 72.598 174.996 64 185.602
 64 c 196.203 64 204.801 72.598 204.801 83.199 c h
204.801 83.199 m f
172.801 147.199 m 172.801 157.805 164.203 166.398 153.602 166.398 c 142.996
 166.398 134.398 157.805 134.398 147.199 c 134.398 136.598 142.996 128 153.602
 128 c 164.203 128 172.801 136.598 172.801 147.199 c h
172.801 147.199 m f
Q Q
showpage
%%Trailer
end
%%EOF
