%!PS-Adobe-3.0 EPSF-3.0
%%Creator: cairo 1.16.0 (https://cairographics.org)
%%CreationDate: Fri Nov 29 10:41:22 2019
%%Pages: 1
%%DocumentData: Clean7Bit
%%LanguageLevel: 2
%%BoundingBox: 6 6 378 378
%%EndComments
%%BeginProlog
50 dict begin
/q { gsave } bind def
/Q { grestore } bind def
/cm { 6 array astore concat } bind def
/w { setlinewidth } bind def
/J { setlinecap } bind def
/j { setlinejoin } bind def
/M { setmiterlimit } bind def
/d { setdash } bind def
/m { moveto } bind def
/l { lineto } bind def
/c { curveto } bind def
/h { closepath } bind def
/re { exch dup neg 3 1 roll 5 3 roll moveto 0 rlineto
      0 exch rlineto 0 rlineto closepath } bind def
/S { stroke } bind def
/f { fill } bind def
/f* { eofill } bind def
/n { newpath } bind def
/W { clip } bind def
/W* { eoclip } bind def
/BT { } bind def
/ET { } bind def
/BDC { mark 3 1 roll /BDC pdfmark } bind def
/EMC { mark /EMC pdfmark } bind def
/cairo_store_point { /cairo_point_y exch def /cairo_point_x exch def } def
/Tj { show currentpoint cairo_store_point } bind def
/TJ {
  {
    dup
    type /stringtype eq
    { show } { -0.001 mul 0 cairo_font_matrix dtransform rmoveto } ifelse
  } forall
  currentpoint cairo_store_point
} bind def
/cairo_selectfont { cairo_font_matrix aload pop pop pop 0 0 6 array astore
    cairo_font exch selectfont cairo_point_x cairo_point_y moveto } bind def
/Tf { pop /cairo_font exch def /cairo_font_matrix where
      { pop cairo_selectfont } if } bind def
/Td { matrix translate cairo_font_matrix matrix concatmatrix dup
      /cairo_font_matrix exch def dup 4 get exch 5 get cairo_store_point
      /cairo_font where { pop cairo_selectfont } if } bind def
/Tm { 2 copy 8 2 roll 6 array astore /cairo_font_matrix exch def
      cairo_store_point /cairo_font where { pop cairo_selectfont } if } bind def
/g { setgray } bind def
/rg { setrgbcolor } bind def
/d1 { setcachedevice } bind def
/cairo_data_source {
  CairoDataIndex CairoData length lt
    { CairoData CairoDataIndex get /CairoDataIndex CairoDataIndex 1 add def }
    { () } ifelse
} def
/cairo_flush_ascii85_file { cairo_ascii85_file status { cairo_ascii85_file flushfile } if } def
/cairo_image { image cairo_flush_ascii85_file } def
/cairo_imagemask { imagemask cairo_flush_ascii85_file } def
%%EndProlog
%%BeginSetup
%%EndSetup
%%Page: 1 1
%%BeginPageSetup
%%PageBoundingBox: 6 6 378 378
%%EndPageSetup
q 6 6 372 372 rectclip
1 0 0 -1 0 384 cm q
0.54902 0.34902 0.235294 rg
286.207 272.449 m 367.359 332.289 l 376.105 338.73 379.719 350.066 376.309
 360.379 c 372.898 370.691 363.238 377.641 352.379 377.602 c 345.688 377.598
 339.27 374.953 334.523 370.238 c 260.098 296.062 l h
286.207 272.449 m f
0.298039 g
326.398 166.398 m 326.398 254.766 254.766 326.398 166.398 326.398 c 78.035
 326.398 6.398 254.766 6.398 166.398 c 6.398 78.035 78.035 6.398 166.398
 6.398 c 254.766 6.398 326.398 78.035 326.398 166.398 c h
326.398 166.398 m f
0.25098 0.8 0.945098 rg
300.801 166.398 m 300.801 240.629 240.629 300.801 166.398 300.801 c 92.172
 300.801 32 240.629 32 166.398 c 32 92.172 92.172 32 166.398 32 c 240.629
 32 300.801 92.172 300.801 166.398 c h
300.801 166.398 m f
0.168627 0.713726 0.909804 rg
166.398 307.199 m 96.879 307.215 37.754 256.484 27.203 187.766 c 16.652
 119.051 57.836 52.918 124.16 32.078 c 125.793 31.512 127.586 31.629 129.133
 32.406 c 130.68 33.184 131.844 34.555 132.363 36.203 c 132.879 37.852 132.711
 39.641 131.887 41.164 c 131.066 42.688 129.664 43.809 128 44.281 c 64.145
 64.336 26.508 130.191 41.645 195.387 c 56.781 260.586 119.582 303.121 185.742
 292.988 c 251.906 282.855 299.094 223.473 294.023 156.73 c 288.953 89.992
 233.332 38.422 166.398 38.398 c 162.867 38.398 160 35.535 160 32 c 160 
28.465 162.867 25.602 166.398 25.602 c 244.16 25.602 307.199 88.637 307.199
 166.398 c 307.199 244.16 244.16 307.199 166.398 307.199 c h
166.398 307.199 m f
0.152941 0.435294 0.509804 rg
115.199 83.199 m 111.664 83.199 108.801 86.066 108.801 89.602 c 108.801
 102.398 l 96 102.398 l 96 89.602 l 96 86.066 93.133 83.199 89.602 83.199
 c 86.066 83.199 83.199 86.066 83.199 89.602 c 83.199 128 l 83.199 131.535
 86.066 134.398 89.602 134.398 c 93.133 134.398 96 131.535 96 128 c 96 115.199
 l 108.801 115.199 l 108.801 128 l 108.801 131.535 111.664 134.398 115.199
 134.398 c 118.734 134.398 121.602 131.535 121.602 128 c 121.602 89.602 
l 121.602 86.066 118.734 83.199 115.199 83.199 c h
115.199 83.199 m f
153.602 83.199 m 140.801 83.199 l 137.266 83.199 134.398 86.066 134.398
 89.602 c 134.398 93.133 137.266 96 140.801 96 c 140.801 128 l 140.801 131.535
 143.664 134.398 147.199 134.398 c 150.734 134.398 153.602 131.535 153.602
 128 c 153.602 96 l 157.133 96 160 93.133 160 89.602 c 160 86.066 157.133
 83.199 153.602 83.199 c h
153.602 83.199 m f
206.656 83.477 m 203.961 82.656 201.043 83.695 199.477 86.035 c 192 97.281
 l 184.523 86.066 l 182.961 83.723 180.051 82.676 177.355 83.488 c 174.656
 84.301 172.809 86.781 172.801 89.602 c 172.801 128 l 172.801 131.535 175.664
 134.398 179.199 134.398 c 182.734 134.398 185.602 131.535 185.602 128 c
 185.602 110.719 l 186.676 112.332 l 187.93 114.012 189.902 115 192 115 
c 194.098 115 196.07 114.012 197.324 112.332 c 198.398 110.719 l 198.398
 128 l 198.398 131.535 201.266 134.398 204.801 134.398 c 208.336 134.398
 211.199 131.535 211.199 128 c 211.199 89.602 l 211.199 86.781 209.355 84.293
 206.656 83.477 c h
206.656 83.477 m f
243.199 121.602 m 236.801 121.602 l 236.801 89.602 l 236.801 86.066 233.934
 83.199 230.398 83.199 c 226.867 83.199 224 86.066 224 89.602 c 224 128 
l 224 131.535 226.867 134.398 230.398 134.398 c 243.199 134.398 l 246.734
 134.398 249.602 131.535 249.602 128 c 249.602 124.465 246.734 121.602 243.199
 121.602 c h
243.199 121.602 m f
1 g
96 166.398 m 89.602 166.398 l 86.066 166.398 83.199 163.535 83.199 160 
c 83.199 156.465 86.066 153.602 89.602 153.602 c 96 153.602 l 99.535 153.602
 102.398 156.465 102.398 160 c 102.398 163.535 99.535 166.398 96 166.398
 c h
96 166.398 m f
96 192 m 89.602 192 l 86.066 192 83.199 189.133 83.199 185.602 c 83.199
 182.066 86.066 179.199 89.602 179.199 c 96 179.199 l 99.535 179.199 102.398
 182.066 102.398 185.602 c 102.398 189.133 99.535 192 96 192 c h
96 192 m f
96 217.602 m 89.602 217.602 l 86.066 217.602 83.199 214.734 83.199 211.199
 c 83.199 207.664 86.066 204.801 89.602 204.801 c 96 204.801 l 99.535 204.801
 102.398 207.664 102.398 211.199 c 102.398 214.734 99.535 217.602 96 217.602
 c h
96 217.602 m f
96 243.199 m 89.602 243.199 l 86.066 243.199 83.199 240.336 83.199 236.801
 c 83.199 233.266 86.066 230.398 89.602 230.398 c 96 230.398 l 99.535 230.398
 102.398 233.266 102.398 236.801 c 102.398 240.336 99.535 243.199 96 243.199
 c h
96 243.199 m f
0.145098 0.639216 0.854902 rg
153.602 166.398 m 121.602 166.398 l 118.066 166.398 115.199 163.535 115.199
 160 c 115.199 156.465 118.066 153.602 121.602 153.602 c 153.602 153.602
 l 157.133 153.602 160 156.465 160 160 c 160 163.535 157.133 166.398 153.602
 166.398 c h
153.602 166.398 m f
211.199 217.602 m 121.602 217.602 l 118.066 217.602 115.199 214.734 115.199
 211.199 c 115.199 207.664 118.066 204.801 121.602 204.801 c 211.199 204.801
 l 214.734 204.801 217.602 207.664 217.602 211.199 c 217.602 214.734 214.734
 217.602 211.199 217.602 c h
211.199 217.602 m f
185.602 192 m 121.602 192 l 118.066 192 115.199 189.133 115.199 185.602
 c 115.199 182.066 118.066 179.199 121.602 179.199 c 185.602 179.199 l 189.133
 179.199 192 182.066 192 185.602 c 192 189.133 189.133 192 185.602 192 c
 h
185.602 192 m f
0.52549 0.415686 0.862745 rg
192 166.398 m 179.199 166.398 l 175.664 166.398 172.801 163.535 172.801
 160 c 172.801 156.465 175.664 153.602 179.199 153.602 c 192 153.602 l 195.535
 153.602 198.398 156.465 198.398 160 c 198.398 163.535 195.535 166.398 192
 166.398 c h
192 166.398 m f
224 192 m 211.199 192 l 207.664 192 204.801 189.133 204.801 185.602 c 204.801
 182.066 207.664 179.199 211.199 179.199 c 224 179.199 l 227.535 179.199
 230.398 182.066 230.398 185.602 c 230.398 189.133 227.535 192 224 192 c
 h
224 192 m f
0.145098 0.639216 0.854902 rg
128 243.199 m 121.602 243.199 l 118.066 243.199 115.199 240.336 115.199
 236.801 c 115.199 233.266 118.066 230.398 121.602 230.398 c 128 230.398
 l 131.535 230.398 134.398 233.266 134.398 236.801 c 134.398 240.336 131.535
 243.199 128 243.199 c h
128 243.199 m f
0.52549 0.415686 0.862745 rg
192 243.199 m 153.602 243.199 l 150.066 243.199 147.199 240.336 147.199
 236.801 c 147.199 233.266 150.066 230.398 153.602 230.398 c 192 230.398
 l 195.535 230.398 198.398 233.266 198.398 236.801 c 198.398 240.336 195.535
 243.199 192 243.199 c h
192 243.199 m f
243.199 217.602 m 236.801 217.602 l 233.266 217.602 230.398 214.734 230.398
 211.199 c 230.398 207.664 233.266 204.801 236.801 204.801 c 243.199 204.801
 l 246.734 204.801 249.602 207.664 249.602 211.199 c 249.602 214.734 246.734
 217.602 243.199 217.602 c h
243.199 217.602 m f
Q Q
showpage
%%Trailer
end
%%EOF
