%!PS-Adobe-3.0 EPSF-3.0
%%Creator: cairo 1.16.0 (https://cairographics.org)
%%CreationDate: Fri Nov 29 10:41:23 2019
%%Pages: 1
%%DocumentData: Clean7Bit
%%LanguageLevel: 2
%%BoundingBox: 44 6 340 378
%%EndComments
%%BeginProlog
50 dict begin
/q { gsave } bind def
/Q { grestore } bind def
/cm { 6 array astore concat } bind def
/w { setlinewidth } bind def
/J { setlinecap } bind def
/j { setlinejoin } bind def
/M { setmiterlimit } bind def
/d { setdash } bind def
/m { moveto } bind def
/l { lineto } bind def
/c { curveto } bind def
/h { closepath } bind def
/re { exch dup neg 3 1 roll 5 3 roll moveto 0 rlineto
      0 exch rlineto 0 rlineto closepath } bind def
/S { stroke } bind def
/f { fill } bind def
/f* { eofill } bind def
/n { newpath } bind def
/W { clip } bind def
/W* { eoclip } bind def
/BT { } bind def
/ET { } bind def
/BDC { mark 3 1 roll /BDC pdfmark } bind def
/EMC { mark /EMC pdfmark } bind def
/cairo_store_point { /cairo_point_y exch def /cairo_point_x exch def } def
/Tj { show currentpoint cairo_store_point } bind def
/TJ {
  {
    dup
    type /stringtype eq
    { show } { -0.001 mul 0 cairo_font_matrix dtransform rmoveto } ifelse
  } forall
  currentpoint cairo_store_point
} bind def
/cairo_selectfont { cairo_font_matrix aload pop pop pop 0 0 6 array astore
    cairo_font exch selectfont cairo_point_x cairo_point_y moveto } bind def
/Tf { pop /cairo_font exch def /cairo_font_matrix where
      { pop cairo_selectfont } if } bind def
/Td { matrix translate cairo_font_matrix matrix concatmatrix dup
      /cairo_font_matrix exch def dup 4 get exch 5 get cairo_store_point
      /cairo_font where { pop cairo_selectfont } if } bind def
/Tm { 2 copy 8 2 roll 6 array astore /cairo_font_matrix exch def
      cairo_store_point /cairo_font where { pop cairo_selectfont } if } bind def
/g { setgray } bind def
/rg { setrgbcolor } bind def
/d1 { setcachedevice } bind def
/cairo_data_source {
  CairoDataIndex CairoData length lt
    { CairoData CairoDataIndex get /CairoDataIndex CairoDataIndex 1 add def }
    { () } ifelse
} def
/cairo_flush_ascii85_file { cairo_ascii85_file status { cairo_ascii85_file flushfile } if } def
/cairo_image { image cairo_flush_ascii85_file } def
/cairo_imagemask { imagemask cairo_flush_ascii85_file } def
%%EndProlog
%%BeginSetup
%%EndSetup
%%Page: 1 1
%%BeginPageSetup
%%PageBoundingBox: 44 6 340 378
%%EndPageSetup
q 44 6 296 372 rectclip
1 0 0 -1 0 384 cm q
0.839216 0.858824 0.890196 rg
339.199 57.602 m 339.199 268.801 l 339.199 279.402 330.605 288 320 288 
c 64 288 l 53.395 288 44.801 279.402 44.801 268.801 c 44.801 57.602 l 51.199
 51.199 l 335.137 50.824 l h
339.199 57.602 m f
0.152941 0.435294 0.509804 rg
339.199 25.602 m 339.199 57.602 l 44.801 57.602 l 44.801 25.602 l 44.801
 14.996 53.395 6.398 64 6.398 c 320 6.398 l 330.605 6.398 339.199 14.996
 339.199 25.602 c h
339.199 25.602 m f
0.647059 0.670588 0.709804 rg
277.977 299.98 m 279.797 299.27 281.066 297.605 281.266 295.66 c 281.496
 293.102 281.602 290.539 281.602 287.98 c 281.602 285.422 281.496 282.859
 281.266 280.301 c 281.066 278.359 279.797 276.691 277.977 275.98 c 263.539
 270.223 l 261.766 263.086 258.934 256.262 255.129 249.973 c 261.266 235.656
 l 262.051 233.867 261.77 231.789 260.539 230.273 c 258.91 228.352 257.172
 226.434 255.355 224.621 c 253.535 222.809 251.656 221.062 249.703 219.438
 c 248.188 218.203 246.109 217.922 244.32 218.707 c 230.004 224.844 l 223.715
 221.043 216.887 218.207 209.754 216.434 c 203.992 201.996 l 203.285 200.176
 201.617 198.906 199.672 198.707 c 197.121 198.504 194.559 198.398 192 198.398
 c 189.441 198.398 186.879 198.504 184.32 198.734 c 182.379 198.934 180.711
 200.203 180 202.023 c 174.238 216.461 l 167.105 218.234 160.281 221.066
 153.992 224.871 c 139.672 218.734 l 137.883 217.949 135.805 218.23 134.293
 219.461 c 132.34 221.09 130.453 222.828 128.641 224.645 c 126.828 226.465
 125.082 228.344 123.457 230.297 c 122.223 231.812 121.941 233.891 122.727
 235.68 c 128.863 249.996 l 125.062 256.285 122.227 263.113 120.453 270.246
 c 106.016 276.008 l 104.195 276.715 102.926 278.383 102.727 280.328 c 102.496
 282.887 102.395 285.445 102.395 288.008 c 102.395 290.566 102.496 293.125
 102.727 295.688 c 102.926 297.629 104.195 299.297 106.016 300.008 c 120.453
 305.766 l 122.227 312.898 125.062 319.727 128.863 326.016 c 122.727 340.332
 l 121.941 342.121 122.223 344.199 123.457 345.715 c 125.082 347.637 126.824
 349.555 128.641 351.367 c 130.457 353.176 132.34 354.926 134.293 356.551
 c 135.805 357.785 137.883 358.066 139.672 357.281 c 153.992 351.141 l 160.281
 354.945 167.105 357.781 174.238 359.551 c 180 373.992 l 180.711 375.809
 182.379 377.078 184.32 377.281 c 186.848 377.512 189.441 377.613 192 377.613
 c 194.559 377.613 197.121 377.512 199.68 377.281 c 201.621 377.078 203.289
 375.809 204 373.992 c 209.762 359.551 l 216.895 357.781 223.719 354.945
 230.008 351.141 c 244.328 357.281 l 246.117 358.066 248.195 357.785 249.707
 356.551 c 251.629 354.926 253.547 353.184 255.359 351.367 c 257.172 349.547
 258.918 347.668 260.543 345.715 c 261.777 344.199 262.059 342.121 261.273
 340.332 c 255.137 326.016 l 258.938 319.727 261.773 312.898 263.547 305.766
 c h
277.977 299.98 m f
0.584314 0.607843 0.639216 rg
236.801 288 m 236.801 312.742 216.742 332.801 192 332.801 c 167.258 332.801
 147.199 312.742 147.199 288 c 147.199 263.258 167.258 243.199 192 243.199
 c 216.742 243.199 236.801 263.258 236.801 288 c h
236.801 288 m f
0.521569 0.537255 0.556863 rg
192 339.199 m 170.773 339.199 151.75 326.102 144.172 306.273 c 136.598 
286.445 142.043 263.996 157.863 249.844 c 160.5 247.523 164.512 247.766 
166.855 250.383 c 169.199 252.996 168.996 257.012 166.398 259.379 c 152.598
 271.727 149.57 292.168 159.211 307.984 c 168.848 323.801 188.402 330.48
 205.703 323.871 c 223.004 317.262 233.125 299.246 229.762 281.031 c 226.402
 262.82 210.52 249.598 192 249.602 c 188.465 249.602 185.602 246.734 185.602
 243.199 c 185.602 239.664 188.465 236.801 192 236.801 c 220.277 236.801
 243.199 259.723 243.199 288 c 243.199 316.277 220.277 339.199 192 339.199
 c h
192 339.199 m f
0.972549 0.32549 0.423529 rg
76.801 38.398 m 70.398 38.398 l 66.867 38.398 64 35.535 64 32 c 64 28.465
 66.867 25.602 70.398 25.602 c 76.801 25.602 l 80.336 25.602 83.199 28.465
 83.199 32 c 83.199 35.535 80.336 38.398 76.801 38.398 c h
76.801 38.398 m f
0.988235 0.796078 0.333333 rg
108.801 38.398 m 102.398 38.398 l 98.867 38.398 96 35.535 96 32 c 96 28.465
 98.867 25.602 102.398 25.602 c 108.801 25.602 l 112.336 25.602 115.199 
28.465 115.199 32 c 115.199 35.535 112.336 38.398 108.801 38.398 c h
108.801 38.398 m f
0.662745 0.862745 0.384314 rg
140.801 38.398 m 134.398 38.398 l 130.867 38.398 128 35.535 128 32 c 128
 28.465 130.867 25.602 134.398 25.602 c 140.801 25.602 l 144.336 25.602 
147.199 28.465 147.199 32 c 147.199 35.535 144.336 38.398 140.801 38.398
 c h
140.801 38.398 m f
0.117647 0.313726 0.356863 rg
313.602 38.398 m 268.801 38.398 l 265.266 38.398 262.398 35.535 262.398
 32 c 262.398 28.465 265.266 25.602 268.801 25.602 c 313.602 25.602 l 317.133
 25.602 320 28.465 320 32 c 320 35.535 317.133 38.398 313.602 38.398 c h
313.602 38.398 m f
208 89.602 m 192 89.602 l 188.465 89.602 185.602 92.465 185.602 96 c 185.602
 166.398 l 185.602 169.934 188.465 172.801 192 172.801 c 195.535 172.801
 198.398 169.934 198.398 166.398 c 198.398 134.398 l 208 134.398 l 220.371
 134.398 230.398 124.371 230.398 112 c 230.398 99.629 220.371 89.602 208
 89.602 c h
208 121.602 m 198.398 121.602 l 198.398 102.398 l 208 102.398 l 213.301
 102.398 217.602 106.699 217.602 112 c 217.602 117.301 213.301 121.602 208
 121.602 c h
208 121.602 m f
275.199 160 m 268.801 160 l 268.801 102.398 l 275.199 102.398 l 278.734
 102.398 281.602 99.535 281.602 96 c 281.602 92.465 278.734 89.602 275.199
 89.602 c 249.602 89.602 l 246.066 89.602 243.199 92.465 243.199 96 c 243.199
 99.535 246.066 102.398 249.602 102.398 c 256 102.398 l 256 160 l 249.602
 160 l 246.066 160 243.199 162.867 243.199 166.398 c 243.199 169.934 246.066
 172.801 249.602 172.801 c 275.199 172.801 l 278.734 172.801 281.602 169.934
 281.602 166.398 c 281.602 162.867 278.734 160 275.199 160 c h
275.199 160 m f
143.527 93.574 m 142.543 91.164 140.203 89.59 137.602 89.59 c 135 89.59
 132.656 91.164 131.672 93.574 c 102.875 163.973 l 102.23 165.547 102.238
 167.309 102.895 168.875 c 103.551 170.441 104.801 171.684 106.375 172.328
 c 109.648 173.668 113.387 172.098 114.727 168.824 c 123.57 147.199 l 151.629
 147.199 l 160.473 168.824 l 161.812 172.098 165.551 173.668 168.824 172.328
 c 172.098 170.988 173.668 167.246 172.328 163.973 c h
128.805 134.398 m 137.602 112.902 l 146.395 134.398 l h
128.805 134.398 m f
Q Q
showpage
%%Trailer
end
%%EOF
