%!PS-Adobe-3.0 EPSF-3.0
%%Creator: cairo 1.16.0 (https://cairographics.org)
%%CreationDate: Fri Nov 29 10:41:24 2019
%%Pages: 1
%%DocumentData: Clean7Bit
%%LanguageLevel: 2
%%BoundingBox: 6 19 378 365
%%EndComments
%%BeginProlog
50 dict begin
/q { gsave } bind def
/Q { grestore } bind def
/cm { 6 array astore concat } bind def
/w { setlinewidth } bind def
/J { setlinecap } bind def
/j { setlinejoin } bind def
/M { setmiterlimit } bind def
/d { setdash } bind def
/m { moveto } bind def
/l { lineto } bind def
/c { curveto } bind def
/h { closepath } bind def
/re { exch dup neg 3 1 roll 5 3 roll moveto 0 rlineto
      0 exch rlineto 0 rlineto closepath } bind def
/S { stroke } bind def
/f { fill } bind def
/f* { eofill } bind def
/n { newpath } bind def
/W { clip } bind def
/W* { eoclip } bind def
/BT { } bind def
/ET { } bind def
/BDC { mark 3 1 roll /BDC pdfmark } bind def
/EMC { mark /EMC pdfmark } bind def
/cairo_store_point { /cairo_point_y exch def /cairo_point_x exch def } def
/Tj { show currentpoint cairo_store_point } bind def
/TJ {
  {
    dup
    type /stringtype eq
    { show } { -0.001 mul 0 cairo_font_matrix dtransform rmoveto } ifelse
  } forall
  currentpoint cairo_store_point
} bind def
/cairo_selectfont { cairo_font_matrix aload pop pop pop 0 0 6 array astore
    cairo_font exch selectfont cairo_point_x cairo_point_y moveto } bind def
/Tf { pop /cairo_font exch def /cairo_font_matrix where
      { pop cairo_selectfont } if } bind def
/Td { matrix translate cairo_font_matrix matrix concatmatrix dup
      /cairo_font_matrix exch def dup 4 get exch 5 get cairo_store_point
      /cairo_font where { pop cairo_selectfont } if } bind def
/Tm { 2 copy 8 2 roll 6 array astore /cairo_font_matrix exch def
      cairo_store_point /cairo_font where { pop cairo_selectfont } if } bind def
/g { setgray } bind def
/rg { setrgbcolor } bind def
/d1 { setcachedevice } bind def
/cairo_data_source {
  CairoDataIndex CairoData length lt
    { CairoData CairoDataIndex get /CairoDataIndex CairoDataIndex 1 add def }
    { () } ifelse
} def
/cairo_flush_ascii85_file { cairo_ascii85_file status { cairo_ascii85_file flushfile } if } def
/cairo_image { image cairo_flush_ascii85_file } def
/cairo_imagemask { imagemask cairo_flush_ascii85_file } def
%%EndProlog
%%BeginSetup
%%EndSetup
%%Page: 1 1
%%BeginPageSetup
%%PageBoundingBox: 6 19 378 365
%%EndPageSetup
q 6 19 372 346 rectclip
1 0 0 -1 0 384 cm q
0.858824 g
376.613 188.633 m 377.926 190.688 377.926 193.312 376.613 195.367 c 363.125
 216.754 285.605 332.801 192 332.801 c 98.395 332.801 20.875 216.754 7.387
 195.367 c 6.074 193.312 6.074 190.688 7.387 188.633 c 20.875 167.246 98.395
 51.199 192 51.199 c 285.605 51.199 363.125 167.246 376.613 188.633 c h
376.613 188.633 m f
0.145098 0.639216 0.854902 rg
307.199 192 m 307.199 255.625 255.625 307.199 192 307.199 c 128.375 307.199
 76.801 255.625 76.801 192 c 76.801 128.375 128.375 76.801 192 76.801 c 
255.625 76.801 307.199 128.375 307.199 192 c h
307.199 192 m f
0.25098 0.8 0.945098 rg
192 268.801 m 192 307.199 l 154.91 307.23 120.09 289.352 98.496 259.199
 c 129.602 236.801 l h
192 268.801 m f
0.0941176 0.258824 0.286275 rg
230.398 125.504 m 263.77 144.785 277.68 185.816 262.918 221.418 c 248.156
 257.016 209.293 276.164 172.07 266.176 c 134.848 256.188 110.793 220.156
 115.836 181.949 c 120.879 143.742 153.461 115.188 192 115.199 c 195.082
 115.195 198.16 115.391 201.215 115.777 c h
230.398 125.504 m f
1 g
230.398 124.801 m 230.398 133.637 223.238 140.801 214.398 140.801 c 205.562
 140.801 198.398 133.637 198.398 124.801 c 198.398 115.965 205.562 108.801
 214.398 108.801 c 223.238 108.801 230.398 115.965 230.398 124.801 c h
230.398 124.801 m f
0.647059 0.670588 0.709804 rg
345.602 108.801 m 343.926 108.805 342.32 108.156 341.121 106.988 c 290.016
 57.23 239.848 32 192 32 c 144.152 32 93.984 57.223 42.879 106.98 c 41.664
 108.172 40.023 108.828 38.324 108.805 c 36.621 108.785 35 108.09 33.812
 106.875 c 32.621 105.656 31.969 104.016 31.988 102.316 c 32.008 100.617
 32.703 98.992 33.922 97.805 c 87.531 45.652 140.711 19.199 192 19.199 c
 243.289 19.199 296.473 45.652 350.078 97.812 c 351.949 99.629 352.531 102.402
 351.547 104.816 c 350.559 107.23 348.207 108.809 345.602 108.801 c h
345.602 108.801 m f
192 364.801 m 140.711 364.801 87.531 338.348 33.922 286.195 c 31.387 283.723
 31.336 279.66 33.812 277.125 c 36.285 274.594 40.344 274.543 42.879 277.02
 c 93.984 326.777 144.16 352 192 352 c 239.84 352 290.016 326.77 341.121
 277.012 c 343.656 274.535 347.715 274.586 350.188 277.121 c 352.664 279.656
 352.613 283.715 350.078 286.188 c 296.473 338.348 243.297 364.801 192 364.801
 c h
192 364.801 m f
0.152941 0.435294 0.509804 rg
160 217.602 m 158.305 217.602 156.676 216.926 155.477 215.727 c 136.273
 196.523 l 133.777 194.027 133.777 189.973 136.273 187.477 c 155.477 168.273
 l 157.988 165.852 161.977 165.883 164.445 168.352 c 166.914 170.82 166.949
 174.812 164.523 177.324 c 149.848 192 l 164.523 206.676 l 166.355 208.504
 166.902 211.258 165.91 213.648 c 164.922 216.039 162.59 217.598 160 217.602
 c h
160 217.602 m f
224 217.602 m 221.41 217.598 219.078 216.039 218.09 213.648 c 217.098 211.258
 217.645 208.504 219.477 206.676 c 234.152 192 l 219.477 177.324 l 217.051
 174.812 217.086 170.82 219.555 168.352 c 222.023 165.883 226.012 165.852
 228.523 168.273 c 247.727 187.477 l 250.223 189.973 250.223 194.027 247.727
 196.523 c 228.523 215.727 l 227.324 216.926 225.695 217.602 224 217.602
 c h
224 217.602 m f
185.602 217.602 m 183.543 217.598 181.613 216.609 180.41 214.941 c 179.211
 213.273 178.883 211.129 179.531 209.176 c 192.332 170.777 l 193.449 167.418
 197.078 165.602 200.434 166.719 c 203.793 167.836 205.609 171.465 204.492
 174.824 c 191.691 213.223 l 190.82 215.844 188.363 217.609 185.602 217.602
 c h
185.602 217.602 m f
Q Q
showpage
%%Trailer
end
%%EOF
