%!PS-Adobe-3.0 EPSF-3.0
%%Creator: cairo 1.16.0 (https://cairographics.org)
%%CreationDate: Fri Nov 29 10:41:24 2019
%%Pages: 1
%%DocumentData: Clean7Bit
%%LanguageLevel: 2
%%BoundingBox: 6 6 378 378
%%EndComments
%%BeginProlog
50 dict begin
/q { gsave } bind def
/Q { grestore } bind def
/cm { 6 array astore concat } bind def
/w { setlinewidth } bind def
/J { setlinecap } bind def
/j { setlinejoin } bind def
/M { setmiterlimit } bind def
/d { setdash } bind def
/m { moveto } bind def
/l { lineto } bind def
/c { curveto } bind def
/h { closepath } bind def
/re { exch dup neg 3 1 roll 5 3 roll moveto 0 rlineto
      0 exch rlineto 0 rlineto closepath } bind def
/S { stroke } bind def
/f { fill } bind def
/f* { eofill } bind def
/n { newpath } bind def
/W { clip } bind def
/W* { eoclip } bind def
/BT { } bind def
/ET { } bind def
/BDC { mark 3 1 roll /BDC pdfmark } bind def
/EMC { mark /EMC pdfmark } bind def
/cairo_store_point { /cairo_point_y exch def /cairo_point_x exch def } def
/Tj { show currentpoint cairo_store_point } bind def
/TJ {
  {
    dup
    type /stringtype eq
    { show } { -0.001 mul 0 cairo_font_matrix dtransform rmoveto } ifelse
  } forall
  currentpoint cairo_store_point
} bind def
/cairo_selectfont { cairo_font_matrix aload pop pop pop 0 0 6 array astore
    cairo_font exch selectfont cairo_point_x cairo_point_y moveto } bind def
/Tf { pop /cairo_font exch def /cairo_font_matrix where
      { pop cairo_selectfont } if } bind def
/Td { matrix translate cairo_font_matrix matrix concatmatrix dup
      /cairo_font_matrix exch def dup 4 get exch 5 get cairo_store_point
      /cairo_font where { pop cairo_selectfont } if } bind def
/Tm { 2 copy 8 2 roll 6 array astore /cairo_font_matrix exch def
      cairo_store_point /cairo_font where { pop cairo_selectfont } if } bind def
/g { setgray } bind def
/rg { setrgbcolor } bind def
/d1 { setcachedevice } bind def
/cairo_data_source {
  CairoDataIndex CairoData length lt
    { CairoData CairoDataIndex get /CairoDataIndex CairoDataIndex 1 add def }
    { () } ifelse
} def
/cairo_flush_ascii85_file { cairo_ascii85_file status { cairo_ascii85_file flushfile } if } def
/cairo_image { image cairo_flush_ascii85_file } def
/cairo_imagemask { imagemask cairo_flush_ascii85_file } def
%%EndProlog
%%BeginSetup
%%EndSetup
%%Page: 1 1
%%BeginPageSetup
%%PageBoundingBox: 6 6 378 378
%%EndPageSetup
q 6 6 372 372 rectclip
1 0 0 -1 0 384 cm q
0.839216 0.858824 0.890196 rg
307.199 57.602 m 307.199 313.602 l 64 313.602 l 57.602 57.602 l 185.602
 44.801 l h
307.199 57.602 m f
0.72549 0.74902 0.8 rg
64 57.602 m 64 313.602 l 25.602 313.602 l 14.996 313.602 6.398 305.004 
6.398 294.398 c 6.398 57.602 l 32 51.199 l h
64 57.602 m f
0.152941 0.435294 0.509804 rg
307.199 25.602 m 307.199 57.602 l 6.398 57.602 l 6.398 25.602 l 6.398 14.996
 14.996 6.398 25.602 6.398 c 288 6.398 l 298.605 6.398 307.199 14.996 307.199
 25.602 c h
307.199 25.602 m f
0.980392 0.631373 0.0862745 rg
198.809 377.602 m 364.391 377.602 l 369.117 377.562 373.469 375.023 375.824
 370.926 c 378.18 366.832 378.188 361.793 375.84 357.691 c 293.051 211.508
 l 290.727 207.363 286.348 204.801 281.602 204.801 c 276.852 204.801 272.473
 207.363 270.152 211.508 c 187.359 357.691 l 185.016 361.793 185.02 366.832
 187.375 370.926 c 189.73 375.023 194.082 377.562 198.809 377.602 c h
198.809 377.602 m f
0.972549 0.32549 0.423529 rg
38.398 38.398 m 32 38.398 l 28.465 38.398 25.602 35.535 25.602 32 c 25.602
 28.465 28.465 25.602 32 25.602 c 38.398 25.602 l 41.934 25.602 44.801 28.465
 44.801 32 c 44.801 35.535 41.934 38.398 38.398 38.398 c h
38.398 38.398 m f
0.988235 0.796078 0.333333 rg
70.398 38.398 m 64 38.398 l 60.465 38.398 57.602 35.535 57.602 32 c 57.602
 28.465 60.465 25.602 64 25.602 c 70.398 25.602 l 73.934 25.602 76.801 28.465
 76.801 32 c 76.801 35.535 73.934 38.398 70.398 38.398 c h
70.398 38.398 m f
0.662745 0.862745 0.384314 rg
102.398 38.398 m 96 38.398 l 92.465 38.398 89.602 35.535 89.602 32 c 89.602
 28.465 92.465 25.602 96 25.602 c 102.398 25.602 l 105.934 25.602 108.801
 28.465 108.801 32 c 108.801 35.535 105.934 38.398 102.398 38.398 c h
102.398 38.398 m f
0.117647 0.313726 0.356863 rg
281.602 38.398 m 236.801 38.398 l 233.266 38.398 230.398 35.535 230.398
 32 c 230.398 28.465 233.266 25.602 236.801 25.602 c 281.602 25.602 l 285.133
 25.602 288 28.465 288 32 c 288 35.535 285.133 38.398 281.602 38.398 c h
281.602 38.398 m f
1 g
38.398 89.602 m 32 89.602 l 28.465 89.602 25.602 86.734 25.602 83.199 c
 25.602 79.664 28.465 76.801 32 76.801 c 38.398 76.801 l 41.934 76.801 44.801
 79.664 44.801 83.199 c 44.801 86.734 41.934 89.602 38.398 89.602 c h
38.398 89.602 m f
38.398 115.199 m 32 115.199 l 28.465 115.199 25.602 112.336 25.602 108.801
 c 25.602 105.266 28.465 102.398 32 102.398 c 38.398 102.398 l 41.934 102.398
 44.801 105.266 44.801 108.801 c 44.801 112.336 41.934 115.199 38.398 115.199
 c h
38.398 115.199 m f
38.398 140.801 m 32 140.801 l 28.465 140.801 25.602 137.934 25.602 134.398
 c 25.602 130.867 28.465 128 32 128 c 38.398 128 l 41.934 128 44.801 130.867
 44.801 134.398 c 44.801 137.934 41.934 140.801 38.398 140.801 c h
38.398 140.801 m f
38.398 166.398 m 32 166.398 l 28.465 166.398 25.602 163.535 25.602 160 
c 25.602 156.465 28.465 153.602 32 153.602 c 38.398 153.602 l 41.934 153.602
 44.801 156.465 44.801 160 c 44.801 163.535 41.934 166.398 38.398 166.398
 c h
38.398 166.398 m f
38.398 192 m 32 192 l 28.465 192 25.602 189.133 25.602 185.602 c 25.602
 182.066 28.465 179.199 32 179.199 c 38.398 179.199 l 41.934 179.199 44.801
 182.066 44.801 185.602 c 44.801 189.133 41.934 192 38.398 192 c h
38.398 192 m f
38.398 217.602 m 32 217.602 l 28.465 217.602 25.602 214.734 25.602 211.199
 c 25.602 207.664 28.465 204.801 32 204.801 c 38.398 204.801 l 41.934 204.801
 44.801 207.664 44.801 211.199 c 44.801 214.734 41.934 217.602 38.398 217.602
 c h
38.398 217.602 m f
38.398 243.199 m 32 243.199 l 28.465 243.199 25.602 240.336 25.602 236.801
 c 25.602 233.266 28.465 230.398 32 230.398 c 38.398 230.398 l 41.934 230.398
 44.801 233.266 44.801 236.801 c 44.801 240.336 41.934 243.199 38.398 243.199
 c h
38.398 243.199 m f
38.398 268.801 m 32 268.801 l 28.465 268.801 25.602 265.934 25.602 262.398
 c 25.602 258.867 28.465 256 32 256 c 38.398 256 l 41.934 256 44.801 258.867
 44.801 262.398 c 44.801 265.934 41.934 268.801 38.398 268.801 c h
38.398 268.801 m f
0.168627 0.713726 0.909804 rg
121.602 268.801 m 89.602 268.801 l 86.066 268.801 83.199 265.934 83.199
 262.398 c 83.199 258.867 86.066 256 89.602 256 c 121.602 256 l 125.133 
256 128 258.867 128 262.398 c 128 265.934 125.133 268.801 121.602 268.801
 c h
121.602 268.801 m f
0.619608 0.509804 0.92549 rg
204.801 268.801 m 147.199 268.801 l 143.664 268.801 140.801 265.934 140.801
 262.398 c 140.801 258.867 143.664 256 147.199 256 c 204.801 256 l 208.336
 256 211.199 258.867 211.199 262.398 c 211.199 265.934 208.336 268.801 204.801
 268.801 c h
204.801 268.801 m f
0.168627 0.713726 0.909804 rg
121.602 192 m 89.602 192 l 86.066 192 83.199 189.133 83.199 185.602 c 83.199
 182.066 86.066 179.199 89.602 179.199 c 121.602 179.199 l 125.133 179.199
 128 182.066 128 185.602 c 128 189.133 125.133 192 121.602 192 c h
121.602 192 m f
121.602 217.602 m 89.602 217.602 l 86.066 217.602 83.199 214.734 83.199
 211.199 c 83.199 207.664 86.066 204.801 89.602 204.801 c 121.602 204.801
 l 125.133 204.801 128 207.664 128 211.199 c 128 214.734 125.133 217.602
 121.602 217.602 c h
121.602 217.602 m f
0.619608 0.509804 0.92549 rg
192 192 m 147.199 192 l 143.664 192 140.801 189.133 140.801 185.602 c 140.801
 182.066 143.664 179.199 147.199 179.199 c 192 179.199 l 195.535 179.199
 198.398 182.066 198.398 185.602 c 198.398 189.133 195.535 192 192 192 c
 h
192 192 m f
179.199 217.602 m 147.199 217.602 l 143.664 217.602 140.801 214.734 140.801
 211.199 c 140.801 207.664 143.664 204.801 147.199 204.801 c 179.199 204.801
 l 182.734 204.801 185.602 207.664 185.602 211.199 c 185.602 214.734 182.734
 217.602 179.199 217.602 c h
179.199 217.602 m f
0.168627 0.713726 0.909804 rg
96 166.398 m 89.602 166.398 l 86.066 166.398 83.199 163.535 83.199 160 
c 83.199 156.465 86.066 153.602 89.602 153.602 c 96 153.602 l 99.535 153.602
 102.398 156.465 102.398 160 c 102.398 163.535 99.535 166.398 96 166.398
 c h
96 166.398 m f
0.619608 0.509804 0.92549 rg
166.398 166.398 m 121.602 166.398 l 118.066 166.398 115.199 163.535 115.199
 160 c 115.199 156.465 118.066 153.602 121.602 153.602 c 166.398 153.602
 l 169.934 153.602 172.801 156.465 172.801 160 c 172.801 163.535 169.934
 166.398 166.398 166.398 c h
166.398 166.398 m f
0.980392 0.631373 0.0862745 rg
262.398 166.398 m 192 166.398 l 188.465 166.398 185.602 163.535 185.602
 160 c 185.602 156.465 188.465 153.602 192 153.602 c 262.398 153.602 l 265.934
 153.602 268.801 156.465 268.801 160 c 268.801 163.535 265.934 166.398 262.398
 166.398 c h
262.398 166.398 m f
0.619608 0.509804 0.92549 rg
262.398 115.199 m 128 115.199 l 124.465 115.199 121.602 112.336 121.602
 108.801 c 121.602 105.266 124.465 102.398 128 102.398 c 262.398 102.398
 l 265.934 102.398 268.801 105.266 268.801 108.801 c 268.801 112.336 265.934
 115.199 262.398 115.199 c h
262.398 115.199 m f
0.168627 0.713726 0.909804 rg
102.398 115.199 m 89.602 115.199 l 86.066 115.199 83.199 112.336 83.199
 108.801 c 83.199 105.266 86.066 102.398 89.602 102.398 c 102.398 102.398
 l 105.934 102.398 108.801 105.266 108.801 108.801 c 108.801 112.336 105.934
 115.199 102.398 115.199 c h
102.398 115.199 m f
96 243.199 m 89.602 243.199 l 86.066 243.199 83.199 240.336 83.199 236.801
 c 83.199 233.266 86.066 230.398 89.602 230.398 c 96 230.398 l 99.535 230.398
 102.398 233.266 102.398 236.801 c 102.398 240.336 99.535 243.199 96 243.199
 c h
96 243.199 m f
0.619608 0.509804 0.92549 rg
166.398 243.199 m 121.602 243.199 l 118.066 243.199 115.199 240.336 115.199
 236.801 c 115.199 233.266 118.066 230.398 121.602 230.398 c 166.398 230.398
 l 169.934 230.398 172.801 233.266 172.801 236.801 c 172.801 240.336 169.934
 243.199 166.398 243.199 c h
166.398 243.199 m f
0.980392 0.631373 0.0862745 rg
211.199 243.199 m 192 243.199 l 188.465 243.199 185.602 240.336 185.602
 236.801 c 185.602 233.266 188.465 230.398 192 230.398 c 211.199 230.398
 l 214.734 230.398 217.602 233.266 217.602 236.801 c 217.602 240.336 214.734
 243.199 211.199 243.199 c h
211.199 243.199 m f
0.168627 0.713726 0.909804 rg
115.199 140.801 m 89.602 140.801 l 86.066 140.801 83.199 137.934 83.199
 134.398 c 83.199 130.867 86.066 128 89.602 128 c 115.199 128 l 118.734 
128 121.602 130.867 121.602 134.398 c 121.602 137.934 118.734 140.801 115.199
 140.801 c h
115.199 140.801 m f
0.619608 0.509804 0.92549 rg
166.398 140.801 m 140.801 140.801 l 137.266 140.801 134.398 137.934 134.398
 134.398 c 134.398 130.867 137.266 128 140.801 128 c 166.398 128 l 169.934
 128 172.801 130.867 172.801 134.398 c 172.801 137.934 169.934 140.801 166.398
 140.801 c h
166.398 140.801 m f
0.168627 0.713726 0.909804 rg
115.199 89.602 m 89.602 89.602 l 86.066 89.602 83.199 86.734 83.199 83.199
 c 83.199 79.664 86.066 76.801 89.602 76.801 c 115.199 76.801 l 118.734 
76.801 121.602 79.664 121.602 83.199 c 121.602 86.734 118.734 89.602 115.199
 89.602 c h
115.199 89.602 m f
0.619608 0.509804 0.92549 rg
204.801 89.602 m 140.801 89.602 l 137.266 89.602 134.398 86.734 134.398
 83.199 c 134.398 79.664 137.266 76.801 140.801 76.801 c 204.801 76.801 
l 208.336 76.801 211.199 79.664 211.199 83.199 c 211.199 86.734 208.336 
89.602 204.801 89.602 c h
204.801 89.602 m f
0.980392 0.631373 0.0862745 rg
217.602 140.801 m 192 140.801 l 188.465 140.801 185.602 137.934 185.602
 134.398 c 185.602 130.867 188.465 128 192 128 c 217.602 128 l 221.133 128
 224 130.867 224 134.398 c 224 137.934 221.133 140.801 217.602 140.801 c
 h
217.602 140.801 m f
0.627451 0.447059 0.207843 rg
281.602 320 m 278.066 320 275.199 317.133 275.199 313.602 c 275.199 256
 l 275.199 252.465 278.066 249.602 281.602 249.602 c 285.133 249.602 288
 252.465 288 256 c 288 313.602 l 288 317.133 285.133 320 281.602 320 c h
281.602 320 m f
281.602 352 m 278.066 352 275.199 349.133 275.199 345.602 c 275.199 339.199
 l 275.199 335.664 278.066 332.801 281.602 332.801 c 285.133 332.801 288
 335.664 288 339.199 c 288 345.602 l 288 349.133 285.133 352 281.602 352
 c h
281.602 352 m f
Q Q
showpage
%%Trailer
end
%%EOF
