%!PS-Adobe-3.0 EPSF-3.0
%%Creator: cairo 1.16.0 (https://cairographics.org)
%%CreationDate: Fri Nov 29 10:41:25 2019
%%Pages: 1
%%DocumentData: Clean7Bit
%%LanguageLevel: 2
%%BoundingBox: 6 6 378 378
%%EndComments
%%BeginProlog
50 dict begin
/q { gsave } bind def
/Q { grestore } bind def
/cm { 6 array astore concat } bind def
/w { setlinewidth } bind def
/J { setlinecap } bind def
/j { setlinejoin } bind def
/M { setmiterlimit } bind def
/d { setdash } bind def
/m { moveto } bind def
/l { lineto } bind def
/c { curveto } bind def
/h { closepath } bind def
/re { exch dup neg 3 1 roll 5 3 roll moveto 0 rlineto
      0 exch rlineto 0 rlineto closepath } bind def
/S { stroke } bind def
/f { fill } bind def
/f* { eofill } bind def
/n { newpath } bind def
/W { clip } bind def
/W* { eoclip } bind def
/BT { } bind def
/ET { } bind def
/BDC { mark 3 1 roll /BDC pdfmark } bind def
/EMC { mark /EMC pdfmark } bind def
/cairo_store_point { /cairo_point_y exch def /cairo_point_x exch def } def
/Tj { show currentpoint cairo_store_point } bind def
/TJ {
  {
    dup
    type /stringtype eq
    { show } { -0.001 mul 0 cairo_font_matrix dtransform rmoveto } ifelse
  } forall
  currentpoint cairo_store_point
} bind def
/cairo_selectfont { cairo_font_matrix aload pop pop pop 0 0 6 array astore
    cairo_font exch selectfont cairo_point_x cairo_point_y moveto } bind def
/Tf { pop /cairo_font exch def /cairo_font_matrix where
      { pop cairo_selectfont } if } bind def
/Td { matrix translate cairo_font_matrix matrix concatmatrix dup
      /cairo_font_matrix exch def dup 4 get exch 5 get cairo_store_point
      /cairo_font where { pop cairo_selectfont } if } bind def
/Tm { 2 copy 8 2 roll 6 array astore /cairo_font_matrix exch def
      cairo_store_point /cairo_font where { pop cairo_selectfont } if } bind def
/g { setgray } bind def
/rg { setrgbcolor } bind def
/d1 { setcachedevice } bind def
/cairo_data_source {
  CairoDataIndex CairoData length lt
    { CairoData CairoDataIndex get /CairoDataIndex CairoDataIndex 1 add def }
    { () } ifelse
} def
/cairo_flush_ascii85_file { cairo_ascii85_file status { cairo_ascii85_file flushfile } if } def
/cairo_image { image cairo_flush_ascii85_file } def
/cairo_imagemask { imagemask cairo_flush_ascii85_file } def
%%EndProlog
%%BeginSetup
%%EndSetup
%%Page: 1 1
%%BeginPageSetup
%%PageBoundingBox: 6 6 378 378
%%EndPageSetup
q 6 6 372 372 rectclip
1 0 0 -1 0 384 cm q
0.666667 g
339.199 134.398 m 339.199 198.398 l 313.602 198.398 l 313.602 134.398 l
 313.602 120.262 302.137 108.801 288 108.801 c 273.863 108.801 262.398 120.262
 262.398 134.398 c 262.398 198.398 l 236.801 198.398 l 236.801 134.398 l
 236.801 106.121 259.723 83.199 288 83.199 c 316.277 83.199 339.199 106.121
 339.199 134.398 c h
339.199 134.398 m f
0.858824 g
211.199 12.801 m 211.199 268.801 l 211.199 272.336 208.336 275.199 204.801
 275.199 c 12.801 275.199 l 9.266 275.199 6.398 272.336 6.398 268.801 c 
6.398 62.898 l 6.402 59.504 7.75 56.25 10.152 53.848 c 53.848 10.152 l 56.25
 7.75 59.504 6.402 62.898 6.398 c 204.801 6.398 l 208.336 6.398 211.199 
9.266 211.199 12.801 c h
211.199 12.801 m f
0.756863 g
57.602 7.551 m 57.602 51.199 l 57.602 54.734 54.734 57.602 51.199 57.602
 c 7.551 57.602 l 8.195 56.195 9.082 54.914 10.176 53.824 c 53.824 10.176
 l 54.914 9.082 56.195 8.195 57.602 7.551 c h
57.602 7.551 m f
0.980392 0.631373 0.0862745 rg
217.602 185.602 m 358.398 185.602 l 369.035 185.602 377.602 194.164 377.602
 204.801 c 377.602 358.398 l 377.602 369.035 369.035 377.602 358.398 377.602
 c 217.602 377.602 l 206.965 377.602 198.398 369.035 198.398 358.398 c 198.398
 204.801 l 198.398 194.164 206.965 185.602 217.602 185.602 c h
217.602 185.602 m f
0.627451 0.447059 0.207843 rg
320 268.801 m 319.973 281.527 312.445 293.043 300.801 298.176 c 300.801
 313.602 l 300.801 320.668 295.07 326.398 288 326.398 c 280.93 326.398 275.199
 320.668 275.199 313.602 c 275.199 298.176 l 264.434 293.477 257.105 283.254
 256.113 271.547 c 255.125 259.84 260.629 248.531 270.453 242.086 c 280.277
 235.645 292.844 235.105 303.188 240.68 c 313.527 246.258 319.984 257.051
 320 268.801 c h
320 268.801 m f
0.152941 0.435294 0.509804 rg
60.801 224 m 48.43 224 38.398 213.973 38.398 201.602 c 38.398 182.398 l
 38.398 172.758 44.57 164.199 53.715 161.148 c 62.863 158.102 72.934 161.246
 78.719 168.961 c 80.84 171.789 80.27 175.801 77.441 177.922 c 74.613 180.039
 70.602 179.469 68.48 176.641 c 66.676 174.211 63.824 172.785 60.801 172.801
 c 55.5 172.801 51.199 177.098 51.199 182.398 c 51.199 201.602 l 51.199 
204.145 52.211 206.586 54.012 208.387 c 55.812 210.188 58.254 211.199 60.801
 211.199 c 63.824 211.215 66.676 209.789 68.48 207.359 c 70.602 204.531 
74.613 203.961 77.441 206.078 c 80.27 208.199 80.84 212.211 78.719 215.039
 c 74.508 220.703 67.855 224.027 60.801 224 c h
60.801 224 m f
0.666667 g
76.801 134.398 m 75.102 134.398 73.477 133.727 72.273 132.523 c 53.074 
113.324 l 50.578 110.824 50.578 106.773 53.074 104.273 c 72.273 85.074 l
 74.785 82.648 78.777 82.684 81.246 85.152 c 83.715 87.621 83.75 91.613 
81.324 94.125 c 66.648 108.801 l 81.324 123.477 l 83.156 125.305 83.703 
128.059 82.711 130.449 c 81.723 132.84 79.387 134.398 76.801 134.398 c h
76.801 134.398 m f
140.801 134.398 m 138.211 134.398 135.879 132.84 134.887 130.449 c 133.898
 128.059 134.445 125.305 136.273 123.477 c 150.949 108.801 l 136.273 94.125
 l 133.852 91.613 133.883 87.621 136.352 85.152 c 138.82 82.684 142.812 
82.648 145.324 85.074 c 164.523 104.273 l 167.023 106.773 167.023 110.824
 164.523 113.324 c 145.324 132.523 l 144.125 133.727 142.496 134.398 140.801
 134.398 c h
140.801 134.398 m f
102.398 134.398 m 100.344 134.398 98.414 133.41 97.211 131.742 c 96.012
 130.074 95.684 127.93 96.332 125.977 c 109.133 87.578 l 110.25 84.219 113.879
 82.402 117.234 83.52 c 120.594 84.637 122.41 88.266 121.293 91.621 c 108.492
 130.023 l 107.621 132.645 105.164 134.41 102.398 134.398 c h
102.398 134.398 m f
0.152941 0.435294 0.509804 rg
108.801 224 m 101.941 223.992 95.602 220.336 92.16 214.398 c 90.52 211.355
 91.598 207.555 94.594 205.824 c 97.59 204.094 101.418 205.059 103.238 208
 c 104.379 209.98 106.492 211.199 108.777 211.199 c 111.062 211.203 113.172
 209.984 114.32 208.008 c 115.465 206.031 115.469 203.594 114.332 201.613
 c 113.191 199.633 111.086 198.406 108.801 198.398 c 101.941 198.395 95.605
 194.734 92.18 188.793 c 88.754 182.852 88.758 175.531 92.188 169.594 c 
95.617 163.656 101.957 160 108.816 160 c 115.672 160 122.012 163.66 125.441
 169.602 c 127.078 172.645 126 176.445 123.004 178.176 c 120.012 179.906
 116.184 178.941 114.363 176 c 113.219 174.02 111.109 172.801 108.824 172.801
 c 106.539 172.797 104.426 174.016 103.281 175.992 c 102.137 177.969 102.133
 180.406 103.27 182.387 c 104.406 184.367 106.516 185.594 108.801 185.602
 c 119.402 185.602 128 194.195 128 204.801 c 128 215.402 119.402 224 108.801
 224 c h
108.801 224 m f
160 224 m 153.141 223.992 146.801 220.336 143.359 214.398 c 141.719 211.355
 142.797 207.555 145.793 205.824 c 148.789 204.094 152.617 205.059 154.438
 208 c 155.582 209.98 157.691 211.199 159.977 211.199 c 162.262 211.203 
164.375 209.984 165.52 208.008 c 166.664 206.031 166.668 203.594 165.531
 201.613 c 164.395 199.633 162.285 198.406 160 198.398 c 153.141 198.395
 146.805 194.734 143.379 188.793 c 139.953 182.852 139.957 175.531 143.387
 169.594 c 146.82 163.656 153.156 160 160.016 160 c 166.875 160 173.211 
163.66 176.641 169.602 c 178.281 172.645 177.203 176.445 174.207 178.176
 c 171.211 179.906 167.383 178.941 165.562 176 c 164.418 174.02 162.309 
172.801 160.023 172.801 c 157.738 172.797 155.625 174.016 154.48 175.992
 c 153.336 177.969 153.332 180.406 154.469 182.387 c 155.605 184.367 157.715
 185.594 160 185.602 c 170.605 185.602 179.199 194.195 179.199 204.801 c
 179.199 215.402 170.605 224 160 224 c h
160 224 m f
1 0.698039 0.301961 rg
224 236.801 m 220.465 236.801 217.602 233.934 217.602 230.398 c 217.602
 217.602 l 217.602 210.531 223.332 204.801 230.398 204.801 c 275.199 204.801
 l 278.734 204.801 281.602 207.664 281.602 211.199 c 281.602 214.734 278.734
 217.602 275.199 217.602 c 230.398 217.602 l 230.398 230.398 l 230.398 233.934
 227.535 236.801 224 236.801 c h
224 236.801 m f
224 268.801 m 220.465 268.801 217.602 265.934 217.602 262.398 c 217.602
 256 l 217.602 252.465 220.465 249.602 224 249.602 c 227.535 249.602 230.398
 252.465 230.398 256 c 230.398 262.398 l 230.398 265.934 227.535 268.801
 224 268.801 c h
224 268.801 m f
Q Q
showpage
%%Trailer
end
%%EOF
