%!PS-Adobe-3.0 EPSF-3.0
%%Creator: cairo 1.16.0 (https://cairographics.org)
%%CreationDate: Fri Nov 29 10:41:25 2019
%%Pages: 1
%%DocumentData: Clean7Bit
%%LanguageLevel: 2
%%BoundingBox: 6 0 384 378
%%EndComments
%%BeginProlog
50 dict begin
/q { gsave } bind def
/Q { grestore } bind def
/cm { 6 array astore concat } bind def
/w { setlinewidth } bind def
/J { setlinecap } bind def
/j { setlinejoin } bind def
/M { setmiterlimit } bind def
/d { setdash } bind def
/m { moveto } bind def
/l { lineto } bind def
/c { curveto } bind def
/h { closepath } bind def
/re { exch dup neg 3 1 roll 5 3 roll moveto 0 rlineto
      0 exch rlineto 0 rlineto closepath } bind def
/S { stroke } bind def
/f { fill } bind def
/f* { eofill } bind def
/n { newpath } bind def
/W { clip } bind def
/W* { eoclip } bind def
/BT { } bind def
/ET { } bind def
/BDC { mark 3 1 roll /BDC pdfmark } bind def
/EMC { mark /EMC pdfmark } bind def
/cairo_store_point { /cairo_point_y exch def /cairo_point_x exch def } def
/Tj { show currentpoint cairo_store_point } bind def
/TJ {
  {
    dup
    type /stringtype eq
    { show } { -0.001 mul 0 cairo_font_matrix dtransform rmoveto } ifelse
  } forall
  currentpoint cairo_store_point
} bind def
/cairo_selectfont { cairo_font_matrix aload pop pop pop 0 0 6 array astore
    cairo_font exch selectfont cairo_point_x cairo_point_y moveto } bind def
/Tf { pop /cairo_font exch def /cairo_font_matrix where
      { pop cairo_selectfont } if } bind def
/Td { matrix translate cairo_font_matrix matrix concatmatrix dup
      /cairo_font_matrix exch def dup 4 get exch 5 get cairo_store_point
      /cairo_font where { pop cairo_selectfont } if } bind def
/Tm { 2 copy 8 2 roll 6 array astore /cairo_font_matrix exch def
      cairo_store_point /cairo_font where { pop cairo_selectfont } if } bind def
/g { setgray } bind def
/rg { setrgbcolor } bind def
/d1 { setcachedevice } bind def
/cairo_data_source {
  CairoDataIndex CairoData length lt
    { CairoData CairoDataIndex get /CairoDataIndex CairoDataIndex 1 add def }
    { () } ifelse
} def
/cairo_flush_ascii85_file { cairo_ascii85_file status { cairo_ascii85_file flushfile } if } def
/cairo_image { image cairo_flush_ascii85_file } def
/cairo_imagemask { imagemask cairo_flush_ascii85_file } def
%%EndProlog
%%BeginSetup
%%EndSetup
%%Page: 1 1
%%BeginPageSetup
%%PageBoundingBox: 6 0 384 378
%%EndPageSetup
q 6 0 378 378 rectclip
1 0 0 -1 0 384 cm q
0.627451 0.411765 0.294118 rg
307.199 294.398 m 307.199 51.199 l 307.199 40.598 298.605 32 288 32 c 96
 32 l 85.395 32 76.801 40.598 76.801 51.199 c 76.801 294.398 l h
307.199 294.398 m f
0.858824 g
102.398 32 179.203 262.398 re f
0.980392 0.631373 0.0862745 rg
377.602 294.398 m 377.602 340.352 340.352 377.602 294.398 377.602 c 248.449
 377.602 211.199 340.352 211.199 294.398 c 211.199 248.449 248.449 211.199
 294.398 211.199 c 340.352 211.199 377.602 248.449 377.602 294.398 c h
377.602 294.398 m f
0.407843 g
172.801 294.398 m 172.801 340.352 135.551 377.602 89.602 377.602 c 43.648
 377.602 6.398 340.352 6.398 294.398 c 6.398 248.449 43.648 211.199 89.602
 211.199 c 135.551 211.199 172.801 248.449 172.801 294.398 c h
172.801 294.398 m f
1 g
147.199 294.398 m 147.199 326.211 121.41 352 89.602 352 c 57.789 352 32
 326.211 32 294.398 c 32 262.59 57.789 236.801 89.602 236.801 c 121.41 236.801
 147.199 262.59 147.199 294.398 c h
147.199 294.398 m f
0.666667 g
236.801 25.602 m 236.801 38.398 l 236.801 41.934 233.934 44.801 230.398
 44.801 c 153.602 44.801 l 150.066 44.801 147.199 41.934 147.199 38.398 
c 147.199 25.602 l 147.199 22.066 150.066 19.199 153.602 19.199 c 166.398
 19.199 l 169.934 19.199 172.801 16.336 172.801 12.801 c 172.801 9.266 175.664
 6.398 179.199 6.398 c 204.801 6.398 l 208.336 6.398 211.199 9.266 211.199
 12.801 c 211.199 16.336 214.066 19.199 217.602 19.199 c 230.398 19.199 
l 233.934 19.199 236.801 22.066 236.801 25.602 c h
236.801 25.602 m f
0.847059 0.486275 0.054902 rg
300.801 288.641 m 300.801 250.754 l 308.453 253.457 313.578 260.684 313.602
 268.801 c 313.602 272.336 316.465 275.199 320 275.199 c 323.535 275.199
 326.398 272.336 326.398 268.801 c 326.402 253.59 315.703 240.48 300.801
 237.441 c 300.801 236.801 l 300.801 233.266 297.934 230.398 294.398 230.398
 c 290.867 230.398 288 233.266 288 236.801 c 288 237.441 l 273.086 240.469
 262.367 253.582 262.367 268.801 c 262.367 284.02 273.086 297.133 288 300.16
 c 288 338.047 l 280.348 335.344 275.223 328.117 275.199 320 c 275.199 316.465
 272.336 313.602 268.801 313.602 c 265.266 313.602 262.398 316.465 262.398
 320 c 262.398 335.207 273.098 348.316 288 351.359 c 288 352 l 288 355.535
 290.867 358.398 294.398 358.398 c 297.934 358.398 300.801 355.535 300.801
 352 c 300.801 351.359 l 315.715 348.332 326.434 335.219 326.434 320 c 326.434
 304.781 315.715 291.668 300.801 288.641 c h
275.199 268.801 m 275.223 260.684 280.348 253.457 288 250.754 c 288 286.848
 l 280.348 284.141 275.223 276.918 275.199 268.801 c h
300.801 338.047 m 300.801 301.953 l 308.469 304.637 313.602 311.875 313.602
 320 c 313.602 328.125 308.469 335.363 300.801 338.047 c h
300.801 338.047 m f
0.298039 g
89.602 256 m 86.066 256 83.199 253.133 83.199 249.602 c 83.199 236.801 
l 83.199 233.266 86.066 230.398 89.602 230.398 c 93.133 230.398 96 233.266
 96 236.801 c 96 249.602 l 96 253.133 93.133 256 89.602 256 c h
89.602 256 m f
57.922 269.121 m 56.223 269.121 54.594 268.445 53.395 267.246 c 44.344 
258.195 l 41.922 255.684 41.953 251.691 44.422 249.223 c 46.891 246.754 
50.883 246.719 53.395 249.145 c 62.445 258.195 l 64.273 260.027 64.82 262.777
 63.832 265.168 c 62.84 267.559 60.508 269.121 57.922 269.121 c h
57.922 269.121 m f
44.801 300.801 m 32 300.801 l 28.465 300.801 25.602 297.934 25.602 294.398
 c 25.602 290.867 28.465 288 32 288 c 44.801 288 l 48.336 288 51.199 290.867
 51.199 294.398 c 51.199 297.934 48.336 300.801 44.801 300.801 c h
44.801 300.801 m f
48.871 341.531 m 46.281 341.527 43.949 339.969 42.957 337.578 c 41.969 
335.188 42.516 332.434 44.344 330.605 c 53.395 321.555 l 55.906 319.129 
59.898 319.164 62.367 321.633 c 64.836 324.102 64.871 328.094 62.445 330.605
 c 53.395 339.656 l 52.195 340.855 50.566 341.527 48.871 341.531 c h
48.871 341.531 m f
89.602 358.398 m 86.066 358.398 83.199 355.535 83.199 352 c 83.199 339.199
 l 83.199 335.664 86.066 332.801 89.602 332.801 c 93.133 332.801 96 335.664
 96 339.199 c 96 352 l 96 355.535 93.133 358.398 89.602 358.398 c h
89.602 358.398 m f
130.328 341.531 m 128.633 341.527 127.004 340.855 125.805 339.656 c 116.754
 330.605 l 114.328 328.094 114.363 324.102 116.832 321.633 c 119.301 319.164
 123.293 319.129 125.805 321.555 c 134.855 330.605 l 136.684 332.434 137.23
 335.188 136.242 337.578 c 135.25 339.969 132.918 341.527 130.328 341.531
 c h
130.328 341.531 m f
147.199 300.801 m 134.398 300.801 l 130.867 300.801 128 297.934 128 294.398
 c 128 290.867 130.867 288 134.398 288 c 147.199 288 l 150.734 288 153.602
 290.867 153.602 294.398 c 153.602 297.934 150.734 300.801 147.199 300.801
 c h
147.199 300.801 m f
121.281 269.121 m 118.691 269.121 116.359 267.559 115.367 265.168 c 114.379
 262.777 114.926 260.027 116.754 258.195 c 125.805 249.145 l 128.316 246.719
 132.309 246.754 134.777 249.223 c 137.246 251.691 137.281 255.684 134.855
 258.195 c 125.805 267.246 l 124.605 268.445 122.977 269.121 121.281 269.121
 c h
121.281 269.121 m f
89.602 300.801 m 86.066 300.801 83.199 297.934 83.199 294.398 c 83.199 
275.199 l 83.199 271.664 86.066 268.801 89.602 268.801 c 93.133 268.801 
96 271.664 96 275.199 c 96 284.043 l 99.539 282.273 l 102.703 280.691 106.547
 281.977 108.129 285.141 c 109.707 288.301 108.426 292.148 105.262 293.727
 c 92.461 300.129 l 91.57 300.57 90.594 300.801 89.602 300.801 c h
89.602 300.801 m f
0.117647 0.313726 0.356863 rg
243.199 115.199 m 239.664 115.199 236.801 112.336 236.801 108.801 c 236.801
 102.398 l 236.801 98.867 239.664 96 243.199 96 c 245.484 95.996 247.598
 94.777 248.738 92.797 c 249.879 90.816 249.879 88.375 248.734 86.398 c 
247.59 84.418 245.477 83.199 243.191 83.199 c 240.906 83.199 238.793 84.422
 237.652 86.398 c 235.832 89.344 232.004 90.305 229.008 88.574 c 226.012
 86.844 224.934 83.047 226.574 80 c 229.715 74.566 235.316 71.016 241.57
 70.488 c 247.824 69.957 253.941 72.516 257.953 77.344 c 261.965 82.168 
263.367 88.652 261.703 94.703 c 260.043 100.754 255.527 105.613 249.613 
107.711 c 249.613 108.801 l 249.613 110.5 248.938 112.129 247.734 113.328
 c 246.531 114.531 244.898 115.203 243.199 115.199 c h
243.199 115.199 m f
243.199 142.234 m 239.664 142.234 236.801 139.367 236.801 135.832 c 236.801
 134.398 l 236.801 130.867 239.664 128 243.199 128 c 246.734 128 249.602
 130.867 249.602 134.398 c 249.602 135.832 l 249.602 139.367 246.734 142.234
 243.199 142.234 c h
243.199 142.234 m f
243.199 198.398 m 239.664 198.398 236.801 195.535 236.801 192 c 236.801
 185.602 l 236.801 182.066 239.664 179.199 243.199 179.199 c 245.484 179.199
 247.598 177.977 248.738 175.996 c 249.879 174.016 249.879 171.578 248.734
 169.598 c 247.59 167.617 245.477 166.398 243.191 166.398 c 240.906 166.402
 238.793 167.621 237.652 169.602 c 235.832 172.543 232.004 173.504 229.008
 171.773 c 226.012 170.043 224.934 166.246 226.574 163.199 c 229.715 157.77
 235.316 154.215 241.57 153.688 c 247.824 153.156 253.941 155.719 257.953
 160.543 c 261.965 165.371 263.367 171.852 261.703 177.902 c 260.043 183.957
 255.527 188.812 249.613 190.91 c 249.613 192 l 249.613 193.699 248.938 
195.328 247.734 196.531 c 246.531 197.73 244.898 198.402 243.199 198.398
 c h
243.199 198.398 m f
243.199 225.434 m 239.664 225.434 236.801 222.566 236.801 219.035 c 236.801
 217.602 l 236.801 214.066 239.664 211.199 243.199 211.199 c 246.734 211.199
 249.602 214.066 249.602 217.602 c 249.602 219.035 l 249.602 222.566 246.734
 225.434 243.199 225.434 c h
243.199 225.434 m f
166.398 96 m 128 96 l 124.465 96 121.602 93.133 121.602 89.602 c 121.602
 86.066 124.465 83.199 128 83.199 c 166.398 83.199 l 169.934 83.199 172.801
 86.066 172.801 89.602 c 172.801 93.133 169.934 96 166.398 96 c h
166.398 96 m f
153.602 121.602 m 128 121.602 l 124.465 121.602 121.602 118.734 121.602
 115.199 c 121.602 111.664 124.465 108.801 128 108.801 c 153.602 108.801
 l 157.133 108.801 160 111.664 160 115.199 c 160 118.734 157.133 121.602
 153.602 121.602 c h
153.602 121.602 m f
204.801 96 m 192 96 l 188.465 96 185.602 93.133 185.602 89.602 c 185.602
 86.066 188.465 83.199 192 83.199 c 204.801 83.199 l 208.336 83.199 211.199
 86.066 211.199 89.602 c 211.199 93.133 208.336 96 204.801 96 c h
204.801 96 m f
166.398 172.801 m 128 172.801 l 124.465 172.801 121.602 169.934 121.602
 166.398 c 121.602 162.867 124.465 160 128 160 c 166.398 160 l 169.934 160
 172.801 162.867 172.801 166.398 c 172.801 169.934 169.934 172.801 166.398
 172.801 c h
166.398 172.801 m f
153.602 198.398 m 128 198.398 l 124.465 198.398 121.602 195.535 121.602
 192 c 121.602 188.465 124.465 185.602 128 185.602 c 153.602 185.602 l 157.133
 185.602 160 188.465 160 192 c 160 195.535 157.133 198.398 153.602 198.398
 c h
153.602 198.398 m f
204.801 172.801 m 192 172.801 l 188.465 172.801 185.602 169.934 185.602
 166.398 c 185.602 162.867 188.465 160 192 160 c 204.801 160 l 208.336 160
 211.199 162.867 211.199 166.398 c 211.199 169.934 208.336 172.801 204.801
 172.801 c h
204.801 172.801 m f
0.847059 0.486275 0.054902 rg
294.398 384 m 258.16 384 225.488 362.168 211.621 328.688 c 197.754 295.207
 205.418 256.668 231.043 231.043 c 256.668 205.418 295.207 197.754 328.688
 211.621 c 362.168 225.488 384 258.16 384 294.398 c 383.945 343.863 343.863
 383.945 294.398 384 c h
294.398 217.602 m 263.336 217.602 235.332 236.312 223.445 265.012 c 211.559
 293.707 218.129 326.742 240.094 348.707 c 262.059 370.672 295.094 377.242
 323.789 365.355 c 352.488 353.465 371.199 325.461 371.199 294.398 c 371.152
 252.004 336.797 217.645 294.398 217.602 c h
294.398 217.602 m f
0.298039 g
89.602 358.398 m 63.715 358.398 40.379 342.809 30.473 318.891 c 20.566 
294.977 26.043 267.449 44.344 249.145 c 62.648 230.84 90.176 225.367 114.09
 235.273 c 138.008 245.176 153.602 268.516 153.602 294.398 c 153.562 329.73
 124.93 358.359 89.602 358.398 c h
89.602 243.199 m 68.891 243.199 50.223 255.676 42.297 274.805 c 34.371 
293.938 38.754 315.961 53.395 330.605 c 68.039 345.246 90.062 349.629 109.195
 341.703 c 128.324 333.777 140.801 315.109 140.801 294.398 c 140.77 266.137
 117.863 243.23 89.602 243.199 c h
89.602 243.199 m f
Q Q
showpage
%%Trailer
end
%%EOF
