%!PS-Adobe-3.0 EPSF-3.0
%%Creator: cairo 1.16.0 (https://cairographics.org)
%%CreationDate: Fri Nov 29 10:41:25 2019
%%Pages: 1
%%DocumentData: Clean7Bit
%%LanguageLevel: 2
%%BoundingBox: 6 6 378 378
%%EndComments
%%BeginProlog
50 dict begin
/q { gsave } bind def
/Q { grestore } bind def
/cm { 6 array astore concat } bind def
/w { setlinewidth } bind def
/J { setlinecap } bind def
/j { setlinejoin } bind def
/M { setmiterlimit } bind def
/d { setdash } bind def
/m { moveto } bind def
/l { lineto } bind def
/c { curveto } bind def
/h { closepath } bind def
/re { exch dup neg 3 1 roll 5 3 roll moveto 0 rlineto
      0 exch rlineto 0 rlineto closepath } bind def
/S { stroke } bind def
/f { fill } bind def
/f* { eofill } bind def
/n { newpath } bind def
/W { clip } bind def
/W* { eoclip } bind def
/BT { } bind def
/ET { } bind def
/BDC { mark 3 1 roll /BDC pdfmark } bind def
/EMC { mark /EMC pdfmark } bind def
/cairo_store_point { /cairo_point_y exch def /cairo_point_x exch def } def
/Tj { show currentpoint cairo_store_point } bind def
/TJ {
  {
    dup
    type /stringtype eq
    { show } { -0.001 mul 0 cairo_font_matrix dtransform rmoveto } ifelse
  } forall
  currentpoint cairo_store_point
} bind def
/cairo_selectfont { cairo_font_matrix aload pop pop pop 0 0 6 array astore
    cairo_font exch selectfont cairo_point_x cairo_point_y moveto } bind def
/Tf { pop /cairo_font exch def /cairo_font_matrix where
      { pop cairo_selectfont } if } bind def
/Td { matrix translate cairo_font_matrix matrix concatmatrix dup
      /cairo_font_matrix exch def dup 4 get exch 5 get cairo_store_point
      /cairo_font where { pop cairo_selectfont } if } bind def
/Tm { 2 copy 8 2 roll 6 array astore /cairo_font_matrix exch def
      cairo_store_point /cairo_font where { pop cairo_selectfont } if } bind def
/g { setgray } bind def
/rg { setrgbcolor } bind def
/d1 { setcachedevice } bind def
/cairo_data_source {
  CairoDataIndex CairoData length lt
    { CairoData CairoDataIndex get /CairoDataIndex CairoDataIndex 1 add def }
    { () } ifelse
} def
/cairo_flush_ascii85_file { cairo_ascii85_file status { cairo_ascii85_file flushfile } if } def
/cairo_image { image cairo_flush_ascii85_file } def
/cairo_imagemask { imagemask cairo_flush_ascii85_file } def
%%EndProlog
%%BeginSetup
%%EndSetup
%%Page: 1 1
%%BeginPageSetup
%%PageBoundingBox: 6 6 378 378
%%EndPageSetup
q 6 6 372 372 rectclip
1 0 0 -1 0 384 cm q
0.152941 0.435294 0.509804 rg
275.199 25.602 m 224 25.602 l 220.465 25.602 217.602 22.734 217.602 19.199
 c 217.602 15.664 220.465 12.801 224 12.801 c 275.199 12.801 l 278.734 12.801
 281.602 15.664 281.602 19.199 c 281.602 22.734 278.734 25.602 275.199 25.602
 c h
275.199 25.602 m f
352 25.602 m 300.801 25.602 l 297.266 25.602 294.398 22.734 294.398 19.199
 c 294.398 15.664 297.266 12.801 300.801 12.801 c 352 12.801 l 355.535 12.801
 358.398 15.664 358.398 19.199 c 358.398 22.734 355.535 25.602 352 25.602
 c h
352 25.602 m f
0.686275 g
275.199 102.398 m 300.801 102.398 l 300.801 134.398 l 300.801 137.934 297.934
 140.801 294.398 140.801 c 281.602 140.801 l 278.066 140.801 275.199 137.934
 275.199 134.398 c h
275.199 102.398 m f
0.607843 g
320 288 m 345.602 288 l 345.602 307.199 l 345.602 314.27 339.871 320 332.801
 320 c 325.73 320 320 314.27 320 307.199 c h
320 288 m f
0.619608 0.509804 0.92549 rg
192 288 m 193.102 288 l 211.48 288 229.105 295.301 242.102 308.297 c 255.098
 321.293 262.398 338.918 262.398 357.301 c 262.398 364.801 l 262.398 371.871
 256.668 377.602 249.602 377.602 c 19.199 377.602 l 12.129 377.602 6.398
 371.871 6.398 364.801 c 6.398 357.301 l 6.398 319.027 37.426 288 75.699
 288 c 76.801 287.961 l h
192 288 m f
0.54902 0.34902 0.235294 rg
166.398 249.734 m 166.398 294.398 l 102.398 294.398 l 102.398 249.602 l
 h
166.398 249.734 m f
0.34902 0.231373 0.172549 rg
44.801 150.809 m 44.801 135.039 l 44.715 111.191 54.105 88.285 70.91 71.359
 c 87.711 54.438 110.551 44.883 134.398 44.801 c 158.25 44.883 181.086 54.438
 197.891 71.359 c 214.695 88.285 224.086 111.191 224 135.039 c 224 150.824
 l 198.398 166.398 l 70.398 166.398 l h
44.801 150.809 m f
0.941176 0.94902 0.960784 rg
134.398 294.398 m 120.48 296.297 109.078 306.406 105.531 320 c 105.531 
320 76.801 311.176 76.801 288 c 82.559 276.414 102.398 275.199 102.398 275.199
 c 102.398 275.199 105.531 288.641 134.398 294.398 c h
134.398 294.398 m f
134.398 294.398 m 148.32 296.297 159.719 306.406 163.27 320 c 163.27 320
 192 311.176 192 288 c 186.238 276.414 166.398 275.199 166.398 275.199 c
 166.398 275.199 163.27 288.641 134.398 294.398 c h
134.398 294.398 m f
0.627451 0.411765 0.294118 rg
224 150.809 m 224 164.371 224 172.18 218.734 182.809 c 216.355 187.785 
211.906 191.461 206.574 192.859 c 204.383 193.516 202.844 195.48 202.734
 197.766 c 200.746 234.078 170.723 262.504 134.355 262.504 c 97.988 262.504
 67.965 234.078 65.977 197.766 c 65.871 195.48 64.328 193.512 62.137 192.859
 c 56.805 191.461 52.355 187.785 49.977 182.809 c 44.801 172.16 44.801 164.371
 44.801 150.809 c 44.688 147.375 46.289 144.113 49.078 142.102 c 51.863 
140.094 55.469 139.605 58.688 140.801 c 67.008 143.758 70.398 158.398 70.398
 159.512 c 70.398 132.258 l 70.379 126.582 74.816 121.895 80.48 121.602 
c 107.473 119.113 133.555 110.582 156.801 96.641 c 159.336 95.043 162.43
 94.594 165.312 95.41 c 185.523 102.762 198.824 122.152 198.398 143.656 
c 198.398 160 l 198.398 158.887 201.824 143.781 210.113 140.801 c 213.332
 139.605 216.938 140.094 219.723 142.102 c 222.512 144.113 224.113 147.375
 224 150.809 c h
224 150.809 m f
0.145098 0.639216 0.854902 rg
224 19.199 m 224 26.27 218.27 32 211.199 32 c 204.129 32 198.398 26.27 
198.398 19.199 c 198.398 12.129 204.129 6.398 211.199 6.398 c 218.27 6.398
 224 12.129 224 19.199 c h
224 19.199 m f
377.602 19.199 m 377.602 26.27 371.871 32 364.801 32 c 357.73 32 352 26.27
 352 19.199 c 352 12.129 357.73 6.398 364.801 6.398 c 371.871 6.398 377.602
 12.129 377.602 19.199 c h
377.602 19.199 m f
281.602 6.398 m 294.398 6.398 l 297.945 6.398 300.801 9.254 300.801 12.801
 c 300.801 25.602 l 300.801 29.145 297.945 32 294.398 32 c 281.602 32 l 
278.055 32 275.199 29.145 275.199 25.602 c 275.199 12.801 l 275.199 9.254
 278.055 6.398 281.602 6.398 c h
281.602 6.398 m f
0.988235 0.796078 0.333333 rg
318.016 90.367 m 300.801 108.801 l 275.199 108.801 l 257.984 90.367 l 255.629
 87.562 255.344 83.559 257.281 80.449 c 281.602 42.113 l 288 32 l 294.398
 42.113 l 318.719 80.449 l 320.656 83.559 320.371 87.562 318.016 90.367 
c h
318.016 90.367 m f
0.686275 g
352.191 268.801 m 352.062 269.82 352 270.844 352 271.871 c 352 288 l 352
 291.535 349.133 294.398 345.602 294.398 c 320 294.398 l 316.465 294.398
 313.602 291.535 313.602 288 c 313.602 271.871 l 313.602 270.848 313.535
 269.824 313.473 268.801 c 332.801 262.398 l h
352.191 268.801 m f
0.988235 0.796078 0.333333 rg
377.602 209.793 m 378 222.02 373.348 233.871 364.734 242.559 c 357.598 
249.559 353.156 258.848 352.191 268.801 c 313.473 268.801 l 312.629 259.043
 308.316 249.914 301.312 243.07 c 288.242 230.172 284.371 210.605 291.539
 193.699 c 298.707 176.793 315.465 165.973 333.824 166.398 c 357.504 167.219
 376.57 186.117 377.602 209.793 c h
377.602 209.793 m f
0.909804 0.662745 0.301961 rg
294.398 42.113 m 294.398 76.801 l 294.398 80.336 291.535 83.199 288 83.199
 c 284.465 83.199 281.602 80.336 281.602 76.801 c 281.602 42.113 l 288 32
 l h
294.398 42.113 m f
1 0.87451 0.6 rg
313.602 217.602 m 310.066 217.602 307.199 214.734 307.199 211.199 c 307.199
 197.062 318.66 185.602 332.801 185.602 c 336.336 185.602 339.199 188.465
 339.199 192 c 339.199 195.535 336.336 198.398 332.801 198.398 c 325.73 
198.398 320 204.129 320 211.199 c 320 214.734 317.133 217.602 313.602 217.602
 c h
313.602 217.602 m f
Q Q
showpage
%%Trailer
end
%%EOF
