%!PS-Adobe-3.0 EPSF-3.0
%%Creator: cairo 1.16.0 (https://cairographics.org)
%%CreationDate: Fri Nov 29 10:41:26 2019
%%Pages: 1
%%DocumentData: Clean7Bit
%%LanguageLevel: 2
%%BoundingBox: 6 6 378 378
%%EndComments
%%BeginProlog
50 dict begin
/q { gsave } bind def
/Q { grestore } bind def
/cm { 6 array astore concat } bind def
/w { setlinewidth } bind def
/J { setlinecap } bind def
/j { setlinejoin } bind def
/M { setmiterlimit } bind def
/d { setdash } bind def
/m { moveto } bind def
/l { lineto } bind def
/c { curveto } bind def
/h { closepath } bind def
/re { exch dup neg 3 1 roll 5 3 roll moveto 0 rlineto
      0 exch rlineto 0 rlineto closepath } bind def
/S { stroke } bind def
/f { fill } bind def
/f* { eofill } bind def
/n { newpath } bind def
/W { clip } bind def
/W* { eoclip } bind def
/BT { } bind def
/ET { } bind def
/BDC { mark 3 1 roll /BDC pdfmark } bind def
/EMC { mark /EMC pdfmark } bind def
/cairo_store_point { /cairo_point_y exch def /cairo_point_x exch def } def
/Tj { show currentpoint cairo_store_point } bind def
/TJ {
  {
    dup
    type /stringtype eq
    { show } { -0.001 mul 0 cairo_font_matrix dtransform rmoveto } ifelse
  } forall
  currentpoint cairo_store_point
} bind def
/cairo_selectfont { cairo_font_matrix aload pop pop pop 0 0 6 array astore
    cairo_font exch selectfont cairo_point_x cairo_point_y moveto } bind def
/Tf { pop /cairo_font exch def /cairo_font_matrix where
      { pop cairo_selectfont } if } bind def
/Td { matrix translate cairo_font_matrix matrix concatmatrix dup
      /cairo_font_matrix exch def dup 4 get exch 5 get cairo_store_point
      /cairo_font where { pop cairo_selectfont } if } bind def
/Tm { 2 copy 8 2 roll 6 array astore /cairo_font_matrix exch def
      cairo_store_point /cairo_font where { pop cairo_selectfont } if } bind def
/g { setgray } bind def
/rg { setrgbcolor } bind def
/d1 { setcachedevice } bind def
/cairo_data_source {
  CairoDataIndex CairoData length lt
    { CairoData CairoDataIndex get /CairoDataIndex CairoDataIndex 1 add def }
    { () } ifelse
} def
/cairo_flush_ascii85_file { cairo_ascii85_file status { cairo_ascii85_file flushfile } if } def
/cairo_image { image cairo_flush_ascii85_file } def
/cairo_imagemask { imagemask cairo_flush_ascii85_file } def
%%EndProlog
%%BeginSetup
%%EndSetup
%%Page: 1 1
%%BeginPageSetup
%%PageBoundingBox: 6 6 378 378
%%EndPageSetup
q 6 6 372 372 rectclip
1 0 0 -1 0 384 cm q
0.298039 g
294.398 70.398 m 290.867 70.398 288 67.535 288 64 c 288 25.602 l 288 22.066
 290.867 19.199 294.398 19.199 c 297.934 19.199 300.801 22.066 300.801 25.602
 c 300.801 64 l 300.801 67.535 297.934 70.398 294.398 70.398 c h
294.398 70.398 m f
339.621 83.629 m 337.168 83.625 334.934 82.223 333.863 80.012 c 332.797
 77.805 333.086 75.176 334.609 73.254 c 346.98 57.637 l 349.176 54.867 353.203
 54.398 355.973 56.594 c 358.746 58.789 359.211 62.816 357.02 65.586 c 344.652
 81.203 l 343.438 82.738 341.582 83.633 339.621 83.629 c h
339.621 83.629 m f
0.407843 g
377.602 140.801 m 377.602 186.75 340.352 224 294.398 224 c 248.449 224 
211.199 186.75 211.199 140.801 c 211.199 94.852 248.449 57.602 294.398 57.602
 c 340.352 57.602 377.602 94.852 377.602 140.801 c h
377.602 140.801 m f
1 g
352 140.801 m 352 172.613 326.211 198.398 294.398 198.398 c 262.59 198.398
 236.801 172.613 236.801 140.801 c 236.801 108.988 262.59 83.199 294.398
 83.199 c 326.211 83.199 352 108.988 352 140.801 c h
352 140.801 m f
0.717647 0.517647 0.337255 rg
108.801 243.199 m 102.398 377.602 l 101.559 377.621 100.727 377.445 99.969
 377.09 c 29.566 347.777 l 27.18 346.793 25.613 344.473 25.602 341.887 c
 25.602 243.199 l h
108.801 243.199 m f
0.815686 0.603922 0.384314 rg
179.199 243.199 m 179.199 341.887 l 179.188 344.473 177.621 346.793 175.23
 347.777 c 104.832 377.09 l 104.074 377.445 103.238 377.621 102.398 377.602
 c 102.398 243.199 l h
179.199 243.199 m f
0.898039 0.682353 0.486275 rg
179.199 230.398 m 196.551 249.242 l 198.039 250.754 198.688 252.906 198.281
 254.992 c 197.879 257.078 196.469 258.828 194.523 259.672 c 131.496 286.348
 l 129.137 287.348 126.41 286.801 124.621 284.965 c 102.398 262.398 l 80.18
 284.965 l 78.391 286.801 75.664 287.348 73.305 286.348 c 10.277 259.668
 l 8.328 258.82 6.922 257.07 6.516 254.984 c 6.113 252.898 6.762 250.75 
8.25 249.234 c 25.602 230.398 l h
179.199 230.398 m f
179.199 230.398 m 196.551 211.199 l 198.043 209.648 198.688 207.469 198.285
 205.355 c 197.883 203.238 196.48 201.453 194.523 200.559 c 131.496 173.336
 l 129.133 172.316 126.391 172.879 124.621 174.746 c 102.398 198.398 l 80.18
 174.719 l 78.41 172.855 75.664 172.293 73.305 173.312 c 10.277 200.523 
l 8.32 201.418 6.918 203.207 6.516 205.324 c 6.113 207.438 6.758 209.617
 8.25 211.168 c 25.602 230.398 l h
179.199 230.398 m f
0.627451 0.447059 0.294118 rg
25.602 230.395 m 102.398 262.395 l 179.199 230.395 l 102.398 198.398 l 
h
25.602 230.395 m f
0.407843 g
281.602 6.398 m 307.199 6.398 l 314.293 6.398 320 12.109 320 19.199 c 320
 26.293 314.293 32 307.199 32 c 281.602 32 l 274.508 32 268.801 26.293 268.801
 19.199 c 268.801 12.109 274.508 6.398 281.602 6.398 c h
281.602 6.398 m f
0.298039 g
294.398 102.398 m 290.867 102.398 288 99.535 288 96 c 288 83.199 l 288 
79.664 290.867 76.801 294.398 76.801 c 297.934 76.801 300.801 79.664 300.801
 83.199 c 300.801 96 l 300.801 99.535 297.934 102.398 294.398 102.398 c 
h
294.398 102.398 m f
262.719 115.52 m 261.023 115.52 259.395 114.844 258.195 113.645 c 249.145
 104.594 l 247.91 103.402 247.207 101.766 247.191 100.047 c 247.176 98.332
 247.852 96.68 249.066 95.465 c 250.281 94.254 251.93 93.578 253.648 93.594
 c 255.363 93.605 257.004 94.312 258.195 95.547 c 267.246 104.594 l 269.074
 106.426 269.621 109.18 268.633 111.57 c 267.641 113.961 265.309 115.52 
262.719 115.52 c h
262.719 115.52 m f
249.602 147.199 m 236.801 147.199 l 233.266 147.199 230.398 144.336 230.398
 140.801 c 230.398 137.266 233.266 134.398 236.801 134.398 c 249.602 134.398
 l 253.133 134.398 256 137.266 256 140.801 c 256 144.336 253.133 147.199
 249.602 147.199 c h
249.602 147.199 m f
253.672 187.93 m 251.082 187.93 248.75 186.371 247.758 183.98 c 246.77 
181.586 247.316 178.836 249.145 177.004 c 258.195 167.957 l 260.707 165.531
 264.699 165.566 267.168 168.031 c 269.637 170.5 269.672 174.492 267.246
 177.004 c 258.195 186.055 l 256.996 187.254 255.367 187.93 253.672 187.93
 c h
253.672 187.93 m f
294.398 204.801 m 290.867 204.801 288 201.934 288 198.398 c 288 185.602
 l 288 182.066 290.867 179.199 294.398 179.199 c 297.934 179.199 300.801
 182.066 300.801 185.602 c 300.801 198.398 l 300.801 201.934 297.934 204.801
 294.398 204.801 c h
294.398 204.801 m f
335.129 187.93 m 333.434 187.93 331.805 187.254 330.605 186.055 c 321.555
 177.004 l 319.129 174.492 319.164 170.5 321.633 168.031 c 324.102 165.566
 328.094 165.531 330.605 167.957 c 339.656 177.004 l 341.484 178.836 342.031
 181.586 341.043 183.98 c 340.051 186.371 337.719 187.93 335.129 187.93 
c h
335.129 187.93 m f
352 147.199 m 339.199 147.199 l 335.664 147.199 332.801 144.336 332.801
 140.801 c 332.801 137.266 335.664 134.398 339.199 134.398 c 352 134.398
 l 355.535 134.398 358.398 137.266 358.398 140.801 c 358.398 144.336 355.535
 147.199 352 147.199 c h
352 147.199 m f
326.078 115.52 m 323.492 115.52 321.16 113.961 320.168 111.57 c 319.18 
109.18 319.727 106.426 321.555 104.594 c 330.605 95.547 l 331.797 94.312
 333.438 93.605 335.152 93.594 c 336.871 93.578 338.52 94.254 339.734 95.465
 c 340.949 96.68 341.621 98.332 341.609 100.047 c 341.594 101.766 340.891
 103.402 339.656 104.594 c 330.605 113.645 l 329.406 114.844 327.777 115.52
 326.078 115.52 c h
326.078 115.52 m f
294.398 147.199 m 290.867 147.199 288 144.336 288 140.801 c 288 121.602
 l 288 118.066 290.867 115.199 294.398 115.199 c 297.934 115.199 300.801
 118.066 300.801 121.602 c 300.801 130.445 l 304.34 128.672 l 305.859 127.914
 307.617 127.789 309.227 128.328 c 310.84 128.863 312.168 130.02 312.93 
131.539 c 313.688 133.059 313.812 134.816 313.273 136.426 c 312.734 138.039
 311.578 139.371 310.062 140.129 c 297.262 146.527 l 296.371 146.973 295.395
 147.199 294.398 147.199 c h
294.398 147.199 m f
294.398 204.801 m 268.516 204.801 245.176 189.207 235.273 165.293 c 225.367
 141.375 230.84 113.848 249.145 95.547 c 267.449 77.242 294.977 71.766 318.891
 81.672 c 342.809 91.578 358.398 114.914 358.398 140.801 c 358.359 176.129
 329.73 204.762 294.398 204.801 c h
294.398 89.602 m 273.691 89.602 255.023 102.074 247.098 121.207 c 239.172
 140.34 243.555 162.359 258.195 177.004 c 272.84 191.648 294.859 196.027
 313.992 188.102 c 333.125 180.18 345.602 161.508 345.602 140.801 c 345.566
 112.535 322.664 89.633 294.398 89.602 c h
294.398 89.602 m f
Q Q
showpage
%%Trailer
end
%%EOF
