%!PS-Adobe-3.0 EPSF-3.0
%%Creator: cairo 1.16.0 (https://cairographics.org)
%%CreationDate: Fri Nov 29 10:41:27 2019
%%Pages: 1
%%DocumentData: Clean7Bit
%%LanguageLevel: 2
%%BoundingBox: 6 6 384 384
%%EndComments
%%BeginProlog
50 dict begin
/q { gsave } bind def
/Q { grestore } bind def
/cm { 6 array astore concat } bind def
/w { setlinewidth } bind def
/J { setlinecap } bind def
/j { setlinejoin } bind def
/M { setmiterlimit } bind def
/d { setdash } bind def
/m { moveto } bind def
/l { lineto } bind def
/c { curveto } bind def
/h { closepath } bind def
/re { exch dup neg 3 1 roll 5 3 roll moveto 0 rlineto
      0 exch rlineto 0 rlineto closepath } bind def
/S { stroke } bind def
/f { fill } bind def
/f* { eofill } bind def
/n { newpath } bind def
/W { clip } bind def
/W* { eoclip } bind def
/BT { } bind def
/ET { } bind def
/BDC { mark 3 1 roll /BDC pdfmark } bind def
/EMC { mark /EMC pdfmark } bind def
/cairo_store_point { /cairo_point_y exch def /cairo_point_x exch def } def
/Tj { show currentpoint cairo_store_point } bind def
/TJ {
  {
    dup
    type /stringtype eq
    { show } { -0.001 mul 0 cairo_font_matrix dtransform rmoveto } ifelse
  } forall
  currentpoint cairo_store_point
} bind def
/cairo_selectfont { cairo_font_matrix aload pop pop pop 0 0 6 array astore
    cairo_font exch selectfont cairo_point_x cairo_point_y moveto } bind def
/Tf { pop /cairo_font exch def /cairo_font_matrix where
      { pop cairo_selectfont } if } bind def
/Td { matrix translate cairo_font_matrix matrix concatmatrix dup
      /cairo_font_matrix exch def dup 4 get exch 5 get cairo_store_point
      /cairo_font where { pop cairo_selectfont } if } bind def
/Tm { 2 copy 8 2 roll 6 array astore /cairo_font_matrix exch def
      cairo_store_point /cairo_font where { pop cairo_selectfont } if } bind def
/g { setgray } bind def
/rg { setrgbcolor } bind def
/d1 { setcachedevice } bind def
/cairo_data_source {
  CairoDataIndex CairoData length lt
    { CairoData CairoDataIndex get /CairoDataIndex CairoDataIndex 1 add def }
    { () } ifelse
} def
/cairo_flush_ascii85_file { cairo_ascii85_file status { cairo_ascii85_file flushfile } if } def
/cairo_image { image cairo_flush_ascii85_file } def
/cairo_imagemask { imagemask cairo_flush_ascii85_file } def
%%EndProlog
%%BeginSetup
%%EndSetup
%%Page: 1 1
%%BeginPageSetup
%%PageBoundingBox: 6 6 384 384
%%EndPageSetup
q 6 6 378 378 rectclip
1 0 0 -1 0 384 cm q
0.152941 0.435294 0.509804 rg
384 51.199 m 384 294.398 l 384 315.609 366.809 332.801 345.602 332.801 
c 313.602 332.801 l 310.066 332.801 307.199 329.934 307.199 326.398 c 307.199
 322.867 310.066 320 313.602 320 c 345.602 320 l 359.738 320 371.199 308.539
 371.199 294.398 c 371.199 51.199 l 371.199 37.062 359.738 25.602 345.602
 25.602 c 322.688 25.602 l 324.543 27.457 l 327.039 29.973 327.039 34.027
 324.543 36.543 c 322.02 39.02 317.98 39.02 315.457 36.543 c 302.656 23.742
 l 300.16 21.23 300.16 17.172 302.656 14.656 c 315.457 1.855 l 316.66 0.652
 318.297 -0.027 320 -0.027 c 321.703 -0.027 323.34 0.652 324.543 1.855 c
 327.055 4.367 327.055 8.434 324.543 10.945 c 322.688 12.801 l 345.602 12.801
 l 366.809 12.801 384 29.992 384 51.199 c h
384 51.199 m f
0.0941176 0.258824 0.286275 rg
288 358.398 m 275.199 358.398 l 275.199 294.398 l 288 294.398 l 302.137
 294.398 313.602 305.863 313.602 320 c 313.602 332.801 l 313.602 346.938
 302.137 358.398 288 358.398 c h
288 358.398 m f
0.407843 g
19.199 147.199 m 249.602 147.199 l 256.691 147.199 262.398 152.91 262.398
 160 c 262.398 236.801 l 262.398 243.891 256.691 249.602 249.602 249.602
 c 19.199 249.602 l 12.109 249.602 6.398 243.891 6.398 236.801 c 6.398 160
 l 6.398 152.91 12.109 147.199 19.199 147.199 c h
19.199 147.199 m f
0.988235 0.796078 0.333333 rg
57.602 179.199 m 57.602 192 l 57.602 195.547 54.746 198.398 51.199 198.398
 c 38.398 198.398 l 34.855 198.398 32 195.547 32 192 c 32 179.199 l 32 175.656
 34.855 172.801 38.398 172.801 c 51.199 172.801 l 54.746 172.801 57.602 
175.656 57.602 179.199 c h
57.602 179.199 m f
0.407843 g
19.199 19.199 m 249.602 19.199 l 256.691 19.199 262.398 24.91 262.398 32
 c 262.398 108.801 l 262.398 115.891 256.691 121.602 249.602 121.602 c 19.199
 121.602 l 12.109 121.602 6.398 115.891 6.398 108.801 c 6.398 32 l 6.398
 24.91 12.109 19.199 19.199 19.199 c h
19.199 19.199 m f
0.247059 0.854902 0.694118 rg
57.602 51.199 m 57.602 64 l 57.602 67.547 54.746 70.398 51.199 70.398 c
 38.398 70.398 l 34.855 70.398 32 67.547 32 64 c 32 51.199 l 32 47.656 34.855
 44.801 38.398 44.801 c 51.199 44.801 l 54.746 44.801 57.602 47.656 57.602
 51.199 c h
57.602 51.199 m f
0.407843 g
44.801 275.199 m 275.199 275.199 l 282.293 275.199 288 280.91 288 288 c
 288 364.801 l 288 371.891 282.293 377.602 275.199 377.602 c 44.801 377.602
 l 37.707 377.602 32 371.891 32 364.801 c 32 288 l 32 280.91 37.707 275.199
 44.801 275.199 c h
44.801 275.199 m f
0.972549 0.32549 0.423529 rg
83.199 307.199 m 83.199 320 l 83.199 323.547 80.344 326.398 76.801 326.398
 c 64 326.398 l 60.453 326.398 57.602 323.547 57.602 320 c 57.602 307.199
 l 57.602 303.656 60.453 300.801 64 300.801 c 76.801 300.801 l 80.344 300.801
 83.199 303.656 83.199 307.199 c h
83.199 307.199 m f
0.298039 g
236.801 230.398 m 230.398 230.398 l 226.867 230.398 224 227.535 224 224
 c 224 220.465 226.867 217.602 230.398 217.602 c 236.801 217.602 l 240.336
 217.602 243.199 220.465 243.199 224 c 243.199 227.535 240.336 230.398 236.801
 230.398 c h
236.801 230.398 m f
204.801 230.398 m 32 230.398 l 28.465 230.398 25.602 227.535 25.602 224
 c 25.602 220.465 28.465 217.602 32 217.602 c 204.801 217.602 l 208.336 
217.602 211.199 220.465 211.199 224 c 211.199 227.535 208.336 230.398 204.801
 230.398 c h
204.801 230.398 m f
236.801 204.801 m 83.199 204.801 l 79.664 204.801 76.801 201.934 76.801
 198.398 c 76.801 194.867 79.664 192 83.199 192 c 236.801 192 l 240.336 
192 243.199 194.867 243.199 198.398 c 243.199 201.934 240.336 204.801 236.801
 204.801 c h
236.801 204.801 m f
236.801 102.398 m 230.398 102.398 l 226.867 102.398 224 99.535 224 96 c
 224 92.465 226.867 89.602 230.398 89.602 c 236.801 89.602 l 240.336 89.602
 243.199 92.465 243.199 96 c 243.199 99.535 240.336 102.398 236.801 102.398
 c h
236.801 102.398 m f
204.801 102.398 m 32 102.398 l 28.465 102.398 25.602 99.535 25.602 96 c
 25.602 92.465 28.465 89.602 32 89.602 c 204.801 89.602 l 208.336 89.602
 211.199 92.465 211.199 96 c 211.199 99.535 208.336 102.398 204.801 102.398
 c h
204.801 102.398 m f
236.801 51.199 m 128 51.199 l 124.465 51.199 121.602 48.336 121.602 44.801
 c 121.602 41.266 124.465 38.398 128 38.398 c 236.801 38.398 l 240.336 38.398
 243.199 41.266 243.199 44.801 c 243.199 48.336 240.336 51.199 236.801 51.199
 c h
236.801 51.199 m f
102.398 51.199 m 83.199 51.199 l 79.664 51.199 76.801 48.336 76.801 44.801
 c 76.801 41.266 79.664 38.398 83.199 38.398 c 102.398 38.398 l 105.934 
38.398 108.801 41.266 108.801 44.801 c 108.801 48.336 105.934 51.199 102.398
 51.199 c h
102.398 51.199 m f
236.801 179.199 m 128 179.199 l 124.465 179.199 121.602 176.336 121.602
 172.801 c 121.602 169.266 124.465 166.398 128 166.398 c 236.801 166.398
 l 240.336 166.398 243.199 169.266 243.199 172.801 c 243.199 176.336 240.336
 179.199 236.801 179.199 c h
236.801 179.199 m f
102.398 179.199 m 83.199 179.199 l 79.664 179.199 76.801 176.336 76.801
 172.801 c 76.801 169.266 79.664 166.398 83.199 166.398 c 102.398 166.398
 l 105.934 166.398 108.801 169.266 108.801 172.801 c 108.801 176.336 105.934
 179.199 102.398 179.199 c h
102.398 179.199 m f
262.398 307.199 m 153.602 307.199 l 150.066 307.199 147.199 304.336 147.199
 300.801 c 147.199 297.266 150.066 294.398 153.602 294.398 c 262.398 294.398
 l 265.934 294.398 268.801 297.266 268.801 300.801 c 268.801 304.336 265.934
 307.199 262.398 307.199 c h
262.398 307.199 m f
128 307.199 m 108.801 307.199 l 105.266 307.199 102.398 304.336 102.398
 300.801 c 102.398 297.266 105.266 294.398 108.801 294.398 c 128 294.398
 l 131.535 294.398 134.398 297.266 134.398 300.801 c 134.398 304.336 131.535
 307.199 128 307.199 c h
128 307.199 m f
236.801 76.801 m 83.199 76.801 l 79.664 76.801 76.801 73.934 76.801 70.398
 c 76.801 66.867 79.664 64 83.199 64 c 236.801 64 l 240.336 64 243.199 66.867
 243.199 70.398 c 243.199 73.934 240.336 76.801 236.801 76.801 c h
236.801 76.801 m f
262.398 358.398 m 256 358.398 l 252.465 358.398 249.602 355.535 249.602
 352 c 249.602 348.465 252.465 345.602 256 345.602 c 262.398 345.602 l 265.934
 345.602 268.801 348.465 268.801 352 c 268.801 355.535 265.934 358.398 262.398
 358.398 c h
262.398 358.398 m f
230.398 358.398 m 57.602 358.398 l 54.066 358.398 51.199 355.535 51.199
 352 c 51.199 348.465 54.066 345.602 57.602 345.602 c 230.398 345.602 l 
233.934 345.602 236.801 348.465 236.801 352 c 236.801 355.535 233.934 358.398
 230.398 358.398 c h
230.398 358.398 m f
262.398 332.801 m 108.801 332.801 l 105.266 332.801 102.398 329.934 102.398
 326.398 c 102.398 322.867 105.266 320 108.801 320 c 262.398 320 l 265.934
 320 268.801 322.867 268.801 326.398 c 268.801 329.934 265.934 332.801 262.398
 332.801 c h
262.398 332.801 m f
Q Q
showpage
%%Trailer
end
%%EOF
