%!PS-Adobe-3.0 EPSF-3.0
%%Creator: cairo 1.16.0 (https://cairographics.org)
%%CreationDate: Fri Nov 29 10:41:27 2019
%%Pages: 1
%%DocumentData: Clean7Bit
%%LanguageLevel: 2
%%BoundingBox: 6 6 378 378
%%EndComments
%%BeginProlog
50 dict begin
/q { gsave } bind def
/Q { grestore } bind def
/cm { 6 array astore concat } bind def
/w { setlinewidth } bind def
/J { setlinecap } bind def
/j { setlinejoin } bind def
/M { setmiterlimit } bind def
/d { setdash } bind def
/m { moveto } bind def
/l { lineto } bind def
/c { curveto } bind def
/h { closepath } bind def
/re { exch dup neg 3 1 roll 5 3 roll moveto 0 rlineto
      0 exch rlineto 0 rlineto closepath } bind def
/S { stroke } bind def
/f { fill } bind def
/f* { eofill } bind def
/n { newpath } bind def
/W { clip } bind def
/W* { eoclip } bind def
/BT { } bind def
/ET { } bind def
/BDC { mark 3 1 roll /BDC pdfmark } bind def
/EMC { mark /EMC pdfmark } bind def
/cairo_store_point { /cairo_point_y exch def /cairo_point_x exch def } def
/Tj { show currentpoint cairo_store_point } bind def
/TJ {
  {
    dup
    type /stringtype eq
    { show } { -0.001 mul 0 cairo_font_matrix dtransform rmoveto } ifelse
  } forall
  currentpoint cairo_store_point
} bind def
/cairo_selectfont { cairo_font_matrix aload pop pop pop 0 0 6 array astore
    cairo_font exch selectfont cairo_point_x cairo_point_y moveto } bind def
/Tf { pop /cairo_font exch def /cairo_font_matrix where
      { pop cairo_selectfont } if } bind def
/Td { matrix translate cairo_font_matrix matrix concatmatrix dup
      /cairo_font_matrix exch def dup 4 get exch 5 get cairo_store_point
      /cairo_font where { pop cairo_selectfont } if } bind def
/Tm { 2 copy 8 2 roll 6 array astore /cairo_font_matrix exch def
      cairo_store_point /cairo_font where { pop cairo_selectfont } if } bind def
/g { setgray } bind def
/rg { setrgbcolor } bind def
/d1 { setcachedevice } bind def
/cairo_data_source {
  CairoDataIndex CairoData length lt
    { CairoData CairoDataIndex get /CairoDataIndex CairoDataIndex 1 add def }
    { () } ifelse
} def
/cairo_flush_ascii85_file { cairo_ascii85_file status { cairo_ascii85_file flushfile } if } def
/cairo_image { image cairo_flush_ascii85_file } def
/cairo_imagemask { imagemask cairo_flush_ascii85_file } def
%%EndProlog
%%BeginSetup
%%EndSetup
%%Page: 1 1
%%BeginPageSetup
%%PageBoundingBox: 6 6 378 378
%%EndPageSetup
q 6 6 372 372 rectclip
1 0 0 -1 0 384 cm q
0.839216 0.858824 0.890196 rg
185.602 57.602 m 185.602 160 l 185.602 170.605 177.004 179.199 166.398 
179.199 c 25.602 179.199 l 14.996 179.199 6.398 170.605 6.398 160 c 6.398
 57.602 l 12.801 51.199 l 179.199 51.199 l h
185.602 57.602 m f
0.152941 0.435294 0.509804 rg
185.602 25.602 m 185.602 57.602 l 6.398 57.602 l 6.398 25.602 l 6.398 14.996
 14.996 6.398 25.602 6.398 c 166.398 6.398 l 177.004 6.398 185.602 14.996
 185.602 25.602 c h
185.602 25.602 m f
0.839216 0.858824 0.890196 rg
377.602 256 m 377.602 358.398 l 377.602 369.004 369.004 377.602 358.398
 377.602 c 217.602 377.602 l 206.996 377.602 198.398 369.004 198.398 358.398
 c 198.398 256 l 204.801 249.602 l 371.199 249.602 l h
377.602 256 m f
0.152941 0.435294 0.509804 rg
377.602 224 m 377.602 256 l 198.398 256 l 198.398 224 l 198.398 213.395
 206.996 204.801 217.602 204.801 c 358.398 204.801 l 369.004 204.801 377.602
 213.395 377.602 224 c h
377.602 224 m f
0.972549 0.32549 0.423529 rg
38.398 38.398 m 32 38.398 l 28.465 38.398 25.602 35.535 25.602 32 c 25.602
 28.465 28.465 25.602 32 25.602 c 38.398 25.602 l 41.934 25.602 44.801 28.465
 44.801 32 c 44.801 35.535 41.934 38.398 38.398 38.398 c h
38.398 38.398 m f
0.662745 0.862745 0.384314 rg
70.398 38.398 m 64 38.398 l 60.465 38.398 57.602 35.535 57.602 32 c 57.602
 28.465 60.465 25.602 64 25.602 c 70.398 25.602 l 73.934 25.602 76.801 28.465
 76.801 32 c 76.801 35.535 73.934 38.398 70.398 38.398 c h
70.398 38.398 m f
0.117647 0.313726 0.356863 rg
160 38.398 m 121.602 38.398 l 118.066 38.398 115.199 35.535 115.199 32 
c 115.199 28.465 118.066 25.602 121.602 25.602 c 160 25.602 l 163.535 25.602
 166.398 28.465 166.398 32 c 166.398 35.535 163.535 38.398 160 38.398 c 
h
160 38.398 m f
1 g
38.398 96 m 32 96 l 28.465 96 25.602 93.133 25.602 89.602 c 25.602 86.066
 28.465 83.199 32 83.199 c 38.398 83.199 l 41.934 83.199 44.801 86.066 44.801
 89.602 c 44.801 93.133 41.934 96 38.398 96 c h
38.398 96 m f
38.398 121.602 m 32 121.602 l 28.465 121.602 25.602 118.734 25.602 115.199
 c 25.602 111.664 28.465 108.801 32 108.801 c 38.398 108.801 l 41.934 108.801
 44.801 111.664 44.801 115.199 c 44.801 118.734 41.934 121.602 38.398 121.602
 c h
38.398 121.602 m f
38.398 147.199 m 32 147.199 l 28.465 147.199 25.602 144.336 25.602 140.801
 c 25.602 137.266 28.465 134.398 32 134.398 c 38.398 134.398 l 41.934 134.398
 44.801 137.266 44.801 140.801 c 44.801 144.336 41.934 147.199 38.398 147.199
 c h
38.398 147.199 m f
0.619608 0.509804 0.92549 rg
128 96 m 121.602 96 l 118.066 96 115.199 93.133 115.199 89.602 c 115.199
 86.066 118.066 83.199 121.602 83.199 c 128 83.199 l 131.535 83.199 134.398
 86.066 134.398 89.602 c 134.398 93.133 131.535 96 128 96 c h
128 96 m f
0.168627 0.713726 0.909804 rg
96 96 m 64 96 l 60.465 96 57.602 93.133 57.602 89.602 c 57.602 86.066 60.465
 83.199 64 83.199 c 96 83.199 l 99.535 83.199 102.398 86.066 102.398 89.602
 c 102.398 93.133 99.535 96 96 96 c h
96 96 m f
0.619608 0.509804 0.92549 rg
160 147.199 m 153.602 147.199 l 150.066 147.199 147.199 144.336 147.199
 140.801 c 147.199 137.266 150.066 134.398 153.602 134.398 c 160 134.398
 l 163.535 134.398 166.398 137.266 166.398 140.801 c 166.398 144.336 163.535
 147.199 160 147.199 c h
160 147.199 m f
0.168627 0.713726 0.909804 rg
128 147.199 m 64 147.199 l 60.465 147.199 57.602 144.336 57.602 140.801
 c 57.602 137.266 60.465 134.398 64 134.398 c 128 134.398 l 131.535 134.398
 134.398 137.266 134.398 140.801 c 134.398 144.336 131.535 147.199 128 147.199
 c h
128 147.199 m f
115.199 121.602 m 64 121.602 l 60.465 121.602 57.602 118.734 57.602 115.199
 c 57.602 111.664 60.465 108.801 64 108.801 c 115.199 108.801 l 118.734 
108.801 121.602 111.664 121.602 115.199 c 121.602 118.734 118.734 121.602
 115.199 121.602 c h
115.199 121.602 m f
0.972549 0.32549 0.423529 rg
230.398 236.801 m 224 236.801 l 220.465 236.801 217.602 233.934 217.602
 230.398 c 217.602 226.867 220.465 224 224 224 c 230.398 224 l 233.934 224
 236.801 226.867 236.801 230.398 c 236.801 233.934 233.934 236.801 230.398
 236.801 c h
230.398 236.801 m f
0.662745 0.862745 0.384314 rg
262.398 236.801 m 256 236.801 l 252.465 236.801 249.602 233.934 249.602
 230.398 c 249.602 226.867 252.465 224 256 224 c 262.398 224 l 265.934 224
 268.801 226.867 268.801 230.398 c 268.801 233.934 265.934 236.801 262.398
 236.801 c h
262.398 236.801 m f
0.117647 0.313726 0.356863 rg
352 236.801 m 313.602 236.801 l 310.066 236.801 307.199 233.934 307.199
 230.398 c 307.199 226.867 310.066 224 313.602 224 c 352 224 l 355.535 224
 358.398 226.867 358.398 230.398 c 358.398 233.934 355.535 236.801 352 236.801
 c h
352 236.801 m f
1 g
230.398 294.398 m 224 294.398 l 220.465 294.398 217.602 291.535 217.602
 288 c 217.602 284.465 220.465 281.602 224 281.602 c 230.398 281.602 l 233.934
 281.602 236.801 284.465 236.801 288 c 236.801 291.535 233.934 294.398 230.398
 294.398 c h
230.398 294.398 m f
230.398 320 m 224 320 l 220.465 320 217.602 317.133 217.602 313.602 c 217.602
 310.066 220.465 307.199 224 307.199 c 230.398 307.199 l 233.934 307.199
 236.801 310.066 236.801 313.602 c 236.801 317.133 233.934 320 230.398 320
 c h
230.398 320 m f
230.398 345.602 m 224 345.602 l 220.465 345.602 217.602 342.734 217.602
 339.199 c 217.602 335.664 220.465 332.801 224 332.801 c 230.398 332.801
 l 233.934 332.801 236.801 335.664 236.801 339.199 c 236.801 342.734 233.934
 345.602 230.398 345.602 c h
230.398 345.602 m f
0.619608 0.509804 0.92549 rg
320 294.398 m 313.602 294.398 l 310.066 294.398 307.199 291.535 307.199
 288 c 307.199 284.465 310.066 281.602 313.602 281.602 c 320 281.602 l 323.535
 281.602 326.398 284.465 326.398 288 c 326.398 291.535 323.535 294.398 320
 294.398 c h
320 294.398 m f
0.168627 0.713726 0.909804 rg
288 294.398 m 256 294.398 l 252.465 294.398 249.602 291.535 249.602 288
 c 249.602 284.465 252.465 281.602 256 281.602 c 288 281.602 l 291.535 281.602
 294.398 284.465 294.398 288 c 294.398 291.535 291.535 294.398 288 294.398
 c h
288 294.398 m f
0.619608 0.509804 0.92549 rg
352 345.602 m 345.602 345.602 l 342.066 345.602 339.199 342.734 339.199
 339.199 c 339.199 335.664 342.066 332.801 345.602 332.801 c 352 332.801
 l 355.535 332.801 358.398 335.664 358.398 339.199 c 358.398 342.734 355.535
 345.602 352 345.602 c h
352 345.602 m f
0.168627 0.713726 0.909804 rg
320 345.602 m 256 345.602 l 252.465 345.602 249.602 342.734 249.602 339.199
 c 249.602 335.664 252.465 332.801 256 332.801 c 320 332.801 l 323.535 332.801
 326.398 335.664 326.398 339.199 c 326.398 342.734 323.535 345.602 320 345.602
 c h
320 345.602 m f
307.199 320 m 256 320 l 252.465 320 249.602 317.133 249.602 313.602 c 249.602
 310.066 252.465 307.199 256 307.199 c 307.199 307.199 l 310.734 307.199
 313.602 310.066 313.602 313.602 c 313.602 317.133 310.734 320 307.199 320
 c h
307.199 320 m f
0.407843 g
343.227 153.746 m 340.477 151.527 336.449 151.953 334.227 154.699 c 332.52
 156.812 l 320.32 98.125 276.328 57.043 218.238 51.211 c 214.723 50.859 
211.586 53.426 211.23 56.941 c 210.879 60.457 213.441 63.594 216.961 63.949
 c 279.086 70.164 310.258 115.008 319.742 158.027 c 317.766 156.43 l 316.445
 155.363 314.754 154.863 313.062 155.043 c 311.375 155.227 309.824 156.07
 308.758 157.391 c 307.691 158.715 307.195 160.406 307.375 162.094 c 307.555
 163.785 308.398 165.332 309.723 166.398 c 323.801 177.777 l 326.551 180
 330.578 179.574 332.801 176.824 c 344.18 162.746 l 346.398 159.996 345.973
 155.969 343.227 153.746 c h
343.227 153.746 m f
167.039 320.031 m 104.914 313.816 73.742 268.973 64.258 225.953 c 66.234
 227.551 l 67.547 228.664 69.254 229.199 70.969 229.035 c 72.684 228.871
 74.262 228.027 75.344 226.688 c 76.426 225.348 76.922 223.629 76.723 221.922
 c 76.523 220.211 75.641 218.652 74.277 217.602 c 60.199 206.223 l 57.449
 204 53.422 204.426 51.199 207.176 c 39.82 221.254 l 38.703 222.566 38.16
 224.277 38.32 225.996 c 38.48 227.711 39.324 229.293 40.664 230.379 c 42.008
 231.465 43.73 231.965 45.441 231.762 c 47.156 231.559 48.715 230.672 49.766
 229.305 c 51.477 227.195 l 63.68 285.875 107.672 326.957 165.762 332.801
 c 165.984 332.801 166.195 332.832 166.398 332.832 c 169.809 332.832 172.621
 330.16 172.793 326.754 c 172.965 323.348 170.434 320.406 167.039 320.062
 c h
167.039 320.031 m f
Q Q
showpage
%%Trailer
end
%%EOF
