%!PS-Adobe-3.0 EPSF-3.0
%%Creator: cairo 1.16.0 (https://cairographics.org)
%%CreationDate: Fri Nov 29 10:41:27 2019
%%Pages: 1
%%DocumentData: Clean7Bit
%%LanguageLevel: 2
%%BoundingBox: 6 6 378 378
%%EndComments
%%BeginProlog
50 dict begin
/q { gsave } bind def
/Q { grestore } bind def
/cm { 6 array astore concat } bind def
/w { setlinewidth } bind def
/J { setlinecap } bind def
/j { setlinejoin } bind def
/M { setmiterlimit } bind def
/d { setdash } bind def
/m { moveto } bind def
/l { lineto } bind def
/c { curveto } bind def
/h { closepath } bind def
/re { exch dup neg 3 1 roll 5 3 roll moveto 0 rlineto
      0 exch rlineto 0 rlineto closepath } bind def
/S { stroke } bind def
/f { fill } bind def
/f* { eofill } bind def
/n { newpath } bind def
/W { clip } bind def
/W* { eoclip } bind def
/BT { } bind def
/ET { } bind def
/BDC { mark 3 1 roll /BDC pdfmark } bind def
/EMC { mark /EMC pdfmark } bind def
/cairo_store_point { /cairo_point_y exch def /cairo_point_x exch def } def
/Tj { show currentpoint cairo_store_point } bind def
/TJ {
  {
    dup
    type /stringtype eq
    { show } { -0.001 mul 0 cairo_font_matrix dtransform rmoveto } ifelse
  } forall
  currentpoint cairo_store_point
} bind def
/cairo_selectfont { cairo_font_matrix aload pop pop pop 0 0 6 array astore
    cairo_font exch selectfont cairo_point_x cairo_point_y moveto } bind def
/Tf { pop /cairo_font exch def /cairo_font_matrix where
      { pop cairo_selectfont } if } bind def
/Td { matrix translate cairo_font_matrix matrix concatmatrix dup
      /cairo_font_matrix exch def dup 4 get exch 5 get cairo_store_point
      /cairo_font where { pop cairo_selectfont } if } bind def
/Tm { 2 copy 8 2 roll 6 array astore /cairo_font_matrix exch def
      cairo_store_point /cairo_font where { pop cairo_selectfont } if } bind def
/g { setgray } bind def
/rg { setrgbcolor } bind def
/d1 { setcachedevice } bind def
/cairo_data_source {
  CairoDataIndex CairoData length lt
    { CairoData CairoDataIndex get /CairoDataIndex CairoDataIndex 1 add def }
    { () } ifelse
} def
/cairo_flush_ascii85_file { cairo_ascii85_file status { cairo_ascii85_file flushfile } if } def
/cairo_image { image cairo_flush_ascii85_file } def
/cairo_imagemask { imagemask cairo_flush_ascii85_file } def
%%EndProlog
%%BeginSetup
%%EndSetup
%%Page: 1 1
%%BeginPageSetup
%%PageBoundingBox: 6 6 378 378
%%EndPageSetup
q 6 6 372 372 rectclip
1 0 0 -1 0 384 cm q
0.717647 0.517647 0.337255 rg
204.801 160 m 192 377.602 l 190.391 377.582 188.801 377.234 187.328 376.574
 c 52.414 320.383 l 47.82 318.531 44.805 314.074 44.801 309.121 c 44.801
 160 l h
204.801 160 m f
0.815686 0.603922 0.384314 rg
339.199 160 m 339.199 309.121 l 339.195 314.074 336.18 318.531 331.586 
320.383 c 196.672 376.574 l 195.199 377.234 193.609 377.582 192 377.602 
c 192 160 l h
339.199 160 m f
0.898039 0.682353 0.486275 rg
374.016 196.352 m 376.898 199.262 378.152 203.41 377.375 207.43 c 376.594
 211.453 373.875 214.828 370.113 216.449 c 248.258 267.84 l 243.699 269.762
 238.43 268.727 234.945 265.215 c 192 224 l 149.055 265.215 l 145.57 268.727
 140.301 269.762 135.742 267.84 c 13.887 216.449 l 10.125 214.828 7.406 
211.453 6.625 207.43 c 5.848 203.41 7.102 199.262 9.984 196.352 c 44.801
 160 l 9.984 123.648 l 7.102 120.738 5.848 116.59 6.625 112.57 c 7.406 108.547
 10.125 105.172 13.887 103.551 c 135.742 52.16 l 140.301 50.238 145.57 51.273
 149.055 54.785 c 166.398 71.426 l 217.602 71.426 l 234.945 54.785 l 238.43
 51.273 243.699 50.238 248.258 52.16 c 370.113 103.551 l 373.875 105.172
 376.594 108.547 377.375 112.57 c 378.152 116.59 376.898 120.738 374.016
 123.648 c 339.199 160 l h
374.016 196.352 m f
0.627451 0.447059 0.294118 rg
166.398 107.137 m 44.793 160 l 192 224 l 339.199 160 l 217.602 107.137 
l h
166.398 107.137 m f
0.192157 0.717647 0.568627 rg
234.816 152.32 m 196.801 190.016 l 194.137 192.641 189.863 192.641 187.199
 190.016 c 149.184 152.32 l 147.254 150.387 146.68 147.477 147.73 144.953
 c 148.781 142.434 151.25 140.793 153.984 140.801 c 166.398 140.801 l 166.398
 12.801 l 166.398 9.266 169.266 6.398 172.801 6.398 c 211.199 6.398 l 214.734
 6.398 217.602 9.266 217.602 12.801 c 217.602 140.801 l 230.016 140.801 
l 232.75 140.793 235.219 142.434 236.27 144.953 c 237.32 147.477 236.746
 150.387 234.816 152.32 c h
234.816 152.32 m f
0.196078 0.627451 0.494118 rg
217.602 140.801 m 204.801 140.801 l 201.266 140.801 198.398 137.934 198.398
 134.398 c 198.398 130.867 201.266 128 204.801 128 c 217.602 128 l h
217.602 140.801 m f
166.398 128 m 179.199 128 l 182.734 128 185.602 130.867 185.602 134.398
 c 185.602 137.934 182.734 140.801 179.199 140.801 c 166.398 140.801 l h
166.398 128 m f
Q Q
showpage
%%Trailer
end
%%EOF
