%!PS-Adobe-3.0 EPSF-3.0
%%Creator: cairo 1.16.0 (https://cairographics.org)
%%CreationDate: Fri Nov 29 10:41:28 2019
%%Pages: 1
%%DocumentData: Clean7Bit
%%LanguageLevel: 2
%%BoundingBox: 19 6 365 378
%%EndComments
%%BeginProlog
50 dict begin
/q { gsave } bind def
/Q { grestore } bind def
/cm { 6 array astore concat } bind def
/w { setlinewidth } bind def
/J { setlinecap } bind def
/j { setlinejoin } bind def
/M { setmiterlimit } bind def
/d { setdash } bind def
/m { moveto } bind def
/l { lineto } bind def
/c { curveto } bind def
/h { closepath } bind def
/re { exch dup neg 3 1 roll 5 3 roll moveto 0 rlineto
      0 exch rlineto 0 rlineto closepath } bind def
/S { stroke } bind def
/f { fill } bind def
/f* { eofill } bind def
/n { newpath } bind def
/W { clip } bind def
/W* { eoclip } bind def
/BT { } bind def
/ET { } bind def
/BDC { mark 3 1 roll /BDC pdfmark } bind def
/EMC { mark /EMC pdfmark } bind def
/cairo_store_point { /cairo_point_y exch def /cairo_point_x exch def } def
/Tj { show currentpoint cairo_store_point } bind def
/TJ {
  {
    dup
    type /stringtype eq
    { show } { -0.001 mul 0 cairo_font_matrix dtransform rmoveto } ifelse
  } forall
  currentpoint cairo_store_point
} bind def
/cairo_selectfont { cairo_font_matrix aload pop pop pop 0 0 6 array astore
    cairo_font exch selectfont cairo_point_x cairo_point_y moveto } bind def
/Tf { pop /cairo_font exch def /cairo_font_matrix where
      { pop cairo_selectfont } if } bind def
/Td { matrix translate cairo_font_matrix matrix concatmatrix dup
      /cairo_font_matrix exch def dup 4 get exch 5 get cairo_store_point
      /cairo_font where { pop cairo_selectfont } if } bind def
/Tm { 2 copy 8 2 roll 6 array astore /cairo_font_matrix exch def
      cairo_store_point /cairo_font where { pop cairo_selectfont } if } bind def
/g { setgray } bind def
/rg { setrgbcolor } bind def
/d1 { setcachedevice } bind def
/cairo_data_source {
  CairoDataIndex CairoData length lt
    { CairoData CairoDataIndex get /CairoDataIndex CairoDataIndex 1 add def }
    { () } ifelse
} def
/cairo_flush_ascii85_file { cairo_ascii85_file status { cairo_ascii85_file flushfile } if } def
/cairo_image { image cairo_flush_ascii85_file } def
/cairo_imagemask { imagemask cairo_flush_ascii85_file } def
%%EndProlog
%%BeginSetup
%%EndSetup
%%Page: 1 1
%%BeginPageSetup
%%PageBoundingBox: 19 6 365 378
%%EndPageSetup
q 19 6 346 372 rectclip
1 0 0 -1 0 384 cm q
0.94902 g
358.398 326.398 m 339.199 326.398 l 339.199 89.602 l 339.199 75.461 327.738
 64 313.602 64 c 236.801 64 l 236.801 32 l 236.801 17.863 225.34 6.398 211.199
 6.398 c 57.602 6.398 l 56.77 6.398 55.938 6.465 55.105 6.527 c 41.762 8.188
 31.82 19.645 32.062 33.09 c 32.062 230.398 l 32.066 239.176 27.574 247.336
 20.16 252.031 c 18.43 253.273 19.309 256.004 21.441 256 c 83.199 256 l 
83.199 294.398 l 83.199 308.539 94.66 320 108.801 320 c 185.602 320 l 185.602
 352 l 185.602 366.137 197.062 377.602 211.199 377.602 c 339.199 377.602
 l 353.34 377.602 364.801 366.137 364.801 352 c 364.801 332.801 l 364.801
 329.266 361.934 326.398 358.398 326.398 c h
358.398 326.398 m f
0.858824 g
364.801 332.801 m 364.801 352 l 364.801 366.137 353.34 377.602 339.199 
377.602 c 211.199 377.602 l 225.34 377.602 236.801 366.137 236.801 352 c
 236.801 332.801 l 236.801 329.266 239.664 326.398 243.199 326.398 c 358.398
 326.398 l 361.934 326.398 364.801 329.266 364.801 332.801 c h
364.801 332.801 m f
0.756863 g
236.801 32 m 236.801 64 l 160 64 l 145.863 64 134.398 75.461 134.398 89.602
 c 134.398 294.398 l 134.398 308.539 122.938 320 108.801 320 c 94.66 320
 83.199 308.539 83.199 294.398 c 83.199 32 l 83.199 17.887 71.777 6.434 
57.664 6.398 c 211.199 6.398 l 225.34 6.398 236.801 17.863 236.801 32 c 
h
236.801 32 m f
0.858824 g
185.602 89.602 m 185.602 320 l 108.801 320 l 115.594 320.008 122.109 317.312
 126.91 312.512 c 131.715 307.707 134.41 301.191 134.398 294.398 c 134.398
 89.602 l 134.398 75.461 145.863 64 160 64 c 174.137 64 185.602 75.461 185.602
 89.602 c h
185.602 89.602 m f
0.666667 g
83.199 32 m 83.199 256 l 21.441 256 l 19.309 256.004 18.43 253.273 20.16
 252.031 c 27.574 247.336 32.066 239.176 32.062 230.398 c 32.062 33.09 l
 31.82 19.645 41.762 8.188 55.105 6.527 c 55.938 6.465 56.77 6.398 57.602
 6.398 c 57.664 6.398 l 71.777 6.434 83.199 17.887 83.199 32 c h
83.199 32 m f
0.815686 0.603922 0.384314 rg
300.801 147.07 m 300.801 188.801 l 300.828 191.219 299.457 193.438 297.281
 194.496 c 268.801 208.77 l 265.281 210.496 l 263.48 211.457 261.32 211.457
 259.52 210.496 c 256 208.77 l 227.52 194.496 l 225.344 193.438 223.973 
191.219 224 188.801 c 224 147.199 l h
300.801 147.07 m f
0.898039 0.682353 0.486275 rg
262.145 115.199 m 272.383 98.996 l 274.305 96.168 278.016 95.191 281.074
 96.711 c 309.574 110.789 l 311.312 111.641 312.594 113.199 313.098 115.066
 c 313.598 116.934 313.266 118.926 312.188 120.531 c 300.543 134.398 l 312.199
 148.238 l 313.277 149.84 313.609 151.832 313.109 153.703 c 312.609 155.57
 311.324 157.129 309.586 157.977 c 281.09 172.059 l 278.027 173.574 274.316
 172.598 272.398 169.773 c 262.145 153.602 l 262.398 153.602 l 252.16 169.805
 l 250.246 172.633 246.535 173.609 243.477 172.09 c 214.977 158.008 l 213.238
 157.16 211.953 155.602 211.449 153.734 c 210.949 151.867 211.281 149.875
 212.359 148.27 c 224 134.398 l 212.34 120.562 l 211.262 118.957 210.93 
116.965 211.43 115.098 c 211.934 113.23 213.219 111.672 214.957 110.824 
c 243.457 96.742 l 246.516 95.223 250.227 96.199 252.141 99.027 c 262.398
 115.199 l h
262.145 115.199 m f
0.627451 0.447059 0.294118 rg
300.801 134.398 m 262.398 153.602 l 224 134.398 l 262.398 115.199 l h
300.801 134.398 m f
0.756863 g
300.801 249.602 m 224 249.602 l 220.465 249.602 217.602 246.734 217.602
 243.199 c 217.602 239.664 220.465 236.801 224 236.801 c 300.801 236.801
 l 304.336 236.801 307.199 239.664 307.199 243.199 c 307.199 246.734 304.336
 249.602 300.801 249.602 c h
300.801 249.602 m f
300.801 275.199 m 288 275.199 l 284.465 275.199 281.602 272.336 281.602
 268.801 c 281.602 265.266 284.465 262.398 288 262.398 c 300.801 262.398
 l 304.336 262.398 307.199 265.266 307.199 268.801 c 307.199 272.336 304.336
 275.199 300.801 275.199 c h
300.801 275.199 m f
262.398 275.199 m 224 275.199 l 220.465 275.199 217.602 272.336 217.602
 268.801 c 217.602 265.266 220.465 262.398 224 262.398 c 262.398 262.398
 l 265.934 262.398 268.801 265.266 268.801 268.801 c 268.801 272.336 265.934
 275.199 262.398 275.199 c h
262.398 275.199 m f
300.801 300.801 m 224 300.801 l 220.465 300.801 217.602 297.934 217.602
 294.398 c 217.602 290.867 220.465 288 224 288 c 300.801 288 l 304.336 288
 307.199 290.867 307.199 294.398 c 307.199 297.934 304.336 300.801 300.801
 300.801 c h
300.801 300.801 m f
0.717647 0.517647 0.337255 rg
268.801 192 m 268.801 208.77 l 265.281 210.496 l 263.48 211.457 261.32 
211.457 259.52 210.496 c 256 208.77 l 256 192 l 256 188.465 258.867 185.602
 262.398 185.602 c 265.934 185.602 268.801 188.465 268.801 192 c h
268.801 192 m f
Q Q
showpage
%%Trailer
end
%%EOF
