%!PS-Adobe-3.0 EPSF-3.0
%%Creator: cairo 1.16.0 (https://cairographics.org)
%%CreationDate: Fri Nov 29 10:41:29 2019
%%Pages: 1
%%DocumentData: Clean7Bit
%%LanguageLevel: 2
%%BoundingBox: 6 6 378 378
%%EndComments
%%BeginProlog
50 dict begin
/q { gsave } bind def
/Q { grestore } bind def
/cm { 6 array astore concat } bind def
/w { setlinewidth } bind def
/J { setlinecap } bind def
/j { setlinejoin } bind def
/M { setmiterlimit } bind def
/d { setdash } bind def
/m { moveto } bind def
/l { lineto } bind def
/c { curveto } bind def
/h { closepath } bind def
/re { exch dup neg 3 1 roll 5 3 roll moveto 0 rlineto
      0 exch rlineto 0 rlineto closepath } bind def
/S { stroke } bind def
/f { fill } bind def
/f* { eofill } bind def
/n { newpath } bind def
/W { clip } bind def
/W* { eoclip } bind def
/BT { } bind def
/ET { } bind def
/BDC { mark 3 1 roll /BDC pdfmark } bind def
/EMC { mark /EMC pdfmark } bind def
/cairo_store_point { /cairo_point_y exch def /cairo_point_x exch def } def
/Tj { show currentpoint cairo_store_point } bind def
/TJ {
  {
    dup
    type /stringtype eq
    { show } { -0.001 mul 0 cairo_font_matrix dtransform rmoveto } ifelse
  } forall
  currentpoint cairo_store_point
} bind def
/cairo_selectfont { cairo_font_matrix aload pop pop pop 0 0 6 array astore
    cairo_font exch selectfont cairo_point_x cairo_point_y moveto } bind def
/Tf { pop /cairo_font exch def /cairo_font_matrix where
      { pop cairo_selectfont } if } bind def
/Td { matrix translate cairo_font_matrix matrix concatmatrix dup
      /cairo_font_matrix exch def dup 4 get exch 5 get cairo_store_point
      /cairo_font where { pop cairo_selectfont } if } bind def
/Tm { 2 copy 8 2 roll 6 array astore /cairo_font_matrix exch def
      cairo_store_point /cairo_font where { pop cairo_selectfont } if } bind def
/g { setgray } bind def
/rg { setrgbcolor } bind def
/d1 { setcachedevice } bind def
/cairo_data_source {
  CairoDataIndex CairoData length lt
    { CairoData CairoDataIndex get /CairoDataIndex CairoDataIndex 1 add def }
    { () } ifelse
} def
/cairo_flush_ascii85_file { cairo_ascii85_file status { cairo_ascii85_file flushfile } if } def
/cairo_image { image cairo_flush_ascii85_file } def
/cairo_imagemask { imagemask cairo_flush_ascii85_file } def
%%EndProlog
%%BeginSetup
%%EndSetup
%%Page: 1 1
%%BeginPageSetup
%%PageBoundingBox: 6 6 378 378
%%EndPageSetup
q 6 6 372 372 rectclip
1 0 0 -1 0 384 cm q
0.627451 0.411765 0.294118 rg
236.801 320 m 236.801 51.199 l 236.801 40.598 228.203 32 217.602 32 c 25.602
 32 l 14.996 32 6.398 40.598 6.398 51.199 c 6.398 300.801 l 6.398 311.402
 14.996 320 25.602 320 c h
236.801 320 m f
0.94902 g
32 32 m 32 288 l 32 291.535 34.867 294.398 38.398 294.398 c 204.801 294.398
 l 208.336 294.398 211.199 291.535 211.199 288 c 211.199 32 l h
32 32 m f
0.666667 g
166.398 25.602 m 166.398 38.398 l 166.398 41.934 163.535 44.801 160 44.801
 c 83.199 44.801 l 79.664 44.801 76.801 41.934 76.801 38.398 c 76.801 25.602
 l 76.801 22.066 79.664 19.199 83.199 19.199 c 96 19.199 l 99.535 19.199
 102.398 16.336 102.398 12.801 c 102.398 9.266 105.266 6.398 108.801 6.398
 c 134.398 6.398 l 137.934 6.398 140.801 9.266 140.801 12.801 c 140.801 
16.336 143.664 19.199 147.199 19.199 c 160 19.199 l 163.535 19.199 166.398
 22.066 166.398 25.602 c h
166.398 25.602 m f
0.858824 g
377.023 292.41 m 377.793 293.625 377.793 295.176 377.023 296.391 c 369.113
 309.031 323.672 377.602 268.801 377.602 c 213.926 377.602 168.488 309.031
 160.574 296.391 c 159.809 295.176 159.809 293.625 160.574 292.41 c 168.488
 279.77 213.926 211.199 268.801 211.199 c 323.672 211.199 369.113 279.77
 377.023 292.41 c h
377.023 292.41 m f
0.145098 0.639216 0.854902 rg
312.895 257.473 m 312.895 257.535 l 321.641 267.824 326.43 280.898 326.398
 294.398 c 326.398 317.695 312.367 338.699 290.844 347.617 c 269.32 356.531
 244.543 351.602 228.07 335.129 c 211.598 318.656 206.668 293.883 215.586
 272.359 c 224.5 250.832 245.504 236.801 268.801 236.801 c 277.941 236.789
 286.949 239.008 295.039 243.266 c 295.105 243.199 295.105 243.266 295.105
 243.266 c h
312.895 257.473 m f
0.25098 0.8 0.945098 rg
268.801 326.398 m 268.801 352 l 250.668 352.008 233.594 343.469 222.719
 328.961 c 243.199 313.602 l h
268.801 326.398 m f
0.0941176 0.258824 0.286275 rg
297.922 281.281 m 299.82 285.391 300.805 289.871 300.801 294.398 c 300.801
 307.344 293.004 319.012 281.047 323.965 c 269.09 328.918 255.324 326.18
 246.172 317.027 c 237.02 307.875 234.281 294.113 239.234 282.152 c 244.188
 270.195 255.855 262.398 268.801 262.398 c 270.977 262.375 273.145 262.609
 275.266 263.105 c h
297.922 281.281 m f
1 g
313.602 262.398 m 313.602 273.004 305.004 281.602 294.398 281.602 c 283.797
 281.602 275.199 273.004 275.199 262.398 c 275.199 251.797 283.797 243.199
 294.398 243.199 c 305.004 243.199 313.602 251.797 313.602 262.398 c h
313.602 262.398 m f
0.666667 g
166.398 243.199 m 153.602 243.199 l 150.066 243.199 147.199 240.336 147.199
 236.801 c 147.199 233.266 150.066 230.398 153.602 230.398 c 166.398 230.398
 l 169.934 230.398 172.801 233.266 172.801 236.801 c 172.801 240.336 169.934
 243.199 166.398 243.199 c h
166.398 243.199 m f
128 243.199 m 57.602 243.199 l 54.066 243.199 51.199 240.336 51.199 236.801
 c 51.199 233.266 54.066 230.398 57.602 230.398 c 128 230.398 l 131.535 
230.398 134.398 233.266 134.398 236.801 c 134.398 240.336 131.535 243.199
 128 243.199 c h
128 243.199 m f
128 268.801 m 57.602 268.801 l 54.066 268.801 51.199 265.934 51.199 262.398
 c 51.199 258.867 54.066 256 57.602 256 c 128 256 l 131.535 256 134.398 
258.867 134.398 262.398 c 134.398 265.934 131.535 268.801 128 268.801 c 
h
128 268.801 m f
0.145098 0.639216 0.854902 rg
190.125 200.273 m 183.727 193.875 l 181.895 192.047 179.141 191.5 176.75
 192.488 c 174.359 193.48 172.801 195.812 172.801 198.398 c 159.832 198.398
 l 187.227 178.074 193.824 139.816 174.82 111.492 c 155.82 83.164 117.922
 74.758 88.723 92.391 c 88.523 92.496 88.332 92.617 88.148 92.742 c 86.676
 93.652 85.246 94.613 83.867 95.629 c 82.695 96.09 81.449 96.324 80.191 
96.32 c 74.801 96.32 70.434 91.949 70.434 86.559 c 70.434 81.168 74.801 
76.801 80.191 76.801 c 80.785 76.801 81.375 76.855 81.957 76.961 c 83.648
 77.332 85.418 77.008 86.863 76.055 c 88.309 75.102 89.305 73.605 89.629
 71.906 c 89.949 70.203 89.57 68.445 88.574 67.031 c 87.582 65.613 86.055
 64.664 84.344 64.391 c 82.977 64.129 81.586 64 80.191 64 c 69.418 63.98
 60.133 71.586 58.035 82.152 c 55.938 92.723 61.605 103.297 71.57 107.398
 c 63.883 117 59.141 128.625 57.922 140.863 c 56.121 140.75 54.359 141.41
 53.074 142.676 c 50.578 145.176 50.578 149.227 53.074 151.727 c 59.477 
158.125 l 61.973 160.625 66.027 160.625 68.523 158.125 c 74.926 151.727 
l 77.422 149.227 77.422 145.176 74.926 142.676 c 73.824 141.598 72.367 140.961
 70.828 140.883 c 73.312 120.898 87.281 104.23 106.52 98.281 c 125.758 92.336
 146.695 98.219 160.023 113.316 c 173.348 128.414 176.59 149.918 168.301
 168.273 c 160.012 186.625 141.738 198.414 121.602 198.398 c 57.602 198.398
 l 54.066 198.398 51.199 201.266 51.199 204.801 c 51.199 208.336 54.066 
211.199 57.602 211.199 c 172.801 211.199 l 172.801 213.789 174.359 216.121
 176.75 217.113 c 179.141 218.102 181.895 217.555 183.727 215.727 c 190.125
 209.324 l 192.625 206.824 192.625 202.773 190.125 200.273 c h
190.125 200.273 m f
Q Q
showpage
%%Trailer
end
%%EOF
