%!PS-Adobe-3.0 EPSF-3.0
%%Creator: cairo 1.16.0 (https://cairographics.org)
%%CreationDate: Fri Nov 29 10:41:29 2019
%%Pages: 1
%%DocumentData: Clean7Bit
%%LanguageLevel: 2
%%BoundingBox: 6 6 378 378
%%EndComments
%%BeginProlog
50 dict begin
/q { gsave } bind def
/Q { grestore } bind def
/cm { 6 array astore concat } bind def
/w { setlinewidth } bind def
/J { setlinecap } bind def
/j { setlinejoin } bind def
/M { setmiterlimit } bind def
/d { setdash } bind def
/m { moveto } bind def
/l { lineto } bind def
/c { curveto } bind def
/h { closepath } bind def
/re { exch dup neg 3 1 roll 5 3 roll moveto 0 rlineto
      0 exch rlineto 0 rlineto closepath } bind def
/S { stroke } bind def
/f { fill } bind def
/f* { eofill } bind def
/n { newpath } bind def
/W { clip } bind def
/W* { eoclip } bind def
/BT { } bind def
/ET { } bind def
/BDC { mark 3 1 roll /BDC pdfmark } bind def
/EMC { mark /EMC pdfmark } bind def
/cairo_store_point { /cairo_point_y exch def /cairo_point_x exch def } def
/Tj { show currentpoint cairo_store_point } bind def
/TJ {
  {
    dup
    type /stringtype eq
    { show } { -0.001 mul 0 cairo_font_matrix dtransform rmoveto } ifelse
  } forall
  currentpoint cairo_store_point
} bind def
/cairo_selectfont { cairo_font_matrix aload pop pop pop 0 0 6 array astore
    cairo_font exch selectfont cairo_point_x cairo_point_y moveto } bind def
/Tf { pop /cairo_font exch def /cairo_font_matrix where
      { pop cairo_selectfont } if } bind def
/Td { matrix translate cairo_font_matrix matrix concatmatrix dup
      /cairo_font_matrix exch def dup 4 get exch 5 get cairo_store_point
      /cairo_font where { pop cairo_selectfont } if } bind def
/Tm { 2 copy 8 2 roll 6 array astore /cairo_font_matrix exch def
      cairo_store_point /cairo_font where { pop cairo_selectfont } if } bind def
/g { setgray } bind def
/rg { setrgbcolor } bind def
/d1 { setcachedevice } bind def
/cairo_data_source {
  CairoDataIndex CairoData length lt
    { CairoData CairoDataIndex get /CairoDataIndex CairoDataIndex 1 add def }
    { () } ifelse
} def
/cairo_flush_ascii85_file { cairo_ascii85_file status { cairo_ascii85_file flushfile } if } def
/cairo_image { image cairo_flush_ascii85_file } def
/cairo_imagemask { imagemask cairo_flush_ascii85_file } def
%%EndProlog
%%BeginSetup
%%EndSetup
%%Page: 1 1
%%BeginPageSetup
%%PageBoundingBox: 6 6 378 378
%%EndPageSetup
q 6 6 372 372 rectclip
1 0 0 -1 0 384 cm q
0.686275 0.709804 0.74902 rg
115.199 294.398 153.602 38.402 re f
0.8 0.815686 0.854902 rg
312.383 352 m 311.887 351.227 311.207 350.586 310.398 350.145 c 268.801
 326.398 l 115.199 326.398 l 73.602 350.145 l 72.793 350.586 72.113 351.227
 71.617 352 c 70.832 353.082 70.41 354.379 70.398 355.711 c 70.398 371.199
 l 70.398 374.734 73.266 377.602 76.801 377.602 c 307.199 377.602 l 310.734
 377.602 313.602 374.734 313.602 371.199 c 313.602 355.711 l 313.59 354.379
 313.168 353.082 312.383 352 c h
312.383 352 m f
0.686275 0.709804 0.74902 rg
313.602 355.711 m 313.602 371.199 l 313.602 374.734 310.734 377.602 307.199
 377.602 c 76.801 377.602 l 73.266 377.602 70.398 374.734 70.398 371.199
 c 70.398 355.711 l 70.41 354.379 70.832 353.082 71.617 352 c 312.383 352
 l 313.168 353.082 313.59 354.379 313.602 355.711 c h
313.602 355.711 m f
0.8 0.815686 0.854902 rg
377.602 249.602 m 377.602 281.602 l 377.602 292.203 369.004 300.801 358.398
 300.801 c 25.602 300.801 l 14.996 300.801 6.398 292.203 6.398 281.602 c
 6.398 249.602 l 19.199 236.801 l 371.199 236.801 l h
377.602 249.602 m f
0.152941 0.435294 0.509804 rg
377.602 25.602 m 377.602 249.602 l 6.398 249.602 l 6.398 25.602 l 6.398
 14.996 14.996 6.398 25.602 6.398 c 358.398 6.398 l 369.004 6.398 377.602
 14.996 377.602 25.602 c h
377.602 25.602 m f
1 g
218.715 116.312 m 175.48 156.48 l 174.242 157.602 172.781 158.453 171.195
 158.977 c 146.234 167.488 l 141.145 169.23 137.727 174.012 137.723 179.391
 c 137.723 180.102 137.785 180.809 137.914 181.504 c 138.527 185.215 140.773
 188.453 144.039 190.328 c 147.301 192.199 151.23 192.508 154.746 191.168
 c 189.305 178.238 l 190.84 177.652 192.25 176.781 193.465 175.68 c 228.219
 142.977 l h
218.715 116.312 m f
326.293 62.555 m 326.293 73.156 317.695 81.754 307.09 81.754 c 296.488 
81.754 287.891 73.156 287.891 62.555 c 287.891 51.949 296.488 43.355 307.09
 43.355 c 317.695 43.355 326.293 51.949 326.293 62.555 c h
326.293 62.555 m f
0.941176 0.94902 0.960784 rg
351.609 148.863 m 350.25 154.219 345.422 157.965 339.898 157.953 c 339.258
 157.953 l 306.043 157.375 l 300.875 157.266 296.285 154.059 294.398 149.246
 c 277.566 106.305 l 253.762 127.68 l 271.23 155.137 l 273.418 158.531 273.848
 162.766 272.383 166.527 c 250.625 216.383 l 248.48 221.766 242.812 224.867
 237.125 223.773 c 231.434 222.68 227.324 217.699 227.328 211.902 c 227.32
 210.777 227.469 209.66 227.777 208.574 c 241.984 166.273 l 242.5 164.438
 242.172 162.465 241.09 160.895 c 215.742 125.566 l 211.918 120.254 212.719
 112.91 217.602 108.543 c 251.902 77.762 l 241.473 66.113 l 239.902 64.402
 237.918 63.125 235.711 62.398 c 208.258 55.359 l 202.164 53.402 198.672
 47.016 200.309 40.828 c 201.945 34.645 208.137 30.82 214.398 32.129 c 258.879
 41.152 l 261.48 41.738 263.832 43.125 265.602 45.121 c 299.586 82.945 l
 300.77 84.23 301.668 85.758 302.207 87.426 c 315.711 127.23 l 316.5 129.57
 318.57 131.242 321.023 131.52 c 341.887 133.953 l 345.227 134.504 348.184
 136.43 350.031 139.266 c 351.883 142.102 352.453 145.586 351.609 148.863
 c h
351.609 148.863 m f
0.537255 0.568627 0.627451 rg
204.801 281.602 m 179.199 281.602 l 175.664 281.602 172.801 278.734 172.801
 275.199 c 172.801 271.664 175.664 268.801 179.199 268.801 c 204.801 268.801
 l 208.336 268.801 211.199 271.664 211.199 275.199 c 211.199 278.734 208.336
 281.602 204.801 281.602 c h
204.801 281.602 m f
0.117647 0.313726 0.356863 rg
345.602 230.398 m 38.398 230.398 l 34.867 230.398 32 227.535 32 224 c 32
 220.465 34.867 217.602 38.398 217.602 c 345.602 217.602 l 349.133 217.602
 352 220.465 352 224 c 352 227.535 349.133 230.398 345.602 230.398 c h
345.602 230.398 m f
108.801 198.398 m 76.801 198.398 l 73.266 198.398 70.398 195.535 70.398
 192 c 70.398 188.465 73.266 185.602 76.801 185.602 c 108.801 185.602 l 
112.336 185.602 115.199 188.465 115.199 192 c 115.199 195.535 112.336 198.398
 108.801 198.398 c h
108.801 198.398 m f
102.398 160 m 44.801 160 l 41.266 160 38.398 157.133 38.398 153.602 c 38.398
 150.066 41.266 147.199 44.801 147.199 c 102.398 147.199 l 105.934 147.199
 108.801 150.066 108.801 153.602 c 108.801 157.133 105.934 160 102.398 160
 c h
102.398 160 m f
64 121.602 m 57.602 121.602 l 54.066 121.602 51.199 118.734 51.199 115.199
 c 51.199 111.664 54.066 108.801 57.602 108.801 c 64 108.801 l 67.535 108.801
 70.398 111.664 70.398 115.199 c 70.398 118.734 67.535 121.602 64 121.602
 c h
64 121.602 m f
140.801 121.602 m 89.602 121.602 l 86.066 121.602 83.199 118.734 83.199
 115.199 c 83.199 111.664 86.066 108.801 89.602 108.801 c 140.801 108.801
 l 144.336 108.801 147.199 111.664 147.199 115.199 c 147.199 118.734 144.336
 121.602 140.801 121.602 c h
140.801 121.602 m f
57.602 83.199 m 51.199 83.199 l 47.664 83.199 44.801 80.336 44.801 76.801
 c 44.801 73.266 47.664 70.398 51.199 70.398 c 57.602 70.398 l 61.133 70.398
 64 73.266 64 76.801 c 64 80.336 61.133 83.199 57.602 83.199 c h
57.602 83.199 m f
160 83.199 m 83.199 83.199 l 79.664 83.199 76.801 80.336 76.801 76.801 
c 76.801 73.266 79.664 70.398 83.199 70.398 c 160 70.398 l 163.535 70.398
 166.398 73.266 166.398 76.801 c 166.398 80.336 163.535 83.199 160 83.199
 c h
160 83.199 m f
140.801 44.801 m 70.398 44.801 l 66.867 44.801 64 41.934 64 38.398 c 64
 34.867 66.867 32 70.398 32 c 140.801 32 l 144.336 32 147.199 34.867 147.199
 38.398 c 147.199 41.934 144.336 44.801 140.801 44.801 c h
140.801 44.801 m f
51.199 198.398 m 44.801 198.398 l 41.266 198.398 38.398 195.535 38.398 
192 c 38.398 188.465 41.266 185.602 44.801 185.602 c 51.199 185.602 l 54.734
 185.602 57.602 188.465 57.602 192 c 57.602 195.535 54.734 198.398 51.199
 198.398 c h
51.199 198.398 m f
Q Q
showpage
%%Trailer
end
%%EOF
