%!PS-Adobe-3.0 EPSF-3.0
%%Creator: cairo 1.16.0 (https://cairographics.org)
%%CreationDate: Fri Nov 29 10:41:30 2019
%%Pages: 1
%%DocumentData: Clean7Bit
%%LanguageLevel: 2
%%BoundingBox: 6 64 378 320
%%EndComments
%%BeginProlog
50 dict begin
/q { gsave } bind def
/Q { grestore } bind def
/cm { 6 array astore concat } bind def
/w { setlinewidth } bind def
/J { setlinecap } bind def
/j { setlinejoin } bind def
/M { setmiterlimit } bind def
/d { setdash } bind def
/m { moveto } bind def
/l { lineto } bind def
/c { curveto } bind def
/h { closepath } bind def
/re { exch dup neg 3 1 roll 5 3 roll moveto 0 rlineto
      0 exch rlineto 0 rlineto closepath } bind def
/S { stroke } bind def
/f { fill } bind def
/f* { eofill } bind def
/n { newpath } bind def
/W { clip } bind def
/W* { eoclip } bind def
/BT { } bind def
/ET { } bind def
/BDC { mark 3 1 roll /BDC pdfmark } bind def
/EMC { mark /EMC pdfmark } bind def
/cairo_store_point { /cairo_point_y exch def /cairo_point_x exch def } def
/Tj { show currentpoint cairo_store_point } bind def
/TJ {
  {
    dup
    type /stringtype eq
    { show } { -0.001 mul 0 cairo_font_matrix dtransform rmoveto } ifelse
  } forall
  currentpoint cairo_store_point
} bind def
/cairo_selectfont { cairo_font_matrix aload pop pop pop 0 0 6 array astore
    cairo_font exch selectfont cairo_point_x cairo_point_y moveto } bind def
/Tf { pop /cairo_font exch def /cairo_font_matrix where
      { pop cairo_selectfont } if } bind def
/Td { matrix translate cairo_font_matrix matrix concatmatrix dup
      /cairo_font_matrix exch def dup 4 get exch 5 get cairo_store_point
      /cairo_font where { pop cairo_selectfont } if } bind def
/Tm { 2 copy 8 2 roll 6 array astore /cairo_font_matrix exch def
      cairo_store_point /cairo_font where { pop cairo_selectfont } if } bind def
/g { setgray } bind def
/rg { setrgbcolor } bind def
/d1 { setcachedevice } bind def
/cairo_data_source {
  CairoDataIndex CairoData length lt
    { CairoData CairoDataIndex get /CairoDataIndex CairoDataIndex 1 add def }
    { () } ifelse
} def
/cairo_flush_ascii85_file { cairo_ascii85_file status { cairo_ascii85_file flushfile } if } def
/cairo_image { image cairo_flush_ascii85_file } def
/cairo_imagemask { imagemask cairo_flush_ascii85_file } def
%%EndProlog
%%BeginSetup
%%EndSetup
%%Page: 1 1
%%BeginPageSetup
%%PageBoundingBox: 6 64 378 320
%%EndPageSetup
q 6 64 372 256 rectclip
1 0 0 -1 0 384 cm q
0.839216 0.858824 0.890196 rg
275.199 89.602 m 233.781 89.602 196.445 114.551 180.594 152.812 c 164.746
 191.078 173.508 235.121 202.793 264.406 c 232.078 293.695 276.121 302.453
 314.387 286.605 c 352.652 270.754 377.602 233.418 377.602 192 c 377.527
 135.477 331.723 89.676 275.199 89.602 c h
275.199 204.801 m 270.023 204.801 265.355 201.68 263.375 196.898 c 261.395
 192.117 262.488 186.609 266.148 182.949 c 269.809 179.289 275.316 178.191
 280.098 180.176 c 284.883 182.156 288 186.824 288 192 c 287.98 199.059 
282.262 204.777 275.199 204.801 c h
275.199 204.801 m f
0.537255 0.568627 0.627451 rg
275.199 153.602 m 259.668 153.602 245.668 162.957 239.723 177.305 c 233.781
 191.652 237.066 208.172 248.047 219.152 c 259.031 230.137 275.547 233.422
 289.895 227.477 c 304.242 221.535 313.602 207.531 313.602 192 c 313.602
 170.793 296.406 153.602 275.199 153.602 c h
275.199 204.801 m 270.023 204.801 265.355 201.68 263.375 196.898 c 261.395
 192.117 262.488 186.609 266.148 182.949 c 269.809 179.289 275.316 178.191
 280.098 180.176 c 284.883 182.156 288 186.824 288 192 c 287.98 199.059 
282.262 204.777 275.199 204.801 c h
275.199 204.801 m f
0.627451 0.447059 0.294118 rg
25.602 64 m 243.199 64 l 253.836 64 262.398 72.562 262.398 83.199 c 262.398
 300.801 l 262.398 311.438 253.836 320 243.199 320 c 25.602 320 l 14.965
 320 6.398 311.438 6.398 300.801 c 6.398 83.199 l 6.398 72.562 14.965 64
 25.602 64 c h
25.602 64 m f
0.941176 0.94902 0.960784 rg
220.379 203.98 m 222.195 203.27 223.469 201.605 223.668 199.66 c 223.898
 197.133 224 194.539 224 191.98 c 224 189.422 223.898 186.859 223.668 184.301
 c 223.469 182.359 222.195 180.691 220.379 179.98 c 205.938 174.223 l 204.168
 167.086 201.332 160.262 197.531 153.973 c 203.668 139.656 l 204.453 137.867
 204.172 135.789 202.938 134.273 c 201.312 132.32 199.57 130.434 197.754
 128.621 c 195.938 126.809 194.055 125.062 192.102 123.438 c 190.586 122.203
 188.508 121.922 186.719 122.707 c 172.402 128.844 l 166.113 125.043 159.285
 122.207 152.152 120.434 c 146.395 105.996 l 145.684 104.176 144.016 102.906
 142.074 102.707 c 139.52 102.504 136.961 102.398 134.398 102.398 c 131.84
 102.398 129.281 102.504 126.719 102.734 c 124.777 102.934 123.109 104.203
 122.398 106.023 c 116.641 120.461 l 109.508 122.234 102.68 125.066 96.391
 128.871 c 82.074 122.734 l 80.285 121.949 78.207 122.23 76.691 123.461 
c 74.77 125.09 72.852 126.828 71.039 128.645 c 69.23 130.465 67.48 132.344
 65.855 134.297 c 64.621 135.812 64.34 137.891 65.125 139.68 c 71.266 153.996
 l 67.461 160.285 64.625 167.113 62.855 174.246 c 48.414 180.008 l 46.598
 180.715 45.328 182.383 45.125 184.328 c 44.902 186.879 44.801 189.441 44.801
 192 c 44.801 194.559 44.902 197.121 45.133 199.68 c 45.332 201.621 46.602
 203.289 48.422 204 c 62.859 209.762 l 64.633 216.895 67.469 223.719 71.27
 230.008 c 65.133 244.328 l 64.348 246.117 64.629 248.195 65.863 249.707
 c 67.488 251.629 69.23 253.547 71.047 255.359 c 72.863 257.172 74.746 258.918
 76.699 260.543 c 78.215 261.777 80.289 262.059 82.078 261.273 c 96.398 
255.137 l 102.688 258.938 109.512 261.773 116.645 263.547 c 122.406 277.984
 l 123.117 279.805 124.785 281.074 126.727 281.273 c 129.254 281.504 131.848
 281.605 134.406 281.605 c 136.965 281.605 139.527 281.504 142.086 281.273
 c 144.027 281.074 145.695 279.805 146.406 277.984 c 152.168 263.547 l 159.301
 261.773 166.125 258.938 172.414 255.137 c 186.734 261.273 l 188.523 262.059
 190.602 261.777 192.113 260.543 c 194.066 258.918 195.957 257.176 197.766
 255.359 c 199.578 253.543 201.324 251.66 202.949 249.707 c 204.184 248.195
 204.465 246.117 203.68 244.328 c 197.543 230.008 l 201.344 223.719 204.18
 216.895 205.953 209.762 c h
220.379 203.98 m f
0.72549 0.74902 0.8 rg
185.602 192 m 185.602 220.277 162.676 243.199 134.398 243.199 c 106.121
 243.199 83.199 220.277 83.199 192 c 83.199 163.723 106.121 140.801 134.398
 140.801 c 162.676 140.801 185.602 163.723 185.602 192 c h
185.602 192 m f
0.941176 0.94902 0.960784 rg
160 192 m 160 206.137 148.539 217.602 134.398 217.602 c 120.262 217.602
 108.801 206.137 108.801 192 c 108.801 177.863 120.262 166.398 134.398 166.398
 c 148.539 166.398 160 177.863 160 192 c h
160 192 m f
341.703 160 m 339.414 160.004 337.297 158.781 336.152 156.801 c 325.684
 138.613 307.633 126.055 286.938 122.566 c 285.242 122.309 283.723 121.379
 282.715 119.992 c 281.711 118.602 281.305 116.867 281.59 115.176 c 281.875
 113.484 282.824 111.98 284.23 110.996 c 285.637 110.012 287.375 109.633
 289.062 109.945 c 313.52 114.066 334.855 128.906 347.23 150.398 c 348.375
 152.379 348.375 154.816 347.234 156.793 c 346.094 158.773 343.988 159.996
 341.703 160 c h
341.703 160 m f
351.73 192 m 348.41 191.996 345.641 189.449 345.363 186.137 c 345.195 184.148
 344.945 182.203 344.621 180.27 c 344.031 176.785 346.379 173.48 349.863
 172.891 c 353.348 172.301 356.652 174.645 357.242 178.133 c 357.625 180.41
 357.922 182.727 358.113 185.062 c 358.262 186.758 357.73 188.441 356.633
 189.742 c 355.539 191.043 353.969 191.855 352.273 192 c 352.094 192.008
 351.914 192.008 351.73 192 c h
351.73 192 m f
Q Q
showpage
%%Trailer
end
%%EOF
