%!PS-Adobe-3.0 EPSF-3.0
%%Creator: cairo 1.16.0 (https://cairographics.org)
%%CreationDate: Fri Nov 29 10:41:31 2019
%%Pages: 1
%%DocumentData: Clean7Bit
%%LanguageLevel: 2
%%BoundingBox: 0 6 384 378
%%EndComments
%%BeginProlog
50 dict begin
/q { gsave } bind def
/Q { grestore } bind def
/cm { 6 array astore concat } bind def
/w { setlinewidth } bind def
/J { setlinecap } bind def
/j { setlinejoin } bind def
/M { setmiterlimit } bind def
/d { setdash } bind def
/m { moveto } bind def
/l { lineto } bind def
/c { curveto } bind def
/h { closepath } bind def
/re { exch dup neg 3 1 roll 5 3 roll moveto 0 rlineto
      0 exch rlineto 0 rlineto closepath } bind def
/S { stroke } bind def
/f { fill } bind def
/f* { eofill } bind def
/n { newpath } bind def
/W { clip } bind def
/W* { eoclip } bind def
/BT { } bind def
/ET { } bind def
/BDC { mark 3 1 roll /BDC pdfmark } bind def
/EMC { mark /EMC pdfmark } bind def
/cairo_store_point { /cairo_point_y exch def /cairo_point_x exch def } def
/Tj { show currentpoint cairo_store_point } bind def
/TJ {
  {
    dup
    type /stringtype eq
    { show } { -0.001 mul 0 cairo_font_matrix dtransform rmoveto } ifelse
  } forall
  currentpoint cairo_store_point
} bind def
/cairo_selectfont { cairo_font_matrix aload pop pop pop 0 0 6 array astore
    cairo_font exch selectfont cairo_point_x cairo_point_y moveto } bind def
/Tf { pop /cairo_font exch def /cairo_font_matrix where
      { pop cairo_selectfont } if } bind def
/Td { matrix translate cairo_font_matrix matrix concatmatrix dup
      /cairo_font_matrix exch def dup 4 get exch 5 get cairo_store_point
      /cairo_font where { pop cairo_selectfont } if } bind def
/Tm { 2 copy 8 2 roll 6 array astore /cairo_font_matrix exch def
      cairo_store_point /cairo_font where { pop cairo_selectfont } if } bind def
/g { setgray } bind def
/rg { setrgbcolor } bind def
/d1 { setcachedevice } bind def
/cairo_data_source {
  CairoDataIndex CairoData length lt
    { CairoData CairoDataIndex get /CairoDataIndex CairoDataIndex 1 add def }
    { () } ifelse
} def
/cairo_flush_ascii85_file { cairo_ascii85_file status { cairo_ascii85_file flushfile } if } def
/cairo_image { image cairo_flush_ascii85_file } def
/cairo_imagemask { imagemask cairo_flush_ascii85_file } def
%%EndProlog
%%BeginSetup
%%EndSetup
%%Page: 1 1
%%BeginPageSetup
%%PageBoundingBox: 0 6 384 378
%%EndPageSetup
q 0 6 384 372 rectclip
1 0 0 -1 0 384 cm q
0.298039 g
377.602 198.398 m 6.398 198.398 l 2.867 198.398 0 195.535 0 192 c 0 188.465
 2.867 185.602 6.398 185.602 c 377.602 185.602 l 381.133 185.602 384 188.465
 384 192 c 384 195.535 381.133 198.398 377.602 198.398 c h
377.602 198.398 m f
0.686275 0.709804 0.74902 rg
172.801 128 38.398 38.398 re f
0.627451 0.411765 0.294118 rg
70.527 296.191 m 48.961 284.992 44.801 256 44.801 256 c 29.887 256 32.129
 232.129 32.129 232.129 c 32.129 232.129 32.641 225.09 38.465 224.129 c 
40.785 223.688 43.176 224.461 44.801 226.176 c 44.801 211.199 l 44.801 189.992
 61.992 172.801 83.199 172.801 c 96 172.801 l 117.207 172.801 134.398 189.992
 134.398 211.199 c 134.398 226.176 l 136.027 224.461 138.414 223.688 140.734
 224.129 c 146.559 225.09 147.07 232.129 147.07 232.129 c 147.07 232.129
 149.312 256 134.398 256 c 134.398 256 130.238 284.992 108.672 296.191 c
 h
70.527 296.191 m f
0.886275 0.67451 0.498039 rg
275.328 296.191 m 253.762 284.992 249.602 256 249.602 256 c 234.688 256
 236.93 232.129 236.93 232.129 c 236.93 232.129 237.441 225.09 243.266 224.129
 c 245.586 223.688 247.973 224.461 249.602 226.176 c 249.602 211.199 l 249.602
 189.992 266.793 172.801 288 172.801 c 300.801 172.801 l 322.008 172.801
 339.199 189.992 339.199 211.199 c 339.199 226.176 l 340.824 224.461 343.215
 223.688 345.535 224.129 c 351.359 225.09 351.871 232.129 351.871 232.129
 c 351.871 232.129 354.113 256 339.199 256 c 339.199 256 335.039 284.992
 313.473 296.191 c h
275.328 296.191 m f
0.8 0.815686 0.854902 rg
275.199 108.801 m 275.199 121.602 l 275.18 128.66 269.461 134.379 262.398
 134.398 c 121.602 134.398 l 114.539 134.379 108.82 128.66 108.801 121.602
 c 108.801 108.801 l h
275.199 108.801 m f
0.152941 0.435294 0.509804 rg
275.199 19.199 m 275.199 108.801 l 108.801 108.801 l 108.801 19.199 l 108.82
 12.141 114.539 6.422 121.602 6.398 c 262.398 6.398 l 269.461 6.422 275.18
 12.141 275.199 19.199 c h
275.199 19.199 m f
0.8 0.815686 0.854902 rg
225.211 164.844 m 230.398 185.602 l 153.602 185.602 l 158.789 164.844 l
 159.504 161.996 162.062 160 165 160 c 219 160 l 221.938 160 224.496 161.996
 225.211 164.844 c h
225.211 164.844 m f
0.619608 0.509804 0.92549 rg
114.043 298.457 m 119.414 302.242 123.57 307.5 126.016 313.602 c 129.102
 313.602 l 140.691 313.602 151.805 318.203 160 326.398 c 168.195 334.594
 172.801 345.711 172.801 357.301 c 172.801 371.199 l 172.801 374.734 169.934
 377.602 166.398 377.602 c 12.801 377.602 l 9.266 377.602 6.398 374.734 
6.398 371.199 c 6.398 357.301 l 6.398 345.711 11.004 334.594 19.199 326.398
 c 27.395 318.203 38.508 313.602 50.098 313.602 c 53.184 313.602 l 55.629
 307.5 59.785 302.242 65.16 298.457 c 70.367 295.695 76.191 294.297 82.086
 294.398 c 97.113 294.398 l 103.008 294.297 108.832 295.695 114.043 298.457
 c h
114.043 298.457 m f
0.92549 0.227451 0.282353 rg
318.84 298.457 m 324.215 302.242 328.371 307.5 330.816 313.602 c 333.902
 313.602 l 345.492 313.602 356.605 318.203 364.801 326.398 c 372.996 334.594
 377.602 345.711 377.602 357.301 c 377.602 371.199 l 377.602 374.734 374.734
 377.602 371.199 377.602 c 217.602 377.602 l 214.066 377.602 211.199 374.734
 211.199 371.199 c 211.199 357.301 l 211.199 333.164 230.766 313.602 254.898
 313.602 c 257.984 313.602 l 260.43 307.5 264.586 302.242 269.957 298.457
 c 275.168 295.695 280.992 294.297 286.887 294.398 c 301.914 294.398 l 307.809
 294.297 313.633 295.695 318.84 298.457 c h
318.84 298.457 m f
0.117647 0.313726 0.356863 rg
160 83.199 m 158.305 83.199 156.676 82.523 155.477 81.324 c 136.273 62.125
 l 133.777 59.625 133.777 55.574 136.273 53.074 c 155.477 33.875 l 156.668
 32.641 158.305 31.938 160.023 31.922 c 161.738 31.906 163.391 32.582 164.605
 33.797 c 165.816 35.008 166.492 36.66 166.477 38.379 c 166.465 40.094 165.758
 41.73 164.523 42.926 c 149.848 57.602 l 164.523 72.273 l 166.355 74.105
 166.902 76.859 165.91 79.25 c 164.922 81.641 162.59 83.199 160 83.199 c
 h
160 83.199 m f
224 83.199 m 221.41 83.199 219.078 81.641 218.09 79.25 c 217.098 76.859
 217.645 74.105 219.477 72.273 c 234.152 57.602 l 219.477 42.926 l 217.051
 40.414 217.086 36.422 219.555 33.953 c 222.023 31.484 226.012 31.449 228.523
 33.875 c 247.727 53.074 l 250.223 55.574 250.223 59.625 247.727 62.125 
c 228.523 81.324 l 227.324 82.523 225.695 83.199 224 83.199 c h
224 83.199 m f
185.602 83.199 m 183.543 83.199 181.613 82.211 180.41 80.539 c 179.211 
78.871 178.883 76.727 179.531 74.777 c 192.332 36.379 l 193.449 33.02 197.078
 31.203 200.434 32.32 c 203.793 33.438 205.609 37.066 204.492 40.422 c 191.691
 78.824 l 190.82 81.445 188.363 83.207 185.602 83.199 c h
185.602 83.199 m f
0.678431 0.466667 0.376471 rg
70.398 217.602 m 66.867 217.602 64 214.734 64 211.199 c 64 200.598 72.598
 192 83.199 192 c 86.734 192 89.602 194.867 89.602 198.398 c 89.602 201.934
 86.734 204.801 83.199 204.801 c 79.664 204.801 76.801 207.664 76.801 211.199
 c 76.801 214.734 73.934 217.602 70.398 217.602 c h
70.398 217.602 m f
0.952941 0.780392 0.643137 rg
275.199 217.602 m 271.664 217.602 268.801 214.734 268.801 211.199 c 268.801
 200.598 277.395 192 288 192 c 291.535 192 294.398 194.867 294.398 198.398
 c 294.398 201.934 291.535 204.801 288 204.801 c 284.465 204.801 281.602
 207.664 281.602 211.199 c 281.602 214.734 278.734 217.602 275.199 217.602
 c h
275.199 217.602 m f
Q Q
showpage
%%Trailer
end
%%EOF
