%!PS-Adobe-3.0 EPSF-3.0
%%Creator: cairo 1.16.0 (https://cairographics.org)
%%CreationDate: Fri Nov 29 10:41:31 2019
%%Pages: 1
%%DocumentData: Clean7Bit
%%LanguageLevel: 2
%%BoundingBox: 44 6 340 378
%%EndComments
%%BeginProlog
50 dict begin
/q { gsave } bind def
/Q { grestore } bind def
/cm { 6 array astore concat } bind def
/w { setlinewidth } bind def
/J { setlinecap } bind def
/j { setlinejoin } bind def
/M { setmiterlimit } bind def
/d { setdash } bind def
/m { moveto } bind def
/l { lineto } bind def
/c { curveto } bind def
/h { closepath } bind def
/re { exch dup neg 3 1 roll 5 3 roll moveto 0 rlineto
      0 exch rlineto 0 rlineto closepath } bind def
/S { stroke } bind def
/f { fill } bind def
/f* { eofill } bind def
/n { newpath } bind def
/W { clip } bind def
/W* { eoclip } bind def
/BT { } bind def
/ET { } bind def
/BDC { mark 3 1 roll /BDC pdfmark } bind def
/EMC { mark /EMC pdfmark } bind def
/cairo_store_point { /cairo_point_y exch def /cairo_point_x exch def } def
/Tj { show currentpoint cairo_store_point } bind def
/TJ {
  {
    dup
    type /stringtype eq
    { show } { -0.001 mul 0 cairo_font_matrix dtransform rmoveto } ifelse
  } forall
  currentpoint cairo_store_point
} bind def
/cairo_selectfont { cairo_font_matrix aload pop pop pop 0 0 6 array astore
    cairo_font exch selectfont cairo_point_x cairo_point_y moveto } bind def
/Tf { pop /cairo_font exch def /cairo_font_matrix where
      { pop cairo_selectfont } if } bind def
/Td { matrix translate cairo_font_matrix matrix concatmatrix dup
      /cairo_font_matrix exch def dup 4 get exch 5 get cairo_store_point
      /cairo_font where { pop cairo_selectfont } if } bind def
/Tm { 2 copy 8 2 roll 6 array astore /cairo_font_matrix exch def
      cairo_store_point /cairo_font where { pop cairo_selectfont } if } bind def
/g { setgray } bind def
/rg { setrgbcolor } bind def
/d1 { setcachedevice } bind def
/cairo_data_source {
  CairoDataIndex CairoData length lt
    { CairoData CairoDataIndex get /CairoDataIndex CairoDataIndex 1 add def }
    { () } ifelse
} def
/cairo_flush_ascii85_file { cairo_ascii85_file status { cairo_ascii85_file flushfile } if } def
/cairo_image { image cairo_flush_ascii85_file } def
/cairo_imagemask { imagemask cairo_flush_ascii85_file } def
%%EndProlog
%%BeginSetup
%%EndSetup
%%Page: 1 1
%%BeginPageSetup
%%PageBoundingBox: 44 6 340 378
%%EndPageSetup
q 44 6 296 372 rectclip
1 0 0 -1 0 384 cm q
0.756863 g
147.199 102.398 m 147.199 62.898 l 147.199 59.504 148.551 56.25 150.949
 53.848 c 194.648 10.152 l 197.051 7.75 200.305 6.402 203.699 6.398 c 332.801
 6.398 l 334.496 6.398 336.125 7.074 337.324 8.273 c 338.527 9.477 339.199
 11.102 339.199 12.801 c 339.199 256 l 339.199 259.535 336.336 262.398 332.801
 262.398 c 288 262.398 l h
147.199 102.398 m f
0.858824 g
236.801 121.602 m 236.801 89.602 l 236.801 86.066 233.934 83.199 230.398
 83.199 c 101.312 83.199 l 97.902 83.203 94.633 84.559 92.223 86.977 c 48.574
 130.625 l 46.16 133.031 44.801 136.301 44.801 139.711 c 44.801 332.801 
l 44.801 336.336 47.664 339.199 51.199 339.199 c 96 339.199 l h
236.801 121.602 m f
0.94902 g
288 128 m 288 371.199 l 288 374.734 285.133 377.602 281.602 377.602 c 102.398
 377.602 l 98.867 377.602 96 374.734 96 371.199 c 96 178.098 l 96 174.703
 97.352 171.449 99.75 169.051 c 143.449 125.352 l 145.848 122.949 149.105
 121.602 152.5 121.602 c 281.602 121.602 l 285.133 121.602 288 124.465 288
 128 c h
288 128 m f
0.756863 g
147.199 122.754 m 147.199 166.398 l 147.199 169.934 144.336 172.801 140.801
 172.801 c 97.152 172.801 l 97.793 171.395 98.684 170.117 99.777 169.023
 c 143.426 125.375 l 144.516 124.281 145.793 123.395 147.199 122.754 c h
147.199 122.754 m f
96 84.352 m 96 128 l 96 131.535 93.133 134.398 89.602 134.398 c 45.953 
134.398 l 46.594 132.996 47.48 131.715 48.574 130.625 c 92.223 86.977 l 
93.316 85.883 94.594 84.992 96 84.352 c h
96 84.352 m f
0.666667 g
198.398 7.551 m 198.398 51.199 l 198.398 54.734 195.535 57.602 192 57.602
 c 148.352 57.602 l 148.992 56.195 149.883 54.914 150.977 53.824 c 194.625
 10.176 l 195.715 9.082 196.996 8.195 198.398 7.551 c h
198.398 7.551 m f
0.607843 g
179.199 307.199 m 204.801 307.199 l 204.801 326.398 l 204.801 333.469 199.07
 339.199 192 339.199 c 184.93 339.199 179.199 333.469 179.199 326.398 c 
h
179.199 307.199 m f
0.686275 g
211.391 288 m 211.266 289.02 211.199 290.047 211.199 291.07 c 211.199 307.199
 l 211.199 310.734 208.336 313.602 204.801 313.602 c 179.199 313.602 l 175.664
 313.602 172.801 310.734 172.801 307.199 c 172.801 291.07 l 172.801 290.047
 172.734 289.023 172.672 288 c 192 281.602 l h
211.391 288 m f
0.988235 0.796078 0.333333 rg
236.801 228.992 m 237.203 241.219 232.547 253.07 223.938 261.762 c 216.797
 268.758 212.355 278.051 211.391 288 c 172.672 288 l 171.832 278.246 167.516
 269.113 160.512 262.273 c 147.441 249.371 143.57 229.805 150.738 212.898
 c 157.906 195.992 174.668 185.172 193.023 185.602 c 216.707 186.418 235.773
 205.32 236.801 228.992 c h
236.801 228.992 m f
1 0.87451 0.6 rg
172.801 236.801 m 169.266 236.801 166.398 233.934 166.398 230.398 c 166.398
 216.262 177.863 204.801 192 204.801 c 195.535 204.801 198.398 207.664 198.398
 211.199 c 198.398 214.734 195.535 217.602 192 217.602 c 184.93 217.602 
179.199 223.332 179.199 230.398 c 179.199 233.934 176.336 236.801 172.801
 236.801 c h
172.801 236.801 m f
Q Q
showpage
%%Trailer
end
%%EOF
