%!PS-Adobe-3.0 EPSF-3.0
%%Creator: cairo 1.16.0 (https://cairographics.org)
%%CreationDate: Fri Nov 29 10:41:31 2019
%%Pages: 1
%%DocumentData: Clean7Bit
%%LanguageLevel: 2
%%BoundingBox: 32 6 352 378
%%EndComments
%%BeginProlog
50 dict begin
/q { gsave } bind def
/Q { grestore } bind def
/cm { 6 array astore concat } bind def
/w { setlinewidth } bind def
/J { setlinecap } bind def
/j { setlinejoin } bind def
/M { setmiterlimit } bind def
/d { setdash } bind def
/m { moveto } bind def
/l { lineto } bind def
/c { curveto } bind def
/h { closepath } bind def
/re { exch dup neg 3 1 roll 5 3 roll moveto 0 rlineto
      0 exch rlineto 0 rlineto closepath } bind def
/S { stroke } bind def
/f { fill } bind def
/f* { eofill } bind def
/n { newpath } bind def
/W { clip } bind def
/W* { eoclip } bind def
/BT { } bind def
/ET { } bind def
/BDC { mark 3 1 roll /BDC pdfmark } bind def
/EMC { mark /EMC pdfmark } bind def
/cairo_store_point { /cairo_point_y exch def /cairo_point_x exch def } def
/Tj { show currentpoint cairo_store_point } bind def
/TJ {
  {
    dup
    type /stringtype eq
    { show } { -0.001 mul 0 cairo_font_matrix dtransform rmoveto } ifelse
  } forall
  currentpoint cairo_store_point
} bind def
/cairo_selectfont { cairo_font_matrix aload pop pop pop 0 0 6 array astore
    cairo_font exch selectfont cairo_point_x cairo_point_y moveto } bind def
/Tf { pop /cairo_font exch def /cairo_font_matrix where
      { pop cairo_selectfont } if } bind def
/Td { matrix translate cairo_font_matrix matrix concatmatrix dup
      /cairo_font_matrix exch def dup 4 get exch 5 get cairo_store_point
      /cairo_font where { pop cairo_selectfont } if } bind def
/Tm { 2 copy 8 2 roll 6 array astore /cairo_font_matrix exch def
      cairo_store_point /cairo_font where { pop cairo_selectfont } if } bind def
/g { setgray } bind def
/rg { setrgbcolor } bind def
/d1 { setcachedevice } bind def
/cairo_data_source {
  CairoDataIndex CairoData length lt
    { CairoData CairoDataIndex get /CairoDataIndex CairoDataIndex 1 add def }
    { () } ifelse
} def
/cairo_flush_ascii85_file { cairo_ascii85_file status { cairo_ascii85_file flushfile } if } def
/cairo_image { image cairo_flush_ascii85_file } def
/cairo_imagemask { imagemask cairo_flush_ascii85_file } def
%%EndProlog
%%BeginSetup
%%EndSetup
%%Page: 1 1
%%BeginPageSetup
%%PageBoundingBox: 32 6 352 378
%%EndPageSetup
q 32 6 320 372 rectclip
1 0 0 -1 0 384 cm q
0.137255 0.619608 0.788235 rg
265.281 75.391 m 277.246 59.199 l 283.98 50.293 296.66 48.531 305.566 55.266
 c 314.477 61.996 316.238 74.676 309.504 83.586 c 298.625 98.305 l h
265.281 75.391 m f
85.375 98.305 m 74.496 83.586 l 67.762 74.676 69.523 61.996 78.434 55.266
 c 87.34 48.531 100.02 50.293 106.754 59.199 c 118.719 75.391 l h
85.375 98.305 m f
0.298039 g
172.801 20.414 38.398 49.984 re f
0.407843 g
352 217.602 m 352 305.965 280.367 377.602 192 377.602 c 103.633 377.602
 32 305.965 32 217.602 c 32 129.234 103.633 57.602 192 57.602 c 280.367 
57.602 352 129.234 352 217.602 c h
352 217.602 m f
0.168627 0.713726 0.909804 rg
326.398 217.602 m 326.398 291.828 266.227 352 192 352 c 117.773 352 57.602
 291.828 57.602 217.602 c 57.602 143.371 117.773 83.199 192 83.199 c 266.227
 83.199 326.398 143.371 326.398 217.602 c h
326.398 217.602 m f
0.407843 g
166.398 6.398 m 217.602 6.398 l 224.691 6.398 230.398 12.109 230.398 19.199
 c 230.398 26.293 224.691 32 217.602 32 c 166.398 32 l 159.309 32 153.602
 26.293 153.602 19.199 c 153.602 12.109 159.309 6.398 166.398 6.398 c h
166.398 6.398 m f
0.137255 0.619608 0.788235 rg
192 108.801 m 188.465 108.801 185.602 105.934 185.602 102.398 c 185.602
 83.199 l 185.602 79.664 188.465 76.801 192 76.801 c 195.535 76.801 198.398
 79.664 198.398 83.199 c 198.398 102.398 l 198.398 105.934 195.535 108.801
 192 108.801 c h
192 108.801 m f
110.539 142.539 m 108.844 142.539 107.215 141.867 106.016 140.664 c 92.434
 127.086 l 91.199 125.891 90.496 124.254 90.48 122.535 c 90.465 120.82 91.141
 119.168 92.355 117.957 c 93.57 116.742 95.219 116.066 96.938 116.082 c 
98.652 116.098 100.293 116.801 101.484 118.035 c 115.066 131.617 l 116.895
 133.445 117.441 136.199 116.453 138.59 c 115.461 140.98 113.129 142.539
 110.539 142.539 c h
110.539 142.539 m f
76.801 224 m 57.602 224 l 54.066 224 51.199 221.133 51.199 217.602 c 51.199
 214.066 54.066 211.199 57.602 211.199 c 76.801 211.199 l 80.336 211.199
 83.199 214.066 83.199 217.602 c 83.199 221.133 80.336 224 76.801 224 c 
h
76.801 224 m f
96.961 319.039 m 94.371 319.039 92.039 317.48 91.047 315.09 c 90.059 312.699
 90.605 309.945 92.434 308.113 c 106.016 294.535 l 108.527 292.109 112.52
 292.145 114.988 294.613 c 117.457 297.082 117.492 301.074 115.066 303.586
 c 101.484 317.164 l 100.285 318.363 98.656 319.039 96.961 319.039 c h
96.961 319.039 m f
192 358.398 m 188.465 358.398 185.602 355.535 185.602 352 c 185.602 332.801
 l 185.602 329.266 188.465 326.398 192 326.398 c 195.535 326.398 198.398
 329.266 198.398 332.801 c 198.398 352 l 198.398 355.535 195.535 358.398
 192 358.398 c h
192 358.398 m f
287.039 319.039 m 285.344 319.039 283.715 318.363 282.516 317.164 c 268.934
 303.586 l 266.508 301.074 266.543 297.082 269.012 294.613 c 271.48 292.145
 275.473 292.109 277.984 294.535 c 291.566 308.113 l 293.395 309.945 293.941
 312.699 292.953 315.09 c 291.961 317.48 289.629 319.039 287.039 319.039
 c h
287.039 319.039 m f
326.398 224 m 307.199 224 l 303.664 224 300.801 221.133 300.801 217.602
 c 300.801 214.066 303.664 211.199 307.199 211.199 c 326.398 211.199 l 329.934
 211.199 332.801 214.066 332.801 217.602 c 332.801 221.133 329.934 224 326.398
 224 c h
326.398 224 m f
273.461 142.539 m 270.871 142.539 268.539 140.98 267.547 138.59 c 266.559
 136.199 267.105 133.445 268.934 131.617 c 282.516 118.035 l 283.707 116.801
 285.348 116.098 287.062 116.082 c 288.781 116.066 290.43 116.742 291.645
 117.957 c 292.859 119.168 293.535 120.82 293.52 122.535 c 293.504 124.254
 292.801 125.891 291.566 127.086 c 277.984 140.664 l 276.785 141.867 275.156
 142.539 273.461 142.539 c h
273.461 142.539 m f
0.152941 0.435294 0.509804 rg
147.199 262.398 m 145.504 262.398 143.875 261.727 142.676 260.523 c 104.273
 222.125 l 101.777 219.625 101.777 215.574 104.273 213.074 c 142.676 174.676
 l 145.188 172.25 149.18 172.285 151.648 174.754 c 154.117 177.223 154.148
 181.215 151.727 183.727 c 117.848 217.602 l 151.727 251.477 l 153.555 253.305
 154.102 256.059 153.113 258.449 c 152.121 260.84 149.789 262.398 147.199
 262.398 c h
147.199 262.398 m f
236.801 262.398 m 234.211 262.398 231.879 260.84 230.887 258.449 c 229.898
 256.059 230.445 253.305 232.273 251.477 c 266.152 217.602 l 232.273 183.727
 l 229.852 181.215 229.883 177.223 232.352 174.754 c 234.82 172.285 238.812
 172.25 241.324 174.676 c 279.727 213.074 l 282.223 215.574 282.223 219.625
 279.727 222.125 c 241.324 260.523 l 240.125 261.727 238.496 262.398 236.801
 262.398 c h
236.801 262.398 m f
172.801 268.801 m 171.934 268.805 171.074 268.629 170.277 268.281 c 167.031
 266.891 165.527 263.125 166.918 259.879 c 205.32 170.277 l 205.973 168.695
 207.23 167.438 208.816 166.789 c 210.402 166.145 212.184 166.16 213.758
 166.836 c 215.332 167.508 216.57 168.789 217.195 170.383 c 217.82 171.977
 217.777 173.758 217.082 175.32 c 178.68 264.922 l 177.672 267.273 175.359
 268.801 172.801 268.801 c h
172.801 268.801 m f
0.137255 0.619608 0.788235 rg
192 358.398 m 135.051 358.398 83.711 324.094 61.918 271.48 c 40.125 218.867
 52.172 158.309 92.438 118.039 c 132.707 77.77 193.27 65.723 245.883 87.52
 c 298.496 109.312 332.801 160.652 332.801 217.602 c 332.711 295.324 269.727
 358.312 192 358.398 c h
192 89.602 m 140.23 89.602 93.555 120.785 73.742 168.617 c 53.93 216.445
 64.883 271.5 101.492 308.109 c 138.098 344.719 193.152 355.668 240.984 
335.855 c 288.812 316.043 320 269.371 320 217.602 c 319.918 146.941 262.66
 89.68 192 89.602 c h
192 89.602 m f
Q Q
showpage
%%Trailer
end
%%EOF
