%!PS-Adobe-3.0 EPSF-3.0
%%Creator: cairo 1.16.0 (https://cairographics.org)
%%CreationDate: Fri Nov 29 10:41:32 2019
%%Pages: 1
%%DocumentData: Clean7Bit
%%LanguageLevel: 2
%%BoundingBox: 6 6 378 378
%%EndComments
%%BeginProlog
50 dict begin
/q { gsave } bind def
/Q { grestore } bind def
/cm { 6 array astore concat } bind def
/w { setlinewidth } bind def
/J { setlinecap } bind def
/j { setlinejoin } bind def
/M { setmiterlimit } bind def
/d { setdash } bind def
/m { moveto } bind def
/l { lineto } bind def
/c { curveto } bind def
/h { closepath } bind def
/re { exch dup neg 3 1 roll 5 3 roll moveto 0 rlineto
      0 exch rlineto 0 rlineto closepath } bind def
/S { stroke } bind def
/f { fill } bind def
/f* { eofill } bind def
/n { newpath } bind def
/W { clip } bind def
/W* { eoclip } bind def
/BT { } bind def
/ET { } bind def
/BDC { mark 3 1 roll /BDC pdfmark } bind def
/EMC { mark /EMC pdfmark } bind def
/cairo_store_point { /cairo_point_y exch def /cairo_point_x exch def } def
/Tj { show currentpoint cairo_store_point } bind def
/TJ {
  {
    dup
    type /stringtype eq
    { show } { -0.001 mul 0 cairo_font_matrix dtransform rmoveto } ifelse
  } forall
  currentpoint cairo_store_point
} bind def
/cairo_selectfont { cairo_font_matrix aload pop pop pop 0 0 6 array astore
    cairo_font exch selectfont cairo_point_x cairo_point_y moveto } bind def
/Tf { pop /cairo_font exch def /cairo_font_matrix where
      { pop cairo_selectfont } if } bind def
/Td { matrix translate cairo_font_matrix matrix concatmatrix dup
      /cairo_font_matrix exch def dup 4 get exch 5 get cairo_store_point
      /cairo_font where { pop cairo_selectfont } if } bind def
/Tm { 2 copy 8 2 roll 6 array astore /cairo_font_matrix exch def
      cairo_store_point /cairo_font where { pop cairo_selectfont } if } bind def
/g { setgray } bind def
/rg { setrgbcolor } bind def
/d1 { setcachedevice } bind def
/cairo_data_source {
  CairoDataIndex CairoData length lt
    { CairoData CairoDataIndex get /CairoDataIndex CairoDataIndex 1 add def }
    { () } ifelse
} def
/cairo_flush_ascii85_file { cairo_ascii85_file status { cairo_ascii85_file flushfile } if } def
/cairo_image { image cairo_flush_ascii85_file } def
/cairo_imagemask { imagemask cairo_flush_ascii85_file } def
%%EndProlog
%%BeginSetup
%%EndSetup
%%Page: 1 1
%%BeginPageSetup
%%PageBoundingBox: 6 6 378 378
%%EndPageSetup
q 6 6 372 372 rectclip
1 0 0 -1 0 384 cm q
0.839216 0.858824 0.890196 rg
326.336 235.137 m 330.355 238.887 332.688 244.102 332.801 249.602 c 339.184
 249.586 345.152 252.754 348.723 258.043 c 352.289 263.336 352.992 270.055
 350.594 275.969 c 357.039 277.652 362.137 282.59 364.023 288.98 c 365.91
 295.371 364.309 302.285 359.809 307.199 c 363.328 311.035 365.117 316.148
 364.754 321.34 c 364.391 326.535 361.906 331.348 357.887 334.656 c 362.332
 339.336 364.805 345.547 364.801 352 c 364.801 366.137 353.34 377.602 339.199
 377.602 c 262.398 377.602 l 248.262 377.602 236.801 366.137 236.801 352
 c 236.793 345.547 239.27 339.336 243.711 334.656 c 239.691 331.348 237.211
 326.535 236.848 321.34 c 236.484 316.148 238.273 311.035 241.793 307.199
 c 237.289 302.285 235.691 295.371 237.578 288.98 c 239.465 282.59 244.559
 277.652 251.008 275.969 c 248.609 270.055 249.309 263.336 252.879 258.043
 c 256.449 252.754 262.418 249.586 268.801 249.602 c 268.914 244.102 271.246
 238.887 275.266 235.137 c h
326.336 235.137 m f
0.756863 g
268.801 198.398 m 332.801 198.398 l 332.801 224 l 332.801 231.07 327.07
 236.801 320 236.801 c 281.602 236.801 l 274.531 236.801 268.801 231.07 
268.801 224 c h
268.801 198.398 m f
0.92549 0.227451 0.282353 rg
339.199 64 m 336.566 44.648 327.988 26.59 314.645 12.328 c 311.031 8.543
 306.031 6.398 300.801 6.398 c 295.57 6.398 290.566 8.543 286.957 12.328
 c 273.613 26.59 265.031 44.648 262.398 64 c 300.801 70.398 l h
339.199 64 m f
339.199 134.398 m 373.223 145.742 l 375.836 146.613 377.602 149.059 377.602
 151.812 c 377.602 198.398 l 377.602 200.457 376.613 202.391 374.945 203.594
 c 373.273 204.797 371.129 205.125 369.176 204.473 c 339.199 194.477 l 262.398
 194.477 l 232.422 204.469 l 230.473 205.117 228.328 204.789 226.66 203.59
 c 224.992 202.387 224 200.457 224 198.398 c 224 151.812 l 224 149.059 225.762
 146.613 228.379 145.742 c 262.398 134.398 l h
339.199 134.398 m f
0.839216 0.858824 0.890196 rg
108.801 172.801 m 67.383 172.801 30.043 197.75 14.195 236.012 c -1.656 
274.277 7.105 318.32 36.391 347.609 c 65.68 376.895 109.723 385.656 147.988
 369.805 c 186.25 353.957 211.199 316.617 211.199 275.199 c 211.125 218.676
 165.324 172.875 108.801 172.801 c h
108.801 288 m 103.621 288 98.957 284.883 96.973 280.098 c 94.992 275.316
 96.09 269.809 99.75 266.148 c 103.41 262.488 108.914 261.395 113.699 263.375
 c 118.48 265.355 121.602 270.023 121.602 275.199 c 121.578 282.262 115.859
 287.98 108.801 288 c h
108.801 288 m f
0.537255 0.568627 0.627451 rg
108.801 236.801 m 93.27 236.801 79.266 246.156 73.324 260.504 c 67.379 
274.855 70.664 291.371 81.648 302.352 c 92.629 313.336 109.145 316.621 123.496
 310.676 c 137.844 304.734 147.199 290.73 147.199 275.199 c 147.199 253.992
 130.008 236.801 108.801 236.801 c h
108.801 288 m 103.621 288 98.957 284.883 96.973 280.098 c 94.992 275.316
 96.09 269.809 99.75 266.148 c 103.41 262.488 108.914 261.395 113.699 263.375
 c 118.48 265.355 121.602 270.023 121.602 275.199 c 121.578 282.262 115.859
 287.98 108.801 288 c h
108.801 288 m f
0.839216 0.858824 0.890196 rg
262.398 64 m 339.199 64 l 339.199 198.398 l 339.199 201.934 336.336 204.801
 332.801 204.801 c 268.801 204.801 l 265.266 204.801 262.398 201.934 262.398
 198.398 c h
262.398 64 m f
0.145098 0.639216 0.854902 rg
313.602 102.398 m 313.602 109.469 307.871 115.199 300.801 115.199 c 293.73
 115.199 288 109.469 288 102.398 c 288 95.332 293.73 89.602 300.801 89.602
 c 307.871 89.602 313.602 95.332 313.602 102.398 c h
313.602 102.398 m f
0.941176 0.94902 0.960784 rg
175.301 243.199 m 173.016 243.203 170.898 241.98 169.754 240 c 159.285 
221.812 141.23 209.254 120.539 205.766 c 118.844 205.508 117.32 204.582 
116.316 203.191 c 115.312 201.801 114.906 200.066 115.188 198.375 c 115.473
 196.688 116.426 195.18 117.832 194.195 c 119.234 193.211 120.977 192.836
 122.664 193.145 c 147.121 197.266 168.457 212.105 180.832 233.602 c 181.973
 235.578 181.977 238.016 180.836 239.996 c 179.695 241.973 177.586 243.195
 175.301 243.199 c h
175.301 243.199 m f
185.332 275.199 m 182.008 275.195 179.242 272.648 178.965 269.336 c 178.797
 267.348 178.547 265.402 178.223 263.469 c 177.629 259.984 179.977 256.68
 183.461 256.09 c 186.949 255.5 190.25 257.848 190.84 261.332 c 191.227 
263.609 191.52 265.926 191.711 268.262 c 191.859 269.957 191.328 271.641
 190.234 272.941 c 189.141 274.246 187.57 275.059 185.875 275.199 c 185.695
 275.211 185.512 275.211 185.332 275.199 c h
185.332 275.199 m f
96 357.332 m 95.641 357.328 95.285 357.301 94.93 357.242 c 70.477 353.121
 49.145 338.289 36.77 316.801 c 35.129 313.754 36.207 309.957 39.203 308.227
 c 42.199 306.496 46.027 307.457 47.848 310.398 c 58.316 328.59 76.367 341.145
 97.062 344.633 c 100.309 345.219 102.578 348.18 102.301 351.465 c 102.027
 354.754 99.297 357.293 96 357.332 c h
96 357.332 m f
33.062 294.398 m 29.941 294.398 27.281 292.145 26.758 289.07 c 26.375 286.789
 26.078 284.473 25.887 282.137 c 25.703 278.684 28.293 275.707 31.742 275.418
 c 35.188 275.125 38.242 277.625 38.637 281.062 c 38.805 283.055 39.055 
285 39.379 286.93 c 39.664 288.605 39.27 290.324 38.285 291.707 c 37.305
 293.09 35.812 294.027 34.137 294.309 c 33.781 294.367 33.422 294.398 33.062
 294.398 c h
33.062 294.398 m f
275.199 288 m 271.664 288 268.801 285.133 268.801 281.602 c 268.801 270.996
 277.395 262.398 288 262.398 c 291.535 262.398 294.398 265.266 294.398 268.801
 c 294.398 272.336 291.535 275.199 288 275.199 c 284.465 275.199 281.602
 278.066 281.602 281.602 c 281.602 285.133 278.734 288 275.199 288 c h
275.199 288 m f
326.398 307.199 m 322.867 307.199 320 304.336 320 300.801 c 320 297.266
 317.133 294.398 313.602 294.398 c 310.066 294.398 307.199 291.535 307.199
 288 c 307.199 284.465 310.066 281.602 313.602 281.602 c 324.203 281.602
 332.801 290.195 332.801 300.801 c 332.801 304.336 329.934 307.199 326.398
 307.199 c h
326.398 307.199 m f
275.199 332.801 m 271.664 332.801 268.801 329.934 268.801 326.398 c 268.801
 315.797 277.395 307.199 288 307.199 c 291.535 307.199 294.398 310.066 294.398
 313.602 c 294.398 317.133 291.535 320 288 320 c 284.465 320 281.602 322.867
 281.602 326.398 c 281.602 329.934 278.734 332.801 275.199 332.801 c h
275.199 332.801 m f
326.398 352 m 322.867 352 320 349.133 320 345.602 c 320 342.066 317.133
 339.199 313.602 339.199 c 310.066 339.199 307.199 336.336 307.199 332.801
 c 307.199 329.266 310.066 326.398 313.602 326.398 c 324.203 326.398 332.801
 334.996 332.801 345.602 c 332.801 349.133 329.934 352 326.398 352 c h
326.398 352 m f
0.92549 0.227451 0.282353 rg
300.801 217.602 m 297.266 217.602 294.398 214.734 294.398 211.199 c 294.398
 160 l 294.398 156.465 297.266 153.602 300.801 153.602 c 304.336 153.602
 307.199 156.465 307.199 160 c 307.199 211.199 l 307.199 214.734 304.336
 217.602 300.801 217.602 c h
300.801 217.602 m f
Q Q
showpage
%%Trailer
end
%%EOF
