%!PS-Adobe-3.0 EPSF-3.0
%%Creator: cairo 1.16.0 (https://cairographics.org)
%%CreationDate: Fri Nov 29 10:41:32 2019
%%Pages: 1
%%DocumentData: Clean7Bit
%%LanguageLevel: 2
%%BoundingBox: 0 0 384 384
%%EndComments
%%BeginProlog
50 dict begin
/q { gsave } bind def
/Q { grestore } bind def
/cm { 6 array astore concat } bind def
/w { setlinewidth } bind def
/J { setlinecap } bind def
/j { setlinejoin } bind def
/M { setmiterlimit } bind def
/d { setdash } bind def
/m { moveto } bind def
/l { lineto } bind def
/c { curveto } bind def
/h { closepath } bind def
/re { exch dup neg 3 1 roll 5 3 roll moveto 0 rlineto
      0 exch rlineto 0 rlineto closepath } bind def
/S { stroke } bind def
/f { fill } bind def
/f* { eofill } bind def
/n { newpath } bind def
/W { clip } bind def
/W* { eoclip } bind def
/BT { } bind def
/ET { } bind def
/BDC { mark 3 1 roll /BDC pdfmark } bind def
/EMC { mark /EMC pdfmark } bind def
/cairo_store_point { /cairo_point_y exch def /cairo_point_x exch def } def
/Tj { show currentpoint cairo_store_point } bind def
/TJ {
  {
    dup
    type /stringtype eq
    { show } { -0.001 mul 0 cairo_font_matrix dtransform rmoveto } ifelse
  } forall
  currentpoint cairo_store_point
} bind def
/cairo_selectfont { cairo_font_matrix aload pop pop pop 0 0 6 array astore
    cairo_font exch selectfont cairo_point_x cairo_point_y moveto } bind def
/Tf { pop /cairo_font exch def /cairo_font_matrix where
      { pop cairo_selectfont } if } bind def
/Td { matrix translate cairo_font_matrix matrix concatmatrix dup
      /cairo_font_matrix exch def dup 4 get exch 5 get cairo_store_point
      /cairo_font where { pop cairo_selectfont } if } bind def
/Tm { 2 copy 8 2 roll 6 array astore /cairo_font_matrix exch def
      cairo_store_point /cairo_font where { pop cairo_selectfont } if } bind def
/g { setgray } bind def
/rg { setrgbcolor } bind def
/d1 { setcachedevice } bind def
/cairo_data_source {
  CairoDataIndex CairoData length lt
    { CairoData CairoDataIndex get /CairoDataIndex CairoDataIndex 1 add def }
    { () } ifelse
} def
/cairo_flush_ascii85_file { cairo_ascii85_file status { cairo_ascii85_file flushfile } if } def
/cairo_image { image cairo_flush_ascii85_file } def
/cairo_imagemask { imagemask cairo_flush_ascii85_file } def
%%EndProlog
%%BeginSetup
%%EndSetup
%%Page: 1 1
%%BeginPageSetup
%%PageBoundingBox: 0 0 384 384
%%EndPageSetup
q 0 0 384 384 rectclip
1 0 0 -1 0 384 cm q
0.219608 g
167.68 96.77 m 164.98 96.77 162.57 95.074 161.656 92.531 c 147.578 53.363
 l 146.973 51.758 147.035 49.977 147.754 48.418 c 148.473 46.859 149.785
 45.656 151.402 45.078 c 153.016 44.496 154.797 44.59 156.34 45.336 c 157.887
 46.078 159.07 47.414 159.621 49.035 c 173.703 88.203 l 174.406 90.164 174.113
 92.348 172.914 94.051 c 171.715 95.754 169.762 96.77 167.68 96.77 c h
167.68 96.77 m f
216.32 96.77 m 214.234 96.77 212.281 95.758 211.082 94.051 c 209.883 92.348
 209.586 90.168 210.293 88.203 c 224.371 49.035 l 225.605 45.77 229.234 
44.098 232.52 45.277 c 235.809 46.457 237.543 50.055 236.414 53.363 c 222.336
 92.531 l 221.426 95.07 219.02 96.766 216.32 96.77 c h
216.32 96.77 m f
89.602 320 m 86.066 320 83.199 317.133 83.199 313.602 c 83.199 262.398 
l 83.199 248.262 94.66 236.801 108.801 236.801 c 128 236.801 l 131.535 236.801
 134.398 239.664 134.398 243.199 c 134.398 246.734 131.535 249.602 128 249.602
 c 108.801 249.602 l 101.73 249.602 96 255.332 96 262.398 c 96 313.602 l
 96 317.133 93.133 320 89.602 320 c h
89.602 320 m f
294.398 320 m 290.867 320 288 317.133 288 313.602 c 288 262.398 l 288 255.332
 282.27 249.602 275.199 249.602 c 256 249.602 l 252.465 249.602 249.602 
246.734 249.602 243.199 c 249.602 239.664 252.465 236.801 256 236.801 c 
275.199 236.801 l 289.34 236.801 300.801 248.262 300.801 262.398 c 300.801
 313.602 l 300.801 317.133 297.934 320 294.398 320 c h
294.398 320 m f
128 160 m 108.801 160 l 94.66 160 83.199 148.539 83.199 134.398 c 83.199
 83.199 l 83.199 79.664 86.066 76.801 89.602 76.801 c 93.133 76.801 96 79.664
 96 83.199 c 96 134.398 l 96 141.469 101.73 147.199 108.801 147.199 c 128
 147.199 l 131.535 147.199 134.398 150.066 134.398 153.602 c 134.398 157.133
 131.535 160 128 160 c h
128 160 m f
275.199 160 m 256 160 l 252.465 160 249.602 157.133 249.602 153.602 c 249.602
 150.066 252.465 147.199 256 147.199 c 275.199 147.199 l 282.27 147.199 
288 141.469 288 134.398 c 288 83.199 l 288 79.664 290.867 76.801 294.398
 76.801 c 297.934 76.801 300.801 79.664 300.801 83.199 c 300.801 134.398
 l 300.801 148.539 289.34 160 275.199 160 c h
275.199 160 m f
307.199 204.801 m 256 204.801 l 252.465 204.801 249.602 201.934 249.602
 198.398 c 249.602 194.867 252.465 192 256 192 c 307.199 192 l 310.734 192
 313.602 194.867 313.602 198.398 c 313.602 201.934 310.734 204.801 307.199
 204.801 c h
307.199 204.801 m f
128 204.801 m 76.801 204.801 l 73.266 204.801 70.398 201.934 70.398 198.398
 c 70.398 194.867 73.266 192 76.801 192 c 128 192 l 131.535 192 134.398 
194.867 134.398 198.398 c 134.398 201.934 131.535 204.801 128 204.801 c 
h
128 204.801 m f
0.298039 g
256 172.801 m 256 262.398 l 256 297.746 227.348 326.398 192 326.398 c 156.652
 326.398 128 297.746 128 262.398 c 128 172.801 l 134.398 166.398 l 249.602
 166.398 l h
256 172.801 m f
0.356863 g
256 147.199 m 256 172.801 l 128 172.801 l 128 147.199 l 128.02 140.141 
133.738 134.422 140.801 134.398 c 243.199 134.398 l 250.262 134.422 255.98
 140.141 256 147.199 c h
256 147.199 m f
0.298039 g
192 83.199 m 216.742 83.199 236.801 103.258 236.801 128 c 236.801 134.398
 l 147.199 134.398 l 147.199 128 l 147.199 103.258 167.258 83.199 192 83.199
 c h
192 83.199 m f
0.356863 g
192 275.199 m 181.395 275.199 172.801 266.605 172.801 256 c 172.801 172.801
 l 211.199 172.801 l 211.199 256 l 211.199 266.605 202.605 275.199 192 275.199
 c h
192 275.199 m f
0.85098 0.160784 0.211765 rg
192 0 m 114.344 0 44.332 46.781 14.613 118.523 c -15.102 190.27 1.324 272.852
 56.234 327.766 c 111.148 382.676 193.73 399.102 265.477 369.387 c 337.219
 339.668 384 269.656 384 192 c 383.879 86.012 297.988 0.121 192 0 c h
192 12.801 m 237.309 12.773 280.93 29.98 314.023 60.93 c 60.93 314.023 
l 12.277 261.871 -0.785 185.82 27.672 120.422 c 56.129 55.023 120.68 12.75
 192 12.801 c h
192 371.199 m 146.691 371.227 103.07 354.02 69.977 323.07 c 323.07 69.977
 l 371.723 122.129 384.785 198.18 356.328 263.578 c 327.871 328.977 263.32
 371.25 192 371.199 c h
192 371.199 m f
Q Q
showpage
%%Trailer
end
%%EOF
