%!PS-Adobe-3.0 EPSF-3.0
%%Creator: cairo 1.16.0 (https://cairographics.org)
%%CreationDate: Fri Nov 29 10:41:33 2019
%%Pages: 1
%%DocumentData: Clean7Bit
%%LanguageLevel: 2
%%BoundingBox: 6 6 378 378
%%EndComments
%%BeginProlog
50 dict begin
/q { gsave } bind def
/Q { grestore } bind def
/cm { 6 array astore concat } bind def
/w { setlinewidth } bind def
/J { setlinecap } bind def
/j { setlinejoin } bind def
/M { setmiterlimit } bind def
/d { setdash } bind def
/m { moveto } bind def
/l { lineto } bind def
/c { curveto } bind def
/h { closepath } bind def
/re { exch dup neg 3 1 roll 5 3 roll moveto 0 rlineto
      0 exch rlineto 0 rlineto closepath } bind def
/S { stroke } bind def
/f { fill } bind def
/f* { eofill } bind def
/n { newpath } bind def
/W { clip } bind def
/W* { eoclip } bind def
/BT { } bind def
/ET { } bind def
/BDC { mark 3 1 roll /BDC pdfmark } bind def
/EMC { mark /EMC pdfmark } bind def
/cairo_store_point { /cairo_point_y exch def /cairo_point_x exch def } def
/Tj { show currentpoint cairo_store_point } bind def
/TJ {
  {
    dup
    type /stringtype eq
    { show } { -0.001 mul 0 cairo_font_matrix dtransform rmoveto } ifelse
  } forall
  currentpoint cairo_store_point
} bind def
/cairo_selectfont { cairo_font_matrix aload pop pop pop 0 0 6 array astore
    cairo_font exch selectfont cairo_point_x cairo_point_y moveto } bind def
/Tf { pop /cairo_font exch def /cairo_font_matrix where
      { pop cairo_selectfont } if } bind def
/Td { matrix translate cairo_font_matrix matrix concatmatrix dup
      /cairo_font_matrix exch def dup 4 get exch 5 get cairo_store_point
      /cairo_font where { pop cairo_selectfont } if } bind def
/Tm { 2 copy 8 2 roll 6 array astore /cairo_font_matrix exch def
      cairo_store_point /cairo_font where { pop cairo_selectfont } if } bind def
/g { setgray } bind def
/rg { setrgbcolor } bind def
/d1 { setcachedevice } bind def
/cairo_data_source {
  CairoDataIndex CairoData length lt
    { CairoData CairoDataIndex get /CairoDataIndex CairoDataIndex 1 add def }
    { () } ifelse
} def
/cairo_flush_ascii85_file { cairo_ascii85_file status { cairo_ascii85_file flushfile } if } def
/cairo_image { image cairo_flush_ascii85_file } def
/cairo_imagemask { imagemask cairo_flush_ascii85_file } def
%%EndProlog
%%BeginSetup
%%EndSetup
%%Page: 1 1
%%BeginPageSetup
%%PageBoundingBox: 6 6 378 378
%%EndPageSetup
q 6 6 372 372 rectclip
1 0 0 -1 0 384 cm q
0.666667 g
114.559 95.359 m 111.855 95.359 109.441 93.66 108.535 91.109 c 107.625 
88.562 108.414 85.719 110.508 84.008 c 180.141 27.047 l 181.449 25.941 183.148
 25.406 184.855 25.566 c 186.562 25.723 188.137 26.559 189.223 27.887 c 
190.309 29.215 190.816 30.922 190.633 32.625 c 190.445 34.328 189.586 35.891
 188.242 36.953 c 118.605 93.914 l 117.465 94.848 116.035 95.359 114.559
 95.359 c h
114.559 95.359 m f
268.801 94.836 m 267.324 94.836 265.898 94.328 264.754 93.395 c 196.398
 37.477 l 195.055 36.414 194.191 34.855 194.008 33.148 c 193.824 31.445 
194.332 29.738 195.418 28.41 c 196.504 27.082 198.074 26.246 199.781 26.09
 c 201.488 25.934 203.188 26.465 204.5 27.57 c 272.852 83.48 l 274.945 85.195
 275.734 88.039 274.828 90.586 c 273.918 93.133 271.504 94.836 268.801 94.836
 c h
268.801 94.836 m f
0.858824 g
25.602 83.199 m 358.398 83.199 l 369.035 83.199 377.602 91.762 377.602 
102.398 c 377.602 358.398 l 377.602 369.035 369.035 377.602 358.398 377.602
 c 25.602 377.602 l 14.965 377.602 6.398 369.035 6.398 358.398 c 6.398 102.398
 l 6.398 91.762 14.965 83.199 25.602 83.199 c h
25.602 83.199 m f
211.199 25.602 m 211.199 36.203 202.605 44.801 192 44.801 c 181.395 44.801
 172.801 36.203 172.801 25.602 c 172.801 14.996 181.395 6.398 192 6.398 
c 202.605 6.398 211.199 14.996 211.199 25.602 c h
211.199 25.602 m f
0.152941 0.435294 0.509804 rg
332.801 262.398 m 330.133 262.406 327.754 264.082 326.848 266.594 c 245.074
 184.824 l 241.484 181.215 236.594 179.188 231.5 179.199 c 190.898 179.199
 l 189.203 179.199 187.574 178.523 186.375 177.324 c 155.477 146.426 l 151.883
 142.812 146.996 140.789 141.902 140.801 c 114.098 140.801 l 112.402 140.801
 110.773 140.125 109.574 138.926 c 74.926 104.273 l 72.414 101.852 68.422
 101.883 65.953 104.352 c 63.484 106.82 63.449 110.812 65.875 113.324 c 
100.523 147.973 l 104.117 151.59 109.004 153.613 114.098 153.602 c 141.902
 153.602 l 143.598 153.602 145.227 154.273 146.426 155.477 c 177.324 186.375
 l 180.914 189.988 185.805 192.016 190.898 192 c 231.5 192 l 233.199 192
 234.824 192.676 236.027 193.875 c 317.793 275.641 l 314.949 276.754 313.289
 279.723 313.824 282.727 c 314.363 285.734 316.945 287.941 320 288 c 332.801
 288 l 336.336 288 339.199 285.133 339.199 281.602 c 339.199 268.801 l 339.199
 265.266 336.336 262.398 332.801 262.398 c h
332.801 262.398 m f
0.666667 g
332.801 313.602 m 44.801 313.602 l 41.266 313.602 38.398 310.734 38.398
 307.199 c 38.398 303.664 41.266 300.801 44.801 300.801 c 332.801 300.801
 l 336.336 300.801 339.199 303.664 339.199 307.199 c 339.199 310.734 336.336
 313.602 332.801 313.602 c h
332.801 313.602 m f
288 281.602 m 44.801 281.602 l 41.266 281.602 38.398 278.734 38.398 275.199
 c 38.398 271.664 41.266 268.801 44.801 268.801 c 288 268.801 l 291.535 
268.801 294.398 271.664 294.398 275.199 c 294.398 278.734 291.535 281.602
 288 281.602 c h
288 281.602 m f
249.602 249.602 m 44.801 249.602 l 41.266 249.602 38.398 246.734 38.398
 243.199 c 38.398 239.664 41.266 236.801 44.801 236.801 c 249.602 236.801
 l 253.133 236.801 256 239.664 256 243.199 c 256 246.734 253.133 249.602
 249.602 249.602 c h
249.602 249.602 m f
217.602 217.602 m 44.801 217.602 l 41.266 217.602 38.398 214.734 38.398
 211.199 c 38.398 207.664 41.266 204.801 44.801 204.801 c 217.602 204.801
 l 221.133 204.801 224 207.664 224 211.199 c 224 214.734 221.133 217.602
 217.602 217.602 c h
217.602 217.602 m f
134.398 185.602 m 44.801 185.602 l 41.266 185.602 38.398 182.734 38.398
 179.199 c 38.398 175.664 41.266 172.801 44.801 172.801 c 134.398 172.801
 l 137.934 172.801 140.801 175.664 140.801 179.199 c 140.801 182.734 137.934
 185.602 134.398 185.602 c h
134.398 185.602 m f
332.801 153.602 m 192 153.602 l 188.465 153.602 185.602 150.734 185.602
 147.199 c 185.602 143.664 188.465 140.801 192 140.801 c 332.801 140.801
 l 336.336 140.801 339.199 143.664 339.199 147.199 c 339.199 150.734 336.336
 153.602 332.801 153.602 c h
332.801 153.602 m f
332.801 185.602 m 268.801 185.602 l 265.266 185.602 262.398 182.734 262.398
 179.199 c 262.398 175.664 265.266 172.801 268.801 172.801 c 332.801 172.801
 l 336.336 172.801 339.199 175.664 339.199 179.199 c 339.199 182.734 336.336
 185.602 332.801 185.602 c h
332.801 185.602 m f
332.801 217.602 m 300.801 217.602 l 297.266 217.602 294.398 214.734 294.398
 211.199 c 294.398 207.664 297.266 204.801 300.801 204.801 c 332.801 204.801
 l 336.336 204.801 339.199 207.664 339.199 211.199 c 339.199 214.734 336.336
 217.602 332.801 217.602 c h
332.801 217.602 m f
332.801 249.602 m 326.398 249.602 l 322.867 249.602 320 246.734 320 243.199
 c 320 239.664 322.867 236.801 326.398 236.801 c 332.801 236.801 l 336.336
 236.801 339.199 239.664 339.199 243.199 c 339.199 246.734 336.336 249.602
 332.801 249.602 c h
332.801 249.602 m f
70.398 153.602 m 44.801 153.602 l 41.266 153.602 38.398 150.734 38.398 
147.199 c 38.398 143.664 41.266 140.801 44.801 140.801 c 70.398 140.801 
l 73.934 140.801 76.801 143.664 76.801 147.199 c 76.801 150.734 73.934 153.602
 70.398 153.602 c h
70.398 153.602 m f
0.407843 g
352 332.801 m 51.199 332.801 l 51.199 108.801 l 51.199 105.266 48.336 102.398
 44.801 102.398 c 41.266 102.398 38.398 105.266 38.398 108.801 c 38.398 
332.801 l 32 332.801 l 28.465 332.801 25.602 335.664 25.602 339.199 c 25.602
 342.734 28.465 345.602 32 345.602 c 38.398 345.602 l 38.398 352 l 38.398
 355.535 41.266 358.398 44.801 358.398 c 48.336 358.398 51.199 355.535 51.199
 352 c 51.199 345.602 l 352 345.602 l 355.535 345.602 358.398 342.734 358.398
 339.199 c 358.398 335.664 355.535 332.801 352 332.801 c h
352 332.801 m f
Q Q
showpage
%%Trailer
end
%%EOF
