%!PS-Adobe-3.0 EPSF-3.0
%%Creator: cairo 1.16.0 (https://cairographics.org)
%%CreationDate: Fri Nov 29 10:41:33 2019
%%Pages: 1
%%DocumentData: Clean7Bit
%%LanguageLevel: 2
%%BoundingBox: 0 0 384 384
%%EndComments
%%BeginProlog
50 dict begin
/q { gsave } bind def
/Q { grestore } bind def
/cm { 6 array astore concat } bind def
/w { setlinewidth } bind def
/J { setlinecap } bind def
/j { setlinejoin } bind def
/M { setmiterlimit } bind def
/d { setdash } bind def
/m { moveto } bind def
/l { lineto } bind def
/c { curveto } bind def
/h { closepath } bind def
/re { exch dup neg 3 1 roll 5 3 roll moveto 0 rlineto
      0 exch rlineto 0 rlineto closepath } bind def
/S { stroke } bind def
/f { fill } bind def
/f* { eofill } bind def
/n { newpath } bind def
/W { clip } bind def
/W* { eoclip } bind def
/BT { } bind def
/ET { } bind def
/BDC { mark 3 1 roll /BDC pdfmark } bind def
/EMC { mark /EMC pdfmark } bind def
/cairo_store_point { /cairo_point_y exch def /cairo_point_x exch def } def
/Tj { show currentpoint cairo_store_point } bind def
/TJ {
  {
    dup
    type /stringtype eq
    { show } { -0.001 mul 0 cairo_font_matrix dtransform rmoveto } ifelse
  } forall
  currentpoint cairo_store_point
} bind def
/cairo_selectfont { cairo_font_matrix aload pop pop pop 0 0 6 array astore
    cairo_font exch selectfont cairo_point_x cairo_point_y moveto } bind def
/Tf { pop /cairo_font exch def /cairo_font_matrix where
      { pop cairo_selectfont } if } bind def
/Td { matrix translate cairo_font_matrix matrix concatmatrix dup
      /cairo_font_matrix exch def dup 4 get exch 5 get cairo_store_point
      /cairo_font where { pop cairo_selectfont } if } bind def
/Tm { 2 copy 8 2 roll 6 array astore /cairo_font_matrix exch def
      cairo_store_point /cairo_font where { pop cairo_selectfont } if } bind def
/g { setgray } bind def
/rg { setrgbcolor } bind def
/d1 { setcachedevice } bind def
/cairo_data_source {
  CairoDataIndex CairoData length lt
    { CairoData CairoDataIndex get /CairoDataIndex CairoDataIndex 1 add def }
    { () } ifelse
} def
/cairo_flush_ascii85_file { cairo_ascii85_file status { cairo_ascii85_file flushfile } if } def
/cairo_image { image cairo_flush_ascii85_file } def
/cairo_imagemask { imagemask cairo_flush_ascii85_file } def
%%EndProlog
%%BeginSetup
%%EndSetup
%%Page: 1 1
%%BeginPageSetup
%%PageBoundingBox: 0 0 384 384
%%EndPageSetup
q 0 0 384 384 rectclip
1 0 0 -1 0 384 cm q
0.627451 0.447059 0.294118 rg
166.398 236.801 m 217.602 236.801 l 217.602 371.199 l 217.602 374.734 214.734
 377.602 211.199 377.602 c 172.801 377.602 l 169.266 377.602 166.398 374.734
 166.398 371.199 c h
166.398 236.801 m f
0.815686 0.603922 0.384314 rg
76.801 224 m 307.199 224 l 314.293 224 320 229.707 320 236.801 c 320 243.891
 314.293 249.602 307.199 249.602 c 76.801 249.602 l 69.707 249.602 64 243.891
 64 236.801 c 64 229.707 69.707 224 76.801 224 c h
76.801 224 m f
0.858824 g
70.398 19.199 243.203 172.801 re f
0.666667 g
160 89.602 m 158.305 89.602 156.676 88.926 155.477 87.727 c 136.273 68.523
 l 133.777 66.027 133.777 61.973 136.273 59.477 c 155.477 40.273 l 156.668
 39.039 158.305 38.336 160.023 38.32 c 161.738 38.309 163.391 38.98 164.605
 40.195 c 165.816 41.41 166.492 43.059 166.477 44.777 c 166.465 46.492 165.758
 48.133 164.523 49.324 c 149.848 64 l 164.523 78.676 l 166.355 80.504 166.902
 83.258 165.91 85.648 c 164.922 88.039 162.59 89.598 160 89.602 c h
160 89.602 m f
224 89.602 m 221.41 89.598 219.078 88.039 218.09 85.648 c 217.098 83.258
 217.645 80.504 219.477 78.676 c 234.152 64 l 219.477 49.324 l 217.051 46.812
 217.086 42.82 219.555 40.352 c 222.023 37.883 226.012 37.852 228.523 40.273
 c 247.727 59.477 l 250.223 61.973 250.223 66.027 247.727 68.523 c 228.523
 87.727 l 227.324 88.926 225.695 89.602 224 89.602 c h
224 89.602 m f
185.602 89.602 m 183.543 89.598 181.613 88.609 180.41 86.941 c 179.211 
85.273 178.883 83.129 179.531 81.176 c 192.332 42.777 l 193.449 39.418 197.078
 37.602 200.434 38.719 c 203.793 39.836 205.609 43.465 204.492 46.824 c 
191.691 85.223 l 190.82 87.844 188.363 89.609 185.602 89.602 c h
185.602 89.602 m f
0.145098 0.639216 0.854902 rg
172.801 115.199 m 102.398 115.199 l 98.867 115.199 96 112.336 96 108.801
 c 96 105.266 98.867 102.398 102.398 102.398 c 172.801 102.398 l 176.336
 102.398 179.199 105.266 179.199 108.801 c 179.199 112.336 176.336 115.199
 172.801 115.199 c h
172.801 115.199 m f
204.801 166.398 m 102.398 166.398 l 98.867 166.398 96 163.535 96 160 c 
96 156.465 98.867 153.602 102.398 153.602 c 204.801 153.602 l 208.336 153.602
 211.199 156.465 211.199 160 c 211.199 163.535 208.336 166.398 204.801 166.398
 c h
204.801 166.398 m f
0.619608 0.509804 0.92549 rg
230.398 115.199 m 198.398 115.199 l 194.867 115.199 192 112.336 192 108.801
 c 192 105.266 194.867 102.398 198.398 102.398 c 230.398 102.398 l 233.934
 102.398 236.801 105.266 236.801 108.801 c 236.801 112.336 233.934 115.199
 230.398 115.199 c h
230.398 115.199 m f
0.980392 0.631373 0.0862745 rg
281.602 115.199 m 256 115.199 l 252.465 115.199 249.602 112.336 249.602
 108.801 c 249.602 105.266 252.465 102.398 256 102.398 c 281.602 102.398
 l 285.133 102.398 288 105.266 288 108.801 c 288 112.336 285.133 115.199
 281.602 115.199 c h
281.602 115.199 m f
0.145098 0.639216 0.854902 rg
115.199 140.801 m 102.398 140.801 l 98.867 140.801 96 137.934 96 134.398
 c 96 130.867 98.867 128 102.398 128 c 115.199 128 l 118.734 128 121.602
 130.867 121.602 134.398 c 121.602 137.934 118.734 140.801 115.199 140.801
 c h
115.199 140.801 m f
0.619608 0.509804 0.92549 rg
172.801 140.801 m 140.801 140.801 l 137.266 140.801 134.398 137.934 134.398
 134.398 c 134.398 130.867 137.266 128 140.801 128 c 172.801 128 l 176.336
 128 179.199 130.867 179.199 134.398 c 179.199 137.934 176.336 140.801 172.801
 140.801 c h
172.801 140.801 m f
0.980392 0.631373 0.0862745 rg
281.602 140.801 m 198.398 140.801 l 194.867 140.801 192 137.934 192 134.398
 c 192 130.867 194.867 128 198.398 128 c 281.602 128 l 285.133 128 288 130.867
 288 134.398 c 288 137.934 285.133 140.801 281.602 140.801 c h
281.602 140.801 m f
0.407843 g
192 25.602 m 188.465 25.602 185.602 22.734 185.602 19.199 c 185.602 6.398
 l 185.602 2.867 188.465 0 192 0 c 195.535 0 198.398 2.867 198.398 6.398
 c 198.398 19.199 l 198.398 22.734 195.535 25.602 192 25.602 c h
192 25.602 m f
0.666667 g
89.602 281.602 m 12.801 281.602 l 12.801 160 l 12.801 156.465 9.934 153.602
 6.398 153.602 c 2.867 153.602 0 156.465 0 160 c 0 377.602 l 0 381.133 2.867
 384 6.398 384 c 9.934 384 12.801 381.133 12.801 377.602 c 12.801 294.398
 l 89.602 294.398 l 93.133 294.398 96 297.266 96 300.801 c 96 377.602 l 
96 381.133 98.867 384 102.398 384 c 105.934 384 108.801 381.133 108.801 
377.602 c 108.801 300.801 l 108.801 290.195 100.203 281.602 89.602 281.602
 c h
89.602 281.602 m f
377.602 153.602 m 374.066 153.602 371.199 156.465 371.199 160 c 371.199
 281.602 l 294.398 281.602 l 283.797 281.602 275.199 290.195 275.199 300.801
 c 275.199 377.602 l 275.199 381.133 278.066 384 281.602 384 c 285.133 384
 288 381.133 288 377.602 c 288 300.801 l 288 297.266 290.867 294.398 294.398
 294.398 c 371.199 294.398 l 371.199 377.602 l 371.199 381.133 374.066 384
 377.602 384 c 381.133 384 384 381.133 384 377.602 c 384 160 l 384 156.465
 381.133 153.602 377.602 153.602 c h
377.602 153.602 m f
326.398 25.602 m 57.602 25.602 l 54.066 25.602 51.199 22.734 51.199 19.199
 c 51.199 15.664 54.066 12.801 57.602 12.801 c 326.398 12.801 l 329.934 
12.801 332.801 15.664 332.801 19.199 c 332.801 22.734 329.934 25.602 326.398
 25.602 c h
326.398 25.602 m f
326.398 198.398 m 57.602 198.398 l 54.066 198.398 51.199 195.535 51.199
 192 c 51.199 188.465 54.066 185.602 57.602 185.602 c 326.398 185.602 l 
329.934 185.602 332.801 188.465 332.801 192 c 332.801 195.535 329.934 198.398
 326.398 198.398 c h
326.398 198.398 m f
Q Q
showpage
%%Trailer
end
%%EOF
