%!PS-Adobe-3.0 EPSF-3.0
%%Creator: cairo 1.16.0 (https://cairographics.org)
%%CreationDate: Fri Nov 29 10:41:34 2019
%%Pages: 1
%%DocumentData: Clean7Bit
%%LanguageLevel: 2
%%BoundingBox: 6 6 378 378
%%EndComments
%%BeginProlog
50 dict begin
/q { gsave } bind def
/Q { grestore } bind def
/cm { 6 array astore concat } bind def
/w { setlinewidth } bind def
/J { setlinecap } bind def
/j { setlinejoin } bind def
/M { setmiterlimit } bind def
/d { setdash } bind def
/m { moveto } bind def
/l { lineto } bind def
/c { curveto } bind def
/h { closepath } bind def
/re { exch dup neg 3 1 roll 5 3 roll moveto 0 rlineto
      0 exch rlineto 0 rlineto closepath } bind def
/S { stroke } bind def
/f { fill } bind def
/f* { eofill } bind def
/n { newpath } bind def
/W { clip } bind def
/W* { eoclip } bind def
/BT { } bind def
/ET { } bind def
/BDC { mark 3 1 roll /BDC pdfmark } bind def
/EMC { mark /EMC pdfmark } bind def
/cairo_store_point { /cairo_point_y exch def /cairo_point_x exch def } def
/Tj { show currentpoint cairo_store_point } bind def
/TJ {
  {
    dup
    type /stringtype eq
    { show } { -0.001 mul 0 cairo_font_matrix dtransform rmoveto } ifelse
  } forall
  currentpoint cairo_store_point
} bind def
/cairo_selectfont { cairo_font_matrix aload pop pop pop 0 0 6 array astore
    cairo_font exch selectfont cairo_point_x cairo_point_y moveto } bind def
/Tf { pop /cairo_font exch def /cairo_font_matrix where
      { pop cairo_selectfont } if } bind def
/Td { matrix translate cairo_font_matrix matrix concatmatrix dup
      /cairo_font_matrix exch def dup 4 get exch 5 get cairo_store_point
      /cairo_font where { pop cairo_selectfont } if } bind def
/Tm { 2 copy 8 2 roll 6 array astore /cairo_font_matrix exch def
      cairo_store_point /cairo_font where { pop cairo_selectfont } if } bind def
/g { setgray } bind def
/rg { setrgbcolor } bind def
/d1 { setcachedevice } bind def
/cairo_data_source {
  CairoDataIndex CairoData length lt
    { CairoData CairoDataIndex get /CairoDataIndex CairoDataIndex 1 add def }
    { () } ifelse
} def
/cairo_flush_ascii85_file { cairo_ascii85_file status { cairo_ascii85_file flushfile } if } def
/cairo_image { image cairo_flush_ascii85_file } def
/cairo_imagemask { imagemask cairo_flush_ascii85_file } def
%%EndProlog
%%BeginSetup
%%EndSetup
%%Page: 1 1
%%BeginPageSetup
%%PageBoundingBox: 6 6 378 378
%%EndPageSetup
q 6 6 372 372 rectclip
1 0 0 -1 0 384 cm q
0.0941176 0.258824 0.286275 rg
358.398 281.602 m 354.867 281.602 352 278.734 352 275.199 c 352 51.199 
l 352 47.664 354.867 44.801 358.398 44.801 c 361.934 44.801 364.801 47.664
 364.801 51.199 c 364.801 275.199 l 364.801 278.734 361.934 281.602 358.398
 281.602 c h
358.398 281.602 m f
358.398 326.398 m 354.867 326.398 352 323.535 352 320 c 352 300.801 l 352
 297.266 354.867 294.398 358.398 294.398 c 361.934 294.398 364.801 297.266
 364.801 300.801 c 364.801 320 l 364.801 323.535 361.934 326.398 358.398
 326.398 c h
358.398 326.398 m f
25.602 281.602 m 22.066 281.602 19.199 278.734 19.199 275.199 c 19.199 
51.199 l 19.199 47.664 22.066 44.801 25.602 44.801 c 29.133 44.801 32 47.664
 32 51.199 c 32 275.199 l 32 278.734 29.133 281.602 25.602 281.602 c h
25.602 281.602 m f
262.398 83.199 m 258.867 83.199 256 80.336 256 76.801 c 256 38.398 l 256
 34.867 258.867 32 262.398 32 c 265.934 32 268.801 34.867 268.801 38.398
 c 268.801 76.801 l 268.801 80.336 265.934 83.199 262.398 83.199 c h
262.398 83.199 m f
121.602 153.602 m 118.066 153.602 115.199 150.734 115.199 147.199 c 115.199
 38.398 l 115.199 34.867 118.066 32 121.602 32 c 125.133 32 128 34.867 128
 38.398 c 128 147.199 l 128 150.734 125.133 153.602 121.602 153.602 c h
121.602 153.602 m f
25.602 326.398 m 22.066 326.398 19.199 323.535 19.199 320 c 19.199 300.801
 l 19.199 297.266 22.066 294.398 25.602 294.398 c 29.133 294.398 32 297.266
 32 300.801 c 32 320 l 32 323.535 29.133 326.398 25.602 326.398 c h
25.602 326.398 m f
0.756863 g
160 140.801 m 160 120.5 l 160 117.105 161.352 113.848 163.75 111.449 c 
201.051 74.152 l 203.449 71.75 206.703 70.402 210.098 70.398 c 320 70.398
 l 323.535 70.398 326.398 73.266 326.398 76.801 c 326.398 256 l 326.398 
259.535 323.535 262.398 320 262.398 c 275.199 262.398 l h
160 140.801 m f
0.858824 g
224 172.801 m 224 147.199 l 224 143.664 221.133 140.801 217.602 140.801
 c 107.699 140.801 l 104.305 140.801 101.051 142.148 98.648 144.551 c 61.352
 181.848 l 58.949 184.25 57.602 187.504 57.602 190.898 c 57.602 332.801 
l 57.602 336.336 60.465 339.199 64 339.199 c 108.801 339.199 l h
224 172.801 m f
0.94902 g
275.199 179.199 m 275.199 371.199 l 275.199 374.734 272.336 377.602 268.801
 377.602 c 115.199 377.602 l 111.664 377.602 108.801 374.734 108.801 371.199
 c 108.801 222.898 l 108.801 219.504 110.148 216.25 112.551 213.848 c 149.848
 176.551 l 152.25 174.148 155.504 172.801 158.898 172.801 c 268.801 172.801
 l 272.336 172.801 275.199 175.664 275.199 179.199 c h
275.199 179.199 m f
0.152941 0.435294 0.509804 rg
371.461 51.199 m 345.336 51.199 l 343.059 51.207 340.961 49.953 339.891
 47.941 c 338.816 45.93 338.941 43.488 340.219 41.602 c 353.281 21.938 l
 354.414 20.227 356.328 19.199 358.379 19.199 c 360.434 19.199 362.348 20.227
 363.48 21.938 c 376.562 41.602 l 377.836 43.488 377.965 45.922 376.895 
47.934 c 375.828 49.941 373.738 51.199 371.461 51.199 c h
371.461 51.199 m f
38.664 51.199 m 12.539 51.199 l 10.258 51.207 8.16 49.953 7.09 47.941 c
 6.016 45.93 6.145 43.488 7.418 41.602 c 20.48 21.938 l 21.613 20.227 23.527
 19.199 25.582 19.199 c 27.633 19.199 29.547 20.227 30.68 21.938 c 43.762
 41.602 l 45.035 43.488 45.164 45.922 44.098 47.934 c 43.027 49.941 40.938
 51.199 38.664 51.199 c h
38.664 51.199 m f
275.461 38.398 m 249.336 38.398 l 247.059 38.406 244.961 37.152 243.891
 35.141 c 242.816 33.129 242.941 30.691 244.219 28.801 c 257.281 9.141 l
 258.414 7.43 260.328 6.398 262.379 6.398 c 264.434 6.398 266.348 7.43 267.48
 9.141 c 280.562 28.801 l 281.836 30.688 281.965 33.121 280.895 35.133 c
 279.828 37.141 277.738 38.398 275.461 38.398 c h
275.461 38.398 m f
134.664 38.398 m 108.539 38.398 l 106.258 38.406 104.16 37.152 103.09 35.141
 c 102.016 33.129 102.145 30.691 103.418 28.801 c 116.48 9.141 l 117.613
 7.43 119.527 6.398 121.582 6.398 c 123.633 6.398 125.547 7.43 126.68 9.141
 c 139.762 28.801 l 141.035 30.688 141.164 33.121 140.098 35.133 c 139.027
 37.141 136.938 38.398 134.664 38.398 c h
134.664 38.398 m f
0.756863 g
153.602 173.953 m 153.602 212.031 l 153.598 215.105 151.105 217.598 148.031
 217.602 c 109.953 217.602 l 110.594 216.195 111.48 214.914 112.574 213.824
 c 149.824 176.574 l 150.914 175.48 152.195 174.594 153.602 173.953 c h
153.602 173.953 m f
102.398 141.953 m 102.398 180.031 l 102.395 183.105 99.906 185.598 96.832
 185.602 c 58.754 185.602 l 59.395 184.195 60.281 182.914 61.375 181.824
 c 98.625 144.574 l 99.715 143.48 100.996 142.594 102.398 141.953 c h
102.398 141.953 m f
0.666667 g
204.801 71.551 m 204.801 109.633 l 204.797 112.707 202.305 115.195 199.23
 115.199 c 161.152 115.199 l 161.793 113.793 162.684 112.516 163.777 111.426
 c 201.023 74.176 l 202.117 73.082 203.395 72.195 204.801 71.551 c h
204.801 71.551 m f
0.145098 0.639216 0.854902 rg
255.508 322.445 m 256.156 320.879 256.156 319.121 255.508 317.555 c 255.188
 316.773 254.715 316.066 254.117 315.469 c 247.719 309.07 l 245.887 307.242
 243.137 306.699 240.746 307.691 c 238.359 308.68 236.801 311.012 236.801
 313.602 c 216.891 313.602 l 227.223 303.512 232.051 289.059 229.863 274.785
 c 227.672 260.512 218.73 248.172 205.852 241.645 c 192.969 235.117 177.73
 235.207 164.926 241.883 c 152.121 248.555 143.324 261 141.301 275.297 c
 139.445 275.117 137.605 275.77 136.273 277.074 c 133.777 279.574 133.777
 283.625 136.273 286.125 c 142.676 292.523 l 145.176 295.023 149.227 295.023
 151.727 292.523 c 158.125 286.125 l 160.625 283.625 160.625 279.574 158.125
 277.074 c 157.07 276.055 155.695 275.438 154.234 275.32 c 156.66 263.191
 165.863 253.547 177.867 250.551 c 189.867 247.559 202.523 251.75 210.363
 261.316 c 218.203 270.887 219.828 284.117 214.531 295.297 c 209.234 306.477
 197.973 313.605 185.602 313.602 c 134.398 313.602 l 130.867 313.602 128
 316.465 128 320 c 128 323.535 130.867 326.398 134.398 326.398 c 236.801
 326.398 l 236.801 328.988 238.359 331.32 240.75 332.312 c 243.141 333.301
 245.895 332.754 247.727 330.926 c 254.125 324.523 l 254.719 323.93 255.188
 323.223 255.508 322.445 c h
255.508 322.445 m f
Q Q
showpage
%%Trailer
end
%%EOF
