%!PS-Adobe-3.0 EPSF-3.0
%%Creator: cairo 1.16.0 (https://cairographics.org)
%%CreationDate: Fri Nov 29 10:41:35 2019
%%Pages: 1
%%DocumentData: Clean7Bit
%%LanguageLevel: 2
%%BoundingBox: 44 6 340 378
%%EndComments
%%BeginProlog
50 dict begin
/q { gsave } bind def
/Q { grestore } bind def
/cm { 6 array astore concat } bind def
/w { setlinewidth } bind def
/J { setlinecap } bind def
/j { setlinejoin } bind def
/M { setmiterlimit } bind def
/d { setdash } bind def
/m { moveto } bind def
/l { lineto } bind def
/c { curveto } bind def
/h { closepath } bind def
/re { exch dup neg 3 1 roll 5 3 roll moveto 0 rlineto
      0 exch rlineto 0 rlineto closepath } bind def
/S { stroke } bind def
/f { fill } bind def
/f* { eofill } bind def
/n { newpath } bind def
/W { clip } bind def
/W* { eoclip } bind def
/BT { } bind def
/ET { } bind def
/BDC { mark 3 1 roll /BDC pdfmark } bind def
/EMC { mark /EMC pdfmark } bind def
/cairo_store_point { /cairo_point_y exch def /cairo_point_x exch def } def
/Tj { show currentpoint cairo_store_point } bind def
/TJ {
  {
    dup
    type /stringtype eq
    { show } { -0.001 mul 0 cairo_font_matrix dtransform rmoveto } ifelse
  } forall
  currentpoint cairo_store_point
} bind def
/cairo_selectfont { cairo_font_matrix aload pop pop pop 0 0 6 array astore
    cairo_font exch selectfont cairo_point_x cairo_point_y moveto } bind def
/Tf { pop /cairo_font exch def /cairo_font_matrix where
      { pop cairo_selectfont } if } bind def
/Td { matrix translate cairo_font_matrix matrix concatmatrix dup
      /cairo_font_matrix exch def dup 4 get exch 5 get cairo_store_point
      /cairo_font where { pop cairo_selectfont } if } bind def
/Tm { 2 copy 8 2 roll 6 array astore /cairo_font_matrix exch def
      cairo_store_point /cairo_font where { pop cairo_selectfont } if } bind def
/g { setgray } bind def
/rg { setrgbcolor } bind def
/d1 { setcachedevice } bind def
/cairo_data_source {
  CairoDataIndex CairoData length lt
    { CairoData CairoDataIndex get /CairoDataIndex CairoDataIndex 1 add def }
    { () } ifelse
} def
/cairo_flush_ascii85_file { cairo_ascii85_file status { cairo_ascii85_file flushfile } if } def
/cairo_image { image cairo_flush_ascii85_file } def
/cairo_imagemask { imagemask cairo_flush_ascii85_file } def
%%EndProlog
%%BeginSetup
%%EndSetup
%%Page: 1 1
%%BeginPageSetup
%%PageBoundingBox: 44 6 340 378
%%EndPageSetup
q 44 6 296 372 rectclip
1 0 0 -1 0 384 cm q
0.8 0.815686 0.854902 rg
192 377.602 m 255.922 352.258 l 306.066 332.539 339.078 284.195 339.199
 230.316 c 339.199 59.672 l 339.207 51.941 333.168 45.547 325.445 45.121
 c 298.188 43.52 236.801 36.934 200.59 9.293 c 195.512 5.434 188.488 5.434
 183.41 9.293 c 147.199 36.934 85.812 43.52 58.555 45.121 c 50.832 45.547
 44.793 51.941 44.801 59.672 c 44.801 230.316 l 44.922 284.195 77.934 332.539
 128.078 352.258 c h
192 377.602 m f
0.152941 0.435294 0.509804 rg
76.203 69.426 m 72.918 69.734 70.402 72.492 70.398 75.797 c 70.398 230.316
 l 70.379 273.742 97.035 312.719 137.512 328.453 c 189.637 349.125 l 191.156
 349.73 192.844 349.73 194.363 349.125 c 246.488 328.453 l 286.965 312.719
 313.621 273.742 313.602 230.316 c 313.602 75.797 l 313.598 72.492 311.082
 69.734 307.797 69.426 c 275.379 66.297 229.645 58.074 195.34 36.711 c 193.301
 35.422 190.699 35.422 188.66 36.711 c 154.363 58.074 108.629 66.297 76.203
 69.426 c h
76.203 69.426 m f
0.25098 0.8 0.945098 rg
172.801 275.199 m 140.801 275.199 l 137.266 275.199 134.398 272.336 134.398
 268.801 c 134.398 265.266 137.266 262.398 140.801 262.398 c 172.801 262.398
 l 176.336 262.398 179.199 265.266 179.199 268.801 c 179.199 272.336 176.336
 275.199 172.801 275.199 c h
172.801 275.199 m f
0.65098 0.588235 0.941176 rg
243.199 275.199 m 198.398 275.199 l 194.867 275.199 192 272.336 192 268.801
 c 192 265.266 194.867 262.398 198.398 262.398 c 243.199 262.398 l 246.734
 262.398 249.602 265.266 249.602 268.801 c 249.602 272.336 246.734 275.199
 243.199 275.199 c h
243.199 275.199 m f
0.25098 0.8 0.945098 rg
147.199 249.602 m 140.801 249.602 l 137.266 249.602 134.398 246.734 134.398
 243.199 c 134.398 239.664 137.266 236.801 140.801 236.801 c 147.199 236.801
 l 150.734 236.801 153.602 239.664 153.602 243.199 c 153.602 246.734 150.734
 249.602 147.199 249.602 c h
147.199 249.602 m f
1 g
115.199 249.602 m 108.801 249.602 l 105.266 249.602 102.398 246.734 102.398
 243.199 c 102.398 239.664 105.266 236.801 108.801 236.801 c 115.199 236.801
 l 118.734 236.801 121.602 239.664 121.602 243.199 c 121.602 246.734 118.734
 249.602 115.199 249.602 c h
115.199 249.602 m f
115.199 224 m 108.801 224 l 105.266 224 102.398 221.133 102.398 217.602
 c 102.398 214.066 105.266 211.199 108.801 211.199 c 115.199 211.199 l 118.734
 211.199 121.602 214.066 121.602 217.602 c 121.602 221.133 118.734 224 115.199
 224 c h
115.199 224 m f
115.199 198.398 m 108.801 198.398 l 105.266 198.398 102.398 195.535 102.398
 192 c 102.398 188.465 105.266 185.602 108.801 185.602 c 115.199 185.602
 l 118.734 185.602 121.602 188.465 121.602 192 c 121.602 195.535 118.734
 198.398 115.199 198.398 c h
115.199 198.398 m f
115.199 275.199 m 108.801 275.199 l 105.266 275.199 102.398 272.336 102.398
 268.801 c 102.398 265.266 105.266 262.398 108.801 262.398 c 115.199 262.398
 l 118.734 262.398 121.602 265.266 121.602 268.801 c 121.602 272.336 118.734
 275.199 115.199 275.199 c h
115.199 275.199 m f
115.199 172.801 m 108.801 172.801 l 105.266 172.801 102.398 169.934 102.398
 166.398 c 102.398 162.867 105.266 160 108.801 160 c 115.199 160 l 118.734
 160 121.602 162.867 121.602 166.398 c 121.602 169.934 118.734 172.801 115.199
 172.801 c h
115.199 172.801 m f
0.65098 0.588235 0.941176 rg
217.602 249.602 m 172.801 249.602 l 169.266 249.602 166.398 246.734 166.398
 243.199 c 166.398 239.664 169.266 236.801 172.801 236.801 c 217.602 236.801
 l 221.133 236.801 224 239.664 224 243.199 c 224 246.734 221.133 249.602
 217.602 249.602 c h
217.602 249.602 m f
0.988235 0.796078 0.333333 rg
281.602 249.602 m 243.199 249.602 l 239.664 249.602 236.801 246.734 236.801
 243.199 c 236.801 239.664 239.664 236.801 243.199 236.801 c 281.602 236.801
 l 285.133 236.801 288 239.664 288 243.199 c 288 246.734 285.133 249.602
 281.602 249.602 c h
281.602 249.602 m f
0.65098 0.588235 0.941176 rg
281.602 198.398 m 179.199 198.398 l 175.664 198.398 172.801 195.535 172.801
 192 c 172.801 188.465 175.664 185.602 179.199 185.602 c 281.602 185.602
 l 285.133 185.602 288 188.465 288 192 c 288 195.535 285.133 198.398 281.602
 198.398 c h
281.602 198.398 m f
0.25098 0.8 0.945098 rg
153.602 198.398 m 140.801 198.398 l 137.266 198.398 134.398 195.535 134.398
 192 c 134.398 188.465 137.266 185.602 140.801 185.602 c 153.602 185.602
 l 157.133 185.602 160 188.465 160 192 c 160 195.535 157.133 198.398 153.602
 198.398 c h
153.602 198.398 m f
166.398 224 m 140.801 224 l 137.266 224 134.398 221.133 134.398 217.602
 c 134.398 214.066 137.266 211.199 140.801 211.199 c 166.398 211.199 l 169.934
 211.199 172.801 214.066 172.801 217.602 c 172.801 221.133 169.934 224 166.398
 224 c h
166.398 224 m f
0.65098 0.588235 0.941176 rg
217.602 224 m 192 224 l 188.465 224 185.602 221.133 185.602 217.602 c 185.602
 214.066 188.465 211.199 192 211.199 c 217.602 211.199 l 221.133 211.199
 224 214.066 224 217.602 c 224 221.133 221.133 224 217.602 224 c h
217.602 224 m f
0.25098 0.8 0.945098 rg
166.398 172.801 m 140.801 172.801 l 137.266 172.801 134.398 169.934 134.398
 166.398 c 134.398 162.867 137.266 160 140.801 160 c 166.398 160 l 169.934
 160 172.801 162.867 172.801 166.398 c 172.801 169.934 169.934 172.801 166.398
 172.801 c h
166.398 172.801 m f
0.65098 0.588235 0.941176 rg
256 172.801 m 192 172.801 l 188.465 172.801 185.602 169.934 185.602 166.398
 c 185.602 162.867 188.465 160 192 160 c 256 160 l 259.535 160 262.398 162.867
 262.398 166.398 c 262.398 169.934 259.535 172.801 256 172.801 c h
256 172.801 m f
0.988235 0.796078 0.333333 rg
268.801 224 m 243.199 224 l 239.664 224 236.801 221.133 236.801 217.602
 c 236.801 214.066 239.664 211.199 243.199 211.199 c 268.801 211.199 l 272.336
 211.199 275.199 214.066 275.199 217.602 c 275.199 221.133 272.336 224 268.801
 224 c h
268.801 224 m f
0.117647 0.313726 0.356863 rg
160 140.801 m 158.305 140.801 156.676 140.125 155.477 138.926 c 129.875
 113.324 l 127.375 110.824 127.375 106.773 129.875 104.273 c 155.477 78.676
 l 157.988 76.25 161.977 76.285 164.445 78.754 c 166.914 81.223 166.949 
85.215 164.523 87.727 c 143.449 108.801 l 164.523 129.875 l 166.355 131.707
 166.902 134.457 165.91 136.848 c 164.922 139.238 162.59 140.801 160 140.801
 c h
160 140.801 m f
224 140.801 m 221.41 140.801 219.078 139.238 218.09 136.848 c 217.098 134.457
 217.645 131.707 219.477 129.875 c 240.551 108.801 l 219.477 87.727 l 217.051
 85.215 217.086 81.223 219.555 78.754 c 222.023 76.285 226.012 76.25 228.523
 78.676 c 254.125 104.273 l 256.625 106.773 256.625 110.824 254.125 113.324
 c 228.523 138.926 l 227.324 140.125 225.695 140.801 224 140.801 c h
224 140.801 m f
185.602 140.801 m 185.074 140.801 184.555 140.734 184.043 140.609 c 180.617
 139.75 178.531 136.281 179.387 132.852 c 192.188 81.652 l 193.105 78.297
 196.535 76.293 199.906 77.133 c 203.281 77.977 205.363 81.355 204.602 84.75
 c 191.801 135.949 l 191.09 138.797 188.535 140.797 185.602 140.801 c h
185.602 140.801 m f
Q Q
showpage
%%Trailer
end
%%EOF
