%!PS-Adobe-3.0 EPSF-3.0
%%Creator: cairo 1.16.0 (https://cairographics.org)
%%CreationDate: Fri Nov 29 10:41:36 2019
%%Pages: 1
%%DocumentData: Clean7Bit
%%LanguageLevel: 2
%%BoundingBox: 38 6 346 378
%%EndComments
%%BeginProlog
50 dict begin
/q { gsave } bind def
/Q { grestore } bind def
/cm { 6 array astore concat } bind def
/w { setlinewidth } bind def
/J { setlinecap } bind def
/j { setlinejoin } bind def
/M { setmiterlimit } bind def
/d { setdash } bind def
/m { moveto } bind def
/l { lineto } bind def
/c { curveto } bind def
/h { closepath } bind def
/re { exch dup neg 3 1 roll 5 3 roll moveto 0 rlineto
      0 exch rlineto 0 rlineto closepath } bind def
/S { stroke } bind def
/f { fill } bind def
/f* { eofill } bind def
/n { newpath } bind def
/W { clip } bind def
/W* { eoclip } bind def
/BT { } bind def
/ET { } bind def
/BDC { mark 3 1 roll /BDC pdfmark } bind def
/EMC { mark /EMC pdfmark } bind def
/cairo_store_point { /cairo_point_y exch def /cairo_point_x exch def } def
/Tj { show currentpoint cairo_store_point } bind def
/TJ {
  {
    dup
    type /stringtype eq
    { show } { -0.001 mul 0 cairo_font_matrix dtransform rmoveto } ifelse
  } forall
  currentpoint cairo_store_point
} bind def
/cairo_selectfont { cairo_font_matrix aload pop pop pop 0 0 6 array astore
    cairo_font exch selectfont cairo_point_x cairo_point_y moveto } bind def
/Tf { pop /cairo_font exch def /cairo_font_matrix where
      { pop cairo_selectfont } if } bind def
/Td { matrix translate cairo_font_matrix matrix concatmatrix dup
      /cairo_font_matrix exch def dup 4 get exch 5 get cairo_store_point
      /cairo_font where { pop cairo_selectfont } if } bind def
/Tm { 2 copy 8 2 roll 6 array astore /cairo_font_matrix exch def
      cairo_store_point /cairo_font where { pop cairo_selectfont } if } bind def
/g { setgray } bind def
/rg { setrgbcolor } bind def
/d1 { setcachedevice } bind def
/cairo_data_source {
  CairoDataIndex CairoData length lt
    { CairoData CairoDataIndex get /CairoDataIndex CairoDataIndex 1 add def }
    { () } ifelse
} def
/cairo_flush_ascii85_file { cairo_ascii85_file status { cairo_ascii85_file flushfile } if } def
/cairo_image { image cairo_flush_ascii85_file } def
/cairo_imagemask { imagemask cairo_flush_ascii85_file } def
%%EndProlog
%%BeginSetup
%%EndSetup
%%Page: 1 1
%%BeginPageSetup
%%PageBoundingBox: 38 6 346 378
%%EndPageSetup
q 38 6 308 372 rectclip
1 0 0 -1 0 384 cm q
0.627451 0.411765 0.294118 rg
256 32 m 320 32 l 334.137 32 345.602 43.461 345.602 57.602 c 345.602 352
 l 345.602 366.137 334.137 377.602 320 377.602 c 64 377.602 l 49.863 377.602
 38.398 366.137 38.398 352 c 38.398 57.602 l 38.398 43.461 49.863 32 64 
32 c 128 32 l f
0.94902 g
64 32 m 64 339.199 l 64 346.27 69.73 352 76.801 352 c 307.199 352 l 314.27
 352 320 346.27 320 339.199 c 320 32 l h
64 32 m f
0.666667 g
256 25.602 m 256 38.398 l 256 41.934 253.133 44.801 249.602 44.801 c 134.398
 44.801 l 130.867 44.801 128 41.934 128 38.398 c 128 25.602 l 128 22.066
 130.867 19.199 134.398 19.199 c 153.602 19.199 l 157.133 19.199 160 16.336
 160 12.801 c 160 9.266 162.867 6.398 166.398 6.398 c 217.602 6.398 l 221.133
 6.398 224 9.266 224 12.801 c 224 16.336 226.867 19.199 230.398 19.199 c
 249.602 19.199 l 253.133 19.199 256 22.066 256 25.602 c h
256 25.602 m f
0.145098 0.639216 0.854902 rg
250.688 179.711 m 239.395 196.742 221.258 208.023 200.988 210.629 c 180.719
 213.234 160.32 206.902 145.09 193.281 c 166.398 169.406 l 174.703 176.844
 185.828 180.301 196.883 178.891 c 207.938 177.477 217.832 171.332 224 162.047
 c h
250.688 179.711 m f
0.960784 0.670588 0.00392157 rg
262.398 140.801 m 262.438 154.645 258.359 168.188 250.688 179.711 c 224
 162.047 l 231.832 150.258 232.543 135.117 225.852 122.648 c 219.16 110.176
 206.152 102.395 192 102.398 c 192 70.398 l 210.676 70.391 228.586 77.805
 241.793 91.008 c 254.996 104.215 262.41 122.125 262.398 140.801 c h
262.398 140.801 m f
0.619608 0.509804 0.92549 rg
192 70.398 m 192 102.398 l 170.793 102.398 153.602 119.594 153.602 140.801
 c 121.602 140.801 l 121.59 122.125 129.004 104.215 142.207 91.008 c 155.414
 77.805 173.324 70.391 192 70.398 c h
192 70.398 m f
0.215686 0.796078 0.631373 rg
166.398 169.406 m 145.09 193.281 l 130.125 179.941 121.578 160.844 121.602
 140.801 c 153.602 140.801 l 153.59 151.727 158.25 162.133 166.398 169.406
 c h
166.398 169.406 m f
0.619608 0.509804 0.92549 rg
96 236.801 m 108.801 236.801 l 112.344 236.801 115.199 239.656 115.199 
243.199 c 115.199 256 l 115.199 259.547 112.344 262.398 108.801 262.398 
c 96 262.398 l 92.453 262.398 89.602 259.547 89.602 256 c 89.602 243.199
 l 89.602 239.656 92.453 236.801 96 236.801 c h
96 236.801 m f
0.215686 0.796078 0.631373 rg
96 288 m 108.801 288 l 112.344 288 115.199 290.855 115.199 294.398 c 115.199
 307.199 l 115.199 310.746 112.344 313.602 108.801 313.602 c 96 313.602 
l 92.453 313.602 89.602 310.746 89.602 307.199 c 89.602 294.398 l 89.602
 290.855 92.453 288 96 288 c h
96 288 m f
0.145098 0.639216 0.854902 rg
211.199 236.801 m 224 236.801 l 227.547 236.801 230.398 239.656 230.398
 243.199 c 230.398 256 l 230.398 259.547 227.547 262.398 224 262.398 c 211.199
 262.398 l 207.656 262.398 204.801 259.547 204.801 256 c 204.801 243.199
 l 204.801 239.656 207.656 236.801 211.199 236.801 c h
211.199 236.801 m f
0.960784 0.670588 0.00392157 rg
211.199 288 m 224 288 l 227.547 288 230.398 290.855 230.398 294.398 c 230.398
 307.199 l 230.398 310.746 227.547 313.602 224 313.602 c 211.199 313.602
 l 207.656 313.602 204.801 310.746 204.801 307.199 c 204.801 294.398 l 204.801
 290.855 207.656 288 211.199 288 c h
211.199 288 m f
0.298039 g
179.199 243.199 m 140.801 243.199 l 137.266 243.199 134.398 240.336 134.398
 236.801 c 134.398 233.266 137.266 230.398 140.801 230.398 c 179.199 230.398
 l 182.734 230.398 185.602 233.266 185.602 236.801 c 185.602 240.336 182.734
 243.199 179.199 243.199 c h
179.199 243.199 m f
160 268.801 m 140.801 268.801 l 137.266 268.801 134.398 265.934 134.398
 262.398 c 134.398 258.867 137.266 256 140.801 256 c 160 256 l 163.535 256
 166.398 258.867 166.398 262.398 c 166.398 265.934 163.535 268.801 160 268.801
 c h
160 268.801 m f
179.199 294.398 m 140.801 294.398 l 137.266 294.398 134.398 291.535 134.398
 288 c 134.398 284.465 137.266 281.602 140.801 281.602 c 179.199 281.602
 l 182.734 281.602 185.602 284.465 185.602 288 c 185.602 291.535 182.734
 294.398 179.199 294.398 c h
179.199 294.398 m f
160 320 m 140.801 320 l 137.266 320 134.398 317.133 134.398 313.602 c 134.398
 310.066 137.266 307.199 140.801 307.199 c 160 307.199 l 163.535 307.199
 166.398 310.066 166.398 313.602 c 166.398 317.133 163.535 320 160 320 c
 h
160 320 m f
294.398 243.199 m 256 243.199 l 252.465 243.199 249.602 240.336 249.602
 236.801 c 249.602 233.266 252.465 230.398 256 230.398 c 294.398 230.398
 l 297.934 230.398 300.801 233.266 300.801 236.801 c 300.801 240.336 297.934
 243.199 294.398 243.199 c h
294.398 243.199 m f
275.199 268.801 m 256 268.801 l 252.465 268.801 249.602 265.934 249.602
 262.398 c 249.602 258.867 252.465 256 256 256 c 275.199 256 l 278.734 256
 281.602 258.867 281.602 262.398 c 281.602 265.934 278.734 268.801 275.199
 268.801 c h
275.199 268.801 m f
294.398 294.398 m 256 294.398 l 252.465 294.398 249.602 291.535 249.602
 288 c 249.602 284.465 252.465 281.602 256 281.602 c 294.398 281.602 l 297.934
 281.602 300.801 284.465 300.801 288 c 300.801 291.535 297.934 294.398 294.398
 294.398 c h
294.398 294.398 m f
275.199 320 m 256 320 l 252.465 320 249.602 317.133 249.602 313.602 c 249.602
 310.066 252.465 307.199 256 307.199 c 275.199 307.199 l 278.734 307.199
 281.602 310.066 281.602 313.602 c 281.602 317.133 278.734 320 275.199 320
 c h
275.199 320 m f
Q Q
showpage
%%Trailer
end
%%EOF
