%!PS-Adobe-3.0 EPSF-3.0
%%Creator: cairo 1.16.0 (https://cairographics.org)
%%CreationDate: Fri Nov 29 10:41:36 2019
%%Pages: 1
%%DocumentData: Clean7Bit
%%LanguageLevel: 2
%%BoundingBox: 6 6 378 378
%%EndComments
%%BeginProlog
50 dict begin
/q { gsave } bind def
/Q { grestore } bind def
/cm { 6 array astore concat } bind def
/w { setlinewidth } bind def
/J { setlinecap } bind def
/j { setlinejoin } bind def
/M { setmiterlimit } bind def
/d { setdash } bind def
/m { moveto } bind def
/l { lineto } bind def
/c { curveto } bind def
/h { closepath } bind def
/re { exch dup neg 3 1 roll 5 3 roll moveto 0 rlineto
      0 exch rlineto 0 rlineto closepath } bind def
/S { stroke } bind def
/f { fill } bind def
/f* { eofill } bind def
/n { newpath } bind def
/W { clip } bind def
/W* { eoclip } bind def
/BT { } bind def
/ET { } bind def
/BDC { mark 3 1 roll /BDC pdfmark } bind def
/EMC { mark /EMC pdfmark } bind def
/cairo_store_point { /cairo_point_y exch def /cairo_point_x exch def } def
/Tj { show currentpoint cairo_store_point } bind def
/TJ {
  {
    dup
    type /stringtype eq
    { show } { -0.001 mul 0 cairo_font_matrix dtransform rmoveto } ifelse
  } forall
  currentpoint cairo_store_point
} bind def
/cairo_selectfont { cairo_font_matrix aload pop pop pop 0 0 6 array astore
    cairo_font exch selectfont cairo_point_x cairo_point_y moveto } bind def
/Tf { pop /cairo_font exch def /cairo_font_matrix where
      { pop cairo_selectfont } if } bind def
/Td { matrix translate cairo_font_matrix matrix concatmatrix dup
      /cairo_font_matrix exch def dup 4 get exch 5 get cairo_store_point
      /cairo_font where { pop cairo_selectfont } if } bind def
/Tm { 2 copy 8 2 roll 6 array astore /cairo_font_matrix exch def
      cairo_store_point /cairo_font where { pop cairo_selectfont } if } bind def
/g { setgray } bind def
/rg { setrgbcolor } bind def
/d1 { setcachedevice } bind def
/cairo_data_source {
  CairoDataIndex CairoData length lt
    { CairoData CairoDataIndex get /CairoDataIndex CairoDataIndex 1 add def }
    { () } ifelse
} def
/cairo_flush_ascii85_file { cairo_ascii85_file status { cairo_ascii85_file flushfile } if } def
/cairo_image { image cairo_flush_ascii85_file } def
/cairo_imagemask { imagemask cairo_flush_ascii85_file } def
%%EndProlog
%%BeginSetup
%%EndSetup
%%Page: 1 1
%%BeginPageSetup
%%PageBoundingBox: 6 6 378 378
%%EndPageSetup
q 6 6 372 372 rectclip
1 0 0 -1 0 384 cm q
0.8 0.815686 0.854902 rg
332.801 147.199 m 332.801 151.23 332.609 155.266 332.289 159.23 c 331.969
 162.285 329.969 164.906 327.105 166.016 c 308.48 173.566 l 308.352 173.566
 l 290.879 174.016 l 277.375 174.336 l 280.188 165.566 281.613 156.41 281.602
 147.199 c 281.602 97.715 241.484 57.602 192 57.602 c 142.516 57.602 102.398
 97.715 102.398 147.199 c 102.387 156.41 103.812 165.566 106.625 174.336
 c 93.121 174.016 l 75.648 173.566 l 75.52 173.566 l 56.895 166.016 l 54.031
 164.906 52.031 162.285 51.711 159.23 c 51.391 155.266 51.199 151.23 51.199
 147.199 c 51.199 143.168 51.391 139.137 51.711 135.168 c 52.031 132.113
 54.031 129.496 56.895 128.383 c 79.551 119.297 l 82.379 108.098 86.844 
97.379 92.801 87.488 c 83.137 64.961 l 81.922 62.148 82.363 58.895 84.289
 56.512 c 86.848 53.441 89.602 50.496 92.414 47.617 c 95.23 44.734 98.238
 42.047 101.312 39.488 c 103.684 37.535 106.953 37.086 109.762 38.336 c 
132.289 48 l 142.18 42.043 152.898 37.578 164.098 34.754 c 173.184 12.098
 l 174.293 9.234 176.914 7.23 179.969 6.91 c 183.938 6.594 187.969 6.398
 192 6.398 c 196.031 6.398 200.062 6.594 204.031 6.91 c 207.086 7.23 209.707
 9.234 210.816 12.098 c 219.902 34.754 l 231.102 37.578 241.82 42.043 251.711
 48 c 274.238 38.336 l 277.047 37.086 280.316 37.535 282.688 39.488 c 285.762
 42.047 288.703 44.801 291.586 47.617 c 294.465 50.434 297.152 53.441 299.711
 56.512 c 301.637 58.895 302.078 62.148 300.863 64.961 c 291.199 87.488 
l 297.156 97.379 301.621 108.098 304.449 119.297 c 327.105 128.383 l 329.969
 129.496 331.969 132.113 332.289 135.168 c 332.609 139.137 332.801 143.168
 332.801 147.199 c h
332.801 147.199 m f
0.152941 0.435294 0.509804 rg
231.5 224 m 243.09 224 254.207 228.605 262.402 236.801 c 270.598 244.996
 275.199 256.109 275.199 267.699 c 275.199 358.398 l 275.199 361.934 272.336
 364.801 268.801 364.801 c 115.199 364.801 l 111.664 364.801 108.801 361.934
 108.801 358.398 c 108.801 267.699 l 108.801 243.566 128.363 224 152.5 224
 c h
231.5 224 m f
0.886275 0.67451 0.498039 rg
211.199 206.594 m 211.199 224 l 211.199 234.605 202.605 243.199 192 243.199
 c 181.395 243.199 172.801 234.605 172.801 224 c 172.801 206.594 l h
211.199 206.594 m f
0.933333 0.741176 0.568627 rg
236.801 166.398 m 236.801 166.398 230.398 211.199 192 211.199 c 153.602
 211.199 147.199 166.398 147.199 166.398 c 132.289 166.398 134.527 142.527
 134.527 142.527 c 134.527 142.527 135.039 135.488 140.863 134.527 c 143.188
 134.086 145.574 134.859 147.199 136.574 c 147.199 121.602 l 147.199 100.391
 164.391 83.199 185.602 83.199 c 198.398 83.199 l 208.586 83.199 218.352
 87.246 225.555 94.445 c 232.754 101.648 236.801 111.414 236.801 121.602
 c 236.801 136.574 l 238.426 134.859 240.812 134.086 243.137 134.527 c 248.961
 135.488 249.473 142.527 249.473 142.527 c 249.473 142.527 251.711 166.398
 236.801 166.398 c h
236.801 166.398 m f
0.619608 0.509804 0.92549 rg
108.801 313.602 m 129.102 313.602 l 153.234 313.602 172.801 333.164 172.801
 357.301 c 172.801 371.199 l 172.801 374.734 169.934 377.602 166.398 377.602
 c 12.801 377.602 l 9.266 377.602 6.398 374.734 6.398 371.199 c 6.398 357.301
 l 6.398 345.711 11.004 334.594 19.199 326.398 c 27.395 318.203 38.508 313.602
 50.098 313.602 c h
108.801 313.602 m f
0.54902 0.34902 0.235294 rg
108.801 296.191 m 108.801 313.602 l 108.801 324.203 100.203 332.801 89.602
 332.801 c 78.996 332.801 70.398 324.203 70.398 313.602 c 70.398 296.191
 l h
108.801 296.191 m f
0.627451 0.411765 0.294118 rg
134.398 256 m 134.398 256 128 300.801 89.602 300.801 c 51.199 300.801 44.801
 256 44.801 256 c 29.887 256 32.129 232.129 32.129 232.129 c 32.129 232.129
 32.641 225.09 38.465 224.129 c 40.785 223.688 43.176 224.461 44.801 226.176
 c 44.801 211.199 l 44.801 189.992 61.992 172.801 83.199 172.801 c 96 172.801
 l 117.207 172.801 134.398 189.992 134.398 211.199 c 134.398 226.176 l 136.027
 224.461 138.414 223.688 140.734 224.129 c 146.559 225.09 147.07 232.129
 147.07 232.129 c 147.07 232.129 149.312 256 134.398 256 c h
134.398 256 m f
0.92549 0.227451 0.282353 rg
333.902 313.602 m 345.492 313.602 356.605 318.203 364.801 326.398 c 372.996
 334.594 377.602 345.711 377.602 357.301 c 377.602 371.199 l 377.602 374.734
 374.734 377.602 371.199 377.602 c 217.602 377.602 l 214.066 377.602 211.199
 374.734 211.199 371.199 c 211.199 357.301 l 211.199 333.164 230.766 313.602
 254.898 313.602 c h
333.902 313.602 m f
0.886275 0.67451 0.498039 rg
313.602 296.191 m 313.602 313.602 l 313.602 324.203 305.004 332.801 294.398
 332.801 c 283.797 332.801 275.199 324.203 275.199 313.602 c 275.199 296.191
 l h
313.602 296.191 m f
0.933333 0.741176 0.568627 rg
339.199 256 m 339.199 256 332.801 300.801 294.398 300.801 c 256 300.801
 249.602 256 249.602 256 c 234.688 256 236.93 232.129 236.93 232.129 c 236.93
 232.129 237.441 225.09 243.266 224.129 c 245.586 223.688 247.973 224.461
 249.602 226.176 c 249.602 211.199 l 249.602 189.992 266.793 172.801 288
 172.801 c 300.801 172.801 l 322.008 172.801 339.199 189.992 339.199 211.199
 c 339.199 226.176 l 340.824 224.461 343.215 223.688 345.535 224.129 c 351.359
 225.09 351.871 232.129 351.871 232.129 c 351.871 232.129 354.113 256 339.199
 256 c h
339.199 256 m f
0.952941 0.780392 0.643137 rg
172.801 128 m 169.266 128 166.398 125.133 166.398 121.602 c 166.398 110.996
 174.996 102.398 185.602 102.398 c 189.133 102.398 192 105.266 192 108.801
 c 192 112.336 189.133 115.199 185.602 115.199 c 182.066 115.199 179.199
 118.066 179.199 121.602 c 179.199 125.133 176.336 128 172.801 128 c h
172.801 128 m f
0.678431 0.466667 0.376471 rg
70.398 217.602 m 66.867 217.602 64 214.734 64 211.199 c 64 200.598 72.598
 192 83.199 192 c 86.734 192 89.602 194.867 89.602 198.398 c 89.602 201.934
 86.734 204.801 83.199 204.801 c 79.664 204.801 76.801 207.664 76.801 211.199
 c 76.801 214.734 73.934 217.602 70.398 217.602 c h
70.398 217.602 m f
0.952941 0.780392 0.643137 rg
275.199 217.602 m 271.664 217.602 268.801 214.734 268.801 211.199 c 268.801
 200.598 277.395 192 288 192 c 291.535 192 294.398 194.867 294.398 198.398
 c 294.398 201.934 291.535 204.801 288 204.801 c 284.465 204.801 281.602
 207.664 281.602 211.199 c 281.602 214.734 278.734 217.602 275.199 217.602
 c h
275.199 217.602 m f
0.72549 0.74902 0.8 rg
294.398 147.199 m 294.422 155.836 293.344 164.438 291.199 172.801 c 288
 172.801 l 284.402 172.785 280.82 173.305 277.375 174.336 c 280.188 165.566
 281.613 156.41 281.602 147.199 c 281.602 97.715 241.484 57.602 192 57.602
 c 142.516 57.602 102.398 97.715 102.398 147.199 c 102.387 156.41 103.812
 165.566 106.625 174.336 c 103.18 173.305 99.598 172.785 96 172.801 c 92.801
 172.801 l 85.516 144.348 90.797 114.137 107.309 89.844 c 123.816 65.551
 149.965 49.516 179.102 45.816 c 208.238 42.117 237.562 51.105 259.617 70.5
 c 281.676 89.898 294.344 117.828 294.398 147.199 c h
294.398 147.199 m f
Q Q
showpage
%%Trailer
end
%%EOF
