%!PS-Adobe-3.0 EPSF-3.0
%%Creator: cairo 1.16.0 (https://cairographics.org)
%%CreationDate: Fri Nov 29 10:41:37 2019
%%Pages: 1
%%DocumentData: Clean7Bit
%%LanguageLevel: 2
%%BoundingBox: 0 0 384 378
%%EndComments
%%BeginProlog
50 dict begin
/q { gsave } bind def
/Q { grestore } bind def
/cm { 6 array astore concat } bind def
/w { setlinewidth } bind def
/J { setlinecap } bind def
/j { setlinejoin } bind def
/M { setmiterlimit } bind def
/d { setdash } bind def
/m { moveto } bind def
/l { lineto } bind def
/c { curveto } bind def
/h { closepath } bind def
/re { exch dup neg 3 1 roll 5 3 roll moveto 0 rlineto
      0 exch rlineto 0 rlineto closepath } bind def
/S { stroke } bind def
/f { fill } bind def
/f* { eofill } bind def
/n { newpath } bind def
/W { clip } bind def
/W* { eoclip } bind def
/BT { } bind def
/ET { } bind def
/BDC { mark 3 1 roll /BDC pdfmark } bind def
/EMC { mark /EMC pdfmark } bind def
/cairo_store_point { /cairo_point_y exch def /cairo_point_x exch def } def
/Tj { show currentpoint cairo_store_point } bind def
/TJ {
  {
    dup
    type /stringtype eq
    { show } { -0.001 mul 0 cairo_font_matrix dtransform rmoveto } ifelse
  } forall
  currentpoint cairo_store_point
} bind def
/cairo_selectfont { cairo_font_matrix aload pop pop pop 0 0 6 array astore
    cairo_font exch selectfont cairo_point_x cairo_point_y moveto } bind def
/Tf { pop /cairo_font exch def /cairo_font_matrix where
      { pop cairo_selectfont } if } bind def
/Td { matrix translate cairo_font_matrix matrix concatmatrix dup
      /cairo_font_matrix exch def dup 4 get exch 5 get cairo_store_point
      /cairo_font where { pop cairo_selectfont } if } bind def
/Tm { 2 copy 8 2 roll 6 array astore /cairo_font_matrix exch def
      cairo_store_point /cairo_font where { pop cairo_selectfont } if } bind def
/g { setgray } bind def
/rg { setrgbcolor } bind def
/d1 { setcachedevice } bind def
/cairo_data_source {
  CairoDataIndex CairoData length lt
    { CairoData CairoDataIndex get /CairoDataIndex CairoDataIndex 1 add def }
    { () } ifelse
} def
/cairo_flush_ascii85_file { cairo_ascii85_file status { cairo_ascii85_file flushfile } if } def
/cairo_image { image cairo_flush_ascii85_file } def
/cairo_imagemask { imagemask cairo_flush_ascii85_file } def
%%EndProlog
%%BeginSetup
%%EndSetup
%%Page: 1 1
%%BeginPageSetup
%%PageBoundingBox: 0 0 384 378
%%EndPageSetup
q 0 0 384 378 rectclip
1 0 0 -1 0 384 cm q
0.858824 g
377.602 12.801 m 377.602 89.602 l 377.602 93.133 374.734 96 371.199 96 
c 320 96 l 291.52 114.176 l 289.586 115.449 287.117 115.582 285.062 114.52
 c 283.004 113.461 281.68 111.371 281.602 109.055 c 281.602 96 l 256 96 
l 252.465 96 249.602 93.133 249.602 89.602 c 249.602 12.801 l 249.602 9.266
 252.465 6.398 256 6.398 c 371.199 6.398 l 374.734 6.398 377.602 9.266 377.602
 12.801 c h
377.602 12.801 m f
6.398 12.801 m 6.398 89.602 l 6.398 93.133 9.266 96 12.801 96 c 64 96 l
 92.48 114.176 l 94.414 115.449 96.883 115.582 98.938 114.52 c 100.996 113.461
 102.32 111.371 102.398 109.055 c 102.398 96 l 128 96 l 131.535 96 134.398
 93.133 134.398 89.602 c 134.398 12.801 l 134.398 9.266 131.535 6.398 128
 6.398 c 12.801 6.398 l 9.266 6.398 6.398 9.266 6.398 12.801 c h
6.398 12.801 m f
0.666667 g
352 44.801 m 275.199 44.801 l 271.664 44.801 268.801 41.934 268.801 38.398
 c 268.801 34.867 271.664 32 275.199 32 c 352 32 l 355.535 32 358.398 34.867
 358.398 38.398 c 358.398 41.934 355.535 44.801 352 44.801 c h
352 44.801 m f
326.398 70.398 m 275.199 70.398 l 271.664 70.398 268.801 67.535 268.801
 64 c 268.801 60.465 271.664 57.602 275.199 57.602 c 326.398 57.602 l 329.934
 57.602 332.801 60.465 332.801 64 c 332.801 67.535 329.934 70.398 326.398
 70.398 c h
326.398 70.398 m f
108.801 44.801 m 32 44.801 l 28.465 44.801 25.602 41.934 25.602 38.398 
c 25.602 34.867 28.465 32 32 32 c 108.801 32 l 112.336 32 115.199 34.867
 115.199 38.398 c 115.199 41.934 112.336 44.801 108.801 44.801 c h
108.801 44.801 m f
83.199 70.398 m 32 70.398 l 28.465 70.398 25.602 67.535 25.602 64 c 25.602
 60.465 28.465 57.602 32 57.602 c 83.199 57.602 l 86.734 57.602 89.602 60.465
 89.602 64 c 89.602 67.535 86.734 70.398 83.199 70.398 c h
83.199 70.398 m f
0.145098 0.639216 0.854902 rg
382.125 353.875 m 362.926 334.676 l 360.414 332.25 356.422 332.285 353.953
 334.754 c 351.484 337.223 351.449 341.215 353.875 343.727 c 362.152 352
 l 245.977 352 l 285.301 332.512 311.059 293.34 313.367 249.516 c 315.68
 205.691 294.18 164.023 257.121 140.516 c 220.066 117.004 173.215 115.297
 134.547 136.055 c 95.879 156.809 71.41 196.801 70.527 240.68 c 62.125 232.273
 l 59.613 229.852 55.621 229.883 53.152 232.352 c 50.684 234.82 50.648 238.812
 53.074 241.324 c 72.273 260.523 l 74.773 263.023 78.824 263.023 81.324 
260.523 c 100.523 241.324 l 102.949 238.812 102.914 234.82 100.445 232.352
 c 97.977 229.883 93.988 229.852 91.477 232.273 c 83.34 240.41 l 84.484 
196.695 111.699 157.914 152.426 141.98 c 193.148 126.043 239.457 136.055
 269.965 167.383 c 300.473 198.715 309.246 245.273 292.234 285.559 c 275.219
 325.844 235.73 352.02 192 352 c 6.398 352 l 2.867 352 0 354.867 0 358.398
 c 0 361.934 2.867 364.801 6.398 364.801 c 362.152 364.801 l 353.875 373.074
 l 352.641 374.27 351.938 375.906 351.922 377.621 c 351.906 379.34 352.582
 380.992 353.797 382.203 c 355.008 383.418 356.66 384.094 358.379 384.078
 c 360.094 384.062 361.73 383.359 362.926 382.125 c 382.125 362.926 l 384.625
 360.426 384.625 356.375 382.125 353.875 c h
382.125 353.875 m f
Q Q
showpage
%%Trailer
end
%%EOF
