%!PS-Adobe-3.0 EPSF-3.0
%%Creator: cairo 1.16.0 (https://cairographics.org)
%%CreationDate: Fri Nov 29 10:41:37 2019
%%Pages: 1
%%DocumentData: Clean7Bit
%%LanguageLevel: 2
%%BoundingBox: 6 6 378 378
%%EndComments
%%BeginProlog
50 dict begin
/q { gsave } bind def
/Q { grestore } bind def
/cm { 6 array astore concat } bind def
/w { setlinewidth } bind def
/J { setlinecap } bind def
/j { setlinejoin } bind def
/M { setmiterlimit } bind def
/d { setdash } bind def
/m { moveto } bind def
/l { lineto } bind def
/c { curveto } bind def
/h { closepath } bind def
/re { exch dup neg 3 1 roll 5 3 roll moveto 0 rlineto
      0 exch rlineto 0 rlineto closepath } bind def
/S { stroke } bind def
/f { fill } bind def
/f* { eofill } bind def
/n { newpath } bind def
/W { clip } bind def
/W* { eoclip } bind def
/BT { } bind def
/ET { } bind def
/BDC { mark 3 1 roll /BDC pdfmark } bind def
/EMC { mark /EMC pdfmark } bind def
/cairo_store_point { /cairo_point_y exch def /cairo_point_x exch def } def
/Tj { show currentpoint cairo_store_point } bind def
/TJ {
  {
    dup
    type /stringtype eq
    { show } { -0.001 mul 0 cairo_font_matrix dtransform rmoveto } ifelse
  } forall
  currentpoint cairo_store_point
} bind def
/cairo_selectfont { cairo_font_matrix aload pop pop pop 0 0 6 array astore
    cairo_font exch selectfont cairo_point_x cairo_point_y moveto } bind def
/Tf { pop /cairo_font exch def /cairo_font_matrix where
      { pop cairo_selectfont } if } bind def
/Td { matrix translate cairo_font_matrix matrix concatmatrix dup
      /cairo_font_matrix exch def dup 4 get exch 5 get cairo_store_point
      /cairo_font where { pop cairo_selectfont } if } bind def
/Tm { 2 copy 8 2 roll 6 array astore /cairo_font_matrix exch def
      cairo_store_point /cairo_font where { pop cairo_selectfont } if } bind def
/g { setgray } bind def
/rg { setrgbcolor } bind def
/d1 { setcachedevice } bind def
/cairo_data_source {
  CairoDataIndex CairoData length lt
    { CairoData CairoDataIndex get /CairoDataIndex CairoDataIndex 1 add def }
    { () } ifelse
} def
/cairo_flush_ascii85_file { cairo_ascii85_file status { cairo_ascii85_file flushfile } if } def
/cairo_image { image cairo_flush_ascii85_file } def
/cairo_imagemask { imagemask cairo_flush_ascii85_file } def
%%EndProlog
%%BeginSetup
%%EndSetup
%%Page: 1 1
%%BeginPageSetup
%%PageBoundingBox: 6 6 378 378
%%EndPageSetup
q 6 6 372 372 rectclip
1 0 0 -1 0 384 cm q
0.933333 0.741176 0.568627 rg
235.07 312.77 m 232.043 315.461 230.336 319.34 230.398 323.391 c 230.273
 332.414 l 230.273 332.48 l 229.824 377.602 l 97.664 377.602 l 94.91 364.801
 l 94.527 363.008 l 93.016 356.969 87.754 352.613 81.535 352.258 c 81.262
 352.203 80.984 352.18 80.703 352.191 c 44.098 352.191 l 39.613 352.297 
35.254 350.723 31.871 347.777 c 28.363 344.57 26.32 340.074 26.211 335.324
 c 26.102 330.574 27.938 325.984 31.297 322.625 c 36.031 317.887 l 37.645
 316.242 38.121 313.793 37.246 311.664 c 36.367 309.531 34.305 308.129 32
 308.098 c 29.051 306.613 28.805 302.5 31.551 300.672 c 34.648 298.598 33.82
 293.836 30.207 292.93 c 26.305 291.969 l 23.73 291.277 22.367 288.465 23.426
 286.016 c 24.793 282.957 25.469 279.637 25.406 276.289 c 25.418 275.902
 25.398 275.516 25.344 275.137 c 25.418 270.43 23.727 265.863 20.609 262.336
 c 11.137 262.336 l 7.312 262.352 5.055 258.055 7.23 254.91 c 40.512 206.016
 l 41.695 204.328 42.32 202.316 42.305 200.258 c 42.285 198.281 41.711 196.352
 40.641 194.688 c 39.035 192.301 38.543 189.336 39.297 186.559 c 49.625 
154.16 72.391 127.184 102.594 111.551 c 279.742 198.207 l 280.258 201.023
 280.641 203.777 280.961 206.656 c 285.184 249.023 264.191 287.551 235.07
 312.77 c h
235.07 312.77 m f
0.858824 g
339.199 64 m 336.914 64.012 334.637 64.227 332.391 64.641 c 330.594 50.645
 322.301 38.316 310.012 31.379 c 297.723 24.441 282.883 23.711 269.973 29.402
 c 258.641 14.285 240.605 5.703 221.73 6.445 c 202.855 7.188 185.547 17.156
 175.438 33.113 c 162.555 29.957 148.957 33.688 139.488 42.973 c 130.016
 52.258 126.02 65.777 128.922 78.719 c 118.434 82.043 109.875 89.703 105.414
 99.758 c 100.953 109.816 101.02 121.305 105.598 131.309 c 110.176 141.312
 118.824 148.871 129.352 152.07 c 139.879 155.27 151.27 153.797 160.641 
148.031 c 163.109 163.281 173.273 176.176 187.523 182.137 c 201.773 188.098
 218.09 186.281 230.68 177.332 c 246.117 196.133 271.699 203.211 294.602
 195.016 c 317.504 186.824 332.793 165.125 332.801 140.801 c 332.801 140.602
 332.801 140.414 332.77 140.219 c 343.391 142.086 354.309 139.406 362.855
 132.824 c 371.398 126.246 376.785 116.375 377.691 105.629 c 378.598 94.883
 374.941 84.25 367.621 76.328 c 360.301 68.41 349.984 63.938 339.199 64 
c h
339.199 64 m f
0.94902 g
185.602 236.801 m 185.602 243.871 179.871 249.602 172.801 249.602 c 165.73
 249.602 160 243.871 160 236.801 c 160 229.73 165.73 224 172.801 224 c 179.871
 224 185.602 229.73 185.602 236.801 c h
185.602 236.801 m f
236.801 224 m 236.801 231.07 231.07 236.801 224 236.801 c 216.93 236.801
 211.199 231.07 211.199 224 c 211.199 216.93 216.93 211.199 224 211.199 
c 231.07 211.199 236.801 216.93 236.801 224 c h
236.801 224 m f
0.886275 0.67451 0.498039 rg
44.098 278.016 m 42.902 279.199 41.297 279.863 39.617 279.871 c 37.918 
279.867 36.289 279.199 35.07 278.016 c 34.496 277.441 l 33.039 275.973 31.059
 275.145 28.992 275.137 c 25.344 275.137 l 25.418 270.43 23.727 265.863 
20.609 262.336 c 28.992 262.336 l 34.473 262.332 39.727 264.523 43.586 268.414
 c 44.098 268.93 l 45.324 270.121 46.016 271.762 46.016 273.473 c 46.016
 275.184 45.324 276.824 44.098 278.016 c h
44.098 278.016 m f
172.16 342.273 m 165.473 356.051 151.508 364.797 136.191 364.801 c 94.91
 364.801 l 94.527 363.008 l 93.016 356.969 87.754 352.613 81.535 352.258
 c 82.07 352.074 82.633 351.984 83.199 352 c 136.191 352 l 146.633 352 156.145
 346 160.641 336.574 c 162.242 333.445 166.051 332.164 169.215 333.695 c
 170.746 334.441 171.918 335.762 172.469 337.371 c 173.02 338.98 172.91 
340.746 172.16 342.273 c h
172.16 342.273 m f
235.07 312.77 m 232.043 315.461 230.336 319.34 230.398 323.391 c 230.273
 332.414 l 230.273 332.48 l 228.031 333.953 225.793 335.297 223.488 336.641
 c 222.527 337.238 221.418 337.547 220.289 337.535 c 217.375 337.555 214.812
 335.605 214.059 332.789 c 213.309 329.973 214.551 327.004 217.09 325.566
 c 223.469 321.875 229.492 317.59 235.07 312.77 c h
235.07 312.77 m f
0.666667 g
198.398 83.199 m 196.703 83.199 195.074 82.523 193.875 81.324 c 181.074
 68.523 l 178.578 66.027 178.578 61.973 181.074 59.477 c 193.875 46.676 
l 195.066 45.441 196.707 44.738 198.422 44.723 c 200.141 44.707 201.789 
45.383 203.004 46.598 c 204.219 47.809 204.895 49.461 204.879 51.176 c 204.863
 52.895 204.16 54.531 202.926 55.727 c 194.648 64 l 202.926 72.273 l 204.754
 74.105 205.301 76.859 204.312 79.25 c 203.32 81.641 200.988 83.199 198.398
 83.199 c h
198.398 83.199 m f
262.398 83.199 m 259.812 83.199 257.48 81.641 256.488 79.25 c 255.5 76.859
 256.047 74.105 257.875 72.273 c 266.152 64 l 257.875 55.727 l 256.641 54.531
 255.938 52.895 255.922 51.176 c 255.906 49.461 256.582 47.809 257.797 46.598
 c 259.008 45.383 260.66 44.707 262.379 44.723 c 264.094 44.738 265.73 45.441
 266.926 46.676 c 279.727 59.477 l 282.223 61.973 282.223 66.027 279.727
 68.523 c 266.926 81.324 l 265.727 82.523 264.098 83.199 262.398 83.199 
c h
262.398 83.199 m f
224 83.199 m 221.781 83.199 219.723 82.051 218.559 80.164 c 217.395 78.277
 217.289 75.922 218.277 73.938 c 231.078 48.34 l 232.66 45.176 236.504 43.891
 239.668 45.473 c 242.832 47.051 244.113 50.898 242.535 54.062 c 229.734
 79.66 l 228.648 81.832 226.43 83.203 224 83.199 c h
224 83.199 m f
0.145098 0.639216 0.854902 rg
256 108.801 m 211.199 108.801 l 207.664 108.801 204.801 105.934 204.801
 102.398 c 204.801 98.867 207.664 96 211.199 96 c 256 96 l 259.535 96 262.398
 98.867 262.398 102.398 c 262.398 105.934 259.535 108.801 256 108.801 c 
h
256 108.801 m f
0.619608 0.509804 0.92549 rg
307.199 108.801 m 281.602 108.801 l 278.066 108.801 275.199 105.934 275.199
 102.398 c 275.199 98.867 278.066 96 281.602 96 c 307.199 96 l 310.734 96
 313.602 98.867 313.602 102.398 c 313.602 105.934 310.734 108.801 307.199
 108.801 c h
307.199 108.801 m f
1 g
185.602 108.801 m 179.199 108.801 l 175.664 108.801 172.801 105.934 172.801
 102.398 c 172.801 98.867 175.664 96 179.199 96 c 185.602 96 l 189.133 96
 192 98.867 192 102.398 c 192 105.934 189.133 108.801 185.602 108.801 c 
h
185.602 108.801 m f
0.145098 0.639216 0.854902 rg
243.199 134.398 m 211.199 134.398 l 207.664 134.398 204.801 131.535 204.801
 128 c 204.801 124.465 207.664 121.602 211.199 121.602 c 243.199 121.602
 l 246.734 121.602 249.602 124.465 249.602 128 c 249.602 131.535 246.734
 134.398 243.199 134.398 c h
243.199 134.398 m f
0.619608 0.509804 0.92549 rg
294.398 134.398 m 268.801 134.398 l 265.266 134.398 262.398 131.535 262.398
 128 c 262.398 124.465 265.266 121.602 268.801 121.602 c 294.398 121.602
 l 297.934 121.602 300.801 124.465 300.801 128 c 300.801 131.535 297.934
 134.398 294.398 134.398 c h
294.398 134.398 m f
1 g
185.602 134.398 m 179.199 134.398 l 175.664 134.398 172.801 131.535 172.801
 128 c 172.801 124.465 175.664 121.602 179.199 121.602 c 185.602 121.602
 l 189.133 121.602 192 124.465 192 128 c 192 131.535 189.133 134.398 185.602
 134.398 c h
185.602 134.398 m f
Q Q
showpage
%%Trailer
end
%%EOF
