%!PS-Adobe-3.0 EPSF-3.0
%%Creator: cairo 1.16.0 (https://cairographics.org)
%%CreationDate: Fri Nov 29 10:41:37 2019
%%Pages: 1
%%DocumentData: Clean7Bit
%%LanguageLevel: 2
%%BoundingBox: 6 6 378 378
%%EndComments
%%BeginProlog
50 dict begin
/q { gsave } bind def
/Q { grestore } bind def
/cm { 6 array astore concat } bind def
/w { setlinewidth } bind def
/J { setlinecap } bind def
/j { setlinejoin } bind def
/M { setmiterlimit } bind def
/d { setdash } bind def
/m { moveto } bind def
/l { lineto } bind def
/c { curveto } bind def
/h { closepath } bind def
/re { exch dup neg 3 1 roll 5 3 roll moveto 0 rlineto
      0 exch rlineto 0 rlineto closepath } bind def
/S { stroke } bind def
/f { fill } bind def
/f* { eofill } bind def
/n { newpath } bind def
/W { clip } bind def
/W* { eoclip } bind def
/BT { } bind def
/ET { } bind def
/BDC { mark 3 1 roll /BDC pdfmark } bind def
/EMC { mark /EMC pdfmark } bind def
/cairo_store_point { /cairo_point_y exch def /cairo_point_x exch def } def
/Tj { show currentpoint cairo_store_point } bind def
/TJ {
  {
    dup
    type /stringtype eq
    { show } { -0.001 mul 0 cairo_font_matrix dtransform rmoveto } ifelse
  } forall
  currentpoint cairo_store_point
} bind def
/cairo_selectfont { cairo_font_matrix aload pop pop pop 0 0 6 array astore
    cairo_font exch selectfont cairo_point_x cairo_point_y moveto } bind def
/Tf { pop /cairo_font exch def /cairo_font_matrix where
      { pop cairo_selectfont } if } bind def
/Td { matrix translate cairo_font_matrix matrix concatmatrix dup
      /cairo_font_matrix exch def dup 4 get exch 5 get cairo_store_point
      /cairo_font where { pop cairo_selectfont } if } bind def
/Tm { 2 copy 8 2 roll 6 array astore /cairo_font_matrix exch def
      cairo_store_point /cairo_font where { pop cairo_selectfont } if } bind def
/g { setgray } bind def
/rg { setrgbcolor } bind def
/d1 { setcachedevice } bind def
/cairo_data_source {
  CairoDataIndex CairoData length lt
    { CairoData CairoDataIndex get /CairoDataIndex CairoDataIndex 1 add def }
    { () } ifelse
} def
/cairo_flush_ascii85_file { cairo_ascii85_file status { cairo_ascii85_file flushfile } if } def
/cairo_image { image cairo_flush_ascii85_file } def
/cairo_imagemask { imagemask cairo_flush_ascii85_file } def
%%EndProlog
%%BeginSetup
%%EndSetup
%%Page: 1 1
%%BeginPageSetup
%%PageBoundingBox: 6 6 378 378
%%EndPageSetup
q 6 6 372 372 rectclip
1 0 0 -1 0 384 cm q
0.717647 0.517647 0.337255 rg
204.801 160 m 192 377.602 l 190.391 377.582 188.801 377.234 187.328 376.574
 c 52.414 320.383 l 47.82 318.531 44.805 314.074 44.801 309.121 c 44.801
 160 l h
204.801 160 m f
0.815686 0.603922 0.384314 rg
339.199 160 m 339.199 309.121 l 339.195 314.074 336.18 318.531 331.586 
320.383 c 196.672 376.574 l 195.199 377.234 193.609 377.582 192 377.602 
c 192 160 l h
339.199 160 m f
0.898039 0.682353 0.486275 rg
44.801 115.199 m 9.973 151.52 l 7.094 154.438 5.844 158.59 6.629 162.609
 c 7.418 166.633 10.137 170.008 13.902 171.629 c 135.75 223.055 l 140.309
 224.973 145.578 223.918 149.043 220.383 c 192 179.199 l 234.957 220.383
 l 238.422 223.918 243.691 224.973 248.25 223.055 c 370.098 171.629 l 373.863
 170.008 376.582 166.633 377.371 162.609 c 378.156 158.59 376.906 154.438
 374.027 151.52 c 339.199 115.199 l 374.023 78.879 l 376.898 75.961 378.148
 71.812 377.363 67.789 c 376.578 63.766 373.855 60.391 370.094 58.77 c 248.25
 7.348 l 243.691 5.426 238.422 6.484 234.957 10.016 c 192 51.199 l 149.043
 10.016 l 145.578 6.484 140.309 5.426 135.75 7.348 c 13.902 58.77 l 10.137
 60.391 7.418 63.766 6.629 67.789 c 5.844 71.812 7.094 75.961 9.973 78.879
 c h
44.801 115.199 m f
0.627451 0.447059 0.294118 rg
339.207 115.199 m 192 51.199 l 44.793 115.199 l 192 179.199 l h
339.207 115.199 m f
1 g
160 140.801 m 158.305 140.801 156.676 140.125 155.477 138.926 c 136.273
 119.727 l 133.777 117.227 133.777 113.176 136.273 110.676 c 155.477 91.477
 l 157.988 89.051 161.977 89.086 164.445 91.555 c 166.914 94.023 166.949
 98.012 164.523 100.523 c 149.848 115.199 l 164.523 129.875 l 166.355 131.707
 166.902 134.457 165.91 136.848 c 164.922 139.238 162.59 140.801 160 140.801
 c h
160 140.801 m f
224 140.801 m 221.41 140.801 219.078 139.238 218.09 136.848 c 217.098 134.457
 217.645 131.707 219.477 129.875 c 234.152 115.199 l 219.477 100.523 l 217.051
 98.012 217.086 94.023 219.555 91.555 c 222.023 89.086 226.012 89.051 228.523
 91.477 c 247.727 110.676 l 250.223 113.176 250.223 117.227 247.727 119.727
 c 228.523 138.926 l 227.324 140.125 225.695 140.801 224 140.801 c h
224 140.801 m f
185.602 140.801 m 183.543 140.797 181.613 139.809 180.41 138.141 c 179.211
 136.473 178.883 134.328 179.531 132.379 c 192.332 93.977 l 193.449 90.621
 197.078 88.805 200.434 89.922 c 203.793 91.035 205.609 94.664 204.492 98.023
 c 191.691 136.422 l 190.82 139.043 188.363 140.809 185.602 140.801 c h
185.602 140.801 m f
Q Q
showpage
%%Trailer
end
%%EOF
