%!PS-Adobe-3.0 EPSF-3.0
%%Creator: cairo 1.16.0 (https://cairographics.org)
%%CreationDate: Fri Nov 29 10:41:38 2019
%%Pages: 1
%%DocumentData: Clean7Bit
%%LanguageLevel: 2
%%BoundingBox: 6 6 378 384
%%EndComments
%%BeginProlog
50 dict begin
/q { gsave } bind def
/Q { grestore } bind def
/cm { 6 array astore concat } bind def
/w { setlinewidth } bind def
/J { setlinecap } bind def
/j { setlinejoin } bind def
/M { setmiterlimit } bind def
/d { setdash } bind def
/m { moveto } bind def
/l { lineto } bind def
/c { curveto } bind def
/h { closepath } bind def
/re { exch dup neg 3 1 roll 5 3 roll moveto 0 rlineto
      0 exch rlineto 0 rlineto closepath } bind def
/S { stroke } bind def
/f { fill } bind def
/f* { eofill } bind def
/n { newpath } bind def
/W { clip } bind def
/W* { eoclip } bind def
/BT { } bind def
/ET { } bind def
/BDC { mark 3 1 roll /BDC pdfmark } bind def
/EMC { mark /EMC pdfmark } bind def
/cairo_store_point { /cairo_point_y exch def /cairo_point_x exch def } def
/Tj { show currentpoint cairo_store_point } bind def
/TJ {
  {
    dup
    type /stringtype eq
    { show } { -0.001 mul 0 cairo_font_matrix dtransform rmoveto } ifelse
  } forall
  currentpoint cairo_store_point
} bind def
/cairo_selectfont { cairo_font_matrix aload pop pop pop 0 0 6 array astore
    cairo_font exch selectfont cairo_point_x cairo_point_y moveto } bind def
/Tf { pop /cairo_font exch def /cairo_font_matrix where
      { pop cairo_selectfont } if } bind def
/Td { matrix translate cairo_font_matrix matrix concatmatrix dup
      /cairo_font_matrix exch def dup 4 get exch 5 get cairo_store_point
      /cairo_font where { pop cairo_selectfont } if } bind def
/Tm { 2 copy 8 2 roll 6 array astore /cairo_font_matrix exch def
      cairo_store_point /cairo_font where { pop cairo_selectfont } if } bind def
/g { setgray } bind def
/rg { setrgbcolor } bind def
/d1 { setcachedevice } bind def
/cairo_data_source {
  CairoDataIndex CairoData length lt
    { CairoData CairoDataIndex get /CairoDataIndex CairoDataIndex 1 add def }
    { () } ifelse
} def
/cairo_flush_ascii85_file { cairo_ascii85_file status { cairo_ascii85_file flushfile } if } def
/cairo_image { image cairo_flush_ascii85_file } def
/cairo_imagemask { imagemask cairo_flush_ascii85_file } def
%%EndProlog
%%BeginSetup
%%EndSetup
%%Page: 1 1
%%BeginPageSetup
%%PageBoundingBox: 6 6 378 384
%%EndPageSetup
q 6 6 372 378 rectclip
1 0 0 -1 0 384 cm q
0.0941176 0.258824 0.286275 rg
192 339.199 m 188.465 339.199 185.602 336.336 185.602 332.801 c 185.602
 214.594 l 185.602 211.059 188.465 208.191 192 208.191 c 195.535 208.191
 198.398 211.059 198.398 214.594 c 198.398 332.801 l 198.398 336.336 195.535
 339.199 192 339.199 c h
192 339.199 m f
134.398 288 m 51.199 288 l 47.664 288 44.801 285.133 44.801 281.602 c 44.801
 278.066 47.664 275.199 51.199 275.199 c 134.398 275.199 l 137.934 275.199
 140.801 272.336 140.801 268.801 c 140.801 198.398 l 140.801 194.867 143.664
 192 147.199 192 c 150.734 192 153.602 194.867 153.602 198.398 c 153.602
 268.801 l 153.602 279.402 145.004 288 134.398 288 c h
134.398 288 m f
332.801 288 m 249.602 288 l 238.996 288 230.398 279.402 230.398 268.801
 c 230.398 198.465 l 230.398 194.93 233.266 192.062 236.801 192.062 c 240.336
 192.062 243.199 194.93 243.199 198.465 c 243.199 268.801 l 243.199 272.336
 246.066 275.199 249.602 275.199 c 332.801 275.199 l 336.336 275.199 339.199
 278.066 339.199 281.602 c 339.199 285.133 336.336 288 332.801 288 c h
332.801 288 m f
0.858824 g
358.398 121.602 m 358.41 140.273 350.996 158.188 337.793 171.391 c 324.586
 184.598 306.676 192.012 288 192 c 277.527 191.93 267.195 189.574 257.727
 185.09 c 248.91 208.277 228.52 225.102 204.078 229.359 c 179.637 233.613
 154.762 224.668 138.625 205.824 c 135.855 202.543 133.371 199.031 131.199
 195.328 c 112.246 206.301 89.266 207.824 69.027 199.457 c 48.793 191.09
 33.602 173.777 27.93 152.625 c 22.262 131.473 26.758 108.887 40.098 91.52
 c 53.438 74.148 74.102 63.977 96 64 c 102.766 63.996 109.492 64.988 115.969
 66.945 c 116.578 62.707 117.562 58.527 118.91 54.465 c 126.156 32.676 143.594
 15.809 165.609 9.289 c 187.625 2.773 211.438 7.43 229.375 21.762 c 232.766
 24.445 235.895 27.445 238.719 30.719 c 247.598 24.977 258.742 24 268.48
 28.113 c 278.219 32.227 285.289 40.895 287.359 51.266 c 287.57 51.211 287.785
 51.191 288 51.199 c 292.188 51.195 296.363 51.578 300.48 52.352 c 334.031
 58.328 358.449 87.523 358.398 121.602 c h
358.398 121.602 m f
0.152941 0.435294 0.509804 rg
186.77 375.098 m 161.594 344.211 l 159.891 342.152 159.512 339.297 160.629
 336.863 c 161.742 334.434 164.148 332.855 166.824 332.801 c 217.176 332.801
 l 219.852 332.855 222.258 334.434 223.371 336.863 c 224.488 339.297 224.109
 342.152 222.406 344.211 c 197.23 375.098 l 195.953 376.68 194.031 377.602
 192 377.602 c 189.969 377.602 188.047 376.68 186.77 375.098 c h
186.77 375.098 m f
8.902 276.371 m 39.789 251.195 l 41.848 249.488 44.703 249.113 47.137 250.227
 c 49.566 251.34 51.145 253.75 51.199 256.422 c 51.199 306.777 l 51.145 
309.453 49.566 311.859 47.137 312.973 c 44.703 314.086 41.848 313.711 39.789
 312.008 c 8.902 286.828 l 7.32 285.555 6.398 283.633 6.398 281.602 c 6.398
 279.566 7.32 277.645 8.902 276.371 c h
8.902 276.371 m f
375.098 276.371 m 344.211 251.195 l 342.152 249.488 339.297 249.113 336.863
 250.227 c 334.434 251.34 332.855 253.75 332.801 256.422 c 332.801 306.777
 l 332.855 309.453 334.434 311.859 336.863 312.973 c 339.297 314.086 342.152
 313.711 344.211 312.008 c 375.098 286.828 l 376.68 285.555 377.602 283.633
 377.602 281.602 c 377.602 279.566 376.68 277.645 375.098 276.371 c h
375.098 276.371 m f
70.398 102.398 m 59.797 102.398 51.199 110.996 51.199 121.602 c 51.199 
134.398 l 51.199 145.004 59.797 153.602 70.398 153.602 c 81.004 153.602 
89.602 145.004 89.602 134.398 c 89.602 121.602 l 89.602 110.996 81.004 102.398
 70.398 102.398 c h
76.801 134.398 m 76.801 137.934 73.934 140.801 70.398 140.801 c 66.867 
140.801 64 137.934 64 134.398 c 64 121.602 l 64 118.066 66.867 115.199 70.398
 115.199 c 73.934 115.199 76.801 118.066 76.801 121.602 c h
76.801 134.398 m f
121.602 140.801 m 121.602 108.801 l 121.598 106.211 120.039 103.879 117.648
 102.887 c 115.258 101.898 112.504 102.445 110.676 104.273 c 104.273 110.676
 l 102.445 112.504 101.898 115.258 102.887 117.648 c 103.879 120.039 106.211
 121.598 108.801 121.602 c 108.801 140.801 l 105.266 140.801 102.398 143.664
 102.398 147.199 c 102.398 150.734 105.266 153.602 108.801 153.602 c 121.602
 153.602 l 125.133 153.602 128 150.734 128 147.199 c 128 143.664 125.133
 140.801 121.602 140.801 c h
121.602 140.801 m f
153.602 102.398 m 142.996 102.398 134.398 110.996 134.398 121.602 c 134.398
 134.398 l 134.398 145.004 142.996 153.602 153.602 153.602 c 164.203 153.602
 172.801 145.004 172.801 134.398 c 172.801 121.602 l 172.801 110.996 164.203
 102.398 153.602 102.398 c h
160 134.398 m 160 137.934 157.133 140.801 153.602 140.801 c 150.066 140.801
 147.199 137.934 147.199 134.398 c 147.199 121.602 l 147.199 118.066 150.066
 115.199 153.602 115.199 c 157.133 115.199 160 118.066 160 121.602 c h
160 134.398 m f
313.602 102.398 m 302.996 102.398 294.398 110.996 294.398 121.602 c 294.398
 134.398 l 294.398 145.004 302.996 153.602 313.602 153.602 c 324.203 153.602
 332.801 145.004 332.801 134.398 c 332.801 121.602 l 332.801 110.996 324.203
 102.398 313.602 102.398 c h
320 134.398 m 320 137.934 317.133 140.801 313.602 140.801 c 310.066 140.801
 307.199 137.934 307.199 134.398 c 307.199 121.602 l 307.199 118.066 310.066
 115.199 313.602 115.199 c 317.133 115.199 320 118.066 320 121.602 c h
320 134.398 m f
204.801 140.801 m 204.801 108.801 l 204.801 106.211 203.238 103.879 200.848
 102.887 c 198.457 101.898 195.707 102.445 193.875 104.273 c 187.477 110.676
 l 185.645 112.504 185.098 115.258 186.09 117.648 c 187.078 120.039 189.41
 121.598 192 121.602 c 192 140.801 l 188.465 140.801 185.602 143.664 185.602
 147.199 c 185.602 150.734 188.465 153.602 192 153.602 c 204.801 153.602
 l 208.336 153.602 211.199 150.734 211.199 147.199 c 211.199 143.664 208.336
 140.801 204.801 140.801 c h
204.801 140.801 m f
243.199 140.801 m 243.199 108.801 l 243.199 106.211 241.641 103.879 239.25
 102.887 c 236.859 101.898 234.105 102.445 232.273 104.273 c 225.875 110.676
 l 224.047 112.504 223.5 115.258 224.488 117.648 c 225.48 120.039 227.812
 121.598 230.398 121.602 c 230.398 140.801 l 226.867 140.801 224 143.664
 224 147.199 c 224 150.734 226.867 153.602 230.398 153.602 c 243.199 153.602
 l 246.734 153.602 249.602 150.734 249.602 147.199 c 249.602 143.664 246.734
 140.801 243.199 140.801 c h
243.199 140.801 m f
281.602 140.801 m 281.602 108.801 l 281.598 106.211 280.039 103.879 277.648
 102.887 c 275.258 101.898 272.504 102.445 270.676 104.273 c 264.273 110.676
 l 262.445 112.504 261.898 115.258 262.887 117.648 c 263.879 120.039 266.211
 121.598 268.801 121.602 c 268.801 140.801 l 265.266 140.801 262.398 143.664
 262.398 147.199 c 262.398 150.734 265.266 153.602 268.801 153.602 c 281.602
 153.602 l 285.133 153.602 288 150.734 288 147.199 c 288 143.664 285.133
 140.801 281.602 140.801 c h
281.602 140.801 m f
0.788235 g
292.242 44.922 m 286.824 29.539 272.309 19.234 256 19.199 c 250.488 19.203
 245.047 20.402 240.043 22.719 c 220.43 2.914 191.613 -4.688 164.781 2.867
 c 137.949 10.426 117.336 31.953 110.945 59.086 c 86.746 54.25 61.699 61.336
 43.621 78.133 c 25.543 94.926 16.637 119.387 19.68 143.875 c 22.727 168.363
 37.355 189.895 58.996 201.75 c 80.637 213.605 106.66 214.34 128.934 203.727
 c 144.449 226.176 170.73 238.688 197.938 236.578 c 225.148 234.469 249.184
 218.059 261.055 193.484 c 269.664 196.746 278.793 198.414 288 198.398 c
 329.559 198.359 363.547 165.266 364.695 123.723 c 365.844 82.18 333.738
 47.258 292.242 44.922 c h
288 185.602 m 280.328 185.578 272.723 184.156 265.562 181.402 c 267 176.715
 267.988 171.902 268.512 167.027 c 268.867 163.512 266.301 160.371 262.785
 160.02 c 259.266 159.664 256.129 162.23 255.777 165.746 c 255.227 171.562
 253.879 177.273 251.77 182.719 c 251.77 182.777 l 243.445 204.809 223.656
 220.457 200.301 223.484 c 176.941 226.508 153.82 216.414 140.16 197.23 
c 145.809 193.277 150.898 188.582 155.289 183.266 c 157.516 180.531 157.113
 176.516 154.391 174.277 c 151.668 172.039 147.652 172.422 145.402 175.137
 c 140.547 181.016 134.668 185.965 128.051 189.754 c 127.969 189.754 l 109.328
 200.543 86.512 201.234 67.254 191.594 c 47.996 181.949 34.879 163.27 32.348
 141.879 c 29.82 120.492 38.215 99.266 54.695 85.398 c 71.172 71.531 93.52
 66.879 114.164 73.023 c 114.246 73.023 l 120.156 74.691 125.77 77.262 130.887
 80.652 c 132.305 81.621 134.051 81.977 135.734 81.645 c 137.418 81.312 
138.895 80.32 139.84 78.887 c 140.785 77.453 141.113 75.703 140.754 74.023
 c 140.395 72.348 139.375 70.883 137.926 69.965 c 133.344 66.965 128.434
 64.492 123.297 62.594 c 128.324 40.246 144.945 22.305 166.844 15.586 c 
188.742 8.867 212.562 14.398 229.262 30.078 c 223.754 35.453 219.969 42.336
 218.379 49.863 c 218.027 51.531 218.352 53.273 219.285 54.703 c 220.223
 56.129 221.688 57.125 223.359 57.465 c 223.781 57.551 224.211 57.598 224.641
 57.602 c 227.664 57.594 230.273 55.473 230.895 52.512 c 232.309 45.766 
236.367 39.863 242.156 36.121 c 242.203 36.121 l 249.285 31.523 258.188 
30.73 265.973 34.008 c 273.758 37.281 279.414 44.199 281.082 52.48 c 281.082
 52.602 l 281.434 54.242 281.609 55.922 281.602 57.602 c 281.617 63.141 
279.816 68.535 276.48 72.961 c 275.461 74.316 275.023 76.023 275.266 77.707
 c 275.504 79.387 276.402 80.902 277.762 81.922 c 279.117 82.938 280.824
 83.375 282.504 83.137 c 284.184 82.895 285.703 81.996 286.719 80.641 c 
291.66 74.094 294.352 66.129 294.398 57.926 c 328.305 61.363 353.57 90.766
 351.863 124.805 c 350.16 158.84 322.078 185.57 288 185.602 c h
288 185.602 m f
Q Q
showpage
%%Trailer
end
%%EOF
