%!PS-Adobe-3.0 EPSF-3.0
%%Creator: cairo 1.16.0 (https://cairographics.org)
%%CreationDate: Fri Nov 29 10:41:39 2019
%%Pages: 1
%%DocumentData: Clean7Bit
%%LanguageLevel: 2
%%BoundingBox: 6 6 378 378
%%EndComments
%%BeginProlog
50 dict begin
/q { gsave } bind def
/Q { grestore } bind def
/cm { 6 array astore concat } bind def
/w { setlinewidth } bind def
/J { setlinecap } bind def
/j { setlinejoin } bind def
/M { setmiterlimit } bind def
/d { setdash } bind def
/m { moveto } bind def
/l { lineto } bind def
/c { curveto } bind def
/h { closepath } bind def
/re { exch dup neg 3 1 roll 5 3 roll moveto 0 rlineto
      0 exch rlineto 0 rlineto closepath } bind def
/S { stroke } bind def
/f { fill } bind def
/f* { eofill } bind def
/n { newpath } bind def
/W { clip } bind def
/W* { eoclip } bind def
/BT { } bind def
/ET { } bind def
/BDC { mark 3 1 roll /BDC pdfmark } bind def
/EMC { mark /EMC pdfmark } bind def
/cairo_store_point { /cairo_point_y exch def /cairo_point_x exch def } def
/Tj { show currentpoint cairo_store_point } bind def
/TJ {
  {
    dup
    type /stringtype eq
    { show } { -0.001 mul 0 cairo_font_matrix dtransform rmoveto } ifelse
  } forall
  currentpoint cairo_store_point
} bind def
/cairo_selectfont { cairo_font_matrix aload pop pop pop 0 0 6 array astore
    cairo_font exch selectfont cairo_point_x cairo_point_y moveto } bind def
/Tf { pop /cairo_font exch def /cairo_font_matrix where
      { pop cairo_selectfont } if } bind def
/Td { matrix translate cairo_font_matrix matrix concatmatrix dup
      /cairo_font_matrix exch def dup 4 get exch 5 get cairo_store_point
      /cairo_font where { pop cairo_selectfont } if } bind def
/Tm { 2 copy 8 2 roll 6 array astore /cairo_font_matrix exch def
      cairo_store_point /cairo_font where { pop cairo_selectfont } if } bind def
/g { setgray } bind def
/rg { setrgbcolor } bind def
/d1 { setcachedevice } bind def
/cairo_data_source {
  CairoDataIndex CairoData length lt
    { CairoData CairoDataIndex get /CairoDataIndex CairoDataIndex 1 add def }
    { () } ifelse
} def
/cairo_flush_ascii85_file { cairo_ascii85_file status { cairo_ascii85_file flushfile } if } def
/cairo_image { image cairo_flush_ascii85_file } def
/cairo_imagemask { imagemask cairo_flush_ascii85_file } def
%%EndProlog
%%BeginSetup
%%EndSetup
%%Page: 1 1
%%BeginPageSetup
%%PageBoundingBox: 6 6 378 378
%%EndPageSetup
q 6 6 372 372 rectclip
1 0 0 -1 0 384 cm q
0.686275 0.709804 0.74902 rg
115.199 294.398 153.602 38.402 re f
0.8 0.815686 0.854902 rg
312.383 352 m 311.887 351.227 311.207 350.586 310.398 350.145 c 268.801
 326.398 l 115.199 326.398 l 73.602 350.145 l 72.793 350.586 72.113 351.227
 71.617 352 c 70.832 353.082 70.41 354.379 70.398 355.711 c 70.398 371.199
 l 70.398 374.734 73.266 377.602 76.801 377.602 c 307.199 377.602 l 310.734
 377.602 313.602 374.734 313.602 371.199 c 313.602 355.711 l 313.59 354.379
 313.168 353.082 312.383 352 c h
312.383 352 m f
0.686275 0.709804 0.74902 rg
313.602 355.711 m 313.602 371.199 l 313.602 374.734 310.734 377.602 307.199
 377.602 c 76.801 377.602 l 73.266 377.602 70.398 374.734 70.398 371.199
 c 70.398 355.711 l 70.41 354.379 70.832 353.082 71.617 352 c 312.383 352
 l 313.168 353.082 313.59 354.379 313.602 355.711 c h
313.602 355.711 m f
0.8 0.815686 0.854902 rg
377.602 249.602 m 377.602 281.602 l 377.602 292.203 369.004 300.801 358.398
 300.801 c 25.602 300.801 l 14.996 300.801 6.398 292.203 6.398 281.602 c
 6.398 249.602 l 19.199 236.801 l 371.199 236.801 l h
377.602 249.602 m f
0.152941 0.435294 0.509804 rg
377.602 25.602 m 377.602 249.602 l 6.398 249.602 l 6.398 25.602 l 6.398
 14.996 14.996 6.398 25.602 6.398 c 358.398 6.398 l 369.004 6.398 377.602
 14.996 377.602 25.602 c h
377.602 25.602 m f
1 g
192 128 m 220.277 128 243.199 150.922 243.199 179.199 c 243.199 204.801
 l 140.801 204.801 l 140.801 179.199 l 140.801 150.922 163.723 128 192 128
 c h
192 128 m f
140.801 51.199 m 243.199 51.199 l 243.199 76.801 l 243.199 105.078 220.277
 128 192 128 c 163.723 128 140.801 105.078 140.801 76.801 c h
140.801 51.199 m f
0.858824 g
134.398 32 m 249.602 32 l 256.691 32 262.398 37.707 262.398 44.801 c 262.398
 51.891 256.691 57.602 249.602 57.602 c 134.398 57.602 l 127.309 57.602 
121.602 51.891 121.602 44.801 c 121.602 37.707 127.309 32 134.398 32 c h
134.398 32 m f
0.980392 0.666667 0.278431 rg
243.199 198.398 m 243.199 204.801 l 140.801 204.801 l 140.801 198.398 l
 140.801 182.465 174.207 166.527 187.07 161.023 c 190.219 159.68 193.781
 159.68 196.93 161.023 c 209.793 166.527 243.199 182.465 243.199 198.398
 c h
243.199 198.398 m f
242.816 83.199 m 239.656 108.863 217.855 128.141 192 128.141 c 166.145 
128.141 144.344 108.863 141.184 83.199 c h
242.816 83.199 m f
0.858824 g
134.398 198.398 m 249.602 198.398 l 256.691 198.398 262.398 204.109 262.398
 211.199 c 262.398 218.293 256.691 224 249.602 224 c 134.398 224 l 127.309
 224 121.602 218.293 121.602 211.199 c 121.602 204.109 127.309 198.398 134.398
 198.398 c h
134.398 198.398 m f
0.537255 0.568627 0.627451 rg
204.801 281.602 m 179.199 281.602 l 175.664 281.602 172.801 278.734 172.801
 275.199 c 172.801 271.664 175.664 268.801 179.199 268.801 c 204.801 268.801
 l 208.336 268.801 211.199 271.664 211.199 275.199 c 211.199 278.734 208.336
 281.602 204.801 281.602 c h
204.801 281.602 m f
0.117647 0.313726 0.356863 rg
114.867 81.176 m 113.75 77.828 110.129 76.02 106.777 77.133 c 87.578 83.531
 l 84.219 84.648 82.402 88.277 83.52 91.637 c 84.637 94.992 88.266 96.809
 91.621 95.691 c 96.863 93.945 l 92.223 104.707 89.754 116.281 89.602 128
 c 89.57 142.098 92.473 156.047 98.125 168.961 c 99.145 171.293 101.449 
172.801 103.992 172.801 c 104.875 172.805 105.746 172.621 106.555 172.262
 c 109.789 170.848 111.27 167.078 109.855 163.84 c 104.914 152.539 102.375
 140.336 102.398 128 c 102.531 118.664 104.402 109.434 107.918 100.781 c
 109.133 104.422 l 109.668 106.035 110.824 107.367 112.344 108.129 c 113.863
 108.891 115.621 109.016 117.234 108.48 c 118.848 107.945 120.18 106.789
 120.941 105.27 c 121.703 103.75 121.828 101.988 121.293 100.379 c h
114.867 81.176 m f
300.469 157.977 m 299.348 154.629 295.727 152.82 292.379 153.934 c 287.137
 155.68 l 291.781 144.91 294.25 133.328 294.398 121.602 c 294.43 107.504
 291.527 93.555 285.875 80.641 c 284.395 77.516 280.699 76.133 277.531 77.516
 c 274.359 78.898 272.863 82.551 274.152 85.762 c 279.09 97.062 281.625 
109.266 281.602 121.602 c 281.469 130.938 279.598 140.168 276.082 148.82
 c 274.867 145.176 l 273.75 141.82 270.121 140.004 266.766 141.121 c 263.406
 142.238 261.59 145.863 262.707 149.223 c 269.105 168.422 l 270.227 171.77
 273.848 173.582 277.195 172.469 c 296.398 166.066 l 298.012 165.535 299.344
 164.383 300.109 162.867 c 300.871 161.348 301 159.59 300.469 157.977 c 
h
300.469 157.977 m f
Q Q
showpage
%%Trailer
end
%%EOF
