%!PS-Adobe-3.0 EPSF-3.0
%%Creator: cairo 1.16.0 (https://cairographics.org)
%%CreationDate: Fri Nov 29 10:41:39 2019
%%Pages: 1
%%DocumentData: Clean7Bit
%%LanguageLevel: 2
%%BoundingBox: 6 6 378 378
%%EndComments
%%BeginProlog
50 dict begin
/q { gsave } bind def
/Q { grestore } bind def
/cm { 6 array astore concat } bind def
/w { setlinewidth } bind def
/J { setlinecap } bind def
/j { setlinejoin } bind def
/M { setmiterlimit } bind def
/d { setdash } bind def
/m { moveto } bind def
/l { lineto } bind def
/c { curveto } bind def
/h { closepath } bind def
/re { exch dup neg 3 1 roll 5 3 roll moveto 0 rlineto
      0 exch rlineto 0 rlineto closepath } bind def
/S { stroke } bind def
/f { fill } bind def
/f* { eofill } bind def
/n { newpath } bind def
/W { clip } bind def
/W* { eoclip } bind def
/BT { } bind def
/ET { } bind def
/BDC { mark 3 1 roll /BDC pdfmark } bind def
/EMC { mark /EMC pdfmark } bind def
/cairo_store_point { /cairo_point_y exch def /cairo_point_x exch def } def
/Tj { show currentpoint cairo_store_point } bind def
/TJ {
  {
    dup
    type /stringtype eq
    { show } { -0.001 mul 0 cairo_font_matrix dtransform rmoveto } ifelse
  } forall
  currentpoint cairo_store_point
} bind def
/cairo_selectfont { cairo_font_matrix aload pop pop pop 0 0 6 array astore
    cairo_font exch selectfont cairo_point_x cairo_point_y moveto } bind def
/Tf { pop /cairo_font exch def /cairo_font_matrix where
      { pop cairo_selectfont } if } bind def
/Td { matrix translate cairo_font_matrix matrix concatmatrix dup
      /cairo_font_matrix exch def dup 4 get exch 5 get cairo_store_point
      /cairo_font where { pop cairo_selectfont } if } bind def
/Tm { 2 copy 8 2 roll 6 array astore /cairo_font_matrix exch def
      cairo_store_point /cairo_font where { pop cairo_selectfont } if } bind def
/g { setgray } bind def
/rg { setrgbcolor } bind def
/d1 { setcachedevice } bind def
/cairo_data_source {
  CairoDataIndex CairoData length lt
    { CairoData CairoDataIndex get /CairoDataIndex CairoDataIndex 1 add def }
    { () } ifelse
} def
/cairo_flush_ascii85_file { cairo_ascii85_file status { cairo_ascii85_file flushfile } if } def
/cairo_image { image cairo_flush_ascii85_file } def
/cairo_imagemask { imagemask cairo_flush_ascii85_file } def
%%EndProlog
%%BeginSetup
%%EndSetup
%%Page: 1 1
%%BeginPageSetup
%%PageBoundingBox: 6 6 378 378
%%EndPageSetup
q 6 6 372 372 rectclip
1 0 0 -1 0 384 cm q
0.133333 0.364706 0.419608 rg
288 89.602 m 371.199 89.602 l 374.734 89.602 377.602 92.465 377.602 96 
c 377.602 198.398 l 377.602 201.934 374.734 204.801 371.199 204.801 c 224
 204.801 l 220.465 204.801 217.602 201.934 217.602 198.398 c 217.602 160
 l h
288 89.602 m f
0.858824 g
115.199 6.398 m 125.805 6.398 134.398 14.996 134.398 25.602 c 134.398 352
 l 96 352 l 96 25.602 l 96 14.996 104.598 6.398 115.199 6.398 c h
115.199 6.398 m f
0.686275 0.709804 0.74902 rg
44.801 339.199 m 185.602 339.199 l 206.809 339.199 224 356.391 224 377.602
 c 6.398 377.602 l 6.398 356.391 23.594 339.199 44.801 339.199 c h
44.801 339.199 m f
0.152941 0.435294 0.509804 rg
134.398 44.801 m 281.602 44.801 l 285.133 44.801 288 47.664 288 51.199 
c 288 153.602 l 288 157.133 285.133 160 281.602 160 c 134.398 160 l h
134.398 44.801 m f
0.0941176 0.258824 0.286275 rg
283.52 160 m 219.84 203.266 l 218.438 202.031 217.625 200.266 217.602 198.398
 c 217.602 160 l h
283.52 160 m f
204.801 128 m 202.742 128 200.812 127.008 199.613 125.34 c 198.41 123.672
 198.082 121.527 198.734 119.578 c 211.531 81.176 l 212.648 77.82 216.277
 76.004 219.637 77.121 c 222.992 78.238 224.809 81.863 223.691 85.223 c 
210.895 123.621 l 210.02 126.242 207.562 128.008 204.801 128 c h
204.801 128 m f
179.199 128 m 177.504 128 175.875 127.324 174.676 126.125 c 155.477 106.926
 l 152.977 104.426 152.977 100.375 155.477 97.875 c 174.676 78.676 l 177.188
 76.25 181.18 76.285 183.648 78.754 c 186.117 81.223 186.148 85.215 183.727
 87.727 c 169.051 102.398 l 183.727 117.074 l 185.555 118.906 186.102 121.656
 185.113 124.051 c 184.121 126.441 181.789 128 179.199 128 c h
179.199 128 m f
243.199 128 m 240.613 128 238.277 126.441 237.289 124.051 c 236.297 121.656
 236.844 118.906 238.676 117.074 c 253.352 102.398 l 238.676 87.727 l 236.25
 85.215 236.285 81.223 238.754 78.754 c 241.223 76.285 245.215 76.25 247.727
 78.676 c 266.926 97.875 l 269.422 100.375 269.422 104.426 266.926 106.926
 c 247.727 126.125 l 246.523 127.324 244.898 128 243.199 128 c h
243.199 128 m f
Q Q
showpage
%%Trailer
end
%%EOF
