%!PS-Adobe-3.0 EPSF-3.0
%%Creator: cairo 1.16.0 (https://cairographics.org)
%%CreationDate: Fri Nov 29 10:41:39 2019
%%Pages: 1
%%DocumentData: Clean7Bit
%%LanguageLevel: 2
%%BoundingBox: 6 6 378 378
%%EndComments
%%BeginProlog
50 dict begin
/q { gsave } bind def
/Q { grestore } bind def
/cm { 6 array astore concat } bind def
/w { setlinewidth } bind def
/J { setlinecap } bind def
/j { setlinejoin } bind def
/M { setmiterlimit } bind def
/d { setdash } bind def
/m { moveto } bind def
/l { lineto } bind def
/c { curveto } bind def
/h { closepath } bind def
/re { exch dup neg 3 1 roll 5 3 roll moveto 0 rlineto
      0 exch rlineto 0 rlineto closepath } bind def
/S { stroke } bind def
/f { fill } bind def
/f* { eofill } bind def
/n { newpath } bind def
/W { clip } bind def
/W* { eoclip } bind def
/BT { } bind def
/ET { } bind def
/BDC { mark 3 1 roll /BDC pdfmark } bind def
/EMC { mark /EMC pdfmark } bind def
/cairo_store_point { /cairo_point_y exch def /cairo_point_x exch def } def
/Tj { show currentpoint cairo_store_point } bind def
/TJ {
  {
    dup
    type /stringtype eq
    { show } { -0.001 mul 0 cairo_font_matrix dtransform rmoveto } ifelse
  } forall
  currentpoint cairo_store_point
} bind def
/cairo_selectfont { cairo_font_matrix aload pop pop pop 0 0 6 array astore
    cairo_font exch selectfont cairo_point_x cairo_point_y moveto } bind def
/Tf { pop /cairo_font exch def /cairo_font_matrix where
      { pop cairo_selectfont } if } bind def
/Td { matrix translate cairo_font_matrix matrix concatmatrix dup
      /cairo_font_matrix exch def dup 4 get exch 5 get cairo_store_point
      /cairo_font where { pop cairo_selectfont } if } bind def
/Tm { 2 copy 8 2 roll 6 array astore /cairo_font_matrix exch def
      cairo_store_point /cairo_font where { pop cairo_selectfont } if } bind def
/g { setgray } bind def
/rg { setrgbcolor } bind def
/d1 { setcachedevice } bind def
/cairo_data_source {
  CairoDataIndex CairoData length lt
    { CairoData CairoDataIndex get /CairoDataIndex CairoDataIndex 1 add def }
    { () } ifelse
} def
/cairo_flush_ascii85_file { cairo_ascii85_file status { cairo_ascii85_file flushfile } if } def
/cairo_image { image cairo_flush_ascii85_file } def
/cairo_imagemask { imagemask cairo_flush_ascii85_file } def
%%EndProlog
%%BeginSetup
%%EndSetup
%%Page: 1 1
%%BeginPageSetup
%%PageBoundingBox: 6 6 378 378
%%EndPageSetup
q 6 6 372 372 rectclip
1 0 0 -1 0 384 cm q
0.92549 0.227451 0.282353 rg
333.902 313.602 m 345.492 313.602 356.605 318.203 364.801 326.398 c 372.996
 334.594 377.602 345.711 377.602 357.301 c 377.602 371.199 l 377.602 374.734
 374.734 377.602 371.199 377.602 c 217.602 377.602 l 214.066 377.602 211.199
 374.734 211.199 371.199 c 211.199 357.301 l 211.199 333.164 230.766 313.602
 254.898 313.602 c h
333.902 313.602 m f
0.886275 0.67451 0.498039 rg
313.602 296.191 m 313.602 313.602 l 313.602 324.203 305.004 332.801 294.398
 332.801 c 283.797 332.801 275.199 324.203 275.199 313.602 c 275.199 296.191
 l h
313.602 296.191 m f
0.933333 0.741176 0.568627 rg
339.199 256 m 339.199 256 332.801 300.801 294.398 300.801 c 256 300.801
 249.602 256 249.602 256 c 234.688 256 236.93 232.129 236.93 232.129 c 236.93
 232.129 237.441 225.09 243.266 224.129 c 245.586 223.688 247.973 224.461
 249.602 226.176 c 249.602 211.199 l 249.602 189.992 266.793 172.801 288
 172.801 c 300.801 172.801 l 322.008 172.801 339.199 189.992 339.199 211.199
 c 339.199 226.176 l 340.824 224.461 343.215 223.688 345.535 224.129 c 351.359
 225.09 351.871 232.129 351.871 232.129 c 351.871 232.129 354.113 256 339.199
 256 c h
339.199 256 m f
0.686275 0.709804 0.74902 rg
198.398 44.801 m 205.461 44.82 211.18 50.539 211.199 57.602 c 211.199 185.602
 l 211.18 192.66 205.461 198.379 198.398 198.398 c 185.602 198.398 l 182.066
 198.398 179.199 201.266 179.199 204.801 c 179.199 224.258 l 179.109 226.508
 177.84 228.551 175.859 229.625 c 173.879 230.703 171.477 230.656 169.535
 229.504 c 116.68 199.246 l 115.703 198.688 114.602 198.398 113.477 198.398
 c 19.199 198.398 l 12.141 198.379 6.422 192.66 6.398 185.602 c 6.398 57.602
 l 6.422 50.539 12.141 44.82 19.199 44.801 c h
198.398 44.801 m f
0.152941 0.435294 0.509804 rg
38.398 19.199 m 179.199 19.199 l 182.746 19.199 185.602 22.055 185.602 
25.602 c 185.602 134.398 l 185.602 137.945 182.746 140.801 179.199 140.801
 c 38.398 140.801 l 34.855 140.801 32 137.945 32 134.398 c 32 25.602 l 32
 22.055 34.855 19.199 38.398 19.199 c h
38.398 19.199 m f
0.858824 g
128 6.398 m 153.602 6.398 l 157.133 6.398 160 9.266 160 12.801 c 160 108.801
 l 160 112.336 157.133 115.199 153.602 115.199 c 108.801 115.199 l 108.801
 25.602 l 108.801 14.996 117.395 6.398 128 6.398 c h
128 6.398 m f
64 6.398 m 89.602 6.398 l 100.203 6.398 108.801 14.996 108.801 25.602 c
 108.801 115.199 l 64 115.199 l 60.465 115.199 57.602 112.336 57.602 108.801
 c 57.602 12.801 l 57.602 9.266 60.465 6.398 64 6.398 c h
64 6.398 m f
0.952941 0.780392 0.643137 rg
275.199 217.602 m 271.664 217.602 268.801 214.734 268.801 211.199 c 268.801
 200.598 277.395 192 288 192 c 291.535 192 294.398 194.867 294.398 198.398
 c 294.398 201.934 291.535 204.801 288 204.801 c 284.465 204.801 281.602
 207.664 281.602 211.199 c 281.602 214.734 278.734 217.602 275.199 217.602
 c h
275.199 217.602 m f
0.564706 0.592157 0.627451 rg
179.199 172.801 m 172.801 172.801 l 169.266 172.801 166.398 169.934 166.398
 166.398 c 166.398 162.867 169.266 160 172.801 160 c 179.199 160 l 182.734
 160 185.602 162.867 185.602 166.398 c 185.602 169.934 182.734 172.801 179.199
 172.801 c h
179.199 172.801 m f
147.199 172.801 m 38.398 172.801 l 34.867 172.801 32 169.934 32 166.398
 c 32 162.867 34.867 160 38.398 160 c 147.199 160 l 150.734 160 153.602 
162.867 153.602 166.398 c 153.602 169.934 150.734 172.801 147.199 172.801
 c h
147.199 172.801 m f
0.788235 g
134.398 6.398 m 123.797 6.398 115.199 14.996 115.199 25.602 c 115.199 115.199
 l 103.551 115.199 l 103.551 25.602 l 103.551 14.996 94.957 6.398 84.352
 6.398 c 89.602 6.398 l 100.203 6.398 108.801 14.996 108.801 25.602 c 108.801
 14.996 117.395 6.398 128 6.398 c h
134.398 6.398 m f
Q Q
showpage
%%Trailer
end
%%EOF
