%!PS-Adobe-3.0 EPSF-3.0
%%Creator: cairo 1.16.0 (https://cairographics.org)
%%CreationDate: Fri Nov 29 10:41:41 2019
%%Pages: 1
%%DocumentData: Clean7Bit
%%LanguageLevel: 2
%%BoundingBox: 0 6 378 378
%%EndComments
%%BeginProlog
50 dict begin
/q { gsave } bind def
/Q { grestore } bind def
/cm { 6 array astore concat } bind def
/w { setlinewidth } bind def
/J { setlinecap } bind def
/j { setlinejoin } bind def
/M { setmiterlimit } bind def
/d { setdash } bind def
/m { moveto } bind def
/l { lineto } bind def
/c { curveto } bind def
/h { closepath } bind def
/re { exch dup neg 3 1 roll 5 3 roll moveto 0 rlineto
      0 exch rlineto 0 rlineto closepath } bind def
/S { stroke } bind def
/f { fill } bind def
/f* { eofill } bind def
/n { newpath } bind def
/W { clip } bind def
/W* { eoclip } bind def
/BT { } bind def
/ET { } bind def
/BDC { mark 3 1 roll /BDC pdfmark } bind def
/EMC { mark /EMC pdfmark } bind def
/cairo_store_point { /cairo_point_y exch def /cairo_point_x exch def } def
/Tj { show currentpoint cairo_store_point } bind def
/TJ {
  {
    dup
    type /stringtype eq
    { show } { -0.001 mul 0 cairo_font_matrix dtransform rmoveto } ifelse
  } forall
  currentpoint cairo_store_point
} bind def
/cairo_selectfont { cairo_font_matrix aload pop pop pop 0 0 6 array astore
    cairo_font exch selectfont cairo_point_x cairo_point_y moveto } bind def
/Tf { pop /cairo_font exch def /cairo_font_matrix where
      { pop cairo_selectfont } if } bind def
/Td { matrix translate cairo_font_matrix matrix concatmatrix dup
      /cairo_font_matrix exch def dup 4 get exch 5 get cairo_store_point
      /cairo_font where { pop cairo_selectfont } if } bind def
/Tm { 2 copy 8 2 roll 6 array astore /cairo_font_matrix exch def
      cairo_store_point /cairo_font where { pop cairo_selectfont } if } bind def
/g { setgray } bind def
/rg { setrgbcolor } bind def
/d1 { setcachedevice } bind def
/cairo_data_source {
  CairoDataIndex CairoData length lt
    { CairoData CairoDataIndex get /CairoDataIndex CairoDataIndex 1 add def }
    { () } ifelse
} def
/cairo_flush_ascii85_file { cairo_ascii85_file status { cairo_ascii85_file flushfile } if } def
/cairo_image { image cairo_flush_ascii85_file } def
/cairo_imagemask { imagemask cairo_flush_ascii85_file } def
%%EndProlog
%%BeginSetup
%%EndSetup
%%Page: 1 1
%%BeginPageSetup
%%PageBoundingBox: 0 6 378 378
%%EndPageSetup
q 0 6 378 372 rectclip
1 0 0 -1 0 384 cm q
0.686275 0.709804 0.74902 rg
96 268.801 140.801 38.398 re f
0.8 0.815686 0.854902 rg
275.199 329.855 m 275.199 352 l 57.602 352 l 57.602 329.855 l 57.605 328.629
 57.961 327.43 58.625 326.398 c 59.086 325.625 59.723 324.969 60.48 324.48
 c 96 300.801 l 236.801 300.801 l 272.32 324.48 l 273.078 324.969 273.711
 325.625 274.176 326.398 c 274.84 327.43 275.195 328.629 275.199 329.855
 c h
275.199 329.855 m f
326.398 224 m 326.398 256 l 326.434 264.188 321.227 271.48 313.473 274.113
 c 307.199 275.199 l 25.602 275.199 l 14.996 275.199 6.398 266.605 6.398
 256 c 6.398 224 l 12.801 217.602 l 320 217.602 l h
326.398 224 m f
0.152941 0.435294 0.509804 rg
326.398 25.602 m 326.398 224 l 6.398 224 l 6.398 25.602 l 6.398 14.996 
14.996 6.398 25.602 6.398 c 307.199 6.398 l 317.805 6.398 326.398 14.996
 326.398 25.602 c h
326.398 25.602 m f
0.54902 0.34902 0.235294 rg
261.762 211.648 m 373.176 346.113 l 376.43 350.031 377.988 355.086 377.516
 360.156 c 377.039 365.227 374.57 369.902 370.648 373.152 c 366.73 376.402
 361.676 377.961 356.605 377.488 c 351.535 377.016 346.859 374.547 343.609
 370.625 c 232 235.902 l h
261.762 211.648 m f
0.686275 0.709804 0.74902 rg
275.199 329.855 m 275.199 352 l 57.602 352 l 57.602 329.855 l 57.605 328.629
 57.961 327.43 58.625 326.398 c 274.176 326.398 l 274.84 327.43 275.195 
328.629 275.199 329.855 c h
275.199 329.855 m f
0.168627 0.713726 0.909804 rg
288 140.801 m 288 200.887 239.289 249.602 179.199 249.602 c 119.113 249.602
 70.398 200.887 70.398 140.801 c 70.398 80.711 119.113 32 179.199 32 c 239.289
 32 288 80.711 288 140.801 c h
288 140.801 m f
0.145098 0.639216 0.854902 rg
147.199 166.398 m 72.129 166.398 l 68.594 166.398 65.727 163.535 65.727
 160 c 65.727 156.465 68.594 153.602 72.129 153.602 c 147.199 153.602 l 
150.734 153.602 153.602 156.465 153.602 160 c 153.602 163.535 150.734 166.398
 147.199 166.398 c h
147.199 166.398 m f
147.199 192 m 80.062 192 l 76.531 192 73.664 189.133 73.664 185.602 c 73.664
 182.066 76.531 179.199 80.062 179.199 c 147.199 179.199 l 150.734 179.199
 153.602 182.066 153.602 185.602 c 153.602 189.133 150.734 192 147.199 192
 c h
147.199 192 m f
0.133333 0.603922 0.768627 rg
217.602 166.398 m 172.801 166.398 l 169.266 166.398 166.398 163.535 166.398
 160 c 166.398 156.465 169.266 153.602 172.801 153.602 c 217.602 153.602
 l 221.133 153.602 224 156.465 224 160 c 224 163.535 221.133 166.398 217.602
 166.398 c h
217.602 166.398 m f
204.801 192 m 172.801 192 l 169.266 192 166.398 189.133 166.398 185.602
 c 166.398 182.066 169.266 179.199 172.801 179.199 c 204.801 179.199 l 208.336
 179.199 211.199 182.066 211.199 185.602 c 211.199 189.133 208.336 192 204.801
 192 c h
204.801 192 m f
0.145098 0.639216 0.854902 rg
121.602 140.801 m 70.594 140.801 l 67.059 140.801 64.191 137.934 64.191
 134.398 c 64.191 130.867 67.059 128 70.594 128 c 121.602 128 l 125.133 
128 128 130.867 128 134.398 c 128 137.934 125.133 140.801 121.602 140.801
 c h
121.602 140.801 m f
0.133333 0.603922 0.768627 rg
192 140.801 m 147.199 140.801 l 143.664 140.801 140.801 137.934 140.801
 134.398 c 140.801 130.867 143.664 128 147.199 128 c 192 128 l 195.535 128
 198.398 130.867 198.398 134.398 c 198.398 137.934 195.535 140.801 192 140.801
 c h
192 140.801 m f
0.109804 0.564706 0.686275 rg
287.809 140.801 m 217.602 140.801 l 214.066 140.801 211.199 137.934 211.199
 134.398 c 211.199 130.867 214.066 128 217.602 128 c 287.809 128 l 291.344
 128 294.207 130.867 294.207 134.398 c 294.207 137.934 291.344 140.801 287.809
 140.801 c h
287.809 140.801 m f
0.133333 0.603922 0.768627 rg
271.488 89.602 m 153.602 89.602 l 150.066 89.602 147.199 86.734 147.199
 83.199 c 147.199 79.664 150.066 76.801 153.602 76.801 c 271.488 76.801 
l 275.023 76.801 277.887 79.664 277.887 83.199 c 277.887 86.734 275.023 
89.602 271.488 89.602 c h
271.488 89.602 m f
0.145098 0.639216 0.854902 rg
128 89.602 m 86.91 89.602 l 83.379 89.602 80.512 86.734 80.512 83.199 c
 80.512 79.664 83.379 76.801 86.91 76.801 c 128 76.801 l 131.535 76.801 
134.398 79.664 134.398 83.199 c 134.398 86.734 131.535 89.602 128 89.602
 c h
128 89.602 m f
121.602 217.602 m 96.32 217.602 l 92.785 217.602 89.922 214.734 89.922 
211.199 c 89.922 207.664 92.785 204.801 96.32 204.801 c 121.602 204.801 
l 125.133 204.801 128 207.664 128 211.199 c 128 214.734 125.133 217.602 
121.602 217.602 c h
121.602 217.602 m f
0.133333 0.603922 0.768627 rg
185.602 217.602 m 147.199 217.602 l 143.664 217.602 140.801 214.734 140.801
 211.199 c 140.801 207.664 143.664 204.801 147.199 204.801 c 185.602 204.801
 l 189.133 204.801 192 207.664 192 211.199 c 192 214.734 189.133 217.602
 185.602 217.602 c h
185.602 217.602 m f
0.109804 0.564706 0.686275 rg
217.602 217.602 m 211.199 217.602 l 207.664 217.602 204.801 214.734 204.801
 211.199 c 204.801 207.664 207.664 204.801 211.199 204.801 c 217.602 204.801
 l 221.133 204.801 224 207.664 224 211.199 c 224 214.734 221.133 217.602
 217.602 217.602 c h
217.602 217.602 m f
0.145098 0.639216 0.854902 rg
140.801 115.199 m 75.137 115.199 l 71.602 115.199 68.734 112.336 68.734
 108.801 c 68.734 105.266 71.602 102.398 75.137 102.398 c 140.801 102.398
 l 144.336 102.398 147.199 105.266 147.199 108.801 c 147.199 112.336 144.336
 115.199 140.801 115.199 c h
140.801 115.199 m f
0.133333 0.603922 0.768627 rg
192 115.199 m 166.398 115.199 l 162.867 115.199 160 112.336 160 108.801
 c 160 105.266 162.867 102.398 166.398 102.398 c 192 102.398 l 195.535 102.398
 198.398 105.266 198.398 108.801 c 198.398 112.336 195.535 115.199 192 115.199
 c h
192 115.199 m f
0.145098 0.639216 0.854902 rg
140.801 64 m 109.121 64 l 105.586 64 102.719 61.133 102.719 57.602 c 102.719
 54.066 105.586 51.199 109.121 51.199 c 140.801 51.199 l 144.336 51.199 
147.199 54.066 147.199 57.602 c 147.199 61.133 144.336 64 140.801 64 c h
140.801 64 m f
0.133333 0.603922 0.768627 rg
249.281 64 m 166.398 64 l 162.867 64 160 61.133 160 57.602 c 160 54.066
 162.867 51.199 166.398 51.199 c 249.281 51.199 l 252.816 51.199 255.68 
54.066 255.68 57.602 c 255.68 61.133 252.816 64 249.281 64 c h
249.281 64 m f
0.109804 0.564706 0.686275 rg
243.199 115.199 m 217.602 115.199 l 214.066 115.199 211.199 112.336 211.199
 108.801 c 211.199 105.266 214.066 102.398 217.602 102.398 c 243.199 102.398
 l 246.734 102.398 249.602 105.266 249.602 108.801 c 249.602 112.336 246.734
 115.199 243.199 115.199 c h
243.199 115.199 m f
1 g
76.801 44.801 m 38.398 44.801 l 34.867 44.801 32 41.934 32 38.398 c 32 
34.867 34.867 32 38.398 32 c 76.801 32 l 80.336 32 83.199 34.867 83.199 
38.398 c 83.199 41.934 80.336 44.801 76.801 44.801 c h
76.801 44.801 m f
70.398 70.398 m 38.398 70.398 l 34.867 70.398 32 67.535 32 64 c 32 60.465
 34.867 57.602 38.398 57.602 c 70.398 57.602 l 73.934 57.602 76.801 60.465
 76.801 64 c 76.801 67.535 73.934 70.398 70.398 70.398 c h
70.398 70.398 m f
0.619608 0.509804 0.92549 rg
300.801 44.801 m 216.062 44.801 l 212.531 44.801 209.664 41.934 209.664
 38.398 c 209.664 34.867 212.531 32 216.062 32 c 300.801 32 l 304.336 32
 307.199 34.867 307.199 38.398 c 307.199 41.934 304.336 44.801 300.801 44.801
 c h
300.801 44.801 m f
300.801 70.398 m 256.258 70.398 l 252.723 70.398 249.855 67.535 249.855
 64 c 249.855 60.465 252.723 57.602 256.258 57.602 c 300.801 57.602 l 304.336
 57.602 307.199 60.465 307.199 64 c 307.199 67.535 304.336 70.398 300.801
 70.398 c h
300.801 70.398 m f
300.801 121.602 m 284.992 121.602 l 281.457 121.602 278.594 118.734 278.594
 115.199 c 278.594 111.664 281.457 108.801 284.992 108.801 c 300.801 108.801
 l 304.336 108.801 307.199 111.664 307.199 115.199 c 307.199 118.734 304.336
 121.602 300.801 121.602 c h
300.801 121.602 m f
1 g
57.602 96 m 38.398 96 l 34.867 96 32 93.133 32 89.602 c 32 86.066 34.867
 83.199 38.398 83.199 c 57.602 83.199 l 61.133 83.199 64 86.066 64 89.602
 c 64 93.133 61.133 96 57.602 96 c h
57.602 96 m f
44.801 121.602 m 38.398 121.602 l 34.867 121.602 32 118.734 32 115.199 
c 32 111.664 34.867 108.801 38.398 108.801 c 44.801 108.801 l 48.336 108.801
 51.199 111.664 51.199 115.199 c 51.199 118.734 48.336 121.602 44.801 121.602
 c h
44.801 121.602 m f
44.801 147.199 m 38.398 147.199 l 34.867 147.199 32 144.336 32 140.801 
c 32 137.266 34.867 134.398 38.398 134.398 c 44.801 134.398 l 48.336 134.398
 51.199 137.266 51.199 140.801 c 51.199 144.336 48.336 147.199 44.801 147.199
 c h
44.801 147.199 m f
44.801 172.801 m 38.398 172.801 l 34.867 172.801 32 169.934 32 166.398 
c 32 162.867 34.867 160 38.398 160 c 44.801 160 l 48.336 160 51.199 162.867
 51.199 166.398 c 51.199 169.934 48.336 172.801 44.801 172.801 c h
44.801 172.801 m f
57.602 198.398 m 38.398 198.398 l 34.867 198.398 32 195.535 32 192 c 32
 188.465 34.867 185.602 38.398 185.602 c 57.602 185.602 l 61.133 185.602
 64 188.465 64 192 c 64 195.535 61.133 198.398 57.602 198.398 c h
57.602 198.398 m f
0.298039 g
179.199 256 m 132.605 256 90.602 227.934 72.77 184.887 c 54.938 141.836
 64.793 92.289 97.742 59.34 c 130.688 26.395 180.238 16.539 223.285 34.367
 c 266.332 52.199 294.398 94.207 294.398 140.801 c 294.324 204.391 242.793
 255.926 179.199 256 c h
179.199 38.398 m 137.781 38.398 100.445 63.348 84.594 101.613 c 68.746 
139.879 77.508 183.922 106.793 213.207 c 136.078 242.492 180.121 251.254
 218.387 235.406 c 256.652 219.555 281.602 182.219 281.602 140.801 c 281.531
 84.273 235.727 38.469 179.199 38.398 c h
179.199 38.398 m f
333.504 358.398 m 6.398 358.398 l 2.867 358.398 0 355.535 0 352 c 0 348.465
 2.867 345.602 6.398 345.602 c 322.879 345.602 l h
333.504 358.398 m f
Q Q
showpage
%%Trailer
end
%%EOF
