%!PS-Adobe-3.0 EPSF-3.0
%%Creator: cairo 1.16.0 (https://cairographics.org)
%%CreationDate: Fri Nov 29 10:41:41 2019
%%Pages: 1
%%DocumentData: Clean7Bit
%%LanguageLevel: 2
%%BoundingBox: 6 0 378 384
%%EndComments
%%BeginProlog
50 dict begin
/q { gsave } bind def
/Q { grestore } bind def
/cm { 6 array astore concat } bind def
/w { setlinewidth } bind def
/J { setlinecap } bind def
/j { setlinejoin } bind def
/M { setmiterlimit } bind def
/d { setdash } bind def
/m { moveto } bind def
/l { lineto } bind def
/c { curveto } bind def
/h { closepath } bind def
/re { exch dup neg 3 1 roll 5 3 roll moveto 0 rlineto
      0 exch rlineto 0 rlineto closepath } bind def
/S { stroke } bind def
/f { fill } bind def
/f* { eofill } bind def
/n { newpath } bind def
/W { clip } bind def
/W* { eoclip } bind def
/BT { } bind def
/ET { } bind def
/BDC { mark 3 1 roll /BDC pdfmark } bind def
/EMC { mark /EMC pdfmark } bind def
/cairo_store_point { /cairo_point_y exch def /cairo_point_x exch def } def
/Tj { show currentpoint cairo_store_point } bind def
/TJ {
  {
    dup
    type /stringtype eq
    { show } { -0.001 mul 0 cairo_font_matrix dtransform rmoveto } ifelse
  } forall
  currentpoint cairo_store_point
} bind def
/cairo_selectfont { cairo_font_matrix aload pop pop pop 0 0 6 array astore
    cairo_font exch selectfont cairo_point_x cairo_point_y moveto } bind def
/Tf { pop /cairo_font exch def /cairo_font_matrix where
      { pop cairo_selectfont } if } bind def
/Td { matrix translate cairo_font_matrix matrix concatmatrix dup
      /cairo_font_matrix exch def dup 4 get exch 5 get cairo_store_point
      /cairo_font where { pop cairo_selectfont } if } bind def
/Tm { 2 copy 8 2 roll 6 array astore /cairo_font_matrix exch def
      cairo_store_point /cairo_font where { pop cairo_selectfont } if } bind def
/g { setgray } bind def
/rg { setrgbcolor } bind def
/d1 { setcachedevice } bind def
/cairo_data_source {
  CairoDataIndex CairoData length lt
    { CairoData CairoDataIndex get /CairoDataIndex CairoDataIndex 1 add def }
    { () } ifelse
} def
/cairo_flush_ascii85_file { cairo_ascii85_file status { cairo_ascii85_file flushfile } if } def
/cairo_image { image cairo_flush_ascii85_file } def
/cairo_imagemask { imagemask cairo_flush_ascii85_file } def
%%EndProlog
%%BeginSetup
%%EndSetup
%%Page: 1 1
%%BeginPageSetup
%%PageBoundingBox: 6 0 378 384
%%EndPageSetup
q 6 0 372 384 rectclip
1 0 0 -1 0 384 cm q
0.117647 0.313726 0.356863 rg
128 384 m 96.203 383.965 70.434 358.195 70.398 326.398 c 70.398 236.801
 l 70.398 233.266 73.266 230.398 76.801 230.398 c 80.336 230.398 83.199 
233.266 83.199 236.801 c 83.199 326.398 l 83.199 351.141 103.258 371.199
 128 371.199 c 152.742 371.199 172.801 351.141 172.801 326.398 c 172.801
 64 l 172.801 28.652 201.453 0 236.801 0 c 272.145 0 300.801 28.652 300.801
 64 c 300.801 147.199 l 300.801 150.734 297.934 153.602 294.398 153.602 
c 290.867 153.602 288 150.734 288 147.199 c 288 64 l 288 35.723 265.078 
12.801 236.801 12.801 c 208.523 12.801 185.602 35.723 185.602 64 c 185.602
 326.398 l 185.566 358.195 159.797 383.965 128 384 c h
128 384 m f
0.607843 g
57.602 204.801 m 96 204.801 l 96 217.602 l 96 228.203 87.402 236.801 76.801
 236.801 c 66.195 236.801 57.602 228.203 57.602 217.602 c h
57.602 204.801 m f
0.858824 g
377.602 166.398 m 377.602 224 l 211.199 224 l 211.199 166.398 l 211.199
 155.797 219.797 147.199 230.398 147.199 c 358.398 147.199 l 369.004 147.199
 377.602 155.797 377.602 166.398 c h
377.602 166.398 m f
0.686275 g
377.602 224 m 377.602 294.398 l 377.602 340.352 340.352 377.602 294.398
 377.602 c 248.449 377.602 211.199 340.352 211.199 294.398 c 211.199 224
 l h
377.602 224 m f
0.529412 g
294.398 198.398 m 301.492 198.398 307.199 204.109 307.199 211.199 c 307.199
 236.801 l 307.199 243.891 301.492 249.602 294.398 249.602 c 287.309 249.602
 281.602 243.891 281.602 236.801 c 281.602 211.199 l 281.602 204.109 287.309
 198.398 294.398 198.398 c h
294.398 198.398 m f
0.686275 g
108.801 160 m 108.801 198.398 l 108.777 205.461 103.059 211.18 96 211.199
 c 57.602 211.199 l 50.539 211.18 44.82 205.461 44.801 198.398 c 44.801 
160 l h
108.801 160 m f
0.988235 0.796078 0.333333 rg
121.535 131.137 m 113.309 138.238 108.645 148.621 108.801 159.488 c 108.801
 160 l 44.801 160 l 44.801 158.398 l 44.621 147.535 39.656 137.301 31.23
 130.434 c 8.625 111.254 0.445 79.973 10.77 52.184 c 21.094 24.395 47.711
 6.043 77.355 6.273 c 107 6.504 133.328 25.27 143.215 53.215 c 153.105 81.164
 144.438 112.312 121.535 131.137 c h
121.535 131.137 m f
0.756863 g
294.398 358.398 m 259.07 358.359 230.438 329.73 230.398 294.398 c 230.398
 290.867 233.266 288 236.801 288 c 240.336 288 243.199 290.867 243.199 294.398
 c 243.23 322.664 266.137 345.566 294.398 345.602 c 297.934 345.602 300.801
 348.465 300.801 352 c 300.801 355.535 297.934 358.398 294.398 358.398 c
 h
294.398 358.398 m f
236.801 275.199 m 233.266 275.199 230.398 272.336 230.398 268.801 c 230.398
 262.398 l 230.398 258.867 233.266 256 236.801 256 c 240.336 256 243.199
 258.867 243.199 262.398 c 243.199 268.801 l 243.199 272.336 240.336 275.199
 236.801 275.199 c h
236.801 275.199 m f
1 0.87451 0.6 rg
32 83.199 m 28.465 83.199 25.602 80.336 25.602 76.801 c 25.633 48.535 48.535
 25.633 76.801 25.602 c 80.336 25.602 83.199 28.465 83.199 32 c 83.199 35.535
 80.336 38.398 76.801 38.398 c 55.602 38.422 38.422 55.602 38.398 76.801
 c 38.398 80.336 35.535 83.199 32 83.199 c h
32 83.199 m f
0.607843 g
44.801 179.199 64 12.801 re f
0.686275 g
300.801 147.199 m 300.801 200.129 l 296.844 197.824 291.957 197.824 288
 200.129 c 288 147.199 l h
300.801 147.199 m f
Q Q
showpage
%%Trailer
end
%%EOF
