%!PS-Adobe-3.0 EPSF-3.0
%%Creator: cairo 1.16.0 (https://cairographics.org)
%%CreationDate: Fri Nov 29 10:41:42 2019
%%Pages: 1
%%DocumentData: Clean7Bit
%%LanguageLevel: 2
%%BoundingBox: 6 6 378 378
%%EndComments
%%BeginProlog
50 dict begin
/q { gsave } bind def
/Q { grestore } bind def
/cm { 6 array astore concat } bind def
/w { setlinewidth } bind def
/J { setlinecap } bind def
/j { setlinejoin } bind def
/M { setmiterlimit } bind def
/d { setdash } bind def
/m { moveto } bind def
/l { lineto } bind def
/c { curveto } bind def
/h { closepath } bind def
/re { exch dup neg 3 1 roll 5 3 roll moveto 0 rlineto
      0 exch rlineto 0 rlineto closepath } bind def
/S { stroke } bind def
/f { fill } bind def
/f* { eofill } bind def
/n { newpath } bind def
/W { clip } bind def
/W* { eoclip } bind def
/BT { } bind def
/ET { } bind def
/BDC { mark 3 1 roll /BDC pdfmark } bind def
/EMC { mark /EMC pdfmark } bind def
/cairo_store_point { /cairo_point_y exch def /cairo_point_x exch def } def
/Tj { show currentpoint cairo_store_point } bind def
/TJ {
  {
    dup
    type /stringtype eq
    { show } { -0.001 mul 0 cairo_font_matrix dtransform rmoveto } ifelse
  } forall
  currentpoint cairo_store_point
} bind def
/cairo_selectfont { cairo_font_matrix aload pop pop pop 0 0 6 array astore
    cairo_font exch selectfont cairo_point_x cairo_point_y moveto } bind def
/Tf { pop /cairo_font exch def /cairo_font_matrix where
      { pop cairo_selectfont } if } bind def
/Td { matrix translate cairo_font_matrix matrix concatmatrix dup
      /cairo_font_matrix exch def dup 4 get exch 5 get cairo_store_point
      /cairo_font where { pop cairo_selectfont } if } bind def
/Tm { 2 copy 8 2 roll 6 array astore /cairo_font_matrix exch def
      cairo_store_point /cairo_font where { pop cairo_selectfont } if } bind def
/g { setgray } bind def
/rg { setrgbcolor } bind def
/d1 { setcachedevice } bind def
/cairo_data_source {
  CairoDataIndex CairoData length lt
    { CairoData CairoDataIndex get /CairoDataIndex CairoDataIndex 1 add def }
    { () } ifelse
} def
/cairo_flush_ascii85_file { cairo_ascii85_file status { cairo_ascii85_file flushfile } if } def
/cairo_image { image cairo_flush_ascii85_file } def
/cairo_imagemask { imagemask cairo_flush_ascii85_file } def
%%EndProlog
%%BeginSetup
%%EndSetup
%%Page: 1 1
%%BeginPageSetup
%%PageBoundingBox: 6 6 378 378
%%EndPageSetup
q 6 6 372 372 rectclip
1 0 0 -1 0 384 cm q
0.686275 0.709804 0.74902 rg
115.199 294.398 153.602 38.402 re f
0.8 0.815686 0.854902 rg
312.383 352 m 311.887 351.227 311.207 350.586 310.398 350.145 c 268.801
 326.398 l 115.199 326.398 l 73.602 350.145 l 72.793 350.586 72.113 351.227
 71.617 352 c 70.832 353.082 70.41 354.379 70.398 355.711 c 70.398 371.199
 l 70.398 374.734 73.266 377.602 76.801 377.602 c 307.199 377.602 l 310.734
 377.602 313.602 374.734 313.602 371.199 c 313.602 355.711 l 313.59 354.379
 313.168 353.082 312.383 352 c h
312.383 352 m f
0.686275 0.709804 0.74902 rg
313.602 355.711 m 313.602 371.199 l 313.602 374.734 310.734 377.602 307.199
 377.602 c 76.801 377.602 l 73.266 377.602 70.398 374.734 70.398 371.199
 c 70.398 355.711 l 70.41 354.379 70.832 353.082 71.617 352 c 312.383 352
 l 313.168 353.082 313.59 354.379 313.602 355.711 c h
313.602 355.711 m f
0.8 0.815686 0.854902 rg
377.602 249.602 m 377.602 281.602 l 377.602 292.203 369.004 300.801 358.398
 300.801 c 25.602 300.801 l 14.996 300.801 6.398 292.203 6.398 281.602 c
 6.398 249.602 l 19.199 236.801 l 371.199 236.801 l h
377.602 249.602 m f
0.152941 0.435294 0.509804 rg
377.602 25.602 m 377.602 249.602 l 6.398 249.602 l 6.398 25.602 l 6.398
 14.996 14.996 6.398 25.602 6.398 c 358.398 6.398 l 369.004 6.398 377.602
 14.996 377.602 25.602 c h
377.602 25.602 m f
0.537255 0.568627 0.627451 rg
204.801 281.602 m 179.199 281.602 l 175.664 281.602 172.801 278.734 172.801
 275.199 c 172.801 271.664 175.664 268.801 179.199 268.801 c 204.801 268.801
 l 208.336 268.801 211.199 271.664 211.199 275.199 c 211.199 278.734 208.336
 281.602 204.801 281.602 c h
204.801 281.602 m f
0.941176 0.94902 0.960784 rg
70.398 38.398 m 59.797 38.398 51.199 46.996 51.199 57.602 c 51.199 70.398
 l 51.199 81.004 59.797 89.602 70.398 89.602 c 81.004 89.602 89.602 81.004
 89.602 70.398 c 89.602 57.602 l 89.602 46.996 81.004 38.398 70.398 38.398
 c h
76.801 70.398 m 76.801 73.934 73.934 76.801 70.398 76.801 c 66.867 76.801
 64 73.934 64 70.398 c 64 57.602 l 64 54.066 66.867 51.199 70.398 51.199
 c 73.934 51.199 76.801 54.066 76.801 57.602 c h
76.801 70.398 m f
121.602 76.801 m 121.602 44.801 l 121.598 42.211 120.039 39.879 117.648
 38.887 c 115.258 37.898 112.504 38.445 110.676 40.273 c 104.273 46.676 
l 102.445 48.504 101.898 51.258 102.887 53.648 c 103.879 56.039 106.211 
57.598 108.801 57.602 c 108.801 76.801 l 105.266 76.801 102.398 79.664 102.398
 83.199 c 102.398 86.734 105.266 89.602 108.801 89.602 c 121.602 89.602 
l 125.133 89.602 128 86.734 128 83.199 c 128 79.664 125.133 76.801 121.602
 76.801 c h
121.602 76.801 m f
153.602 38.398 m 142.996 38.398 134.398 46.996 134.398 57.602 c 134.398
 70.398 l 134.398 81.004 142.996 89.602 153.602 89.602 c 164.203 89.602 
172.801 81.004 172.801 70.398 c 172.801 57.602 l 172.801 46.996 164.203 
38.398 153.602 38.398 c h
160 70.398 m 160 73.934 157.133 76.801 153.602 76.801 c 150.066 76.801 
147.199 73.934 147.199 70.398 c 147.199 57.602 l 147.199 54.066 150.066 
51.199 153.602 51.199 c 157.133 51.199 160 54.066 160 57.602 c h
160 70.398 m f
313.602 38.398 m 302.996 38.398 294.398 46.996 294.398 57.602 c 294.398
 70.398 l 294.398 81.004 302.996 89.602 313.602 89.602 c 324.203 89.602 
332.801 81.004 332.801 70.398 c 332.801 57.602 l 332.801 46.996 324.203 
38.398 313.602 38.398 c h
320 70.398 m 320 73.934 317.133 76.801 313.602 76.801 c 310.066 76.801 
307.199 73.934 307.199 70.398 c 307.199 57.602 l 307.199 54.066 310.066 
51.199 313.602 51.199 c 317.133 51.199 320 54.066 320 57.602 c h
320 70.398 m f
204.801 76.801 m 204.801 44.801 l 204.801 42.211 203.238 39.879 200.848
 38.887 c 198.457 37.898 195.707 38.445 193.875 40.273 c 187.477 46.676 
l 185.645 48.504 185.098 51.258 186.09 53.648 c 187.078 56.039 189.41 57.598
 192 57.602 c 192 76.801 l 188.465 76.801 185.602 79.664 185.602 83.199 
c 185.602 86.734 188.465 89.602 192 89.602 c 204.801 89.602 l 208.336 89.602
 211.199 86.734 211.199 83.199 c 211.199 79.664 208.336 76.801 204.801 76.801
 c h
204.801 76.801 m f
243.199 76.801 m 243.199 44.801 l 243.199 42.211 241.641 39.879 239.25 
38.887 c 236.859 37.898 234.105 38.445 232.273 40.273 c 225.875 46.676 l
 224.047 48.504 223.5 51.258 224.488 53.648 c 225.48 56.039 227.812 57.598
 230.398 57.602 c 230.398 76.801 l 226.867 76.801 224 79.664 224 83.199 
c 224 86.734 226.867 89.602 230.398 89.602 c 243.199 89.602 l 246.734 89.602
 249.602 86.734 249.602 83.199 c 249.602 79.664 246.734 76.801 243.199 76.801
 c h
243.199 76.801 m f
281.602 76.801 m 281.602 44.801 l 281.598 42.211 280.039 39.879 277.648
 38.887 c 275.258 37.898 272.504 38.445 270.676 40.273 c 264.273 46.676 
l 262.445 48.504 261.898 51.258 262.887 53.648 c 263.879 56.039 266.211 
57.598 268.801 57.602 c 268.801 76.801 l 265.266 76.801 262.398 79.664 262.398
 83.199 c 262.398 86.734 265.266 89.602 268.801 89.602 c 281.602 89.602 
l 285.133 89.602 288 86.734 288 83.199 c 288 79.664 285.133 76.801 281.602
 76.801 c h
281.602 76.801 m f
0.117647 0.313726 0.356863 rg
345.602 115.199 m 38.398 115.199 l 34.867 115.199 32 112.336 32 108.801
 c 32 105.266 34.867 102.398 38.398 102.398 c 345.602 102.398 l 349.133 
102.398 352 105.266 352 108.801 c 352 112.336 349.133 115.199 345.602 115.199
 c h
345.602 115.199 m f
0.941176 0.94902 0.960784 rg
83.199 147.199 m 76.801 147.199 l 73.266 147.199 70.398 144.336 70.398 
140.801 c 70.398 137.266 73.266 134.398 76.801 134.398 c 83.199 134.398 
l 86.734 134.398 89.602 137.266 89.602 140.801 c 89.602 144.336 86.734 147.199
 83.199 147.199 c h
83.199 147.199 m f
83.199 172.801 m 76.801 172.801 l 73.266 172.801 70.398 169.934 70.398 
166.398 c 70.398 162.867 73.266 160 76.801 160 c 83.199 160 l 86.734 160
 89.602 162.867 89.602 166.398 c 89.602 169.934 86.734 172.801 83.199 172.801
 c h
83.199 172.801 m f
83.199 198.398 m 76.801 198.398 l 73.266 198.398 70.398 195.535 70.398 
192 c 70.398 188.465 73.266 185.602 76.801 185.602 c 83.199 185.602 l 86.734
 185.602 89.602 188.465 89.602 192 c 89.602 195.535 86.734 198.398 83.199
 198.398 c h
83.199 198.398 m f
83.199 224 m 76.801 224 l 73.266 224 70.398 221.133 70.398 217.602 c 70.398
 214.066 73.266 211.199 76.801 211.199 c 83.199 211.199 l 86.734 211.199
 89.602 214.066 89.602 217.602 c 89.602 221.133 86.734 224 83.199 224 c 
h
83.199 224 m f
0.25098 0.8 0.945098 rg
140.801 224 m 134.398 224 l 130.867 224 128 221.133 128 217.602 c 128 214.066
 130.867 211.199 134.398 211.199 c 140.801 211.199 l 144.336 211.199 147.199
 214.066 147.199 217.602 c 147.199 221.133 144.336 224 140.801 224 c h
140.801 224 m f
0.619608 0.509804 0.92549 rg
211.199 224 m 166.398 224 l 162.867 224 160 221.133 160 217.602 c 160 214.066
 162.867 211.199 166.398 211.199 c 211.199 211.199 l 214.734 211.199 217.602
 214.066 217.602 217.602 c 217.602 221.133 214.734 224 211.199 224 c h
211.199 224 m f
0.988235 0.796078 0.333333 rg
307.199 224 m 236.801 224 l 233.266 224 230.398 221.133 230.398 217.602
 c 230.398 214.066 233.266 211.199 236.801 211.199 c 307.199 211.199 l 310.734
 211.199 313.602 214.066 313.602 217.602 c 313.602 221.133 310.734 224 307.199
 224 c h
307.199 224 m f
0.619608 0.509804 0.92549 rg
307.199 172.801 m 172.801 172.801 l 169.266 172.801 166.398 169.934 166.398
 166.398 c 166.398 162.867 169.266 160 172.801 160 c 307.199 160 l 310.734
 160 313.602 162.867 313.602 166.398 c 313.602 169.934 310.734 172.801 307.199
 172.801 c h
307.199 172.801 m f
0.25098 0.8 0.945098 rg
147.199 172.801 m 134.398 172.801 l 130.867 172.801 128 169.934 128 166.398
 c 128 162.867 130.867 160 134.398 160 c 147.199 160 l 150.734 160 153.602
 162.867 153.602 166.398 c 153.602 169.934 150.734 172.801 147.199 172.801
 c h
147.199 172.801 m f
160 198.398 m 134.398 198.398 l 130.867 198.398 128 195.535 128 192 c 128
 188.465 130.867 185.602 134.398 185.602 c 160 185.602 l 163.535 185.602
 166.398 188.465 166.398 192 c 166.398 195.535 163.535 198.398 160 198.398
 c h
160 198.398 m f
0.619608 0.509804 0.92549 rg
211.199 198.398 m 185.602 198.398 l 182.066 198.398 179.199 195.535 179.199
 192 c 179.199 188.465 182.066 185.602 185.602 185.602 c 211.199 185.602
 l 214.734 185.602 217.602 188.465 217.602 192 c 217.602 195.535 214.734
 198.398 211.199 198.398 c h
211.199 198.398 m f
0.25098 0.8 0.945098 rg
160 147.199 m 134.398 147.199 l 130.867 147.199 128 144.336 128 140.801
 c 128 137.266 130.867 134.398 134.398 134.398 c 160 134.398 l 163.535 134.398
 166.398 137.266 166.398 140.801 c 166.398 144.336 163.535 147.199 160 147.199
 c h
160 147.199 m f
0.619608 0.509804 0.92549 rg
249.602 147.199 m 185.602 147.199 l 182.066 147.199 179.199 144.336 179.199
 140.801 c 179.199 137.266 182.066 134.398 185.602 134.398 c 249.602 134.398
 l 253.133 134.398 256 137.266 256 140.801 c 256 144.336 253.133 147.199
 249.602 147.199 c h
249.602 147.199 m f
0.988235 0.796078 0.333333 rg
262.398 198.398 m 236.801 198.398 l 233.266 198.398 230.398 195.535 230.398
 192 c 230.398 188.465 233.266 185.602 236.801 185.602 c 262.398 185.602
 l 265.934 185.602 268.801 188.465 268.801 192 c 268.801 195.535 265.934
 198.398 262.398 198.398 c h
262.398 198.398 m f
0.117647 0.313726 0.356863 rg
102.398 249.602 m 102.398 108.801 l 102.398 105.266 105.266 102.398 108.801
 102.398 c 112.336 102.398 115.199 105.266 115.199 108.801 c 115.199 249.602
 l h
102.398 249.602 m f
Q Q
showpage
%%Trailer
end
%%EOF
