%!PS-Adobe-3.0 EPSF-3.0
%%Creator: cairo 1.16.0 (https://cairographics.org)
%%CreationDate: Fri Nov 29 10:41:42 2019
%%Pages: 1
%%DocumentData: Clean7Bit
%%LanguageLevel: 2
%%BoundingBox: 6 6 378 378
%%EndComments
%%BeginProlog
50 dict begin
/q { gsave } bind def
/Q { grestore } bind def
/cm { 6 array astore concat } bind def
/w { setlinewidth } bind def
/J { setlinecap } bind def
/j { setlinejoin } bind def
/M { setmiterlimit } bind def
/d { setdash } bind def
/m { moveto } bind def
/l { lineto } bind def
/c { curveto } bind def
/h { closepath } bind def
/re { exch dup neg 3 1 roll 5 3 roll moveto 0 rlineto
      0 exch rlineto 0 rlineto closepath } bind def
/S { stroke } bind def
/f { fill } bind def
/f* { eofill } bind def
/n { newpath } bind def
/W { clip } bind def
/W* { eoclip } bind def
/BT { } bind def
/ET { } bind def
/BDC { mark 3 1 roll /BDC pdfmark } bind def
/EMC { mark /EMC pdfmark } bind def
/cairo_store_point { /cairo_point_y exch def /cairo_point_x exch def } def
/Tj { show currentpoint cairo_store_point } bind def
/TJ {
  {
    dup
    type /stringtype eq
    { show } { -0.001 mul 0 cairo_font_matrix dtransform rmoveto } ifelse
  } forall
  currentpoint cairo_store_point
} bind def
/cairo_selectfont { cairo_font_matrix aload pop pop pop 0 0 6 array astore
    cairo_font exch selectfont cairo_point_x cairo_point_y moveto } bind def
/Tf { pop /cairo_font exch def /cairo_font_matrix where
      { pop cairo_selectfont } if } bind def
/Td { matrix translate cairo_font_matrix matrix concatmatrix dup
      /cairo_font_matrix exch def dup 4 get exch 5 get cairo_store_point
      /cairo_font where { pop cairo_selectfont } if } bind def
/Tm { 2 copy 8 2 roll 6 array astore /cairo_font_matrix exch def
      cairo_store_point /cairo_font where { pop cairo_selectfont } if } bind def
/g { setgray } bind def
/rg { setrgbcolor } bind def
/d1 { setcachedevice } bind def
/cairo_data_source {
  CairoDataIndex CairoData length lt
    { CairoData CairoDataIndex get /CairoDataIndex CairoDataIndex 1 add def }
    { () } ifelse
} def
/cairo_flush_ascii85_file { cairo_ascii85_file status { cairo_ascii85_file flushfile } if } def
/cairo_image { image cairo_flush_ascii85_file } def
/cairo_imagemask { imagemask cairo_flush_ascii85_file } def
%%EndProlog
%%BeginSetup
%%EndSetup
%%Page: 1 1
%%BeginPageSetup
%%PageBoundingBox: 6 6 378 378
%%EndPageSetup
q 6 6 372 372 rectclip
1 0 0 -1 0 384 cm q
0.839216 0.858824 0.890196 rg
377.602 57.602 m 377.602 358.398 l 377.602 369.004 369.004 377.602 358.398
 377.602 c 25.602 377.602 l 14.996 377.602 6.398 369.004 6.398 358.398 c
 6.398 57.602 l 12.801 51.199 l 371.199 51.199 l h
377.602 57.602 m f
0.152941 0.435294 0.509804 rg
377.602 25.602 m 377.602 57.602 l 6.398 57.602 l 6.398 25.602 l 6.398 14.996
 14.996 6.398 25.602 6.398 c 358.398 6.398 l 369.004 6.398 377.602 14.996
 377.602 25.602 c h
377.602 25.602 m f
0.192157 0.717647 0.568627 rg
44.801 96 m 70.398 96 l 73.945 96 76.801 98.855 76.801 102.398 c 76.801
 128 l 76.801 131.547 73.945 134.398 70.398 134.398 c 44.801 134.398 l 41.254
 134.398 38.398 131.547 38.398 128 c 38.398 102.398 l 38.398 98.855 41.254
 96 44.801 96 c h
44.801 96 m f
0.686275 0.709804 0.74902 rg
108.801 96 m 262.398 96 l 265.945 96 268.801 98.855 268.801 102.398 c 268.801
 128 l 268.801 131.547 265.945 134.398 262.398 134.398 c 108.801 134.398
 l 105.254 134.398 102.398 131.547 102.398 128 c 102.398 102.398 l 102.398
 98.855 105.254 96 108.801 96 c h
108.801 96 m f
0.152941 0.435294 0.509804 rg
64 166.398 m 89.602 166.398 l 93.145 166.398 96 169.254 96 172.801 c 96
 198.398 l 96 201.945 93.145 204.801 89.602 204.801 c 64 204.801 l 60.453
 204.801 57.602 201.945 57.602 198.398 c 57.602 172.801 l 57.602 169.254
 60.453 166.398 64 166.398 c h
64 166.398 m f
0.686275 0.709804 0.74902 rg
128 166.398 m 281.602 166.398 l 285.145 166.398 288 169.254 288 172.801
 c 288 198.398 l 288 201.945 285.145 204.801 281.602 204.801 c 128 204.801
 l 124.453 204.801 121.602 201.945 121.602 198.398 c 121.602 172.801 l 121.602
 169.254 124.453 166.398 128 166.398 c h
128 166.398 m f
0.960784 0.670588 0.00392157 rg
83.199 236.801 m 108.801 236.801 l 112.344 236.801 115.199 239.656 115.199
 243.199 c 115.199 268.801 l 115.199 272.344 112.344 275.199 108.801 275.199
 c 83.199 275.199 l 79.656 275.199 76.801 272.344 76.801 268.801 c 76.801
 243.199 l 76.801 239.656 79.656 236.801 83.199 236.801 c h
83.199 236.801 m f
0.686275 0.709804 0.74902 rg
147.199 236.801 m 300.801 236.801 l 304.344 236.801 307.199 239.656 307.199
 243.199 c 307.199 268.801 l 307.199 272.344 304.344 275.199 300.801 275.199
 c 147.199 275.199 l 143.656 275.199 140.801 272.344 140.801 268.801 c 140.801
 243.199 l 140.801 239.656 143.656 236.801 147.199 236.801 c h
147.199 236.801 m f
0.92549 0.227451 0.282353 rg
102.398 307.199 m 128 307.199 l 131.547 307.199 134.398 310.055 134.398
 313.602 c 134.398 339.199 l 134.398 342.746 131.547 345.602 128 345.602
 c 102.398 345.602 l 98.855 345.602 96 342.746 96 339.199 c 96 313.602 l
 96 310.055 98.855 307.199 102.398 307.199 c h
102.398 307.199 m f
0.686275 0.709804 0.74902 rg
166.398 307.199 m 320 307.199 l 323.547 307.199 326.398 310.055 326.398
 313.602 c 326.398 339.199 l 326.398 342.746 323.547 345.602 320 345.602
 c 166.398 345.602 l 162.855 345.602 160 342.746 160 339.199 c 160 313.602
 l 160 310.055 162.855 307.199 166.398 307.199 c h
166.398 307.199 m f
0.972549 0.32549 0.423529 rg
38.398 38.398 m 32 38.398 l 28.465 38.398 25.602 35.535 25.602 32 c 25.602
 28.465 28.465 25.602 32 25.602 c 38.398 25.602 l 41.934 25.602 44.801 28.465
 44.801 32 c 44.801 35.535 41.934 38.398 38.398 38.398 c h
38.398 38.398 m f
0.988235 0.796078 0.333333 rg
70.398 38.398 m 64 38.398 l 60.465 38.398 57.602 35.535 57.602 32 c 57.602
 28.465 60.465 25.602 64 25.602 c 70.398 25.602 l 73.934 25.602 76.801 28.465
 76.801 32 c 76.801 35.535 73.934 38.398 70.398 38.398 c h
70.398 38.398 m f
0.662745 0.862745 0.384314 rg
102.398 38.398 m 96 38.398 l 92.465 38.398 89.602 35.535 89.602 32 c 89.602
 28.465 92.465 25.602 96 25.602 c 102.398 25.602 l 105.934 25.602 108.801
 28.465 108.801 32 c 108.801 35.535 105.934 38.398 102.398 38.398 c h
102.398 38.398 m f
0.117647 0.313726 0.356863 rg
352 38.398 m 300.801 38.398 l 297.266 38.398 294.398 35.535 294.398 32 
c 294.398 28.465 297.266 25.602 300.801 25.602 c 352 25.602 l 355.535 25.602
 358.398 28.465 358.398 32 c 358.398 35.535 355.535 38.398 352 38.398 c 
h
352 38.398 m f
0.537255 0.568627 0.627451 rg
268.801 121.602 m 294.398 121.602 l 294.398 128 l 291.812 128 289.48 129.559
 288.488 131.949 c 287.5 134.344 288.047 137.094 289.875 138.926 c 296.273
 145.324 l 298.773 147.824 302.824 147.824 305.324 145.324 c 311.727 138.926
 l 313.555 137.094 314.102 134.344 313.113 131.949 c 312.121 129.559 309.789
 128 307.199 128 c 307.199 121.602 l 307.199 114.531 301.469 108.801 294.398
 108.801 c 268.801 108.801 l h
268.801 121.602 m f
307.199 262.398 m 332.801 262.398 l 332.801 268.801 l 330.211 268.801 327.879
 270.359 326.887 272.75 c 325.898 275.141 326.445 277.895 328.273 279.727
 c 334.676 286.125 l 337.176 288.625 341.227 288.625 343.727 286.125 c 350.125
 279.727 l 351.953 277.895 352.5 275.141 351.512 272.75 c 350.52 270.359
 348.188 268.801 345.602 268.801 c 345.602 262.398 l 345.602 255.332 339.871
 249.602 332.801 249.602 c 307.199 249.602 l h
307.199 262.398 m f
288 192 m 313.602 192 l 313.602 198.398 l 311.012 198.402 308.68 199.961
 307.688 202.352 c 306.699 204.742 307.246 207.496 309.074 209.324 c 315.477
 215.727 l 317.973 218.223 322.027 218.223 324.523 215.727 c 330.926 209.324
 l 332.754 207.496 333.301 204.742 332.312 202.352 c 331.32 199.961 328.988
 198.402 326.398 198.398 c 326.398 192 l 326.398 184.93 320.668 179.199 
313.602 179.199 c 288 179.199 l h
288 192 m f
Q Q
showpage
%%Trailer
end
%%EOF
