%!PS-Adobe-3.0 EPSF-3.0
%%Creator: cairo 1.16.0 (https://cairographics.org)
%%CreationDate: Fri Nov 29 10:41:43 2019
%%Pages: 1
%%DocumentData: Clean7Bit
%%LanguageLevel: 2
%%BoundingBox: 32 6 353 384
%%EndComments
%%BeginProlog
50 dict begin
/q { gsave } bind def
/Q { grestore } bind def
/cm { 6 array astore concat } bind def
/w { setlinewidth } bind def
/J { setlinecap } bind def
/j { setlinejoin } bind def
/M { setmiterlimit } bind def
/d { setdash } bind def
/m { moveto } bind def
/l { lineto } bind def
/c { curveto } bind def
/h { closepath } bind def
/re { exch dup neg 3 1 roll 5 3 roll moveto 0 rlineto
      0 exch rlineto 0 rlineto closepath } bind def
/S { stroke } bind def
/f { fill } bind def
/f* { eofill } bind def
/n { newpath } bind def
/W { clip } bind def
/W* { eoclip } bind def
/BT { } bind def
/ET { } bind def
/BDC { mark 3 1 roll /BDC pdfmark } bind def
/EMC { mark /EMC pdfmark } bind def
/cairo_store_point { /cairo_point_y exch def /cairo_point_x exch def } def
/Tj { show currentpoint cairo_store_point } bind def
/TJ {
  {
    dup
    type /stringtype eq
    { show } { -0.001 mul 0 cairo_font_matrix dtransform rmoveto } ifelse
  } forall
  currentpoint cairo_store_point
} bind def
/cairo_selectfont { cairo_font_matrix aload pop pop pop 0 0 6 array astore
    cairo_font exch selectfont cairo_point_x cairo_point_y moveto } bind def
/Tf { pop /cairo_font exch def /cairo_font_matrix where
      { pop cairo_selectfont } if } bind def
/Td { matrix translate cairo_font_matrix matrix concatmatrix dup
      /cairo_font_matrix exch def dup 4 get exch 5 get cairo_store_point
      /cairo_font where { pop cairo_selectfont } if } bind def
/Tm { 2 copy 8 2 roll 6 array astore /cairo_font_matrix exch def
      cairo_store_point /cairo_font where { pop cairo_selectfont } if } bind def
/g { setgray } bind def
/rg { setrgbcolor } bind def
/d1 { setcachedevice } bind def
/cairo_data_source {
  CairoDataIndex CairoData length lt
    { CairoData CairoDataIndex get /CairoDataIndex CairoDataIndex 1 add def }
    { () } ifelse
} def
/cairo_flush_ascii85_file { cairo_ascii85_file status { cairo_ascii85_file flushfile } if } def
/cairo_image { image cairo_flush_ascii85_file } def
/cairo_imagemask { imagemask cairo_flush_ascii85_file } def
%%EndProlog
%%BeginSetup
%%EndSetup
%%Page: 1 1
%%BeginPageSetup
%%PageBoundingBox: 32 6 353 384
%%EndPageSetup
q 32 6 321 378 rectclip
1 0 0 -1 0 384 cm q
0.407843 g
192 256 m 188.465 256 185.602 253.133 185.602 249.602 c 185.602 211.199
 l 185.602 207.664 188.465 204.801 192 204.801 c 195.535 204.801 198.398
 207.664 198.398 211.199 c 198.398 249.602 l 198.398 253.133 195.535 256
 192 256 c h
192 256 m f
0.117647 0.313726 0.356863 rg
115.199 294.398 153.602 38.402 re f
0.858824 g
280.613 47.359 m 280.414 47.359 280.223 47.359 280.027 47.359 c 278.012
 37.863 271.465 29.957 262.508 26.211 c 253.547 22.469 243.32 23.359 235.148
 28.602 c 218.465 9.531 192.23 1.879 167.91 8.988 c 143.59 16.094 125.609
 36.676 121.824 61.727 c 115.836 59.969 109.629 59.07 103.387 59.066 c 83.387
 59.129 64.551 68.488 52.422 84.387 c 40.289 100.285 36.238 120.922 41.457
 140.23 c 46.676 159.535 60.574 175.32 79.066 182.938 c 97.555 190.559 118.539
 189.152 135.848 179.129 c 148.508 200.613 172.324 212.988 197.184 210.996
 c 222.043 209.004 243.582 192.996 252.66 169.766 c 270.355 178.457 291.055
 178.574 308.852 170.09 c 326.648 161.605 339.586 145.445 343.977 126.227
 c 348.367 107.004 343.723 86.832 331.375 71.465 c 319.027 56.094 300.328
 47.215 280.613 47.359 c h
280.613 47.359 m f
0.152941 0.435294 0.509804 rg
108.801 249.602 m 275.199 249.602 l 282.293 249.602 288 255.309 288 262.398
 c 288 288 l 288 295.09 282.293 300.801 275.199 300.801 c 108.801 300.801
 l 101.707 300.801 96 295.09 96 288 c 96 262.398 l 96 255.309 101.707 249.602
 108.801 249.602 c h
108.801 249.602 m f
108.801 326.398 m 275.199 326.398 l 282.293 326.398 288 332.109 288 339.199
 c 288 364.801 l 288 371.891 282.293 377.602 275.199 377.602 c 108.801 377.602
 l 101.707 377.602 96 371.891 96 364.801 c 96 339.199 l 96 332.109 101.707
 326.398 108.801 326.398 c h
108.801 326.398 m f
0.788235 g
284.875 41.09 m 281.434 31.742 274.27 24.246 265.09 20.379 c 255.91 16.512
 245.543 16.621 236.449 20.684 c 218.211 2.637 191.699 -4.258 166.98 2.621
 c 142.258 9.496 123.117 29.09 116.82 53.965 c 97.16 50.008 76.746 54.566
 60.645 66.516 c 44.539 78.465 34.254 96.676 32.34 116.637 c 30.43 136.598
 37.066 156.434 50.609 171.223 c 64.152 186.012 83.328 194.367 103.379 194.215
 c 113.832 194.203 124.156 191.91 133.633 187.5 c 148.184 207.992 172.418
 219.352 197.477 217.426 c 222.539 215.496 244.75 200.57 256 178.094 c 275.359
 185.449 296.965 183.965 315.137 174.039 c 333.312 164.109 346.234 146.73
 350.504 126.465 c 354.773 106.203 349.969 85.086 337.348 68.668 c 324.727
 52.25 305.559 42.172 284.875 41.09 c h
280.613 169.727 m 273.758 169.715 266.957 168.492 260.523 166.113 c 261.781
 161.945 262.648 157.676 263.117 153.352 c 263.285 151.656 262.77 149.969
 261.691 148.652 c 260.609 147.34 259.051 146.512 257.355 146.348 c 253.852
 146.066 250.754 148.613 250.355 152.109 c 249.852 157.375 248.617 162.543
 246.695 167.469 c 246.695 167.508 l 238.926 187.41 220.949 201.52 199.77
 204.336 c 178.59 207.152 157.551 198.23 144.852 181.051 c 149.93 177.5 
154.508 173.285 158.469 168.52 c 160.668 165.793 160.27 161.809 157.578 
159.574 c 154.883 157.34 150.895 157.684 148.621 160.344 c 144.176 165.676
 138.801 170.16 132.762 173.582 c 132.664 173.621 l 123.754 178.734 113.66
 181.43 103.387 181.441 c 87.863 181.672 72.898 175.664 61.84 164.77 c 50.781
 153.875 44.555 139 44.555 123.477 c 44.555 107.949 50.781 93.074 61.84 
82.18 c 72.898 71.285 87.863 65.281 103.387 65.512 c 109.02 65.516 114.621
 66.328 120.027 67.918 c 120.113 67.918 l 125.516 69.43 130.652 71.762 135.34
 74.836 c 138.301 76.77 142.27 75.938 144.203 72.977 c 146.137 70.016 145.301
 66.047 142.344 64.113 c 138.203 61.418 133.777 59.184 129.152 57.445 c 
134.105 37.352 149.277 21.355 169.078 15.34 c 188.879 9.324 210.383 14.184
 225.676 28.129 c 220.742 33.027 217.332 39.25 215.867 46.047 c 215.141 
49.504 217.348 52.895 220.801 53.625 c 221.234 53.719 221.68 53.762 222.125
 53.762 c 225.148 53.758 227.762 51.641 228.383 48.68 c 229.672 42.645 233.324
 37.379 238.527 34.062 c 238.586 34.062 l 244.973 29.949 252.969 29.23 259.988
 32.141 c 267.004 35.047 272.148 41.215 273.754 48.641 c 273.754 48.684 
l 273.754 48.684 273.754 48.742 273.754 48.77 c 274.062 50.219 274.207 51.699
 274.195 53.184 c 274.207 58.133 272.586 62.945 269.586 66.879 c 268.512
 68.23 268.031 69.953 268.246 71.664 c 268.461 73.375 269.355 74.926 270.73
 75.969 c 272.105 77.008 273.844 77.449 275.547 77.195 c 277.254 76.938 
278.781 76.004 279.789 74.605 c 284.27 68.688 286.766 61.508 286.918 54.086
 c 317.789 57.121 340.793 83.934 339.098 114.906 c 337.402 145.879 311.613
 170.023 280.594 169.672 c h
280.613 169.727 m f
0.247059 0.854902 0.694118 rg
128 281.602 m 121.602 281.602 l 118.066 281.602 115.199 278.734 115.199
 275.199 c 115.199 271.664 118.066 268.801 121.602 268.801 c 128 268.801
 l 131.535 268.801 134.398 271.664 134.398 275.199 c 134.398 278.734 131.535
 281.602 128 281.602 c h
128 281.602 m f
0.972549 0.32549 0.423529 rg
160 281.602 m 153.602 281.602 l 150.066 281.602 147.199 278.734 147.199
 275.199 c 147.199 271.664 150.066 268.801 153.602 268.801 c 160 268.801
 l 163.535 268.801 166.398 271.664 166.398 275.199 c 166.398 278.734 163.535
 281.602 160 281.602 c h
160 281.602 m f
0.117647 0.313726 0.356863 rg
262.398 281.602 m 211.199 281.602 l 207.664 281.602 204.801 278.734 204.801
 275.199 c 204.801 271.664 207.664 268.801 211.199 268.801 c 262.398 268.801
 l 265.934 268.801 268.801 271.664 268.801 275.199 c 268.801 278.734 265.934
 281.602 262.398 281.602 c h
262.398 281.602 m f
0.247059 0.854902 0.694118 rg
128 358.398 m 121.602 358.398 l 118.066 358.398 115.199 355.535 115.199
 352 c 115.199 348.465 118.066 345.602 121.602 345.602 c 128 345.602 l 131.535
 345.602 134.398 348.465 134.398 352 c 134.398 355.535 131.535 358.398 128
 358.398 c h
128 358.398 m f
0.972549 0.32549 0.423529 rg
160 358.398 m 153.602 358.398 l 150.066 358.398 147.199 355.535 147.199
 352 c 147.199 348.465 150.066 345.602 153.602 345.602 c 160 345.602 l 163.535
 345.602 166.398 348.465 166.398 352 c 166.398 355.535 163.535 358.398 160
 358.398 c h
160 358.398 m f
0.117647 0.313726 0.356863 rg
262.398 358.398 m 211.199 358.398 l 207.664 358.398 204.801 355.535 204.801
 352 c 204.801 348.465 207.664 345.602 211.199 345.602 c 262.398 345.602
 l 265.934 345.602 268.801 348.465 268.801 352 c 268.801 355.535 265.934
 358.398 262.398 358.398 c h
262.398 358.398 m f
Q Q
showpage
%%Trailer
end
%%EOF
