%!PS-Adobe-3.0 EPSF-3.0
%%Creator: cairo 1.16.0 (https://cairographics.org)
%%CreationDate: Fri Nov 29 10:41:44 2019
%%Pages: 1
%%DocumentData: Clean7Bit
%%LanguageLevel: 2
%%BoundingBox: 6 6 378 378
%%EndComments
%%BeginProlog
50 dict begin
/q { gsave } bind def
/Q { grestore } bind def
/cm { 6 array astore concat } bind def
/w { setlinewidth } bind def
/J { setlinecap } bind def
/j { setlinejoin } bind def
/M { setmiterlimit } bind def
/d { setdash } bind def
/m { moveto } bind def
/l { lineto } bind def
/c { curveto } bind def
/h { closepath } bind def
/re { exch dup neg 3 1 roll 5 3 roll moveto 0 rlineto
      0 exch rlineto 0 rlineto closepath } bind def
/S { stroke } bind def
/f { fill } bind def
/f* { eofill } bind def
/n { newpath } bind def
/W { clip } bind def
/W* { eoclip } bind def
/BT { } bind def
/ET { } bind def
/BDC { mark 3 1 roll /BDC pdfmark } bind def
/EMC { mark /EMC pdfmark } bind def
/cairo_store_point { /cairo_point_y exch def /cairo_point_x exch def } def
/Tj { show currentpoint cairo_store_point } bind def
/TJ {
  {
    dup
    type /stringtype eq
    { show } { -0.001 mul 0 cairo_font_matrix dtransform rmoveto } ifelse
  } forall
  currentpoint cairo_store_point
} bind def
/cairo_selectfont { cairo_font_matrix aload pop pop pop 0 0 6 array astore
    cairo_font exch selectfont cairo_point_x cairo_point_y moveto } bind def
/Tf { pop /cairo_font exch def /cairo_font_matrix where
      { pop cairo_selectfont } if } bind def
/Td { matrix translate cairo_font_matrix matrix concatmatrix dup
      /cairo_font_matrix exch def dup 4 get exch 5 get cairo_store_point
      /cairo_font where { pop cairo_selectfont } if } bind def
/Tm { 2 copy 8 2 roll 6 array astore /cairo_font_matrix exch def
      cairo_store_point /cairo_font where { pop cairo_selectfont } if } bind def
/g { setgray } bind def
/rg { setrgbcolor } bind def
/d1 { setcachedevice } bind def
/cairo_data_source {
  CairoDataIndex CairoData length lt
    { CairoData CairoDataIndex get /CairoDataIndex CairoDataIndex 1 add def }
    { () } ifelse
} def
/cairo_flush_ascii85_file { cairo_ascii85_file status { cairo_ascii85_file flushfile } if } def
/cairo_image { image cairo_flush_ascii85_file } def
/cairo_imagemask { imagemask cairo_flush_ascii85_file } def
%%EndProlog
%%BeginSetup
%%EndSetup
%%Page: 1 1
%%BeginPageSetup
%%PageBoundingBox: 6 6 378 378
%%EndPageSetup
q 6 6 372 372 rectclip
1 0 0 -1 0 384 cm q
0.639216 0.666667 0.717647 rg
32 307.199 m 35.328 323.777 l 37.125 332.742 45 339.195 54.145 339.199 
c 320 339.199 l 320 300.801 l 32 300.801 l h
32 307.199 m f
0.0941176 0.258824 0.286275 rg
25.602 268.801 m 25.602 19.199 l 25.621 12.141 31.34 6.422 38.398 6.398
 c 346.559 6.398 l 353.355 6.688 358.641 12.406 358.398 19.199 c 358.398
 268.801 l h
25.602 268.801 m f
0.152941 0.435294 0.509804 rg
57.602 32 m 326.398 32 l 329.945 32 332.801 34.855 332.801 38.398 c 332.801
 224 l 332.801 227.547 329.945 230.398 326.398 230.398 c 57.602 230.398 
l 54.055 230.398 51.199 227.547 51.199 224 c 51.199 38.398 l 51.199 34.855
 54.055 32 57.602 32 c h
57.602 32 m f
0.72549 0.74902 0.8 rg
19.199 256 m 364.801 256 l 371.891 256 377.602 261.707 377.602 268.801 
c 377.602 294.398 l 377.602 301.492 371.891 307.199 364.801 307.199 c 19.199
 307.199 l 12.109 307.199 6.398 301.492 6.398 294.398 c 6.398 268.801 l 
6.398 261.707 12.109 256 19.199 256 c h
19.199 256 m f
0.168627 0.713726 0.909804 rg
307.199 166.398 m 307.199 226.488 258.488 275.199 198.398 275.199 c 138.312
 275.199 89.602 226.488 89.602 166.398 c 89.602 106.312 138.312 57.602 198.398
 57.602 c 258.488 57.602 307.199 106.312 307.199 166.398 c h
307.199 166.398 m f
0.54902 0.34902 0.235294 rg
282.047 235.902 m 373.176 346.113 l 376.43 350.031 377.988 355.086 377.516
 360.156 c 377.039 365.227 374.57 369.902 370.648 373.152 c 366.73 376.402
 361.676 377.961 356.605 377.488 c 351.535 377.016 346.859 374.547 343.609
 370.625 c 252.672 260.672 l h
282.047 235.902 m f
0.298039 g
217.602 121.602 m 217.602 140.801 l 179.199 140.801 l 179.199 121.602 l
 179.188 113.691 184.047 106.594 191.426 103.742 c 195.902 101.953 200.898
 101.953 205.375 103.742 c 207.848 104.695 210.094 106.156 211.969 108.031
 c 213.188 109.254 214.242 110.633 215.105 112.129 c 216.758 115.012 217.617
 118.277 217.602 121.602 c h
217.602 121.602 m f
230.398 160 m 230.398 192 l 230.414 194.129 230.199 196.254 229.762 198.336
 c 226.73 213.25 213.617 223.969 198.398 223.969 c 183.18 223.969 170.07
 213.25 167.039 198.336 c 166.598 196.254 166.383 194.129 166.398 192 c 
166.398 160 l 198.398 153.602 l h
230.398 160 m f
0.356863 g
230.398 147.199 m 230.398 160 l 166.398 160 l 166.398 147.199 l 166.422
 140.141 172.141 134.422 179.199 134.398 c 217.602 134.398 l 224.66 134.422
 230.379 140.141 230.398 147.199 c h
230.398 147.199 m f
0.145098 0.639216 0.854902 rg
38.398 288 m 32 288 l 28.465 288 25.602 285.133 25.602 281.602 c 25.602
 278.066 28.465 275.199 32 275.199 c 38.398 275.199 l 41.934 275.199 44.801
 278.066 44.801 281.602 c 44.801 285.133 41.934 288 38.398 288 c h
38.398 288 m f
70.398 288 m 64 288 l 60.465 288 57.602 285.133 57.602 281.602 c 57.602
 278.066 60.465 275.199 64 275.199 c 70.398 275.199 l 73.934 275.199 76.801
 278.066 76.801 281.602 c 76.801 285.133 73.934 288 70.398 288 c h
70.398 288 m f
0.219608 g
230.398 147.199 m 230.379 140.141 224.66 134.422 217.602 134.398 c 243.199
 134.398 l 246.734 134.398 249.602 131.535 249.602 128 c 249.602 108.801
 l 249.602 105.266 252.465 102.398 256 102.398 c 259.535 102.398 262.398
 105.266 262.398 108.801 c 262.398 128 l 262.367 138.59 253.789 147.168 
243.199 147.199 c h
230.398 147.199 m f
268.801 166.398 m 268.801 169.934 265.934 172.801 262.398 172.801 c 230.398
 172.801 l 230.398 160 l 262.398 160 l 265.934 160 268.801 162.867 268.801
 166.398 c h
268.801 166.398 m f
262.398 204.801 m 262.398 224 l 262.398 227.535 259.535 230.398 256 230.398
 c 252.465 230.398 249.602 227.535 249.602 224 c 249.602 204.801 l 249.602
 201.266 246.734 198.398 243.199 198.398 c 230.398 198.398 l 230.184 198.41
 229.969 198.391 229.762 198.336 c 230.199 196.254 230.414 194.129 230.398
 192 c 230.398 185.602 l 243.199 185.602 l 253.789 185.633 262.367 194.211
 262.398 204.801 c h
262.398 204.801 m f
229.121 93.441 m 215.105 112.129 l 214.242 110.633 213.188 109.254 211.969
 108.031 c 210.094 106.156 207.848 104.695 205.375 103.742 c 218.879 85.762
 l 221 82.934 225.012 82.359 227.84 84.48 c 230.668 86.602 231.242 90.613
 229.121 93.441 c h
229.121 93.441 m f
166.398 192 m 166.383 194.129 166.598 196.254 167.039 198.336 c 166.832
 198.391 166.617 198.41 166.398 198.398 c 153.602 198.398 l 150.066 198.398
 147.199 201.266 147.199 204.801 c 147.199 224 l 147.199 227.535 144.336
 230.398 140.801 230.398 c 137.266 230.398 134.398 227.535 134.398 224 c
 134.398 204.801 l 134.43 194.211 143.008 185.633 153.602 185.602 c 166.398
 185.602 l h
166.398 192 m f
134.398 172.801 m 130.867 172.801 128 169.934 128 166.398 c 128 162.867
 130.867 160 134.398 160 c 166.398 160 l 166.398 172.801 l h
134.398 172.801 m f
191.426 103.742 m 187.305 105.32 183.863 108.285 181.695 112.129 c 167.68
 93.441 l 165.559 90.613 166.133 86.602 168.961 84.48 c 171.789 82.359 175.801
 82.934 177.922 85.762 c h
191.426 103.742 m f
153.602 134.398 m 179.199 134.398 l 172.141 134.422 166.422 140.141 166.398
 147.199 c 153.602 147.199 l 143.008 147.168 134.43 138.59 134.398 128 c
 134.398 108.801 l 134.398 105.266 137.266 102.398 140.801 102.398 c 144.336
 102.398 147.199 105.266 147.199 108.801 c 147.199 128 l 147.199 131.535
 150.066 134.398 153.602 134.398 c h
153.602 134.398 m f
0.356863 g
198.398 204.801 m 194.867 204.801 192 201.934 192 198.398 c 192 160 l 192
 156.465 194.867 153.602 198.398 153.602 c 201.934 153.602 204.801 156.465
 204.801 160 c 204.801 198.398 l 204.801 201.934 201.934 204.801 198.398
 204.801 c h
198.398 204.801 m f
0.298039 g
198.398 281.602 m 151.805 281.602 109.801 253.531 91.969 210.484 c 74.137
 167.438 83.996 117.887 116.941 84.941 c 149.887 51.996 199.438 42.137 242.484
 59.969 c 285.531 77.801 313.602 119.805 313.602 166.398 c 313.527 229.992
 261.992 281.527 198.398 281.602 c h
198.398 64 m 156.984 64 119.645 88.949 103.793 127.215 c 87.945 165.477
 96.707 209.523 125.992 238.809 c 155.277 268.094 199.324 276.855 237.586
 261.004 c 275.852 245.156 300.801 207.816 300.801 166.398 c 300.734 109.875
 254.926 64.066 198.398 64 c h
198.398 64 m f
Q Q
showpage
%%Trailer
end
%%EOF
