%!PS-Adobe-3.0 EPSF-3.0
%%Creator: cairo 1.16.0 (https://cairographics.org)
%%CreationDate: Fri Nov 29 10:41:45 2019
%%Pages: 1
%%DocumentData: Clean7Bit
%%LanguageLevel: 2
%%BoundingBox: 83 6 301 378
%%EndComments
%%BeginProlog
50 dict begin
/q { gsave } bind def
/Q { grestore } bind def
/cm { 6 array astore concat } bind def
/w { setlinewidth } bind def
/J { setlinecap } bind def
/j { setlinejoin } bind def
/M { setmiterlimit } bind def
/d { setdash } bind def
/m { moveto } bind def
/l { lineto } bind def
/c { curveto } bind def
/h { closepath } bind def
/re { exch dup neg 3 1 roll 5 3 roll moveto 0 rlineto
      0 exch rlineto 0 rlineto closepath } bind def
/S { stroke } bind def
/f { fill } bind def
/f* { eofill } bind def
/n { newpath } bind def
/W { clip } bind def
/W* { eoclip } bind def
/BT { } bind def
/ET { } bind def
/BDC { mark 3 1 roll /BDC pdfmark } bind def
/EMC { mark /EMC pdfmark } bind def
/cairo_store_point { /cairo_point_y exch def /cairo_point_x exch def } def
/Tj { show currentpoint cairo_store_point } bind def
/TJ {
  {
    dup
    type /stringtype eq
    { show } { -0.001 mul 0 cairo_font_matrix dtransform rmoveto } ifelse
  } forall
  currentpoint cairo_store_point
} bind def
/cairo_selectfont { cairo_font_matrix aload pop pop pop 0 0 6 array astore
    cairo_font exch selectfont cairo_point_x cairo_point_y moveto } bind def
/Tf { pop /cairo_font exch def /cairo_font_matrix where
      { pop cairo_selectfont } if } bind def
/Td { matrix translate cairo_font_matrix matrix concatmatrix dup
      /cairo_font_matrix exch def dup 4 get exch 5 get cairo_store_point
      /cairo_font where { pop cairo_selectfont } if } bind def
/Tm { 2 copy 8 2 roll 6 array astore /cairo_font_matrix exch def
      cairo_store_point /cairo_font where { pop cairo_selectfont } if } bind def
/g { setgray } bind def
/rg { setrgbcolor } bind def
/d1 { setcachedevice } bind def
/cairo_data_source {
  CairoDataIndex CairoData length lt
    { CairoData CairoDataIndex get /CairoDataIndex CairoDataIndex 1 add def }
    { () } ifelse
} def
/cairo_flush_ascii85_file { cairo_ascii85_file status { cairo_ascii85_file flushfile } if } def
/cairo_image { image cairo_flush_ascii85_file } def
/cairo_imagemask { imagemask cairo_flush_ascii85_file } def
%%EndProlog
%%BeginSetup
%%EndSetup
%%Page: 1 1
%%BeginPageSetup
%%PageBoundingBox: 83 6 301 378
%%EndPageSetup
q 83 6 218 372 rectclip
1 0 0 -1 0 384 cm q
0.172549 0.494118 0.607843 rg
300.801 57.602 m 300.801 326.398 l 294.398 332.801 l 89.602 332.801 l 83.199
 326.398 l 83.199 57.602 l 89.602 51.199 l 294.398 51.199 l h
300.801 57.602 m f
0.72549 0.74902 0.8 rg
300.801 25.602 m 300.801 57.602 l 83.199 57.602 l 83.199 25.602 l 83.199
 14.996 91.797 6.398 102.398 6.398 c 281.602 6.398 l 292.203 6.398 300.801
 14.996 300.801 25.602 c h
300.801 25.602 m f
83.199 326.398 m 300.801 326.398 l 300.801 358.398 l 300.801 369.004 292.203
 377.602 281.602 377.602 c 102.398 377.602 l 91.797 377.602 83.199 369.004
 83.199 358.398 c h
83.199 326.398 m f
0.537255 0.568627 0.627451 rg
172.801 38.398 m 166.398 38.398 l 162.867 38.398 160 35.535 160 32 c 160
 28.465 162.867 25.602 166.398 25.602 c 172.801 25.602 l 176.336 25.602 
179.199 28.465 179.199 32 c 179.199 35.535 176.336 38.398 172.801 38.398
 c h
172.801 38.398 m f
217.602 38.398 m 198.398 38.398 l 194.867 38.398 192 35.535 192 32 c 192
 28.465 194.867 25.602 198.398 25.602 c 217.602 25.602 l 221.133 25.602 
224 28.465 224 32 c 224 35.535 221.133 38.398 217.602 38.398 c h
217.602 38.398 m f
204.801 358.398 m 179.199 358.398 l 175.664 358.398 172.801 355.535 172.801
 352 c 172.801 348.465 175.664 345.602 179.199 345.602 c 204.801 345.602
 l 208.336 345.602 211.199 348.465 211.199 352 c 211.199 355.535 208.336
 358.398 204.801 358.398 c h
204.801 358.398 m f
0.25098 0.8 0.945098 rg
179.199 307.199 m 147.199 307.199 l 143.664 307.199 140.801 304.336 140.801
 300.801 c 140.801 297.266 143.664 294.398 147.199 294.398 c 179.199 294.398
 l 182.734 294.398 185.602 297.266 185.602 300.801 c 185.602 304.336 182.734
 307.199 179.199 307.199 c h
179.199 307.199 m f
0.65098 0.588235 0.941176 rg
262.398 307.199 m 204.801 307.199 l 201.266 307.199 198.398 304.336 198.398
 300.801 c 198.398 297.266 201.266 294.398 204.801 294.398 c 262.398 294.398
 l 265.934 294.398 268.801 297.266 268.801 300.801 c 268.801 304.336 265.934
 307.199 262.398 307.199 c h
262.398 307.199 m f
0.25098 0.8 0.945098 rg
179.199 230.398 m 147.199 230.398 l 143.664 230.398 140.801 227.535 140.801
 224 c 140.801 220.465 143.664 217.602 147.199 217.602 c 179.199 217.602
 l 182.734 217.602 185.602 220.465 185.602 224 c 185.602 227.535 182.734
 230.398 179.199 230.398 c h
179.199 230.398 m f
179.199 256 m 147.199 256 l 143.664 256 140.801 253.133 140.801 249.602
 c 140.801 246.066 143.664 243.199 147.199 243.199 c 179.199 243.199 l 182.734
 243.199 185.602 246.066 185.602 249.602 c 185.602 253.133 182.734 256 179.199
 256 c h
179.199 256 m f
0.65098 0.588235 0.941176 rg
249.602 230.398 m 204.801 230.398 l 201.266 230.398 198.398 227.535 198.398
 224 c 198.398 220.465 201.266 217.602 204.801 217.602 c 249.602 217.602
 l 253.133 217.602 256 220.465 256 224 c 256 227.535 253.133 230.398 249.602
 230.398 c h
249.602 230.398 m f
236.801 256 m 204.801 256 l 201.266 256 198.398 253.133 198.398 249.602
 c 198.398 246.066 201.266 243.199 204.801 243.199 c 236.801 243.199 l 240.336
 243.199 243.199 246.066 243.199 249.602 c 243.199 253.133 240.336 256 236.801
 256 c h
236.801 256 m f
0.25098 0.8 0.945098 rg
153.602 204.801 m 147.199 204.801 l 143.664 204.801 140.801 201.934 140.801
 198.398 c 140.801 194.867 143.664 192 147.199 192 c 153.602 192 l 157.133
 192 160 194.867 160 198.398 c 160 201.934 157.133 204.801 153.602 204.801
 c h
153.602 204.801 m f
0.65098 0.588235 0.941176 rg
224 204.801 m 179.199 204.801 l 175.664 204.801 172.801 201.934 172.801
 198.398 c 172.801 194.867 175.664 192 179.199 192 c 224 192 l 227.535 192
 230.398 194.867 230.398 198.398 c 230.398 201.934 227.535 204.801 224 204.801
 c h
224 204.801 m f
0.988235 0.796078 0.333333 rg
262.398 204.801 m 249.602 204.801 l 246.066 204.801 243.199 201.934 243.199
 198.398 c 243.199 194.867 246.066 192 249.602 192 c 262.398 192 l 265.934
 192 268.801 194.867 268.801 198.398 c 268.801 201.934 265.934 204.801 262.398
 204.801 c h
262.398 204.801 m f
0.65098 0.588235 0.941176 rg
262.398 153.602 m 185.602 153.602 l 182.066 153.602 179.199 150.734 179.199
 147.199 c 179.199 143.664 182.066 140.801 185.602 140.801 c 262.398 140.801
 l 265.934 140.801 268.801 143.664 268.801 147.199 c 268.801 150.734 265.934
 153.602 262.398 153.602 c h
262.398 153.602 m f
0.25098 0.8 0.945098 rg
160 153.602 m 147.199 153.602 l 143.664 153.602 140.801 150.734 140.801
 147.199 c 140.801 143.664 143.664 140.801 147.199 140.801 c 160 140.801
 l 163.535 140.801 166.398 143.664 166.398 147.199 c 166.398 150.734 163.535
 153.602 160 153.602 c h
160 153.602 m f
153.602 281.602 m 147.199 281.602 l 143.664 281.602 140.801 278.734 140.801
 275.199 c 140.801 271.664 143.664 268.801 147.199 268.801 c 153.602 268.801
 l 157.133 268.801 160 271.664 160 275.199 c 160 278.734 157.133 281.602
 153.602 281.602 c h
153.602 281.602 m f
0.65098 0.588235 0.941176 rg
224 281.602 m 179.199 281.602 l 175.664 281.602 172.801 278.734 172.801
 275.199 c 172.801 271.664 175.664 268.801 179.199 268.801 c 224 268.801
 l 227.535 268.801 230.398 271.664 230.398 275.199 c 230.398 278.734 227.535
 281.602 224 281.602 c h
224 281.602 m f
0.988235 0.796078 0.333333 rg
268.801 281.602 m 249.602 281.602 l 246.066 281.602 243.199 278.734 243.199
 275.199 c 243.199 271.664 246.066 268.801 249.602 268.801 c 268.801 268.801
 l 272.336 268.801 275.199 271.664 275.199 275.199 c 275.199 278.734 272.336
 281.602 268.801 281.602 c h
268.801 281.602 m f
0.25098 0.8 0.945098 rg
172.801 179.199 m 147.199 179.199 l 143.664 179.199 140.801 176.336 140.801
 172.801 c 140.801 169.266 143.664 166.398 147.199 166.398 c 172.801 166.398
 l 176.336 166.398 179.199 169.266 179.199 172.801 c 179.199 176.336 176.336
 179.199 172.801 179.199 c h
172.801 179.199 m f
0.65098 0.588235 0.941176 rg
224 179.199 m 198.398 179.199 l 194.867 179.199 192 176.336 192 172.801
 c 192 169.266 194.867 166.398 198.398 166.398 c 224 166.398 l 227.535 166.398
 230.398 169.266 230.398 172.801 c 230.398 176.336 227.535 179.199 224 179.199
 c h
224 179.199 m f
1 g
121.602 153.602 m 115.199 153.602 l 111.664 153.602 108.801 150.734 108.801
 147.199 c 108.801 143.664 111.664 140.801 115.199 140.801 c 121.602 140.801
 l 125.133 140.801 128 143.664 128 147.199 c 128 150.734 125.133 153.602
 121.602 153.602 c h
121.602 153.602 m f
121.602 179.199 m 115.199 179.199 l 111.664 179.199 108.801 176.336 108.801
 172.801 c 108.801 169.266 111.664 166.398 115.199 166.398 c 121.602 166.398
 l 125.133 166.398 128 169.266 128 172.801 c 128 176.336 125.133 179.199
 121.602 179.199 c h
121.602 179.199 m f
121.602 204.801 m 115.199 204.801 l 111.664 204.801 108.801 201.934 108.801
 198.398 c 108.801 194.867 111.664 192 115.199 192 c 121.602 192 l 125.133
 192 128 194.867 128 198.398 c 128 201.934 125.133 204.801 121.602 204.801
 c h
121.602 204.801 m f
121.602 230.398 m 115.199 230.398 l 111.664 230.398 108.801 227.535 108.801
 224 c 108.801 220.465 111.664 217.602 115.199 217.602 c 121.602 217.602
 l 125.133 217.602 128 220.465 128 224 c 128 227.535 125.133 230.398 121.602
 230.398 c h
121.602 230.398 m f
121.602 256 m 115.199 256 l 111.664 256 108.801 253.133 108.801 249.602
 c 108.801 246.066 111.664 243.199 115.199 243.199 c 121.602 243.199 l 125.133
 243.199 128 246.066 128 249.602 c 128 253.133 125.133 256 121.602 256 c
 h
121.602 256 m f
121.602 281.602 m 115.199 281.602 l 111.664 281.602 108.801 278.734 108.801
 275.199 c 108.801 271.664 111.664 268.801 115.199 268.801 c 121.602 268.801
 l 125.133 268.801 128 271.664 128 275.199 c 128 278.734 125.133 281.602
 121.602 281.602 c h
121.602 281.602 m f
121.602 307.199 m 115.199 307.199 l 111.664 307.199 108.801 304.336 108.801
 300.801 c 108.801 297.266 111.664 294.398 115.199 294.398 c 121.602 294.398
 l 125.133 294.398 128 297.266 128 300.801 c 128 304.336 125.133 307.199
 121.602 307.199 c h
121.602 307.199 m f
0.988235 0.796078 0.333333 rg
275.199 179.199 m 249.602 179.199 l 246.066 179.199 243.199 176.336 243.199
 172.801 c 243.199 169.266 246.066 166.398 249.602 166.398 c 275.199 166.398
 l 278.734 166.398 281.602 169.266 281.602 172.801 c 281.602 176.336 278.734
 179.199 275.199 179.199 c h
275.199 179.199 m f
0.0941176 0.258824 0.286275 rg
140.801 76.801 m 137.266 76.801 134.398 79.664 134.398 83.199 c 134.398
 96 l 121.602 96 l 121.602 83.199 l 121.602 79.664 118.734 76.801 115.199
 76.801 c 111.664 76.801 108.801 79.664 108.801 83.199 c 108.801 121.602
 l 108.801 125.133 111.664 128 115.199 128 c 118.734 128 121.602 125.133
 121.602 121.602 c 121.602 108.801 l 134.398 108.801 l 134.398 121.602 l
 134.398 125.133 137.266 128 140.801 128 c 144.336 128 147.199 125.133 147.199
 121.602 c 147.199 83.199 l 147.199 79.664 144.336 76.801 140.801 76.801
 c h
140.801 76.801 m f
179.199 76.801 m 166.398 76.801 l 162.867 76.801 160 79.664 160 83.199 
c 160 86.734 162.867 89.602 166.398 89.602 c 166.398 121.602 l 166.398 125.133
 169.266 128 172.801 128 c 176.336 128 179.199 125.133 179.199 121.602 c
 179.199 89.602 l 182.734 89.602 185.602 86.734 185.602 83.199 c 185.602
 79.664 182.734 76.801 179.199 76.801 c h
179.199 76.801 m f
232.258 77.074 m 229.559 76.254 226.645 77.293 225.074 79.637 c 217.602
 90.879 l 210.125 79.668 l 208.562 77.324 205.652 76.277 202.953 77.09 c
 200.258 77.902 198.406 80.383 198.398 83.199 c 198.398 121.602 l 198.398
 125.133 201.266 128 204.801 128 c 208.336 128 211.199 125.133 211.199 121.602
 c 211.199 104.32 l 212.273 105.934 l 213.531 107.609 215.504 108.598 217.602
 108.598 c 219.695 108.598 221.668 107.609 222.926 105.934 c 224 104.32 
l 224 121.602 l 224 125.133 226.867 128 230.398 128 c 233.934 128 236.801
 125.133 236.801 121.602 c 236.801 83.199 l 236.801 80.379 234.953 77.895
 232.258 77.074 c h
232.258 77.074 m f
268.801 115.199 m 262.398 115.199 l 262.398 83.199 l 262.398 79.664 259.535
 76.801 256 76.801 c 252.465 76.801 249.602 79.664 249.602 83.199 c 249.602
 121.602 l 249.602 125.133 252.465 128 256 128 c 268.801 128 l 272.336 128
 275.199 125.133 275.199 121.602 c 275.199 118.066 272.336 115.199 268.801
 115.199 c h
268.801 115.199 m f
Q Q
showpage
%%Trailer
end
%%EOF
