%!PS-Adobe-3.0 EPSF-3.0
%%Creator: cairo 1.16.0 (https://cairographics.org)
%%CreationDate: Fri Nov 29 10:41:46 2019
%%Pages: 1
%%DocumentData: Clean7Bit
%%LanguageLevel: 2
%%BoundingBox: 6 6 378 378
%%EndComments
%%BeginProlog
50 dict begin
/q { gsave } bind def
/Q { grestore } bind def
/cm { 6 array astore concat } bind def
/w { setlinewidth } bind def
/J { setlinecap } bind def
/j { setlinejoin } bind def
/M { setmiterlimit } bind def
/d { setdash } bind def
/m { moveto } bind def
/l { lineto } bind def
/c { curveto } bind def
/h { closepath } bind def
/re { exch dup neg 3 1 roll 5 3 roll moveto 0 rlineto
      0 exch rlineto 0 rlineto closepath } bind def
/S { stroke } bind def
/f { fill } bind def
/f* { eofill } bind def
/n { newpath } bind def
/W { clip } bind def
/W* { eoclip } bind def
/BT { } bind def
/ET { } bind def
/BDC { mark 3 1 roll /BDC pdfmark } bind def
/EMC { mark /EMC pdfmark } bind def
/cairo_store_point { /cairo_point_y exch def /cairo_point_x exch def } def
/Tj { show currentpoint cairo_store_point } bind def
/TJ {
  {
    dup
    type /stringtype eq
    { show } { -0.001 mul 0 cairo_font_matrix dtransform rmoveto } ifelse
  } forall
  currentpoint cairo_store_point
} bind def
/cairo_selectfont { cairo_font_matrix aload pop pop pop 0 0 6 array astore
    cairo_font exch selectfont cairo_point_x cairo_point_y moveto } bind def
/Tf { pop /cairo_font exch def /cairo_font_matrix where
      { pop cairo_selectfont } if } bind def
/Td { matrix translate cairo_font_matrix matrix concatmatrix dup
      /cairo_font_matrix exch def dup 4 get exch 5 get cairo_store_point
      /cairo_font where { pop cairo_selectfont } if } bind def
/Tm { 2 copy 8 2 roll 6 array astore /cairo_font_matrix exch def
      cairo_store_point /cairo_font where { pop cairo_selectfont } if } bind def
/g { setgray } bind def
/rg { setrgbcolor } bind def
/d1 { setcachedevice } bind def
/cairo_data_source {
  CairoDataIndex CairoData length lt
    { CairoData CairoDataIndex get /CairoDataIndex CairoDataIndex 1 add def }
    { () } ifelse
} def
/cairo_flush_ascii85_file { cairo_ascii85_file status { cairo_ascii85_file flushfile } if } def
/cairo_image { image cairo_flush_ascii85_file } def
/cairo_imagemask { imagemask cairo_flush_ascii85_file } def
%%EndProlog
%%BeginSetup
%%EndSetup
%%Page: 1 1
%%BeginPageSetup
%%PageBoundingBox: 6 6 378 378
%%EndPageSetup
q 6 6 372 372 rectclip
1 0 0 -1 0 384 cm q
0.839216 0.858824 0.890196 rg
300.801 121.602 m 300.801 358.398 l 300.801 369.004 292.203 377.602 281.602
 377.602 c 25.602 377.602 l 14.996 377.602 6.398 369.004 6.398 358.398 c
 6.398 121.602 l 12.801 115.199 l 296.734 114.824 l h
300.801 121.602 m f
0.152941 0.435294 0.509804 rg
300.801 89.602 m 300.801 121.602 l 6.398 121.602 l 6.398 89.602 l 6.398
 78.996 14.996 70.398 25.602 70.398 c 281.602 70.398 l 292.203 70.398 300.801
 78.996 300.801 89.602 c h
300.801 89.602 m f
0.627451 0.447059 0.294118 rg
241.023 179.199 m 206.078 185.473 l 203.973 185.902 201.793 185.246 200.273
 183.727 c 198.754 182.207 198.098 180.027 198.527 177.922 c 204.801 142.977
 l 230.398 153.602 l h
241.023 179.199 m f
0.980392 0.631373 0.0862745 rg
352 68.172 m 241.023 179.199 l 204.801 142.977 l 245.375 102.398 l 258.176
 89.602 l 315.82 32 l h
352 68.172 m f
0.92549 0.227451 0.282353 rg
315.82 32 m 337.664 10.176 l 340.055 7.75 343.316 6.383 346.719 6.383 c
 350.125 6.383 353.387 7.75 355.777 10.176 c 373.824 28.223 l 376.25 30.613
 377.617 33.875 377.617 37.281 c 377.617 40.684 376.25 43.945 373.824 46.336
 c 352 68.172 l h
315.82 32 m f
0.8 0.815686 0.854902 rg
305.934 41.863 m 324.031 23.766 l 360.23 59.965 l 342.133 78.062 l h
305.934 41.863 m f
0.72549 0.74902 0.8 rg
38.398 147.199 m 166.398 147.199 l 169.945 147.199 172.801 150.055 172.801
 153.602 c 172.801 217.602 l 172.801 221.145 169.945 224 166.398 224 c 38.398
 224 l 34.855 224 32 221.145 32 217.602 c 32 153.602 l 32 150.055 34.855
 147.199 38.398 147.199 c h
38.398 147.199 m f
140.801 275.199 m 268.801 275.199 l 272.344 275.199 275.199 278.055 275.199
 281.602 c 275.199 345.602 l 275.199 349.145 272.344 352 268.801 352 c 140.801
 352 l 137.254 352 134.398 349.145 134.398 345.602 c 134.398 281.602 l 134.398
 278.055 137.254 275.199 140.801 275.199 c h
140.801 275.199 m f
0.972549 0.32549 0.423529 rg
38.398 102.398 m 32 102.398 l 28.465 102.398 25.602 99.535 25.602 96 c 
25.602 92.465 28.465 89.602 32 89.602 c 38.398 89.602 l 41.934 89.602 44.801
 92.465 44.801 96 c 44.801 99.535 41.934 102.398 38.398 102.398 c h
38.398 102.398 m f
0.988235 0.796078 0.333333 rg
70.398 102.398 m 64 102.398 l 60.465 102.398 57.602 99.535 57.602 96 c 
57.602 92.465 60.465 89.602 64 89.602 c 70.398 89.602 l 73.934 89.602 76.801
 92.465 76.801 96 c 76.801 99.535 73.934 102.398 70.398 102.398 c h
70.398 102.398 m f
0.662745 0.862745 0.384314 rg
102.398 102.398 m 96 102.398 l 92.465 102.398 89.602 99.535 89.602 96 c
 89.602 92.465 92.465 89.602 96 89.602 c 102.398 89.602 l 105.934 89.602
 108.801 92.465 108.801 96 c 108.801 99.535 105.934 102.398 102.398 102.398
 c h
102.398 102.398 m f
0.117647 0.313726 0.356863 rg
258.176 89.602 m 245.375 102.398 l 204.801 102.398 l 201.266 102.398 198.398
 99.535 198.398 96 c 198.398 92.465 201.266 89.602 204.801 89.602 c h
258.176 89.602 m f
0.94902 0.560784 0.00784314 rg
328.594 64.453 m 250.055 142.996 l 247.543 145.422 243.551 145.387 241.082
 142.918 c 238.613 140.449 238.578 136.457 241.004 133.945 c 319.547 55.406
 l h
328.594 64.453 m f
0.654902 0.678431 0.717647 rg
275.199 230.398 m 204.801 230.398 l 201.266 230.398 198.398 227.535 198.398
 224 c 198.398 220.465 201.266 217.602 204.801 217.602 c 275.199 217.602
 l 278.734 217.602 281.602 220.465 281.602 224 c 281.602 227.535 278.734
 230.398 275.199 230.398 c h
275.199 230.398 m f
102.398 281.602 m 32 281.602 l 28.465 281.602 25.602 278.734 25.602 275.199
 c 25.602 271.664 28.465 268.801 32 268.801 c 102.398 268.801 l 105.934 
268.801 108.801 271.664 108.801 275.199 c 108.801 278.734 105.934 281.602
 102.398 281.602 c h
102.398 281.602 m f
102.398 307.199 m 32 307.199 l 28.465 307.199 25.602 304.336 25.602 300.801
 c 25.602 297.266 28.465 294.398 32 294.398 c 102.398 294.398 l 105.934 
294.398 108.801 297.266 108.801 300.801 c 108.801 304.336 105.934 307.199
 102.398 307.199 c h
102.398 307.199 m f
102.398 332.801 m 64 332.801 l 60.465 332.801 57.602 329.934 57.602 326.398
 c 57.602 322.867 60.465 320 64 320 c 102.398 320 l 105.934 320 108.801 
322.867 108.801 326.398 c 108.801 329.934 105.934 332.801 102.398 332.801
 c h
102.398 332.801 m f
38.398 332.801 m 32 332.801 l 28.465 332.801 25.602 329.934 25.602 326.398
 c 25.602 322.867 28.465 320 32 320 c 38.398 320 l 41.934 320 44.801 322.867
 44.801 326.398 c 44.801 329.934 41.934 332.801 38.398 332.801 c h
38.398 332.801 m f
83.199 358.398 m 32 358.398 l 28.465 358.398 25.602 355.535 25.602 352 
c 25.602 348.465 28.465 345.602 32 345.602 c 83.199 345.602 l 86.734 345.602
 89.602 348.465 89.602 352 c 89.602 355.535 86.734 358.398 83.199 358.398
 c h
83.199 358.398 m f
275.199 256 m 262.398 256 l 258.867 256 256 253.133 256 249.602 c 256 246.066
 258.867 243.199 262.398 243.199 c 275.199 243.199 l 278.734 243.199 281.602
 246.066 281.602 249.602 c 281.602 253.133 278.734 256 275.199 256 c h
275.199 256 m f
236.801 256 m 32 256 l 28.465 256 25.602 253.133 25.602 249.602 c 25.602
 246.066 28.465 243.199 32 243.199 c 236.801 243.199 l 240.336 243.199 243.199
 246.066 243.199 249.602 c 243.199 253.133 240.336 256 236.801 256 c h
236.801 256 m f
172.801 154.496 m 115.777 185.602 l 172.801 216.703 l 172.801 217.602 l
 172.801 221.133 169.934 224 166.398 224 c 159.359 224 l 102.398 192.895
 l 45.441 224 l 38.398 224 l 34.867 224 32 221.133 32 217.602 c 32 216.703
 l 89.023 185.602 l 32 154.496 l 32 153.602 l 32 150.066 34.867 147.199 
38.398 147.199 c 45.441 147.199 l 102.398 178.305 l 159.359 147.199 l 166.398
 147.199 l 169.934 147.199 172.801 150.066 172.801 153.602 c h
172.801 154.496 m f
275.199 282.496 m 218.176 313.602 l 275.199 344.703 l 275.199 345.602 l
 275.199 349.133 272.336 352 268.801 352 c 261.762 352 l 204.801 320.895
 l 147.84 352 l 140.801 352 l 137.266 352 134.398 349.133 134.398 345.602
 c 134.398 344.703 l 191.426 313.602 l 134.398 282.496 l 134.398 281.602
 l 134.398 278.066 137.266 275.199 140.801 275.199 c 147.84 275.199 l 204.801
 306.305 l 261.762 275.199 l 268.801 275.199 l 272.336 275.199 275.199 278.066
 275.199 281.602 c h
275.199 282.496 m f
Q Q
showpage
%%Trailer
end
%%EOF
