%!PS-Adobe-3.0 EPSF-3.0
%%Creator: cairo 1.16.0 (https://cairographics.org)
%%CreationDate: Fri Nov 29 10:41:46 2019
%%Pages: 1
%%DocumentData: Clean7Bit
%%LanguageLevel: 2
%%BoundingBox: 6 6 378 378
%%EndComments
%%BeginProlog
50 dict begin
/q { gsave } bind def
/Q { grestore } bind def
/cm { 6 array astore concat } bind def
/w { setlinewidth } bind def
/J { setlinecap } bind def
/j { setlinejoin } bind def
/M { setmiterlimit } bind def
/d { setdash } bind def
/m { moveto } bind def
/l { lineto } bind def
/c { curveto } bind def
/h { closepath } bind def
/re { exch dup neg 3 1 roll 5 3 roll moveto 0 rlineto
      0 exch rlineto 0 rlineto closepath } bind def
/S { stroke } bind def
/f { fill } bind def
/f* { eofill } bind def
/n { newpath } bind def
/W { clip } bind def
/W* { eoclip } bind def
/BT { } bind def
/ET { } bind def
/BDC { mark 3 1 roll /BDC pdfmark } bind def
/EMC { mark /EMC pdfmark } bind def
/cairo_store_point { /cairo_point_y exch def /cairo_point_x exch def } def
/Tj { show currentpoint cairo_store_point } bind def
/TJ {
  {
    dup
    type /stringtype eq
    { show } { -0.001 mul 0 cairo_font_matrix dtransform rmoveto } ifelse
  } forall
  currentpoint cairo_store_point
} bind def
/cairo_selectfont { cairo_font_matrix aload pop pop pop 0 0 6 array astore
    cairo_font exch selectfont cairo_point_x cairo_point_y moveto } bind def
/Tf { pop /cairo_font exch def /cairo_font_matrix where
      { pop cairo_selectfont } if } bind def
/Td { matrix translate cairo_font_matrix matrix concatmatrix dup
      /cairo_font_matrix exch def dup 4 get exch 5 get cairo_store_point
      /cairo_font where { pop cairo_selectfont } if } bind def
/Tm { 2 copy 8 2 roll 6 array astore /cairo_font_matrix exch def
      cairo_store_point /cairo_font where { pop cairo_selectfont } if } bind def
/g { setgray } bind def
/rg { setrgbcolor } bind def
/d1 { setcachedevice } bind def
/cairo_data_source {
  CairoDataIndex CairoData length lt
    { CairoData CairoDataIndex get /CairoDataIndex CairoDataIndex 1 add def }
    { () } ifelse
} def
/cairo_flush_ascii85_file { cairo_ascii85_file status { cairo_ascii85_file flushfile } if } def
/cairo_image { image cairo_flush_ascii85_file } def
/cairo_imagemask { imagemask cairo_flush_ascii85_file } def
%%EndProlog
%%BeginSetup
%%EndSetup
%%Page: 1 1
%%BeginPageSetup
%%PageBoundingBox: 6 6 378 378
%%EndPageSetup
q 6 6 372 372 rectclip
1 0 0 -1 0 384 cm q
0.54902 0.34902 0.235294 rg
286.207 272.449 m 367.359 332.289 l 376.105 338.73 379.719 350.066 376.309
 360.379 c 372.898 370.691 363.238 377.641 352.379 377.602 c 345.688 377.598
 339.27 374.953 334.523 370.238 c 260.098 296.062 l h
286.207 272.449 m f
0.298039 g
326.398 166.398 m 326.398 254.766 254.766 326.398 166.398 326.398 c 78.035
 326.398 6.398 254.766 6.398 166.398 c 6.398 78.035 78.035 6.398 166.398
 6.398 c 254.766 6.398 326.398 78.035 326.398 166.398 c h
326.398 166.398 m f
0.25098 0.8 0.945098 rg
300.801 166.398 m 300.801 240.629 240.629 300.801 166.398 300.801 c 92.172
 300.801 32 240.629 32 166.398 c 32 92.172 92.172 32 166.398 32 c 240.629
 32 300.801 92.172 300.801 166.398 c h
300.801 166.398 m f
0.941176 0.94902 0.960784 rg
243.199 140.801 m 243.199 224 l 243.199 234.605 234.605 243.199 224 243.199
 c 108.801 243.199 l 98.195 243.199 89.602 234.605 89.602 224 c 89.602 140.801
 l h
243.199 140.801 m f
0.152941 0.435294 0.509804 rg
243.199 108.801 m 243.199 140.801 l 89.602 140.801 l 89.602 108.801 l 89.602
 98.195 98.195 89.602 108.801 89.602 c 224 89.602 l 234.605 89.602 243.199
 98.195 243.199 108.801 c h
243.199 108.801 m f
0.168627 0.713726 0.909804 rg
166.398 307.199 m 96.879 307.215 37.754 256.484 27.203 187.766 c 16.652
 119.051 57.836 52.918 124.16 32.078 c 125.793 31.512 127.586 31.629 129.133
 32.406 c 130.68 33.184 131.844 34.555 132.363 36.203 c 132.879 37.852 132.711
 39.641 131.887 41.164 c 131.066 42.688 129.664 43.809 128 44.281 c 64.145
 64.336 26.508 130.191 41.645 195.387 c 56.781 260.586 119.582 303.121 185.742
 292.988 c 251.906 282.855 299.094 223.473 294.023 156.73 c 288.953 89.992
 233.332 38.422 166.398 38.398 c 162.867 38.398 160 35.535 160 32 c 160 
28.465 162.867 25.602 166.398 25.602 c 244.16 25.602 307.199 88.637 307.199
 166.398 c 307.199 244.16 244.16 307.199 166.398 307.199 c h
166.398 307.199 m f
0.972549 0.32549 0.423529 rg
121.602 121.602 m 115.199 121.602 l 111.664 121.602 108.801 118.734 108.801
 115.199 c 108.801 111.664 111.664 108.801 115.199 108.801 c 121.602 108.801
 l 125.133 108.801 128 111.664 128 115.199 c 128 118.734 125.133 121.602
 121.602 121.602 c h
121.602 121.602 m f
0.988235 0.796078 0.333333 rg
153.602 121.602 m 147.199 121.602 l 143.664 121.602 140.801 118.734 140.801
 115.199 c 140.801 111.664 143.664 108.801 147.199 108.801 c 153.602 108.801
 l 157.133 108.801 160 111.664 160 115.199 c 160 118.734 157.133 121.602
 153.602 121.602 c h
153.602 121.602 m f
0.168627 0.713726 0.909804 rg
147.199 224 m 143.664 224 140.801 221.133 140.801 217.602 c 140.801 192
 l 140.801 188.465 143.664 185.602 147.199 185.602 c 150.734 185.602 153.602
 188.465 153.602 192 c 153.602 217.602 l 153.602 221.133 150.734 224 147.199
 224 c h
147.199 224 m f
0.52549 0.415686 0.862745 rg
172.801 224 m 169.266 224 166.398 221.133 166.398 217.602 c 166.398 172.801
 l 166.398 169.266 169.266 166.398 172.801 166.398 c 176.336 166.398 179.199
 169.266 179.199 172.801 c 179.199 217.602 l 179.199 221.133 176.336 224
 172.801 224 c h
172.801 224 m f
0.85098 0.160784 0.211765 rg
198.398 224 m 194.867 224 192 221.133 192 217.602 c 192 185.602 l 192 182.066
 194.867 179.199 198.398 179.199 c 201.934 179.199 204.801 182.066 204.801
 185.602 c 204.801 217.602 l 204.801 221.133 201.934 224 198.398 224 c h
198.398 224 m f
0.686275 g
211.199 224 m 121.602 224 l 118.066 224 115.199 221.133 115.199 217.602
 c 115.199 166.398 l 115.199 162.867 118.066 160 121.602 160 c 125.133 160
 128 162.867 128 166.398 c 128 211.199 l 211.199 211.199 l 214.734 211.199
 217.602 214.066 217.602 217.602 c 217.602 221.133 214.734 224 211.199 224
 c h
211.199 224 m f
Q Q
showpage
%%Trailer
end
%%EOF
