%!PS-Adobe-3.0 EPSF-3.0
%%Creator: cairo 1.16.0 (https://cairographics.org)
%%CreationDate: Fri Nov 29 10:41:47 2019
%%Pages: 1
%%DocumentData: Clean7Bit
%%LanguageLevel: 2
%%BoundingBox: 32 6 352 384
%%EndComments
%%BeginProlog
50 dict begin
/q { gsave } bind def
/Q { grestore } bind def
/cm { 6 array astore concat } bind def
/w { setlinewidth } bind def
/J { setlinecap } bind def
/j { setlinejoin } bind def
/M { setmiterlimit } bind def
/d { setdash } bind def
/m { moveto } bind def
/l { lineto } bind def
/c { curveto } bind def
/h { closepath } bind def
/re { exch dup neg 3 1 roll 5 3 roll moveto 0 rlineto
      0 exch rlineto 0 rlineto closepath } bind def
/S { stroke } bind def
/f { fill } bind def
/f* { eofill } bind def
/n { newpath } bind def
/W { clip } bind def
/W* { eoclip } bind def
/BT { } bind def
/ET { } bind def
/BDC { mark 3 1 roll /BDC pdfmark } bind def
/EMC { mark /EMC pdfmark } bind def
/cairo_store_point { /cairo_point_y exch def /cairo_point_x exch def } def
/Tj { show currentpoint cairo_store_point } bind def
/TJ {
  {
    dup
    type /stringtype eq
    { show } { -0.001 mul 0 cairo_font_matrix dtransform rmoveto } ifelse
  } forall
  currentpoint cairo_store_point
} bind def
/cairo_selectfont { cairo_font_matrix aload pop pop pop 0 0 6 array astore
    cairo_font exch selectfont cairo_point_x cairo_point_y moveto } bind def
/Tf { pop /cairo_font exch def /cairo_font_matrix where
      { pop cairo_selectfont } if } bind def
/Td { matrix translate cairo_font_matrix matrix concatmatrix dup
      /cairo_font_matrix exch def dup 4 get exch 5 get cairo_store_point
      /cairo_font where { pop cairo_selectfont } if } bind def
/Tm { 2 copy 8 2 roll 6 array astore /cairo_font_matrix exch def
      cairo_store_point /cairo_font where { pop cairo_selectfont } if } bind def
/g { setgray } bind def
/rg { setrgbcolor } bind def
/d1 { setcachedevice } bind def
/cairo_data_source {
  CairoDataIndex CairoData length lt
    { CairoData CairoDataIndex get /CairoDataIndex CairoDataIndex 1 add def }
    { () } ifelse
} def
/cairo_flush_ascii85_file { cairo_ascii85_file status { cairo_ascii85_file flushfile } if } def
/cairo_image { image cairo_flush_ascii85_file } def
/cairo_imagemask { imagemask cairo_flush_ascii85_file } def
%%EndProlog
%%BeginSetup
%%EndSetup
%%Page: 1 1
%%BeginPageSetup
%%PageBoundingBox: 32 6 352 384
%%EndPageSetup
q 32 6 320 378 rectclip
1 0 0 -1 0 384 cm q
0.988235 0.796078 0.333333 rg
76.801 179.199 m 76.801 207.621 l 76.801 217.609 82.605 226.684 91.672 
230.867 c 148.844 257.281 l 155.633 260.414 159.988 267.203 160 274.68 c
 160 349.441 l 160 354.672 163.188 359.379 168.043 361.324 c 206.445 376.684
 l 210.387 378.262 214.859 377.781 218.375 375.398 c 221.895 373.02 224 
369.047 224 364.801 c 224 274.68 l 224.012 267.203 228.367 260.414 235.156
 257.281 c 292.328 230.895 l 301.402 226.703 307.211 217.617 307.199 207.621
 c 307.199 179.199 l h
76.801 179.199 m f
0.839216 0.666667 0.278431 rg
307.199 179.199 m 307.199 189.805 255.625 198.398 192 198.398 c 128.375
 198.398 76.801 189.805 76.801 179.199 c 76.801 168.598 128.375 160 192 
160 c 255.625 160 307.199 168.598 307.199 179.199 c h
307.199 179.199 m f
1 0.87451 0.6 rg
192 230.398 m 176.332 230.398 161.105 229.887 146.754 228.875 c 145.055
 228.762 143.473 227.977 142.359 226.695 c 141.242 225.41 140.68 223.738
 140.801 222.043 c 140.902 220.344 141.684 218.758 142.969 217.645 c 144.254
 216.527 145.934 215.977 147.629 216.113 c 177.164 218.086 206.797 218.086
 236.332 216.113 c 238.059 215.938 239.781 216.465 241.109 217.582 c 242.438
 218.695 243.254 220.305 243.375 222.031 c 243.496 223.762 242.91 225.469
 241.754 226.758 c 240.594 228.047 238.961 228.812 237.23 228.875 c 222.895
 229.887 207.668 230.398 192 230.398 c h
192 230.398 m f
0.152941 0.435294 0.509804 rg
215.727 136.273 m 213.227 133.777 209.176 133.777 206.676 136.273 c 198.398
 144.551 l 198.398 96 l 198.398 92.465 195.535 89.602 192 89.602 c 188.465
 89.602 185.602 92.465 185.602 96 c 185.602 144.551 l 177.324 136.273 l 
174.812 133.852 170.82 133.883 168.352 136.352 c 165.883 138.82 165.852 
142.812 168.273 145.324 c 187.477 164.523 l 189.973 167.023 194.027 167.023
 196.523 164.523 c 215.727 145.324 l 218.223 142.824 218.223 138.773 215.727
 136.273 c h
215.727 136.273 m f
70.398 0 m 59.797 0 51.199 8.598 51.199 19.199 c 51.199 32 l 51.199 42.605
 59.797 51.199 70.398 51.199 c 81.004 51.199 89.602 42.605 89.602 32 c 89.602
 19.199 l 89.602 8.598 81.004 0 70.398 0 c h
76.801 32 m 76.801 35.535 73.934 38.398 70.398 38.398 c 66.867 38.398 64
 35.535 64 32 c 64 19.199 l 64 15.664 66.867 12.801 70.398 12.801 c 73.934
 12.801 76.801 15.664 76.801 19.199 c h
76.801 32 m f
121.602 38.398 m 121.602 6.398 l 121.598 3.812 120.039 1.48 117.648 0.488
 c 115.258 -0.5 112.504 0.047 110.676 1.875 c 104.273 8.273 l 102.445 10.105
 101.898 12.859 102.887 15.25 c 103.879 17.641 106.211 19.199 108.801 19.199
 c 108.801 38.398 l 105.266 38.398 102.398 41.266 102.398 44.801 c 102.398
 48.336 105.266 51.199 108.801 51.199 c 121.602 51.199 l 125.133 51.199 
128 48.336 128 44.801 c 128 41.266 125.133 38.398 121.602 38.398 c h
121.602 38.398 m f
153.602 0 m 142.996 0 134.398 8.598 134.398 19.199 c 134.398 32 l 134.398
 42.605 142.996 51.199 153.602 51.199 c 164.203 51.199 172.801 42.605 172.801
 32 c 172.801 19.199 l 172.801 8.598 164.203 0 153.602 0 c h
160 32 m 160 35.535 157.133 38.398 153.602 38.398 c 150.066 38.398 147.199
 35.535 147.199 32 c 147.199 19.199 l 147.199 15.664 150.066 12.801 153.602
 12.801 c 157.133 12.801 160 15.664 160 19.199 c h
160 32 m f
313.602 0 m 302.996 0 294.398 8.598 294.398 19.199 c 294.398 32 l 294.398
 42.605 302.996 51.199 313.602 51.199 c 324.203 51.199 332.801 42.605 332.801
 32 c 332.801 19.199 l 332.801 8.598 324.203 0 313.602 0 c h
320 32 m 320 35.535 317.133 38.398 313.602 38.398 c 310.066 38.398 307.199
 35.535 307.199 32 c 307.199 19.199 l 307.199 15.664 310.066 12.801 313.602
 12.801 c 317.133 12.801 320 15.664 320 19.199 c h
320 32 m f
204.801 38.398 m 204.801 6.398 l 204.801 3.812 203.238 1.48 200.848 0.488
 c 198.457 -0.5 195.707 0.047 193.875 1.875 c 187.477 8.273 l 185.645 10.105
 185.098 12.859 186.09 15.25 c 187.078 17.641 189.41 19.199 192 19.199 c
 192 38.398 l 188.465 38.398 185.602 41.266 185.602 44.801 c 185.602 48.336
 188.465 51.199 192 51.199 c 204.801 51.199 l 208.336 51.199 211.199 48.336
 211.199 44.801 c 211.199 41.266 208.336 38.398 204.801 38.398 c h
204.801 38.398 m f
243.199 38.398 m 243.199 6.398 l 243.199 3.812 241.641 1.48 239.25 0.488
 c 236.859 -0.5 234.105 0.047 232.273 1.875 c 225.875 8.273 l 224.047 10.105
 223.5 12.859 224.488 15.25 c 225.48 17.641 227.812 19.199 230.398 19.199
 c 230.398 38.398 l 226.867 38.398 224 41.266 224 44.801 c 224 48.336 226.867
 51.199 230.398 51.199 c 243.199 51.199 l 246.734 51.199 249.602 48.336 
249.602 44.801 c 249.602 41.266 246.734 38.398 243.199 38.398 c h
243.199 38.398 m f
281.602 38.398 m 281.602 6.398 l 281.598 3.812 280.039 1.48 277.648 0.488
 c 275.258 -0.5 272.504 0.047 270.676 1.875 c 264.273 8.273 l 262.445 10.105
 261.898 12.859 262.887 15.25 c 263.879 17.641 266.211 19.199 268.801 19.199
 c 268.801 38.398 l 265.266 38.398 262.398 41.266 262.398 44.801 c 262.398
 48.336 265.266 51.199 268.801 51.199 c 281.602 51.199 l 285.133 51.199 
288 48.336 288 44.801 c 288 41.266 285.133 38.398 281.602 38.398 c h
281.602 38.398 m f
345.602 76.801 m 38.398 76.801 l 34.867 76.801 32 73.934 32 70.398 c 32
 66.867 34.867 64 38.398 64 c 345.602 64 l 349.133 64 352 66.867 352 70.398
 c 352 73.934 349.133 76.801 345.602 76.801 c h
345.602 76.801 m f
Q Q
showpage
%%Trailer
end
%%EOF
