%!PS-Adobe-3.0 EPSF-3.0
%%Creator: cairo 1.16.0 (https://cairographics.org)
%%CreationDate: Fri Nov 29 10:41:47 2019
%%Pages: 1
%%DocumentData: Clean7Bit
%%LanguageLevel: 2
%%BoundingBox: 0 0 384 384
%%EndComments
%%BeginProlog
50 dict begin
/q { gsave } bind def
/Q { grestore } bind def
/cm { 6 array astore concat } bind def
/w { setlinewidth } bind def
/J { setlinecap } bind def
/j { setlinejoin } bind def
/M { setmiterlimit } bind def
/d { setdash } bind def
/m { moveto } bind def
/l { lineto } bind def
/c { curveto } bind def
/h { closepath } bind def
/re { exch dup neg 3 1 roll 5 3 roll moveto 0 rlineto
      0 exch rlineto 0 rlineto closepath } bind def
/S { stroke } bind def
/f { fill } bind def
/f* { eofill } bind def
/n { newpath } bind def
/W { clip } bind def
/W* { eoclip } bind def
/BT { } bind def
/ET { } bind def
/BDC { mark 3 1 roll /BDC pdfmark } bind def
/EMC { mark /EMC pdfmark } bind def
/cairo_store_point { /cairo_point_y exch def /cairo_point_x exch def } def
/Tj { show currentpoint cairo_store_point } bind def
/TJ {
  {
    dup
    type /stringtype eq
    { show } { -0.001 mul 0 cairo_font_matrix dtransform rmoveto } ifelse
  } forall
  currentpoint cairo_store_point
} bind def
/cairo_selectfont { cairo_font_matrix aload pop pop pop 0 0 6 array astore
    cairo_font exch selectfont cairo_point_x cairo_point_y moveto } bind def
/Tf { pop /cairo_font exch def /cairo_font_matrix where
      { pop cairo_selectfont } if } bind def
/Td { matrix translate cairo_font_matrix matrix concatmatrix dup
      /cairo_font_matrix exch def dup 4 get exch 5 get cairo_store_point
      /cairo_font where { pop cairo_selectfont } if } bind def
/Tm { 2 copy 8 2 roll 6 array astore /cairo_font_matrix exch def
      cairo_store_point /cairo_font where { pop cairo_selectfont } if } bind def
/g { setgray } bind def
/rg { setrgbcolor } bind def
/d1 { setcachedevice } bind def
/cairo_data_source {
  CairoDataIndex CairoData length lt
    { CairoData CairoDataIndex get /CairoDataIndex CairoDataIndex 1 add def }
    { () } ifelse
} def
/cairo_flush_ascii85_file { cairo_ascii85_file status { cairo_ascii85_file flushfile } if } def
/cairo_image { image cairo_flush_ascii85_file } def
/cairo_imagemask { imagemask cairo_flush_ascii85_file } def
%%EndProlog
%%BeginSetup
%%EndSetup
%%Page: 1 1
%%BeginPageSetup
%%PageBoundingBox: 0 0 384 384
%%EndPageSetup
q 0 0 384 384 rectclip
1 0 0 -1 0 384 cm q
0.168627 0.713726 0.909804 rg
377.602 192 m 377.602 294.504 294.504 377.602 192 377.602 c 89.496 377.602
 6.398 294.504 6.398 192 c 6.398 89.496 89.496 6.398 192 6.398 c 294.504
 6.398 377.602 89.496 377.602 192 c h
377.602 192 m f
0.152941 0.435294 0.509804 rg
281.602 192 m 281.602 241.484 241.484 281.602 192 281.602 c 142.516 281.602
 102.398 241.484 102.398 192 c 102.398 142.516 142.516 102.398 192 102.398
 c 215.762 102.398 238.555 111.84 255.355 128.645 c 272.16 145.445 281.602
 168.238 281.602 192 c h
281.602 192 m f
0.117647 0.313726 0.356863 rg
160 224 m 158.305 224 156.676 223.324 155.477 222.125 c 129.875 196.523
 l 127.375 194.027 127.375 189.973 129.875 187.477 c 155.477 161.875 l 157.988
 159.449 161.977 159.484 164.445 161.953 c 166.914 164.422 166.949 168.414
 164.523 170.926 c 143.449 192 l 164.523 213.074 l 166.355 214.906 166.902
 217.656 165.91 220.051 c 164.922 222.441 162.59 224 160 224 c h
160 224 m f
224 224 m 221.41 224 219.078 222.441 218.09 220.051 c 217.098 217.656 217.645
 214.906 219.477 213.074 c 240.551 192 l 219.477 170.926 l 217.051 168.414
 217.086 164.422 219.555 161.953 c 222.023 159.484 226.012 159.449 228.523
 161.875 c 254.125 187.477 l 256.625 189.973 256.625 194.027 254.125 196.523
 c 228.523 222.125 l 227.324 223.324 225.695 224 224 224 c h
224 224 m f
185.602 224 m 185.074 224 184.551 223.934 184.039 223.809 c 180.613 222.949
 178.531 219.477 179.387 216.051 c 192.188 164.852 l 193.105 161.5 196.535
 159.492 199.906 160.336 c 203.281 161.176 205.363 164.559 204.602 167.949
 c 191.801 219.148 l 191.09 221.996 188.535 223.996 185.602 224 c h
185.602 224 m f
0.145098 0.639216 0.854902 rg
360.48 283.98 m 391.84 226.668 391.84 157.332 360.48 100.02 c 360.402 99.828
 360.273 99.672 360.18 99.488 c 326.461 38.121 261.996 -0.008 191.98 0 c
 121.961 0.008 57.504 38.152 23.801 99.527 c 23.703 99.68 23.609 99.84 23.527
 100.008 c -7.844 157.324 -7.844 226.676 23.527 283.992 c 23.609 284.156
 23.703 284.312 23.801 284.469 c 57.504 345.84 121.957 383.988 191.977 383.996
 c 261.996 384.008 326.461 345.879 360.18 284.512 c 360.273 284.328 360.402
 284.16 360.48 283.98 c h
122.238 288 m 185.602 288 l 185.602 370.594 l 159.359 366.043 136.078 333.906
 122.238 288 c h
198.398 370.594 m 198.398 288 l 261.762 288 l 247.922 333.906 224.641 366.043
 198.398 370.594 c h
118.676 275.199 m 112.016 247.973 108.699 220.031 108.801 192 c 108.699
 163.969 112.016 136.027 118.676 108.801 c 265.324 108.801 l 271.984 136.027
 275.301 163.969 275.199 192 c 275.301 220.031 271.984 247.973 265.324 275.199
 c h
12.961 198.398 m 96.078 198.398 l 96.359 224.25 99.406 249.996 105.164 
275.199 c 33.355 275.199 l 20.855 251.465 13.883 225.211 12.961 198.398 
c h
33.355 108.801 m 105.164 108.801 l 99.406 134.004 96.359 159.75 96.078 
185.602 c 12.961 185.602 l 13.883 158.789 20.855 132.535 33.355 108.801 
c h
261.762 96 m 198.398 96 l 198.398 13.441 l 224.641 17.957 247.922 50.094
 261.762 96 c h
185.602 13.441 m 185.602 96 l 122.238 96 l 136.078 50.094 159.359 17.957
 185.602 13.441 c h
371.039 185.602 m 287.922 185.602 l 287.641 159.75 284.594 134.004 278.836
 108.801 c 350.645 108.801 l 363.145 132.535 370.117 158.789 371.039 185.602
 c h
287.922 198.398 m 371.039 198.398 l 370.117 225.211 363.145 251.465 350.645
 275.199 c 278.836 275.199 l 284.594 249.996 287.641 224.25 287.922 198.398
 c h
343.199 96 m 275.508 96 l 265.754 61.562 250.836 34.098 232.699 17.516 
c 278.363 28.254 318.02 56.418 343.199 96 c h
151.301 17.516 m 133.164 34.098 118.246 61.562 108.492 96 c 40.801 96 l
 65.98 56.418 105.637 28.254 151.301 17.516 c h
40.801 288 m 108.492 288 l 118.246 322.438 133.164 349.902 151.301 366.484
 c 105.637 355.746 65.98 327.582 40.801 288 c h
232.699 366.484 m 250.836 349.902 265.754 322.438 275.508 288 c 343.199
 288 l 318.02 327.582 278.363 355.746 232.699 366.484 c h
232.699 366.484 m f
0.117647 0.313726 0.356863 rg
192 288 m 153.172 288 118.168 264.609 103.309 228.738 c 88.449 192.863 
96.66 151.574 124.117 124.117 c 151.574 96.66 192.863 88.449 228.738 103.309
 c 264.609 118.168 288 153.172 288 192 c 287.941 244.996 244.996 287.941
 192 288 c h
192 108.801 m 158.348 108.801 128.012 129.07 115.133 160.16 c 102.254 191.25
 109.375 227.035 133.168 250.832 c 156.965 274.625 192.75 281.746 223.84
 268.867 c 254.93 255.988 275.199 225.652 275.199 192 c 275.148 146.07 237.93
 108.852 192 108.801 c h
192 108.801 m f
Q Q
showpage
%%Trailer
end
%%EOF
