%!PS-Adobe-3.0 EPSF-3.0
%%Creator: cairo 1.16.0 (https://cairographics.org)
%%CreationDate: Fri Nov 29 10:41:47 2019
%%Pages: 1
%%DocumentData: Clean7Bit
%%LanguageLevel: 2
%%BoundingBox: 6 6 378 378
%%EndComments
%%BeginProlog
50 dict begin
/q { gsave } bind def
/Q { grestore } bind def
/cm { 6 array astore concat } bind def
/w { setlinewidth } bind def
/J { setlinecap } bind def
/j { setlinejoin } bind def
/M { setmiterlimit } bind def
/d { setdash } bind def
/m { moveto } bind def
/l { lineto } bind def
/c { curveto } bind def
/h { closepath } bind def
/re { exch dup neg 3 1 roll 5 3 roll moveto 0 rlineto
      0 exch rlineto 0 rlineto closepath } bind def
/S { stroke } bind def
/f { fill } bind def
/f* { eofill } bind def
/n { newpath } bind def
/W { clip } bind def
/W* { eoclip } bind def
/BT { } bind def
/ET { } bind def
/BDC { mark 3 1 roll /BDC pdfmark } bind def
/EMC { mark /EMC pdfmark } bind def
/cairo_store_point { /cairo_point_y exch def /cairo_point_x exch def } def
/Tj { show currentpoint cairo_store_point } bind def
/TJ {
  {
    dup
    type /stringtype eq
    { show } { -0.001 mul 0 cairo_font_matrix dtransform rmoveto } ifelse
  } forall
  currentpoint cairo_store_point
} bind def
/cairo_selectfont { cairo_font_matrix aload pop pop pop 0 0 6 array astore
    cairo_font exch selectfont cairo_point_x cairo_point_y moveto } bind def
/Tf { pop /cairo_font exch def /cairo_font_matrix where
      { pop cairo_selectfont } if } bind def
/Td { matrix translate cairo_font_matrix matrix concatmatrix dup
      /cairo_font_matrix exch def dup 4 get exch 5 get cairo_store_point
      /cairo_font where { pop cairo_selectfont } if } bind def
/Tm { 2 copy 8 2 roll 6 array astore /cairo_font_matrix exch def
      cairo_store_point /cairo_font where { pop cairo_selectfont } if } bind def
/g { setgray } bind def
/rg { setrgbcolor } bind def
/d1 { setcachedevice } bind def
/cairo_data_source {
  CairoDataIndex CairoData length lt
    { CairoData CairoDataIndex get /CairoDataIndex CairoDataIndex 1 add def }
    { () } ifelse
} def
/cairo_flush_ascii85_file { cairo_ascii85_file status { cairo_ascii85_file flushfile } if } def
/cairo_image { image cairo_flush_ascii85_file } def
/cairo_imagemask { imagemask cairo_flush_ascii85_file } def
%%EndProlog
%%BeginSetup
%%EndSetup
%%Page: 1 1
%%BeginPageSetup
%%PageBoundingBox: 6 6 378 378
%%EndPageSetup
q 6 6 372 372 rectclip
1 0 0 -1 0 384 cm q
0.188235 0.513726 0.588235 rg
38.398 70.398 307.203 307.203 re f
0.152941 0.435294 0.509804 rg
70.398 345.602 m 70.398 38.398 l 70.398 20.727 56.074 6.398 38.398 6.398
 c 20.727 6.398 6.398 20.727 6.398 38.398 c 6.398 345.602 l h
70.398 345.602 m f
377.602 345.602 m 377.602 38.398 l 377.602 20.727 363.273 6.398 345.602
 6.398 c 327.926 6.398 313.602 20.727 313.602 38.398 c 313.602 345.602 l
 h
377.602 345.602 m f
0.117647 0.313726 0.356863 rg
70.398 345.602 m 70.398 363.273 56.074 377.602 38.398 377.602 c 20.727 
377.602 6.398 363.273 6.398 345.602 c 6.398 327.926 20.727 313.602 38.398
 313.602 c 56.074 313.602 70.398 327.926 70.398 345.602 c h
70.398 345.602 m f
377.602 345.602 m 377.602 363.273 363.273 377.602 345.602 377.602 c 327.926
 377.602 313.602 363.273 313.602 345.602 c 313.602 327.926 327.926 313.602
 345.602 313.602 c 363.273 313.602 377.602 327.926 377.602 345.602 c h
377.602 345.602 m f
1 g
102.398 172.801 m 96 172.801 l 92.465 172.801 89.602 169.934 89.602 166.398
 c 89.602 162.867 92.465 160 96 160 c 102.398 160 l 105.934 160 108.801 
162.867 108.801 166.398 c 108.801 169.934 105.934 172.801 102.398 172.801
 c h
102.398 172.801 m f
102.398 198.398 m 96 198.398 l 92.465 198.398 89.602 195.535 89.602 192
 c 89.602 188.465 92.465 185.602 96 185.602 c 102.398 185.602 l 105.934 
185.602 108.801 188.465 108.801 192 c 108.801 195.535 105.934 198.398 102.398
 198.398 c h
102.398 198.398 m f
102.398 224 m 96 224 l 92.465 224 89.602 221.133 89.602 217.602 c 89.602
 214.066 92.465 211.199 96 211.199 c 102.398 211.199 l 105.934 211.199 108.801
 214.066 108.801 217.602 c 108.801 221.133 105.934 224 102.398 224 c h
102.398 224 m f
102.398 249.602 m 96 249.602 l 92.465 249.602 89.602 246.734 89.602 243.199
 c 89.602 239.664 92.465 236.801 96 236.801 c 102.398 236.801 l 105.934 
236.801 108.801 239.664 108.801 243.199 c 108.801 246.734 105.934 249.602
 102.398 249.602 c h
102.398 249.602 m f
102.398 275.199 m 96 275.199 l 92.465 275.199 89.602 272.336 89.602 268.801
 c 89.602 265.266 92.465 262.398 96 262.398 c 102.398 262.398 l 105.934 
262.398 108.801 265.266 108.801 268.801 c 108.801 272.336 105.934 275.199
 102.398 275.199 c h
102.398 275.199 m f
102.398 300.801 m 96 300.801 l 92.465 300.801 89.602 297.934 89.602 294.398
 c 89.602 290.867 92.465 288 96 288 c 102.398 288 l 105.934 288 108.801 
290.867 108.801 294.398 c 108.801 297.934 105.934 300.801 102.398 300.801
 c h
102.398 300.801 m f
102.398 326.398 m 96 326.398 l 92.465 326.398 89.602 323.535 89.602 320
 c 89.602 316.465 92.465 313.602 96 313.602 c 102.398 313.602 l 105.934 
313.602 108.801 316.465 108.801 320 c 108.801 323.535 105.934 326.398 102.398
 326.398 c h
102.398 326.398 m f
102.398 352 m 96 352 l 92.465 352 89.602 349.133 89.602 345.602 c 89.602
 342.066 92.465 339.199 96 339.199 c 102.398 339.199 l 105.934 339.199 108.801
 342.066 108.801 345.602 c 108.801 349.133 105.934 352 102.398 352 c h
102.398 352 m f
0.25098 0.8 0.945098 rg
160 352 m 128 352 l 124.465 352 121.602 349.133 121.602 345.602 c 121.602
 342.066 124.465 339.199 128 339.199 c 160 339.199 l 163.535 339.199 166.398
 342.066 166.398 345.602 c 166.398 349.133 163.535 352 160 352 c h
160 352 m f
0.65098 0.588235 0.941176 rg
243.199 352 m 185.602 352 l 182.066 352 179.199 349.133 179.199 345.602
 c 179.199 342.066 182.066 339.199 185.602 339.199 c 243.199 339.199 l 246.734
 339.199 249.602 342.066 249.602 345.602 c 249.602 349.133 246.734 352 243.199
 352 c h
243.199 352 m f
0.25098 0.8 0.945098 rg
160 275.199 m 128 275.199 l 124.465 275.199 121.602 272.336 121.602 268.801
 c 121.602 265.266 124.465 262.398 128 262.398 c 160 262.398 l 163.535 262.398
 166.398 265.266 166.398 268.801 c 166.398 272.336 163.535 275.199 160 275.199
 c h
160 275.199 m f
160 300.801 m 128 300.801 l 124.465 300.801 121.602 297.934 121.602 294.398
 c 121.602 290.867 124.465 288 128 288 c 160 288 l 163.535 288 166.398 290.867
 166.398 294.398 c 166.398 297.934 163.535 300.801 160 300.801 c h
160 300.801 m f
0.65098 0.588235 0.941176 rg
230.398 275.199 m 185.602 275.199 l 182.066 275.199 179.199 272.336 179.199
 268.801 c 179.199 265.266 182.066 262.398 185.602 262.398 c 230.398 262.398
 l 233.934 262.398 236.801 265.266 236.801 268.801 c 236.801 272.336 233.934
 275.199 230.398 275.199 c h
230.398 275.199 m f
217.602 300.801 m 185.602 300.801 l 182.066 300.801 179.199 297.934 179.199
 294.398 c 179.199 290.867 182.066 288 185.602 288 c 217.602 288 l 221.133
 288 224 290.867 224 294.398 c 224 297.934 221.133 300.801 217.602 300.801
 c h
217.602 300.801 m f
0.25098 0.8 0.945098 rg
134.398 249.602 m 128 249.602 l 124.465 249.602 121.602 246.734 121.602
 243.199 c 121.602 239.664 124.465 236.801 128 236.801 c 134.398 236.801
 l 137.934 236.801 140.801 239.664 140.801 243.199 c 140.801 246.734 137.934
 249.602 134.398 249.602 c h
134.398 249.602 m f
0.65098 0.588235 0.941176 rg
204.801 249.602 m 160 249.602 l 156.465 249.602 153.602 246.734 153.602
 243.199 c 153.602 239.664 156.465 236.801 160 236.801 c 204.801 236.801
 l 208.336 236.801 211.199 239.664 211.199 243.199 c 211.199 246.734 208.336
 249.602 204.801 249.602 c h
204.801 249.602 m f
0.988235 0.796078 0.333333 rg
288 249.602 m 230.398 249.602 l 226.867 249.602 224 246.734 224 243.199
 c 224 239.664 226.867 236.801 230.398 236.801 c 288 236.801 l 291.535 236.801
 294.398 239.664 294.398 243.199 c 294.398 246.734 291.535 249.602 288 249.602
 c h
288 249.602 m f
0.65098 0.588235 0.941176 rg
288 198.398 m 166.398 198.398 l 162.867 198.398 160 195.535 160 192 c 160
 188.465 162.867 185.602 166.398 185.602 c 288 185.602 l 291.535 185.602
 294.398 188.465 294.398 192 c 294.398 195.535 291.535 198.398 288 198.398
 c h
288 198.398 m f
0.25098 0.8 0.945098 rg
140.801 198.398 m 128 198.398 l 124.465 198.398 121.602 195.535 121.602
 192 c 121.602 188.465 124.465 185.602 128 185.602 c 140.801 185.602 l 144.336
 185.602 147.199 188.465 147.199 192 c 147.199 195.535 144.336 198.398 140.801
 198.398 c h
140.801 198.398 m f
134.398 326.398 m 128 326.398 l 124.465 326.398 121.602 323.535 121.602
 320 c 121.602 316.465 124.465 313.602 128 313.602 c 134.398 313.602 l 137.934
 313.602 140.801 316.465 140.801 320 c 140.801 323.535 137.934 326.398 134.398
 326.398 c h
134.398 326.398 m f
0.65098 0.588235 0.941176 rg
204.801 326.398 m 160 326.398 l 156.465 326.398 153.602 323.535 153.602
 320 c 153.602 316.465 156.465 313.602 160 313.602 c 204.801 313.602 l 208.336
 313.602 211.199 316.465 211.199 320 c 211.199 323.535 208.336 326.398 204.801
 326.398 c h
204.801 326.398 m f
0.988235 0.796078 0.333333 rg
249.602 326.398 m 230.398 326.398 l 226.867 326.398 224 323.535 224 320
 c 224 316.465 226.867 313.602 230.398 313.602 c 249.602 313.602 l 253.133
 313.602 256 316.465 256 320 c 256 323.535 253.133 326.398 249.602 326.398
 c h
249.602 326.398 m f
0.25098 0.8 0.945098 rg
153.602 224 m 128 224 l 124.465 224 121.602 221.133 121.602 217.602 c 121.602
 214.066 124.465 211.199 128 211.199 c 153.602 211.199 l 157.133 211.199
 160 214.066 160 217.602 c 160 221.133 157.133 224 153.602 224 c h
153.602 224 m f
0.65098 0.588235 0.941176 rg
204.801 224 m 179.199 224 l 175.664 224 172.801 221.133 172.801 217.602
 c 172.801 214.066 175.664 211.199 179.199 211.199 c 204.801 211.199 l 208.336
 211.199 211.199 214.066 211.199 217.602 c 211.199 221.133 208.336 224 204.801
 224 c h
204.801 224 m f
0.25098 0.8 0.945098 rg
153.602 172.801 m 128 172.801 l 124.465 172.801 121.602 169.934 121.602
 166.398 c 121.602 162.867 124.465 160 128 160 c 153.602 160 l 157.133 160
 160 162.867 160 166.398 c 160 169.934 157.133 172.801 153.602 172.801 c
 h
153.602 172.801 m f
0.65098 0.588235 0.941176 rg
243.199 172.801 m 179.199 172.801 l 175.664 172.801 172.801 169.934 172.801
 166.398 c 172.801 162.867 175.664 160 179.199 160 c 243.199 160 l 246.734
 160 249.602 162.867 249.602 166.398 c 249.602 169.934 246.734 172.801 243.199
 172.801 c h
243.199 172.801 m f
0.988235 0.796078 0.333333 rg
256 224 m 230.398 224 l 226.867 224 224 221.133 224 217.602 c 224 214.066
 226.867 211.199 230.398 211.199 c 256 211.199 l 259.535 211.199 262.398
 214.066 262.398 217.602 c 262.398 221.133 259.535 224 256 224 c h
256 224 m f
0.117647 0.313726 0.356863 rg
140.801 96 m 137.266 96 134.398 98.867 134.398 102.398 c 134.398 115.199
 l 121.602 115.199 l 121.602 102.398 l 121.602 98.867 118.734 96 115.199
 96 c 111.664 96 108.801 98.867 108.801 102.398 c 108.801 140.801 l 108.801
 144.336 111.664 147.199 115.199 147.199 c 118.734 147.199 121.602 144.336
 121.602 140.801 c 121.602 128 l 134.398 128 l 134.398 140.801 l 134.398
 144.336 137.266 147.199 140.801 147.199 c 144.336 147.199 147.199 144.336
 147.199 140.801 c 147.199 102.398 l 147.199 98.867 144.336 96 140.801 96
 c h
140.801 96 m f
179.199 96 m 166.398 96 l 162.867 96 160 98.867 160 102.398 c 160 105.934
 162.867 108.801 166.398 108.801 c 166.398 140.801 l 166.398 144.336 169.266
 147.199 172.801 147.199 c 176.336 147.199 179.199 144.336 179.199 140.801
 c 179.199 108.801 l 182.734 108.801 185.602 105.934 185.602 102.398 c 185.602
 98.867 182.734 96 179.199 96 c h
179.199 96 m f
232.258 96.273 m 229.559 95.453 226.645 96.492 225.074 98.836 c 217.602
 110.078 l 210.125 98.867 l 208.562 96.523 205.652 95.477 202.953 96.289
 c 200.258 97.102 198.406 99.582 198.398 102.398 c 198.398 140.801 l 198.398
 144.336 201.266 147.199 204.801 147.199 c 208.336 147.199 211.199 144.336
 211.199 140.801 c 211.199 123.52 l 212.273 125.133 l 213.531 126.812 215.504
 127.801 217.602 127.801 c 219.695 127.801 221.668 126.812 222.926 125.133
 c 224 123.52 l 224 140.801 l 224 144.336 226.867 147.199 230.398 147.199
 c 233.934 147.199 236.801 144.336 236.801 140.801 c 236.801 102.398 l 236.801
 99.582 234.953 97.094 232.258 96.273 c h
232.258 96.273 m f
268.801 134.398 m 262.398 134.398 l 262.398 102.398 l 262.398 98.867 259.535
 96 256 96 c 252.465 96 249.602 98.867 249.602 102.398 c 249.602 140.801
 l 249.602 144.336 252.465 147.199 256 147.199 c 268.801 147.199 l 272.336
 147.199 275.199 144.336 275.199 140.801 c 275.199 137.266 272.336 134.398
 268.801 134.398 c h
268.801 134.398 m f
Q Q
showpage
%%Trailer
end
%%EOF
