%!PS-Adobe-3.0 EPSF-3.0
%%Creator: cairo 1.16.0 (https://cairographics.org)
%%CreationDate: Fri Nov 29 10:41:48 2019
%%Pages: 1
%%DocumentData: Clean7Bit
%%LanguageLevel: 2
%%BoundingBox: 6 6 378 378
%%EndComments
%%BeginProlog
50 dict begin
/q { gsave } bind def
/Q { grestore } bind def
/cm { 6 array astore concat } bind def
/w { setlinewidth } bind def
/J { setlinecap } bind def
/j { setlinejoin } bind def
/M { setmiterlimit } bind def
/d { setdash } bind def
/m { moveto } bind def
/l { lineto } bind def
/c { curveto } bind def
/h { closepath } bind def
/re { exch dup neg 3 1 roll 5 3 roll moveto 0 rlineto
      0 exch rlineto 0 rlineto closepath } bind def
/S { stroke } bind def
/f { fill } bind def
/f* { eofill } bind def
/n { newpath } bind def
/W { clip } bind def
/W* { eoclip } bind def
/BT { } bind def
/ET { } bind def
/BDC { mark 3 1 roll /BDC pdfmark } bind def
/EMC { mark /EMC pdfmark } bind def
/cairo_store_point { /cairo_point_y exch def /cairo_point_x exch def } def
/Tj { show currentpoint cairo_store_point } bind def
/TJ {
  {
    dup
    type /stringtype eq
    { show } { -0.001 mul 0 cairo_font_matrix dtransform rmoveto } ifelse
  } forall
  currentpoint cairo_store_point
} bind def
/cairo_selectfont { cairo_font_matrix aload pop pop pop 0 0 6 array astore
    cairo_font exch selectfont cairo_point_x cairo_point_y moveto } bind def
/Tf { pop /cairo_font exch def /cairo_font_matrix where
      { pop cairo_selectfont } if } bind def
/Td { matrix translate cairo_font_matrix matrix concatmatrix dup
      /cairo_font_matrix exch def dup 4 get exch 5 get cairo_store_point
      /cairo_font where { pop cairo_selectfont } if } bind def
/Tm { 2 copy 8 2 roll 6 array astore /cairo_font_matrix exch def
      cairo_store_point /cairo_font where { pop cairo_selectfont } if } bind def
/g { setgray } bind def
/rg { setrgbcolor } bind def
/d1 { setcachedevice } bind def
/cairo_data_source {
  CairoDataIndex CairoData length lt
    { CairoData CairoDataIndex get /CairoDataIndex CairoDataIndex 1 add def }
    { () } ifelse
} def
/cairo_flush_ascii85_file { cairo_ascii85_file status { cairo_ascii85_file flushfile } if } def
/cairo_image { image cairo_flush_ascii85_file } def
/cairo_imagemask { imagemask cairo_flush_ascii85_file } def
%%EndProlog
%%BeginSetup
%%EndSetup
%%Page: 1 1
%%BeginPageSetup
%%PageBoundingBox: 6 6 378 378
%%EndPageSetup
q 6 6 372 372 rectclip
1 0 0 -1 0 384 cm q
0.117647 0.313726 0.356863 rg
19.199 51.199 140.801 115.199 re f
0.152941 0.435294 0.509804 rg
12.801 6.398 m 166.398 6.398 l 169.945 6.398 172.801 9.254 172.801 12.801
 c 172.801 51.199 l 172.801 54.746 169.945 57.602 166.398 57.602 c 12.801
 57.602 l 9.254 57.602 6.398 54.746 6.398 51.199 c 6.398 12.801 l 6.398 
9.254 9.254 6.398 12.801 6.398 c h
12.801 6.398 m f
12.801 83.199 m 166.398 83.199 l 169.945 83.199 172.801 86.055 172.801 
89.602 c 172.801 128 l 172.801 131.547 169.945 134.398 166.398 134.398 c
 12.801 134.398 l 9.254 134.398 6.398 131.547 6.398 128 c 6.398 89.602 l
 6.398 86.055 9.254 83.199 12.801 83.199 c h
12.801 83.199 m f
12.801 160 m 166.398 160 l 169.945 160 172.801 162.855 172.801 166.398 
c 172.801 204.801 l 172.801 208.344 169.945 211.199 166.398 211.199 c 12.801
 211.199 l 9.254 211.199 6.398 208.344 6.398 204.801 c 6.398 166.398 l 6.398
 162.855 9.254 160 12.801 160 c h
12.801 160 m f
0.839216 0.858824 0.890196 rg
153.191 120.391 m 149.84 120.656 147.242 123.43 147.199 126.789 c 147.199
 268.16 l 147.523 308.516 172.867 344.426 210.777 358.258 c 259.988 377.164
 l 261.539 377.762 263.258 377.762 264.812 377.164 c 314.023 358.258 l 351.934
 344.426 377.277 308.516 377.602 268.16 c 377.602 126.789 l 377.559 123.43
 374.961 120.656 371.609 120.391 c 341.012 117.492 298.117 109.953 265.816
 90.555 c 263.719 89.281 261.082 89.281 258.98 90.555 c 226.688 109.953 
183.789 117.492 153.191 120.391 c h
153.191 120.391 m f
0.192157 0.717647 0.568627 rg
219.969 334.348 m 191.98 324.281 173.184 297.898 172.801 268.16 c 172.801
 149.414 l 172.785 146.254 175.105 143.562 178.234 143.109 c 206.402 139.309
 233.84 131.293 259.621 119.328 c 261.375 118.461 263.43 118.461 265.184
 119.328 c 290.965 131.297 318.402 139.309 346.574 143.105 c 349.699 143.566
 352.012 146.254 352 149.414 c 352 268.16 l 351.625 297.902 332.828 324.293
 304.84 334.363 c 264.699 349.793 l 263.219 350.359 261.582 350.359 260.102
 349.793 c h
219.969 334.348 m f
0.247059 0.854902 0.694118 rg
38.398 38.398 m 32 38.398 l 28.465 38.398 25.602 35.535 25.602 32 c 25.602
 28.465 28.465 25.602 32 25.602 c 38.398 25.602 l 41.934 25.602 44.801 28.465
 44.801 32 c 44.801 35.535 41.934 38.398 38.398 38.398 c h
38.398 38.398 m f
0.972549 0.32549 0.423529 rg
70.398 38.398 m 64 38.398 l 60.465 38.398 57.602 35.535 57.602 32 c 57.602
 28.465 60.465 25.602 64 25.602 c 70.398 25.602 l 73.934 25.602 76.801 28.465
 76.801 32 c 76.801 35.535 73.934 38.398 70.398 38.398 c h
70.398 38.398 m f
0.247059 0.854902 0.694118 rg
38.398 115.199 m 32 115.199 l 28.465 115.199 25.602 112.336 25.602 108.801
 c 25.602 105.266 28.465 102.398 32 102.398 c 38.398 102.398 l 41.934 102.398
 44.801 105.266 44.801 108.801 c 44.801 112.336 41.934 115.199 38.398 115.199
 c h
38.398 115.199 m f
0.972549 0.32549 0.423529 rg
70.398 115.199 m 64 115.199 l 60.465 115.199 57.602 112.336 57.602 108.801
 c 57.602 105.266 60.465 102.398 64 102.398 c 70.398 102.398 l 73.934 102.398
 76.801 105.266 76.801 108.801 c 76.801 112.336 73.934 115.199 70.398 115.199
 c h
70.398 115.199 m f
0.247059 0.854902 0.694118 rg
38.398 192 m 32 192 l 28.465 192 25.602 189.133 25.602 185.602 c 25.602
 182.066 28.465 179.199 32 179.199 c 38.398 179.199 l 41.934 179.199 44.801
 182.066 44.801 185.602 c 44.801 189.133 41.934 192 38.398 192 c h
38.398 192 m f
0.972549 0.32549 0.423529 rg
70.398 192 m 64 192 l 60.465 192 57.602 189.133 57.602 185.602 c 57.602
 182.066 60.465 179.199 64 179.199 c 70.398 179.199 l 73.934 179.199 76.801
 182.066 76.801 185.602 c 76.801 189.133 73.934 192 70.398 192 c h
70.398 192 m f
0.117647 0.313726 0.356863 rg
147.199 38.398 m 121.602 38.398 l 118.066 38.398 115.199 35.535 115.199
 32 c 115.199 28.465 118.066 25.602 121.602 25.602 c 147.199 25.602 l 150.734
 25.602 153.602 28.465 153.602 32 c 153.602 35.535 150.734 38.398 147.199
 38.398 c h
147.199 38.398 m f
147.199 115.199 m 121.602 115.199 l 118.066 115.199 115.199 112.336 115.199
 108.801 c 115.199 105.266 118.066 102.398 121.602 102.398 c 147.199 102.398
 l 150.734 102.398 153.602 105.266 153.602 108.801 c 153.602 112.336 150.734
 115.199 147.199 115.199 c h
147.199 115.199 m f
147.199 192 m 121.602 192 l 118.066 192 115.199 189.133 115.199 185.602
 c 115.199 182.066 118.066 179.199 121.602 179.199 c 147.199 179.199 l h
147.199 192 m f
1 g
249.602 281.602 m 247.902 281.602 246.273 280.926 245.074 279.727 c 219.477
 254.125 l 217.051 251.613 217.086 247.621 219.555 245.152 c 222.023 242.684
 226.012 242.648 228.523 245.074 c 248.199 264.75 l 295.246 182.398 l 297.039
 179.426 300.883 178.426 303.898 180.148 c 306.918 181.875 308.008 185.691
 306.355 188.75 c 255.156 278.348 l 254.023 280.352 251.902 281.594 249.602
 281.602 c h
249.602 281.602 m f
Q Q
showpage
%%Trailer
end
%%EOF
