%!PS-Adobe-3.0 EPSF-3.0
%%Creator: cairo 1.16.0 (https://cairographics.org)
%%CreationDate: Fri Nov 29 10:41:49 2019
%%Pages: 1
%%DocumentData: Clean7Bit
%%LanguageLevel: 2
%%BoundingBox: 6 6 378 378
%%EndComments
%%BeginProlog
50 dict begin
/q { gsave } bind def
/Q { grestore } bind def
/cm { 6 array astore concat } bind def
/w { setlinewidth } bind def
/J { setlinecap } bind def
/j { setlinejoin } bind def
/M { setmiterlimit } bind def
/d { setdash } bind def
/m { moveto } bind def
/l { lineto } bind def
/c { curveto } bind def
/h { closepath } bind def
/re { exch dup neg 3 1 roll 5 3 roll moveto 0 rlineto
      0 exch rlineto 0 rlineto closepath } bind def
/S { stroke } bind def
/f { fill } bind def
/f* { eofill } bind def
/n { newpath } bind def
/W { clip } bind def
/W* { eoclip } bind def
/BT { } bind def
/ET { } bind def
/BDC { mark 3 1 roll /BDC pdfmark } bind def
/EMC { mark /EMC pdfmark } bind def
/cairo_store_point { /cairo_point_y exch def /cairo_point_x exch def } def
/Tj { show currentpoint cairo_store_point } bind def
/TJ {
  {
    dup
    type /stringtype eq
    { show } { -0.001 mul 0 cairo_font_matrix dtransform rmoveto } ifelse
  } forall
  currentpoint cairo_store_point
} bind def
/cairo_selectfont { cairo_font_matrix aload pop pop pop 0 0 6 array astore
    cairo_font exch selectfont cairo_point_x cairo_point_y moveto } bind def
/Tf { pop /cairo_font exch def /cairo_font_matrix where
      { pop cairo_selectfont } if } bind def
/Td { matrix translate cairo_font_matrix matrix concatmatrix dup
      /cairo_font_matrix exch def dup 4 get exch 5 get cairo_store_point
      /cairo_font where { pop cairo_selectfont } if } bind def
/Tm { 2 copy 8 2 roll 6 array astore /cairo_font_matrix exch def
      cairo_store_point /cairo_font where { pop cairo_selectfont } if } bind def
/g { setgray } bind def
/rg { setrgbcolor } bind def
/d1 { setcachedevice } bind def
/cairo_data_source {
  CairoDataIndex CairoData length lt
    { CairoData CairoDataIndex get /CairoDataIndex CairoDataIndex 1 add def }
    { () } ifelse
} def
/cairo_flush_ascii85_file { cairo_ascii85_file status { cairo_ascii85_file flushfile } if } def
/cairo_image { image cairo_flush_ascii85_file } def
/cairo_imagemask { imagemask cairo_flush_ascii85_file } def
%%EndProlog
%%BeginSetup
%%EndSetup
%%Page: 1 1
%%BeginPageSetup
%%PageBoundingBox: 6 6 378 378
%%EndPageSetup
q 6 6 372 372 rectclip
1 0 0 -1 0 384 cm q
0.858824 g
185.602 94.785 m 185.602 19.199 l 185.578 12.141 179.859 6.422 172.801 
6.398 c 19.199 6.398 l 12.141 6.422 6.422 12.141 6.398 19.199 c 6.398 108.801
 l 6.422 115.859 12.141 121.578 19.199 121.602 c 62.465 121.602 l 63.461
 121.582 64.449 121.801 65.344 122.238 c 113.023 146.113 l 116.238 147.703
 120.043 147.52 123.09 145.633 c 126.137 143.746 127.992 140.418 128 136.832
 c 128 128 l 128 124.465 130.867 121.602 134.398 121.602 c 185.602 121.602
 l h
185.602 94.785 m f
0.92549 0.227451 0.282353 rg
250.699 230.398 m 262.289 230.398 273.406 235.004 281.602 243.199 c 289.797
 251.395 294.398 262.508 294.398 274.098 c 294.398 371.199 l 294.398 374.734
 291.535 377.602 288 377.602 c 134.398 377.602 l 130.867 377.602 128 374.734
 128 371.199 c 128 274.098 l 128 249.965 147.566 230.398 171.699 230.398
 c h
250.699 230.398 m f
0.886275 0.67451 0.498039 rg
230.398 212.992 m 230.398 230.398 l 230.398 241.004 221.805 249.602 211.199
 249.602 c 200.598 249.602 192 241.004 192 230.398 c 192 212.992 l h
230.398 212.992 m f
0.933333 0.741176 0.568627 rg
256 172.801 m 256 172.801 249.602 217.602 211.199 217.602 c 172.801 217.602
 166.398 172.801 166.398 172.801 c 151.488 172.801 153.727 148.93 153.727
 148.93 c 153.727 148.93 154.238 141.887 160.062 140.93 c 162.387 140.488
 164.773 141.258 166.398 142.977 c 166.398 128 l 166.398 106.793 183.594
 89.602 204.801 89.602 c 217.602 89.602 l 238.809 89.602 256 106.793 256
 128 c 256 142.977 l 257.625 141.258 260.012 140.488 262.336 140.93 c 268.16
 141.887 268.672 148.93 268.672 148.93 c 268.672 148.93 270.91 172.801 256
 172.801 c h
256 172.801 m f
0.858824 g
224 377.602 m 185.602 377.602 l 182.066 377.602 179.199 374.734 179.199
 371.199 c 179.199 358.398 l 179.199 354.867 182.066 352 185.602 352 c 243.199
 352 l h
224 377.602 m f
0.756863 g
348.441 377.602 m 224 377.602 l 222.059 377.602 220.223 376.719 219.008
 375.203 c 217.793 373.691 217.332 371.707 217.754 369.812 c 240.512 267.41
 l 241.164 264.484 243.758 262.402 246.758 262.398 c 371.199 262.398 l 373.141
 262.398 374.977 263.281 376.191 264.797 c 377.406 266.309 377.867 268.293
 377.445 270.188 c 354.688 372.59 l 354.039 375.516 351.441 377.598 348.441
 377.602 c h
348.441 377.602 m f
0.858824 g
313.465 315.309 m 313.25 325.023 305.262 332.762 295.547 332.672 c 286.527
 329.977 280.719 321.234 281.723 311.875 c 282.727 302.52 290.258 295.207
 299.641 294.484 c 309.16 296.488 315.312 305.758 313.465 315.309 c h
313.465 315.309 m f
0.152941 0.435294 0.509804 rg
64 89.602 m 62.305 89.602 60.676 88.926 59.477 87.727 c 40.273 68.523 l
 37.777 66.027 37.777 61.973 40.273 59.477 c 59.477 40.273 l 60.668 39.039
 62.305 38.336 64.023 38.32 c 65.738 38.309 67.391 38.98 68.605 40.195 c
 69.816 41.41 70.492 43.059 70.477 44.777 c 70.465 46.492 69.758 48.133 
68.523 49.324 c 53.848 64 l 68.523 78.676 l 70.355 80.504 70.902 83.258 
69.91 85.648 c 68.922 88.039 66.59 89.598 64 89.602 c h
64 89.602 m f
128 89.602 m 125.41 89.598 123.078 88.039 122.09 85.648 c 121.098 83.258
 121.645 80.504 123.477 78.676 c 138.152 64 l 123.477 49.324 l 121.051 46.812
 121.086 42.82 123.555 40.352 c 126.023 37.883 130.012 37.852 132.523 40.273
 c 151.727 59.477 l 154.223 61.973 154.223 66.027 151.727 68.523 c 132.523
 87.727 l 131.324 88.926 129.695 89.602 128 89.602 c h
128 89.602 m f
89.602 89.602 m 87.543 89.598 85.613 88.609 84.41 86.941 c 83.211 85.273
 82.883 83.129 83.531 81.176 c 96.332 42.777 l 96.871 41.164 98.023 39.832
 99.543 39.07 c 101.062 38.309 102.824 38.184 104.434 38.719 c 106.047 39.258
 107.383 40.41 108.141 41.93 c 108.902 43.449 109.027 45.211 108.492 46.824
 c 95.691 85.223 l 94.82 87.844 92.363 89.609 89.602 89.602 c h
89.602 89.602 m f
0.952941 0.780392 0.643137 rg
192 134.398 m 188.465 134.398 185.602 131.535 185.602 128 c 185.602 117.395
 194.195 108.801 204.801 108.801 c 208.336 108.801 211.199 111.664 211.199
 115.199 c 211.199 118.734 208.336 121.602 204.801 121.602 c 201.266 121.602
 198.398 124.465 198.398 128 c 198.398 131.535 195.535 134.398 192 134.398
 c h
192 134.398 m f
Q Q
showpage
%%Trailer
end
%%EOF
