%!PS-Adobe-3.0 EPSF-3.0
%%Creator: cairo 1.16.0 (https://cairographics.org)
%%CreationDate: Fri Nov 29 10:41:51 2019
%%Pages: 1
%%DocumentData: Clean7Bit
%%LanguageLevel: 2
%%BoundingBox: 6 6 365 378
%%EndComments
%%BeginProlog
50 dict begin
/q { gsave } bind def
/Q { grestore } bind def
/cm { 6 array astore concat } bind def
/w { setlinewidth } bind def
/J { setlinecap } bind def
/j { setlinejoin } bind def
/M { setmiterlimit } bind def
/d { setdash } bind def
/m { moveto } bind def
/l { lineto } bind def
/c { curveto } bind def
/h { closepath } bind def
/re { exch dup neg 3 1 roll 5 3 roll moveto 0 rlineto
      0 exch rlineto 0 rlineto closepath } bind def
/S { stroke } bind def
/f { fill } bind def
/f* { eofill } bind def
/n { newpath } bind def
/W { clip } bind def
/W* { eoclip } bind def
/BT { } bind def
/ET { } bind def
/BDC { mark 3 1 roll /BDC pdfmark } bind def
/EMC { mark /EMC pdfmark } bind def
/cairo_store_point { /cairo_point_y exch def /cairo_point_x exch def } def
/Tj { show currentpoint cairo_store_point } bind def
/TJ {
  {
    dup
    type /stringtype eq
    { show } { -0.001 mul 0 cairo_font_matrix dtransform rmoveto } ifelse
  } forall
  currentpoint cairo_store_point
} bind def
/cairo_selectfont { cairo_font_matrix aload pop pop pop 0 0 6 array astore
    cairo_font exch selectfont cairo_point_x cairo_point_y moveto } bind def
/Tf { pop /cairo_font exch def /cairo_font_matrix where
      { pop cairo_selectfont } if } bind def
/Td { matrix translate cairo_font_matrix matrix concatmatrix dup
      /cairo_font_matrix exch def dup 4 get exch 5 get cairo_store_point
      /cairo_font where { pop cairo_selectfont } if } bind def
/Tm { 2 copy 8 2 roll 6 array astore /cairo_font_matrix exch def
      cairo_store_point /cairo_font where { pop cairo_selectfont } if } bind def
/g { setgray } bind def
/rg { setrgbcolor } bind def
/d1 { setcachedevice } bind def
/cairo_data_source {
  CairoDataIndex CairoData length lt
    { CairoData CairoDataIndex get /CairoDataIndex CairoDataIndex 1 add def }
    { () } ifelse
} def
/cairo_flush_ascii85_file { cairo_ascii85_file status { cairo_ascii85_file flushfile } if } def
/cairo_image { image cairo_flush_ascii85_file } def
/cairo_imagemask { imagemask cairo_flush_ascii85_file } def
%%EndProlog
%%BeginSetup
%%EndSetup
%%Page: 1 1
%%BeginPageSetup
%%PageBoundingBox: 6 6 365 378
%%EndPageSetup
q 6 6 359 372 rectclip
1 0 0 -1 0 384 cm q
0.8 0.815686 0.854902 rg
192 275.199 m 146.051 275.199 108.801 237.949 108.801 192 c 108.801 146.051
 146.051 108.801 192 108.801 c 198.398 140.801 l 192 166.398 l 192 217.602
 l 198.398 243.199 l h
192 275.199 m f
192 76.801 m 198.398 38.398 l 192 19.199 l 192 6.398 l 186.688 6.398 181.375
 6.594 176.129 7.105 c 172.105 7.508 168.648 10.129 167.168 13.887 c 155.199
 43.84 l 140.426 47.488 126.293 53.359 113.281 61.246 c 83.648 48.512 l 
79.922 46.871 75.594 47.465 72.449 50.047 c 68.414 53.375 64.512 57.023 
60.734 60.734 c 56.961 64.449 53.375 68.414 50.047 72.449 c 47.465 75.594
 46.871 79.922 48.512 83.648 c 61.246 113.281 l 53.359 126.293 47.488 140.426
 43.84 155.199 c 13.887 167.168 l 10.129 168.648 7.508 172.105 7.105 176.129
 c 6.594 181.375 6.398 186.688 6.398 192 c 6.398 197.312 6.594 202.625 7.105
 207.871 c 7.508 211.895 10.129 215.352 13.887 216.832 c 43.84 228.801 l
 47.488 243.574 53.359 257.707 61.246 270.719 c 48.512 300.352 l 46.871 
304.078 47.465 308.406 50.047 311.551 c 53.375 315.586 57.023 319.488 60.734
 323.266 c 64.449 327.039 68.414 330.625 72.449 333.953 c 75.594 336.535
 79.922 337.129 83.648 335.488 c 113.281 322.754 l 126.293 330.641 140.426
 336.512 155.199 340.16 c 167.168 370.113 l 168.648 373.871 172.105 376.492
 176.129 376.895 c 181.375 377.406 186.688 377.602 192 377.602 c 192 364.801
 l 198.398 339.199 l 192 307.199 l 128.375 307.199 76.801 255.625 76.801
 192 c 76.801 128.375 128.375 76.801 192 76.801 c h
192 76.801 m f
0.152941 0.435294 0.509804 rg
364.801 192 m 364.801 287.434 287.434 364.801 192 364.801 c 192 217.602
 l 206.137 217.602 217.602 206.137 217.602 192 c 217.602 177.863 206.137
 166.398 192 166.398 c 192 19.199 l 287.434 19.199 364.801 96.566 364.801
 192 c h
364.801 192 m f
0.117647 0.313726 0.356863 rg
243.199 192 m 243.199 220.277 220.277 243.199 192 243.199 c 192 217.602
 l 206.137 217.602 217.602 206.137 217.602 192 c 217.602 177.863 206.137
 166.398 192 166.398 c 192 140.801 l 220.277 140.801 243.199 163.723 243.199
 192 c h
243.199 192 m f
0.72549 0.74902 0.8 rg
76.801 192 m 76.895 255.582 128.418 307.105 192 307.199 c 192 320 l 121.309
 320 64 262.691 64 192 c 64 121.309 121.309 64 192 64 c 192 76.801 l 128.418
 76.895 76.895 128.418 76.801 192 c h
76.801 192 m f
0.215686 0.52549 0.6 rg
249.602 69.926 m 248.695 69.926 247.801 69.73 246.977 69.355 c 244.961 
68.449 242.93 67.602 240.863 66.797 c 237.574 65.504 235.953 61.785 237.246
 58.496 c 238.543 55.207 242.258 53.586 245.547 54.879 c 247.809 55.77 250.027
 56.703 252.238 57.703 c 254.973 58.949 256.473 61.934 255.84 64.875 c 255.207
 67.816 252.609 69.918 249.602 69.926 c h
249.602 69.926 m f
243.199 329.602 m 240.125 329.598 237.488 327.406 236.918 324.387 c 236.348
 321.363 238.008 318.363 240.871 317.242 c 286.57 299.422 318.926 258.117
 325.285 209.48 c 331.645 160.844 310.992 112.609 271.41 83.641 c 269.992
 82.656 269.035 81.141 268.75 79.438 c 268.465 77.734 268.883 75.988 269.906
 74.594 c 270.93 73.203 272.469 72.285 274.18 72.047 c 275.891 71.809 277.625
 72.273 278.988 73.332 c 322.32 105.062 344.922 157.883 337.957 211.137 
c 330.992 264.391 295.566 309.621 245.531 329.141 c 244.789 329.441 244 
329.598 243.199 329.602 c h
243.199 329.602 m f
249.602 106.133 m 248.402 106.129 247.23 105.793 246.215 105.16 c 244.238
 103.922 242.227 102.754 240.16 101.652 c 238.66 100.852 237.539 99.492 
237.047 97.867 c 236.551 96.246 236.719 94.492 237.516 92.992 c 238.316 
91.492 239.676 90.371 241.301 89.879 c 242.922 89.383 244.676 89.551 246.176
 90.348 c 248.5 91.59 250.777 92.91 253 94.305 c 255.422 95.816 256.547 
98.754 255.758 101.5 c 254.969 104.242 252.457 106.133 249.602 106.133 c
 h
249.602 106.133 m f
243.168 294.398 m 240.23 294.406 237.664 292.41 236.949 289.559 c 236.234
 286.711 237.551 283.738 240.141 282.355 c 267.496 267.805 286.785 241.641
 292.59 211.207 c 298.395 180.77 290.09 149.344 270.008 125.746 c 268.906
 124.453 268.363 122.773 268.496 121.082 c 268.629 119.387 269.434 117.812
 270.727 116.711 c 272.02 115.605 273.699 115.062 275.395 115.195 c 277.09
 115.332 278.66 116.133 279.762 117.426 c 302.348 143.973 311.691 179.324
 305.164 213.566 c 298.637 247.805 276.949 277.242 246.184 293.621 c 245.258
 294.125 244.223 294.391 243.168 294.398 c h
243.168 294.398 m f
Q Q
showpage
%%Trailer
end
%%EOF
