%!PS-Adobe-3.0 EPSF-3.0
%%Creator: cairo 1.16.0 (https://cairographics.org)
%%CreationDate: Fri Nov 29 10:41:52 2019
%%Pages: 1
%%DocumentData: Clean7Bit
%%LanguageLevel: 2
%%BoundingBox: 6 6 378 378
%%EndComments
%%BeginProlog
50 dict begin
/q { gsave } bind def
/Q { grestore } bind def
/cm { 6 array astore concat } bind def
/w { setlinewidth } bind def
/J { setlinecap } bind def
/j { setlinejoin } bind def
/M { setmiterlimit } bind def
/d { setdash } bind def
/m { moveto } bind def
/l { lineto } bind def
/c { curveto } bind def
/h { closepath } bind def
/re { exch dup neg 3 1 roll 5 3 roll moveto 0 rlineto
      0 exch rlineto 0 rlineto closepath } bind def
/S { stroke } bind def
/f { fill } bind def
/f* { eofill } bind def
/n { newpath } bind def
/W { clip } bind def
/W* { eoclip } bind def
/BT { } bind def
/ET { } bind def
/BDC { mark 3 1 roll /BDC pdfmark } bind def
/EMC { mark /EMC pdfmark } bind def
/cairo_store_point { /cairo_point_y exch def /cairo_point_x exch def } def
/Tj { show currentpoint cairo_store_point } bind def
/TJ {
  {
    dup
    type /stringtype eq
    { show } { -0.001 mul 0 cairo_font_matrix dtransform rmoveto } ifelse
  } forall
  currentpoint cairo_store_point
} bind def
/cairo_selectfont { cairo_font_matrix aload pop pop pop 0 0 6 array astore
    cairo_font exch selectfont cairo_point_x cairo_point_y moveto } bind def
/Tf { pop /cairo_font exch def /cairo_font_matrix where
      { pop cairo_selectfont } if } bind def
/Td { matrix translate cairo_font_matrix matrix concatmatrix dup
      /cairo_font_matrix exch def dup 4 get exch 5 get cairo_store_point
      /cairo_font where { pop cairo_selectfont } if } bind def
/Tm { 2 copy 8 2 roll 6 array astore /cairo_font_matrix exch def
      cairo_store_point /cairo_font where { pop cairo_selectfont } if } bind def
/g { setgray } bind def
/rg { setrgbcolor } bind def
/d1 { setcachedevice } bind def
/cairo_data_source {
  CairoDataIndex CairoData length lt
    { CairoData CairoDataIndex get /CairoDataIndex CairoDataIndex 1 add def }
    { () } ifelse
} def
/cairo_flush_ascii85_file { cairo_ascii85_file status { cairo_ascii85_file flushfile } if } def
/cairo_image { image cairo_flush_ascii85_file } def
/cairo_imagemask { imagemask cairo_flush_ascii85_file } def
%%EndProlog
%%BeginSetup
%%EndSetup
%%Page: 1 1
%%BeginPageSetup
%%PageBoundingBox: 6 6 378 378
%%EndPageSetup
q 6 6 372 372 rectclip
1 0 0 -1 0 384 cm q
0.839216 0.858824 0.890196 rg
377.602 57.602 m 377.602 224 l 377.578 231.059 371.859 236.777 364.801 
236.801 c 147.199 236.801 l 140.141 236.777 134.422 231.059 134.398 224 
c 134.398 57.602 l 140.801 51.199 l 371.199 51.199 l h
377.602 57.602 m f
0.72549 0.74902 0.8 rg
192 51.199 m 192 236.801 l 147.199 236.801 l 140.141 236.777 134.422 231.059
 134.398 224 c 134.398 57.602 l 140.801 51.199 l h
192 51.199 m f
0.627451 0.411765 0.294118 rg
317.953 283.949 m 314.383 278.641 307.332 276.969 301.762 280.109 c 272.129
 298.426 l 275.77 295.887 277.941 291.73 277.953 287.289 c 277.953 287.227
 l 277.977 280.395 272.891 274.621 266.113 273.785 c 171.969 262.508 l 167.117
 261.969 162.242 263.297 158.336 266.223 c 129.441 287.922 l 124.332 291.758
 118.188 293.977 111.809 294.293 c 22.254 299.82 l 13.344 300.371 6.398 
307.758 6.398 316.684 c 6.398 360.703 l 6.398 370.035 13.965 377.602 23.297
 377.602 c 24.82 377.594 26.34 377.379 27.809 376.961 c 117.543 352.129 
l 120.238 351.543 122.98 351.18 125.734 351.039 c 159.82 349.281 l 164.941
 349.016 170.07 349.523 175.039 350.785 c 217.02 361.426 l 224.266 363.07
 231.871 361.508 237.883 357.141 c 315 300.562 l 318.148 298.266 320.004
 294.602 319.992 290.707 c 320.012 288.301 319.301 285.941 317.953 283.949
 c h
226.238 325.547 m 223.742 326.973 220.598 326.555 218.559 324.523 c 196.414
 300.844 l 264.383 300.844 l 266.566 300.844 268.719 300.316 270.656 299.309
 c h
226.238 325.547 m f
0.152941 0.435294 0.509804 rg
377.602 19.199 m 377.602 57.602 l 134.398 57.602 l 134.398 19.199 l 134.422
 12.141 140.141 6.422 147.199 6.398 c 364.801 6.398 l 371.859 6.422 377.578
 12.141 377.602 19.199 c h
377.602 19.199 m f
0.972549 0.32549 0.423529 rg
166.398 38.398 m 160 38.398 l 156.465 38.398 153.602 35.535 153.602 32 
c 153.602 28.465 156.465 25.602 160 25.602 c 166.398 25.602 l 169.934 25.602
 172.801 28.465 172.801 32 c 172.801 35.535 169.934 38.398 166.398 38.398
 c h
166.398 38.398 m f
0.988235 0.796078 0.333333 rg
198.398 38.398 m 192 38.398 l 188.465 38.398 185.602 35.535 185.602 32 
c 185.602 28.465 188.465 25.602 192 25.602 c 198.398 25.602 l 201.934 25.602
 204.801 28.465 204.801 32 c 204.801 35.535 201.934 38.398 198.398 38.398
 c h
198.398 38.398 m f
0.662745 0.862745 0.384314 rg
230.398 38.398 m 224 38.398 l 220.465 38.398 217.602 35.535 217.602 32 
c 217.602 28.465 220.465 25.602 224 25.602 c 230.398 25.602 l 233.934 25.602
 236.801 28.465 236.801 32 c 236.801 35.535 233.934 38.398 230.398 38.398
 c h
230.398 38.398 m f
0.117647 0.313726 0.356863 rg
352 38.398 m 307.199 38.398 l 303.664 38.398 300.801 35.535 300.801 32 
c 300.801 28.465 303.664 25.602 307.199 25.602 c 352 25.602 l 355.535 25.602
 358.398 28.465 358.398 32 c 358.398 35.535 355.535 38.398 352 38.398 c 
h
352 38.398 m f
1 g
166.398 89.602 m 160 89.602 l 156.465 89.602 153.602 86.734 153.602 83.199
 c 153.602 79.664 156.465 76.801 160 76.801 c 166.398 76.801 l 169.934 76.801
 172.801 79.664 172.801 83.199 c 172.801 86.734 169.934 89.602 166.398 89.602
 c h
166.398 89.602 m f
166.398 115.199 m 160 115.199 l 156.465 115.199 153.602 112.336 153.602
 108.801 c 153.602 105.266 156.465 102.398 160 102.398 c 166.398 102.398
 l 169.934 102.398 172.801 105.266 172.801 108.801 c 172.801 112.336 169.934
 115.199 166.398 115.199 c h
166.398 115.199 m f
166.398 140.801 m 160 140.801 l 156.465 140.801 153.602 137.934 153.602
 134.398 c 153.602 130.867 156.465 128 160 128 c 166.398 128 l 169.934 128
 172.801 130.867 172.801 134.398 c 172.801 137.934 169.934 140.801 166.398
 140.801 c h
166.398 140.801 m f
166.398 166.398 m 160 166.398 l 156.465 166.398 153.602 163.535 153.602
 160 c 153.602 156.465 156.465 153.602 160 153.602 c 166.398 153.602 l 169.934
 153.602 172.801 156.465 172.801 160 c 172.801 163.535 169.934 166.398 166.398
 166.398 c h
166.398 166.398 m f
166.398 192 m 160 192 l 156.465 192 153.602 189.133 153.602 185.602 c 153.602
 182.066 156.465 179.199 160 179.199 c 166.398 179.199 l 169.934 179.199
 172.801 182.066 172.801 185.602 c 172.801 189.133 169.934 192 166.398 192
 c h
166.398 192 m f
166.398 217.602 m 160 217.602 l 156.465 217.602 153.602 214.734 153.602
 211.199 c 153.602 207.664 156.465 204.801 160 204.801 c 166.398 204.801
 l 169.934 204.801 172.801 207.664 172.801 211.199 c 172.801 214.734 169.934
 217.602 166.398 217.602 c h
166.398 217.602 m f
0.168627 0.713726 0.909804 rg
249.602 192 m 217.602 192 l 214.066 192 211.199 189.133 211.199 185.602
 c 211.199 182.066 214.066 179.199 217.602 179.199 c 249.602 179.199 l 253.133
 179.199 256 182.066 256 185.602 c 256 189.133 253.133 192 249.602 192 c
 h
249.602 192 m f
249.602 217.602 m 217.602 217.602 l 214.066 217.602 211.199 214.734 211.199
 211.199 c 211.199 207.664 214.066 204.801 217.602 204.801 c 249.602 204.801
 l 253.133 204.801 256 207.664 256 211.199 c 256 214.734 253.133 217.602
 249.602 217.602 c h
249.602 217.602 m f
0.619608 0.509804 0.92549 rg
320 192 m 275.199 192 l 271.664 192 268.801 189.133 268.801 185.602 c 268.801
 182.066 271.664 179.199 275.199 179.199 c 320 179.199 l 323.535 179.199
 326.398 182.066 326.398 185.602 c 326.398 189.133 323.535 192 320 192 c
 h
320 192 m f
307.199 217.602 m 275.199 217.602 l 271.664 217.602 268.801 214.734 268.801
 211.199 c 268.801 207.664 271.664 204.801 275.199 204.801 c 307.199 204.801
 l 310.734 204.801 313.602 207.664 313.602 211.199 c 313.602 214.734 310.734
 217.602 307.199 217.602 c h
307.199 217.602 m f
0.168627 0.713726 0.909804 rg
224 166.398 m 217.602 166.398 l 214.066 166.398 211.199 163.535 211.199
 160 c 211.199 156.465 214.066 153.602 217.602 153.602 c 224 153.602 l 227.535
 153.602 230.398 156.465 230.398 160 c 230.398 163.535 227.535 166.398 224
 166.398 c h
224 166.398 m f
0.619608 0.509804 0.92549 rg
294.398 166.398 m 249.602 166.398 l 246.066 166.398 243.199 163.535 243.199
 160 c 243.199 156.465 246.066 153.602 249.602 153.602 c 294.398 153.602
 l 297.934 153.602 300.801 156.465 300.801 160 c 300.801 163.535 297.934
 166.398 294.398 166.398 c h
294.398 166.398 m f
0.980392 0.631373 0.0862745 rg
352 166.398 m 320 166.398 l 316.465 166.398 313.602 163.535 313.602 160
 c 313.602 156.465 316.465 153.602 320 153.602 c 352 153.602 l 355.535 153.602
 358.398 156.465 358.398 160 c 358.398 163.535 355.535 166.398 352 166.398
 c h
352 166.398 m f
0.619608 0.509804 0.92549 rg
352 115.199 m 256 115.199 l 252.465 115.199 249.602 112.336 249.602 108.801
 c 249.602 105.266 252.465 102.398 256 102.398 c 352 102.398 l 355.535 102.398
 358.398 105.266 358.398 108.801 c 358.398 112.336 355.535 115.199 352 115.199
 c h
352 115.199 m f
0.168627 0.713726 0.909804 rg
230.398 115.199 m 217.602 115.199 l 214.066 115.199 211.199 112.336 211.199
 108.801 c 211.199 105.266 214.066 102.398 217.602 102.398 c 230.398 102.398
 l 233.934 102.398 236.801 105.266 236.801 108.801 c 236.801 112.336 233.934
 115.199 230.398 115.199 c h
230.398 115.199 m f
243.199 140.801 m 217.602 140.801 l 214.066 140.801 211.199 137.934 211.199
 134.398 c 211.199 130.867 214.066 128 217.602 128 c 243.199 128 l 246.734
 128 249.602 130.867 249.602 134.398 c 249.602 137.934 246.734 140.801 243.199
 140.801 c h
243.199 140.801 m f
0.619608 0.509804 0.92549 rg
294.398 140.801 m 268.801 140.801 l 265.266 140.801 262.398 137.934 262.398
 134.398 c 262.398 130.867 265.266 128 268.801 128 c 294.398 128 l 297.934
 128 300.801 130.867 300.801 134.398 c 300.801 137.934 297.934 140.801 294.398
 140.801 c h
294.398 140.801 m f
0.168627 0.713726 0.909804 rg
243.199 89.602 m 217.602 89.602 l 214.066 89.602 211.199 86.734 211.199
 83.199 c 211.199 79.664 214.066 76.801 217.602 76.801 c 243.199 76.801 
l 246.734 76.801 249.602 79.664 249.602 83.199 c 249.602 86.734 246.734 
89.602 243.199 89.602 c h
243.199 89.602 m f
0.619608 0.509804 0.92549 rg
332.801 89.602 m 268.801 89.602 l 265.266 89.602 262.398 86.734 262.398
 83.199 c 262.398 79.664 265.266 76.801 268.801 76.801 c 332.801 76.801 
l 336.336 76.801 339.199 79.664 339.199 83.199 c 339.199 86.734 336.336 
89.602 332.801 89.602 c h
332.801 89.602 m f
0.980392 0.631373 0.0862745 rg
345.602 140.801 m 320 140.801 l 316.465 140.801 313.602 137.934 313.602
 134.398 c 313.602 130.867 316.465 128 320 128 c 345.602 128 l 349.133 128
 352 130.867 352 134.398 c 352 137.934 349.133 140.801 345.602 140.801 c
 h
345.602 140.801 m f
0.54902 0.34902 0.235294 rg
277.887 288 m 277.68 292.18 275.555 296.027 272.129 298.434 c 271.668 298.781
 271.176 299.082 270.656 299.328 c 268.918 300.25 266.988 300.754 265.023
 300.801 c 196.414 300.863 l 172.801 300.863 l 169.266 300.863 166.398 298
 166.398 294.465 c 166.398 290.93 169.266 288.062 172.801 288.062 c h
277.887 288 m f
Q Q
showpage
%%Trailer
end
%%EOF
