%!PS-Adobe-3.0 EPSF-3.0
%%Creator: cairo 1.16.0 (https://cairographics.org)
%%CreationDate: Fri Nov 29 10:41:53 2019
%%Pages: 1
%%DocumentData: Clean7Bit
%%LanguageLevel: 2
%%BoundingBox: 6 6 378 378
%%EndComments
%%BeginProlog
50 dict begin
/q { gsave } bind def
/Q { grestore } bind def
/cm { 6 array astore concat } bind def
/w { setlinewidth } bind def
/J { setlinecap } bind def
/j { setlinejoin } bind def
/M { setmiterlimit } bind def
/d { setdash } bind def
/m { moveto } bind def
/l { lineto } bind def
/c { curveto } bind def
/h { closepath } bind def
/re { exch dup neg 3 1 roll 5 3 roll moveto 0 rlineto
      0 exch rlineto 0 rlineto closepath } bind def
/S { stroke } bind def
/f { fill } bind def
/f* { eofill } bind def
/n { newpath } bind def
/W { clip } bind def
/W* { eoclip } bind def
/BT { } bind def
/ET { } bind def
/BDC { mark 3 1 roll /BDC pdfmark } bind def
/EMC { mark /EMC pdfmark } bind def
/cairo_store_point { /cairo_point_y exch def /cairo_point_x exch def } def
/Tj { show currentpoint cairo_store_point } bind def
/TJ {
  {
    dup
    type /stringtype eq
    { show } { -0.001 mul 0 cairo_font_matrix dtransform rmoveto } ifelse
  } forall
  currentpoint cairo_store_point
} bind def
/cairo_selectfont { cairo_font_matrix aload pop pop pop 0 0 6 array astore
    cairo_font exch selectfont cairo_point_x cairo_point_y moveto } bind def
/Tf { pop /cairo_font exch def /cairo_font_matrix where
      { pop cairo_selectfont } if } bind def
/Td { matrix translate cairo_font_matrix matrix concatmatrix dup
      /cairo_font_matrix exch def dup 4 get exch 5 get cairo_store_point
      /cairo_font where { pop cairo_selectfont } if } bind def
/Tm { 2 copy 8 2 roll 6 array astore /cairo_font_matrix exch def
      cairo_store_point /cairo_font where { pop cairo_selectfont } if } bind def
/g { setgray } bind def
/rg { setrgbcolor } bind def
/d1 { setcachedevice } bind def
/cairo_data_source {
  CairoDataIndex CairoData length lt
    { CairoData CairoDataIndex get /CairoDataIndex CairoDataIndex 1 add def }
    { () } ifelse
} def
/cairo_flush_ascii85_file { cairo_ascii85_file status { cairo_ascii85_file flushfile } if } def
/cairo_image { image cairo_flush_ascii85_file } def
/cairo_imagemask { imagemask cairo_flush_ascii85_file } def
%%EndProlog
%%BeginSetup
%%EndSetup
%%Page: 1 1
%%BeginPageSetup
%%PageBoundingBox: 6 6 378 378
%%EndPageSetup
q 6 6 372 372 rectclip
1 0 0 -1 0 384 cm q
0.152941 0.435294 0.509804 rg
19.199 147.199 m 364.801 147.199 l 371.891 147.199 377.602 152.91 377.602
 160 c 377.602 364.801 l 377.602 371.891 371.891 377.602 364.801 377.602
 c 19.199 377.602 l 12.109 377.602 6.398 371.891 6.398 364.801 c 6.398 160
 l 6.398 152.91 12.109 147.199 19.199 147.199 c h
19.199 147.199 m f
0.117647 0.313726 0.356863 rg
38.398 172.801 m 64 172.801 l 67.547 172.801 70.398 175.656 70.398 179.199
 c 70.398 192 l 70.398 195.547 67.547 198.398 64 198.398 c 38.398 198.398
 l 34.855 198.398 32 195.547 32 192 c 32 179.199 l 32 175.656 34.855 172.801
 38.398 172.801 c h
38.398 172.801 m f
38.398 224 m 83.199 224 l 86.746 224 89.602 226.855 89.602 230.398 c 89.602
 243.199 l 89.602 246.746 86.746 249.602 83.199 249.602 c 38.398 249.602
 l 34.855 249.602 32 246.746 32 243.199 c 32 230.398 l 32 226.855 34.855
 224 38.398 224 c h
38.398 224 m f
102.398 172.801 m 115.199 172.801 l 118.746 172.801 121.602 175.656 121.602
 179.199 c 121.602 192 l 121.602 195.547 118.746 198.398 115.199 198.398
 c 102.398 198.398 l 98.855 198.398 96 195.547 96 192 c 96 179.199 l 96 
175.656 98.855 172.801 102.398 172.801 c h
102.398 172.801 m f
153.602 172.801 m 166.398 172.801 l 169.945 172.801 172.801 175.656 172.801
 179.199 c 172.801 192 l 172.801 195.547 169.945 198.398 166.398 198.398
 c 153.602 198.398 l 150.055 198.398 147.199 195.547 147.199 192 c 147.199
 179.199 l 147.199 175.656 150.055 172.801 153.602 172.801 c h
153.602 172.801 m f
204.801 172.801 m 217.602 172.801 l 221.145 172.801 224 175.656 224 179.199
 c 224 192 l 224 195.547 221.145 198.398 217.602 198.398 c 204.801 198.398
 l 201.254 198.398 198.398 195.547 198.398 192 c 198.398 179.199 l 198.398
 175.656 201.254 172.801 204.801 172.801 c h
204.801 172.801 m f
256 172.801 m 268.801 172.801 l 272.344 172.801 275.199 175.656 275.199
 179.199 c 275.199 192 l 275.199 195.547 272.344 198.398 268.801 198.398
 c 256 198.398 l 252.453 198.398 249.602 195.547 249.602 192 c 249.602 179.199
 l 249.602 175.656 252.453 172.801 256 172.801 c h
256 172.801 m f
121.602 224 m 134.398 224 l 137.945 224 140.801 226.855 140.801 230.398
 c 140.801 243.199 l 140.801 246.746 137.945 249.602 134.398 249.602 c 121.602
 249.602 l 118.055 249.602 115.199 246.746 115.199 243.199 c 115.199 230.398
 l 115.199 226.855 118.055 224 121.602 224 c h
121.602 224 m f
172.801 224 m 185.602 224 l 189.145 224 192 226.855 192 230.398 c 192 243.199
 l 192 246.746 189.145 249.602 185.602 249.602 c 172.801 249.602 l 169.254
 249.602 166.398 246.746 166.398 243.199 c 166.398 230.398 l 166.398 226.855
 169.254 224 172.801 224 c h
172.801 224 m f
224 224 m 236.801 224 l 240.344 224 243.199 226.855 243.199 230.398 c 243.199
 243.199 l 243.199 246.746 240.344 249.602 236.801 249.602 c 224 249.602
 l 220.453 249.602 217.602 246.746 217.602 243.199 c 217.602 230.398 l 217.602
 226.855 220.453 224 224 224 c h
224 224 m f
275.199 224 m 288 224 l 291.547 224 294.398 226.855 294.398 230.398 c 294.398
 243.199 l 294.398 246.746 291.547 249.602 288 249.602 c 275.199 249.602
 l 271.656 249.602 268.801 246.746 268.801 243.199 c 268.801 230.398 l 268.801
 226.855 271.656 224 275.199 224 c h
275.199 224 m f
38.398 275.199 m 57.602 275.199 l 61.145 275.199 64 278.055 64 281.602 
c 64 294.398 l 64 297.945 61.145 300.801 57.602 300.801 c 38.398 300.801
 l 34.855 300.801 32 297.945 32 294.398 c 32 281.602 l 32 278.055 34.855
 275.199 38.398 275.199 c h
38.398 275.199 m f
38.398 326.398 m 70.398 326.398 l 73.945 326.398 76.801 329.254 76.801 
332.801 c 76.801 345.602 l 76.801 349.145 73.945 352 70.398 352 c 38.398
 352 l 34.855 352 32 349.145 32 345.602 c 32 332.801 l 32 329.254 34.855
 326.398 38.398 326.398 c h
38.398 326.398 m f
275.199 326.398 m 294.398 326.398 l 297.945 326.398 300.801 329.254 300.801
 332.801 c 300.801 345.602 l 300.801 349.145 297.945 352 294.398 352 c 275.199
 352 l 271.656 352 268.801 349.145 268.801 345.602 c 268.801 332.801 l 268.801
 329.254 271.656 326.398 275.199 326.398 c h
275.199 326.398 m f
332.801 326.398 m 345.602 326.398 l 349.145 326.398 352 329.254 352 332.801
 c 352 345.602 l 352 349.145 349.145 352 345.602 352 c 332.801 352 l 329.254
 352 326.398 349.145 326.398 345.602 c 326.398 332.801 l 326.398 329.254
 329.254 326.398 332.801 326.398 c h
332.801 326.398 m f
108.801 326.398 m 236.801 326.398 l 240.344 326.398 243.199 329.254 243.199
 332.801 c 243.199 345.602 l 243.199 349.145 240.344 352 236.801 352 c 108.801
 352 l 105.254 352 102.398 349.145 102.398 345.602 c 102.398 332.801 l 102.398
 329.254 105.254 326.398 108.801 326.398 c h
108.801 326.398 m f
96 275.199 m 108.801 275.199 l 112.344 275.199 115.199 278.055 115.199 
281.602 c 115.199 294.398 l 115.199 297.945 112.344 300.801 108.801 300.801
 c 96 300.801 l 92.453 300.801 89.602 297.945 89.602 294.398 c 89.602 281.602
 l 89.602 278.055 92.453 275.199 96 275.199 c h
96 275.199 m f
147.199 275.199 m 160 275.199 l 163.547 275.199 166.398 278.055 166.398
 281.602 c 166.398 294.398 l 166.398 297.945 163.547 300.801 160 300.801
 c 147.199 300.801 l 143.656 300.801 140.801 297.945 140.801 294.398 c 140.801
 281.602 l 140.801 278.055 143.656 275.199 147.199 275.199 c h
147.199 275.199 m f
198.398 275.199 m 211.199 275.199 l 214.746 275.199 217.602 278.055 217.602
 281.602 c 217.602 294.398 l 217.602 297.945 214.746 300.801 211.199 300.801
 c 198.398 300.801 l 194.855 300.801 192 297.945 192 294.398 c 192 281.602
 l 192 278.055 194.855 275.199 198.398 275.199 c h
198.398 275.199 m f
249.602 275.199 m 262.398 275.199 l 265.945 275.199 268.801 278.055 268.801
 281.602 c 268.801 294.398 l 268.801 297.945 265.945 300.801 262.398 300.801
 c 249.602 300.801 l 246.055 300.801 243.199 297.945 243.199 294.398 c 243.199
 281.602 l 243.199 278.055 246.055 275.199 249.602 275.199 c h
249.602 275.199 m f
345.602 230.398 m 345.602 294.398 l 345.602 297.934 342.734 300.801 339.199
 300.801 c 300.801 300.801 l 297.266 300.801 294.398 297.934 294.398 294.398
 c 294.398 281.602 l 294.398 278.066 297.266 275.199 300.801 275.199 c 313.602
 275.199 l 317.133 275.199 320 272.336 320 268.801 c 320 230.398 l 320 226.867
 322.867 224 326.398 224 c 339.199 224 l 342.734 224 345.602 226.867 345.602
 230.398 c h
345.602 230.398 m f
307.199 172.801 m 345.602 172.801 l 349.145 172.801 352 175.656 352 179.199
 c 352 192 l 352 195.547 349.145 198.398 345.602 198.398 c 307.199 198.398
 l 303.656 198.398 300.801 195.547 300.801 192 c 300.801 179.199 l 300.801
 175.656 303.656 172.801 307.199 172.801 c h
307.199 172.801 m f
0.980392 0.631373 0.0862745 rg
44.801 6.398 m 339.199 6.398 l 342.746 6.398 345.602 9.254 345.602 12.801
 c 345.602 115.199 l 345.602 118.746 342.746 121.602 339.199 121.602 c 44.801
 121.602 l 41.254 121.602 38.398 118.746 38.398 115.199 c 38.398 12.801 
l 38.398 9.254 41.254 6.398 44.801 6.398 c h
44.801 6.398 m f
0.788235 0.458824 0.0666667 rg
94.125 33.875 m 91.625 31.375 87.574 31.375 85.074 33.875 c 59.477 59.477
 l 56.977 61.973 56.977 66.027 59.477 68.523 c 85.074 94.125 l 87.586 96.551
 91.578 96.516 94.047 94.047 c 96.516 91.578 96.551 87.586 94.125 85.074
 c 73.051 64 l 94.125 42.926 l 96.625 40.426 96.625 36.375 94.125 33.875
 c h
94.125 33.875 m f
324.523 59.477 m 298.926 33.875 l 296.414 31.449 292.422 31.484 289.953
 33.953 c 287.484 36.422 287.449 40.414 289.875 42.926 c 310.949 64 l 289.875
 85.074 l 288.641 86.27 287.938 87.906 287.922 89.621 c 287.906 91.34 288.582
 92.992 289.797 94.203 c 291.008 95.418 292.66 96.094 294.379 96.078 c 296.094
 96.062 297.73 95.359 298.926 94.125 c 324.523 68.523 l 327.023 66.027 327.023
 61.973 324.523 59.477 c h
324.523 59.477 m f
1 g
140.801 38.398 m 137.266 38.398 134.398 41.266 134.398 44.801 c 134.398
 57.602 l 121.602 57.602 l 121.602 44.801 l 121.602 41.266 118.734 38.398
 115.199 38.398 c 111.664 38.398 108.801 41.266 108.801 44.801 c 108.801
 83.199 l 108.801 86.734 111.664 89.602 115.199 89.602 c 118.734 89.602 
121.602 86.734 121.602 83.199 c 121.602 70.398 l 134.398 70.398 l 134.398
 83.199 l 134.398 86.734 137.266 89.602 140.801 89.602 c 144.336 89.602 
147.199 86.734 147.199 83.199 c 147.199 44.801 l 147.199 41.266 144.336 
38.398 140.801 38.398 c h
140.801 38.398 m f
179.199 38.398 m 166.398 38.398 l 162.867 38.398 160 41.266 160 44.801 
c 160 48.336 162.867 51.199 166.398 51.199 c 166.398 83.199 l 166.398 86.734
 169.266 89.602 172.801 89.602 c 176.336 89.602 179.199 86.734 179.199 83.199
 c 179.199 51.199 l 182.734 51.199 185.602 48.336 185.602 44.801 c 185.602
 41.266 182.734 38.398 179.199 38.398 c h
179.199 38.398 m f
232.258 38.676 m 229.559 37.855 226.645 38.895 225.074 41.234 c 217.602
 52.48 l 210.125 41.246 l 208.559 38.902 205.645 37.855 202.945 38.672 c
 200.246 39.492 198.398 41.98 198.398 44.801 c 198.398 83.199 l 198.398 
86.734 201.266 89.602 204.801 89.602 c 208.336 89.602 211.199 86.734 211.199
 83.199 c 211.199 65.922 l 212.273 67.531 l 213.531 69.211 215.504 70.199
 217.602 70.199 c 219.695 70.199 221.668 69.211 222.926 67.531 c 224 65.922
 l 224 83.199 l 224 86.734 226.867 89.602 230.398 89.602 c 233.934 89.602
 236.801 86.734 236.801 83.199 c 236.801 44.801 l 236.801 41.98 234.953 
39.492 232.258 38.676 c h
232.258 38.676 m f
268.801 76.801 m 262.398 76.801 l 262.398 44.801 l 262.398 41.266 259.535
 38.398 256 38.398 c 252.465 38.398 249.602 41.266 249.602 44.801 c 249.602
 83.199 l 249.602 86.734 252.465 89.602 256 89.602 c 268.801 89.602 l 272.336
 89.602 275.199 86.734 275.199 83.199 c 275.199 79.664 272.336 76.801 268.801
 76.801 c h
268.801 76.801 m f
Q Q
showpage
%%Trailer
end
%%EOF
