%!PS-Adobe-3.0 EPSF-3.0
%%Creator: cairo 1.16.0 (https://cairographics.org)
%%CreationDate: Fri Nov 29 10:41:53 2019
%%Pages: 1
%%DocumentData: Clean7Bit
%%LanguageLevel: 2
%%BoundingBox: 6 6 378 378
%%EndComments
%%BeginProlog
50 dict begin
/q { gsave } bind def
/Q { grestore } bind def
/cm { 6 array astore concat } bind def
/w { setlinewidth } bind def
/J { setlinecap } bind def
/j { setlinejoin } bind def
/M { setmiterlimit } bind def
/d { setdash } bind def
/m { moveto } bind def
/l { lineto } bind def
/c { curveto } bind def
/h { closepath } bind def
/re { exch dup neg 3 1 roll 5 3 roll moveto 0 rlineto
      0 exch rlineto 0 rlineto closepath } bind def
/S { stroke } bind def
/f { fill } bind def
/f* { eofill } bind def
/n { newpath } bind def
/W { clip } bind def
/W* { eoclip } bind def
/BT { } bind def
/ET { } bind def
/BDC { mark 3 1 roll /BDC pdfmark } bind def
/EMC { mark /EMC pdfmark } bind def
/cairo_store_point { /cairo_point_y exch def /cairo_point_x exch def } def
/Tj { show currentpoint cairo_store_point } bind def
/TJ {
  {
    dup
    type /stringtype eq
    { show } { -0.001 mul 0 cairo_font_matrix dtransform rmoveto } ifelse
  } forall
  currentpoint cairo_store_point
} bind def
/cairo_selectfont { cairo_font_matrix aload pop pop pop 0 0 6 array astore
    cairo_font exch selectfont cairo_point_x cairo_point_y moveto } bind def
/Tf { pop /cairo_font exch def /cairo_font_matrix where
      { pop cairo_selectfont } if } bind def
/Td { matrix translate cairo_font_matrix matrix concatmatrix dup
      /cairo_font_matrix exch def dup 4 get exch 5 get cairo_store_point
      /cairo_font where { pop cairo_selectfont } if } bind def
/Tm { 2 copy 8 2 roll 6 array astore /cairo_font_matrix exch def
      cairo_store_point /cairo_font where { pop cairo_selectfont } if } bind def
/g { setgray } bind def
/rg { setrgbcolor } bind def
/d1 { setcachedevice } bind def
/cairo_data_source {
  CairoDataIndex CairoData length lt
    { CairoData CairoDataIndex get /CairoDataIndex CairoDataIndex 1 add def }
    { () } ifelse
} def
/cairo_flush_ascii85_file { cairo_ascii85_file status { cairo_ascii85_file flushfile } if } def
/cairo_image { image cairo_flush_ascii85_file } def
/cairo_imagemask { imagemask cairo_flush_ascii85_file } def
%%EndProlog
%%BeginSetup
%%EndSetup
%%Page: 1 1
%%BeginPageSetup
%%PageBoundingBox: 6 6 378 378
%%EndPageSetup
q 6 6 372 372 rectclip
1 0 0 -1 0 384 cm q
0.839216 0.858824 0.890196 rg
377.602 57.602 m 377.602 358.398 l 377.602 369.004 369.004 377.602 358.398
 377.602 c 25.602 377.602 l 14.996 377.602 6.398 369.004 6.398 358.398 c
 6.398 57.602 l 12.801 51.199 l 371.199 51.199 l h
377.602 57.602 m f
0.152941 0.435294 0.509804 rg
377.602 25.602 m 377.602 57.602 l 6.398 57.602 l 6.398 25.602 l 6.398 14.996
 14.996 6.398 25.602 6.398 c 358.398 6.398 l 369.004 6.398 377.602 14.996
 377.602 25.602 c h
377.602 25.602 m f
0.972549 0.32549 0.423529 rg
38.398 38.398 m 32 38.398 l 28.465 38.398 25.602 35.535 25.602 32 c 25.602
 28.465 28.465 25.602 32 25.602 c 38.398 25.602 l 41.934 25.602 44.801 28.465
 44.801 32 c 44.801 35.535 41.934 38.398 38.398 38.398 c h
38.398 38.398 m f
0.988235 0.796078 0.333333 rg
70.398 38.398 m 64 38.398 l 60.465 38.398 57.602 35.535 57.602 32 c 57.602
 28.465 60.465 25.602 64 25.602 c 70.398 25.602 l 73.934 25.602 76.801 28.465
 76.801 32 c 76.801 35.535 73.934 38.398 70.398 38.398 c h
70.398 38.398 m f
0.662745 0.862745 0.384314 rg
102.398 38.398 m 96 38.398 l 92.465 38.398 89.602 35.535 89.602 32 c 89.602
 28.465 92.465 25.602 96 25.602 c 102.398 25.602 l 105.934 25.602 108.801
 28.465 108.801 32 c 108.801 35.535 105.934 38.398 102.398 38.398 c h
102.398 38.398 m f
0.117647 0.313726 0.356863 rg
352 38.398 m 300.801 38.398 l 297.266 38.398 294.398 35.535 294.398 32 
c 294.398 28.465 297.266 25.602 300.801 25.602 c 352 25.602 l 355.535 25.602
 358.398 28.465 358.398 32 c 358.398 35.535 355.535 38.398 352 38.398 c 
h
352 38.398 m f
0.152941 0.435294 0.509804 rg
70.398 140.801 m 81.004 140.801 89.602 132.203 89.602 121.602 c 89.602 
108.801 l 89.602 98.195 81.004 89.602 70.398 89.602 c 59.797 89.602 51.199
 98.195 51.199 108.801 c 51.199 121.602 l 51.199 132.203 59.797 140.801 
70.398 140.801 c h
64 108.801 m 64 105.266 66.867 102.398 70.398 102.398 c 73.934 102.398 
76.801 105.266 76.801 108.801 c 76.801 121.602 l 76.801 125.133 73.934 128
 70.398 128 c 66.867 128 64 125.133 64 121.602 c h
64 108.801 m f
102.398 134.398 m 102.398 137.934 105.266 140.801 108.801 140.801 c 121.602
 140.801 l 125.133 140.801 128 137.934 128 134.398 c 128 130.867 125.133
 128 121.602 128 c 121.602 96 l 121.598 93.41 120.039 91.078 117.648 90.09
 c 115.258 89.098 112.504 89.645 110.676 91.477 c 104.273 97.875 l 102.445
 99.707 101.898 102.457 102.887 104.848 c 103.879 107.238 106.211 108.801
 108.801 108.801 c 108.801 128 l 105.266 128 102.398 130.867 102.398 134.398
 c h
102.398 134.398 m f
153.602 140.801 m 164.203 140.801 172.801 132.203 172.801 121.602 c 172.801
 108.801 l 172.801 98.195 164.203 89.602 153.602 89.602 c 142.996 89.602
 134.398 98.195 134.398 108.801 c 134.398 121.602 l 134.398 132.203 142.996
 140.801 153.602 140.801 c h
147.199 108.801 m 147.199 105.266 150.066 102.398 153.602 102.398 c 157.133
 102.398 160 105.266 160 108.801 c 160 121.602 l 160 125.133 157.133 128
 153.602 128 c 150.066 128 147.199 125.133 147.199 121.602 c h
147.199 108.801 m f
313.602 140.801 m 324.203 140.801 332.801 132.203 332.801 121.602 c 332.801
 108.801 l 332.801 98.195 324.203 89.602 313.602 89.602 c 302.996 89.602
 294.398 98.195 294.398 108.801 c 294.398 121.602 l 294.398 132.203 302.996
 140.801 313.602 140.801 c h
307.199 108.801 m 307.199 105.266 310.066 102.398 313.602 102.398 c 317.133
 102.398 320 105.266 320 108.801 c 320 121.602 l 320 125.133 317.133 128
 313.602 128 c 310.066 128 307.199 125.133 307.199 121.602 c h
307.199 108.801 m f
185.602 134.398 m 185.602 137.934 188.465 140.801 192 140.801 c 204.801
 140.801 l 208.336 140.801 211.199 137.934 211.199 134.398 c 211.199 130.867
 208.336 128 204.801 128 c 204.801 96 l 204.801 93.41 203.238 91.078 200.848
 90.09 c 198.457 89.098 195.707 89.645 193.875 91.477 c 187.477 97.875 l
 185.645 99.707 185.098 102.457 186.09 104.848 c 187.078 107.238 189.41 
108.801 192 108.801 c 192 128 l 188.465 128 185.602 130.867 185.602 134.398
 c h
185.602 134.398 m f
224 134.398 m 224 137.934 226.867 140.801 230.398 140.801 c 243.199 140.801
 l 246.734 140.801 249.602 137.934 249.602 134.398 c 249.602 130.867 246.734
 128 243.199 128 c 243.199 96 l 243.199 93.41 241.641 91.078 239.25 90.09
 c 236.859 89.098 234.105 89.645 232.273 91.477 c 225.875 97.875 l 224.047
 99.707 223.5 102.457 224.488 104.848 c 225.48 107.238 227.812 108.801 230.398
 108.801 c 230.398 128 l 226.867 128 224 130.867 224 134.398 c h
224 134.398 m f
262.398 134.398 m 262.398 137.934 265.266 140.801 268.801 140.801 c 281.602
 140.801 l 285.133 140.801 288 137.934 288 134.398 c 288 130.867 285.133
 128 281.602 128 c 281.602 96 l 281.598 93.41 280.039 91.078 277.648 90.09
 c 275.258 89.098 272.504 89.645 270.676 91.477 c 264.273 97.875 l 262.445
 99.707 261.898 102.457 262.887 104.848 c 263.879 107.238 266.211 108.801
 268.801 108.801 c 268.801 128 l 265.266 128 262.398 130.867 262.398 134.398
 c h
262.398 134.398 m f
0.72549 0.74902 0.8 rg
38.398 166.398 m 345.602 166.398 l 349.133 166.398 352 163.535 352 160 
c 352 156.465 349.133 153.602 345.602 153.602 c 38.398 153.602 l 34.867 
153.602 32 156.465 32 160 c 32 163.535 34.867 166.398 38.398 166.398 c h
38.398 166.398 m f
0.152941 0.435294 0.509804 rg
51.199 198.398 m 51.199 211.199 l 51.199 221.805 59.797 230.398 70.398 
230.398 c 81.004 230.398 89.602 221.805 89.602 211.199 c 89.602 198.398 
l 89.602 187.797 81.004 179.199 70.398 179.199 c 59.797 179.199 51.199 187.797
 51.199 198.398 c h
76.801 198.398 m 76.801 211.199 l 76.801 214.734 73.934 217.602 70.398 
217.602 c 66.867 217.602 64 214.734 64 211.199 c 64 198.398 l 64 194.867
 66.867 192 70.398 192 c 73.934 192 76.801 194.867 76.801 198.398 c h
76.801 198.398 m f
102.398 224 m 102.398 227.535 105.266 230.398 108.801 230.398 c 121.602
 230.398 l 125.133 230.398 128 227.535 128 224 c 128 220.465 125.133 217.602
 121.602 217.602 c 121.602 185.602 l 121.598 183.012 120.039 180.68 117.648
 179.688 c 115.258 178.699 112.504 179.246 110.676 181.074 c 104.273 187.477
 l 102.445 189.305 101.898 192.059 102.887 194.449 c 103.879 196.84 106.211
 198.398 108.801 198.398 c 108.801 217.602 l 105.266 217.602 102.398 220.465
 102.398 224 c h
102.398 224 m f
134.398 198.398 m 134.398 211.199 l 134.398 221.805 142.996 230.398 153.602
 230.398 c 164.203 230.398 172.801 221.805 172.801 211.199 c 172.801 198.398
 l 172.801 187.797 164.203 179.199 153.602 179.199 c 142.996 179.199 134.398
 187.797 134.398 198.398 c h
160 198.398 m 160 211.199 l 160 214.734 157.133 217.602 153.602 217.602
 c 150.066 217.602 147.199 214.734 147.199 211.199 c 147.199 198.398 l 147.199
 194.867 150.066 192 153.602 192 c 157.133 192 160 194.867 160 198.398 c
 h
160 198.398 m f
185.602 198.398 m 185.602 211.199 l 185.602 221.805 194.195 230.398 204.801
 230.398 c 215.402 230.398 224 221.805 224 211.199 c 224 198.398 l 224 187.797
 215.402 179.199 204.801 179.199 c 194.195 179.199 185.602 187.797 185.602
 198.398 c h
211.199 198.398 m 211.199 211.199 l 211.199 214.734 208.336 217.602 204.801
 217.602 c 201.266 217.602 198.398 214.734 198.398 211.199 c 198.398 198.398
 l 198.398 194.867 201.266 192 204.801 192 c 208.336 192 211.199 194.867
 211.199 198.398 c h
211.199 198.398 m f
236.801 224 m 236.801 227.535 239.664 230.398 243.199 230.398 c 256 230.398
 l 259.535 230.398 262.398 227.535 262.398 224 c 262.398 220.465 259.535
 217.602 256 217.602 c 256 185.602 l 256 183.012 254.441 180.68 252.051 
179.688 c 249.656 178.699 246.906 179.246 245.074 181.074 c 238.676 187.477
 l 236.844 189.305 236.297 192.059 237.289 194.449 c 238.277 196.84 240.613
 198.398 243.199 198.398 c 243.199 217.602 l 239.664 217.602 236.801 220.465
 236.801 224 c h
236.801 224 m f
275.199 224 m 275.199 227.535 278.066 230.398 281.602 230.398 c 294.398
 230.398 l 297.934 230.398 300.801 227.535 300.801 224 c 300.801 220.465
 297.934 217.602 294.398 217.602 c 294.398 185.602 l 294.398 183.012 292.84
 180.68 290.449 179.688 c 288.059 178.699 285.305 179.246 283.477 181.074
 c 277.074 187.477 l 275.246 189.305 274.699 192.059 275.688 194.449 c 276.68
 196.84 279.012 198.398 281.602 198.398 c 281.602 217.602 l 278.066 217.602
 275.199 220.465 275.199 224 c h
275.199 224 m f
313.602 224 m 313.602 227.535 316.465 230.398 320 230.398 c 332.801 230.398
 l 336.336 230.398 339.199 227.535 339.199 224 c 339.199 220.465 336.336
 217.602 332.801 217.602 c 332.801 185.602 l 332.801 183.012 331.238 180.68
 328.848 179.688 c 326.457 178.699 323.707 179.246 321.875 181.074 c 315.477
 187.477 l 313.645 189.305 313.098 192.059 314.09 194.449 c 315.078 196.84
 317.41 198.398 320 198.398 c 320 217.602 l 316.465 217.602 313.602 220.465
 313.602 224 c h
313.602 224 m f
0.72549 0.74902 0.8 rg
345.602 243.199 m 38.398 243.199 l 34.867 243.199 32 246.066 32 249.602
 c 32 253.133 34.867 256 38.398 256 c 345.602 256 l 349.133 256 352 253.133
 352 249.602 c 352 246.066 349.133 243.199 345.602 243.199 c h
345.602 243.199 m f
0.152941 0.435294 0.509804 rg
89.602 300.801 m 89.602 288 l 89.602 277.395 81.004 268.801 70.398 268.801
 c 59.797 268.801 51.199 277.395 51.199 288 c 51.199 300.801 l 51.199 311.402
 59.797 320 70.398 320 c 81.004 320 89.602 311.402 89.602 300.801 c h
64 300.801 m 64 288 l 64 284.465 66.867 281.602 70.398 281.602 c 73.934
 281.602 76.801 284.465 76.801 288 c 76.801 300.801 l 76.801 304.336 73.934
 307.199 70.398 307.199 c 66.867 307.199 64 304.336 64 300.801 c h
64 300.801 m f
102.398 313.602 m 102.398 317.133 105.266 320 108.801 320 c 121.602 320
 l 125.133 320 128 317.133 128 313.602 c 128 310.066 125.133 307.199 121.602
 307.199 c 121.602 275.199 l 121.598 272.613 120.039 270.277 117.648 269.289
 c 115.258 268.297 112.504 268.844 110.676 270.676 c 104.273 277.074 l 102.445
 278.906 101.898 281.656 102.887 284.051 c 103.879 286.441 106.211 288 108.801
 288 c 108.801 307.199 l 105.266 307.199 102.398 310.066 102.398 313.602
 c h
102.398 313.602 m f
249.602 300.801 m 249.602 288 l 249.602 277.395 241.004 268.801 230.398
 268.801 c 219.797 268.801 211.199 277.395 211.199 288 c 211.199 300.801
 l 211.199 311.402 219.797 320 230.398 320 c 241.004 320 249.602 311.402
 249.602 300.801 c h
224 300.801 m 224 288 l 224 284.465 226.867 281.602 230.398 281.602 c 233.934
 281.602 236.801 284.465 236.801 288 c 236.801 300.801 l 236.801 304.336
 233.934 307.199 230.398 307.199 c 226.867 307.199 224 304.336 224 300.801
 c h
224 300.801 m f
332.801 300.801 m 332.801 288 l 332.801 277.395 324.203 268.801 313.602
 268.801 c 302.996 268.801 294.398 277.395 294.398 288 c 294.398 300.801
 l 294.398 311.402 302.996 320 313.602 320 c 324.203 320 332.801 311.402
 332.801 300.801 c h
307.199 300.801 m 307.199 288 l 307.199 284.465 310.066 281.602 313.602
 281.602 c 317.133 281.602 320 284.465 320 288 c 320 300.801 l 320 304.336
 317.133 307.199 313.602 307.199 c 310.066 307.199 307.199 304.336 307.199
 300.801 c h
307.199 300.801 m f
140.801 313.602 m 140.801 317.133 143.664 320 147.199 320 c 160 320 l 163.535
 320 166.398 317.133 166.398 313.602 c 166.398 310.066 163.535 307.199 160
 307.199 c 160 275.199 l 160 272.613 158.441 270.277 156.051 269.289 c 153.656
 268.297 150.906 268.844 149.074 270.676 c 142.676 277.074 l 140.844 278.906
 140.297 281.656 141.289 284.051 c 142.277 286.441 144.613 288 147.199 288
 c 147.199 307.199 l 143.664 307.199 140.801 310.066 140.801 313.602 c h
140.801 313.602 m f
179.199 313.602 m 179.199 317.133 182.066 320 185.602 320 c 198.398 320
 l 201.934 320 204.801 317.133 204.801 313.602 c 204.801 310.066 201.934
 307.199 198.398 307.199 c 198.398 275.199 l 198.398 272.613 196.84 270.277
 194.449 269.289 c 192.059 268.297 189.305 268.844 187.477 270.676 c 181.074
 277.074 l 179.246 278.906 178.699 281.656 179.688 284.051 c 180.68 286.441
 183.012 288 185.602 288 c 185.602 307.199 l 182.066 307.199 179.199 310.066
 179.199 313.602 c h
179.199 313.602 m f
262.398 313.602 m 262.398 317.133 265.266 320 268.801 320 c 281.602 320
 l 285.133 320 288 317.133 288 313.602 c 288 310.066 285.133 307.199 281.602
 307.199 c 281.602 275.199 l 281.598 272.613 280.039 270.277 277.648 269.289
 c 275.258 268.297 272.504 268.844 270.676 270.676 c 264.273 277.074 l 262.445
 278.906 261.898 281.656 262.887 284.051 c 263.879 286.441 266.211 288 268.801
 288 c 268.801 307.199 l 265.266 307.199 262.398 310.066 262.398 313.602
 c h
262.398 313.602 m f
0.72549 0.74902 0.8 rg
345.602 332.801 m 38.398 332.801 l 34.867 332.801 32 335.664 32 339.199
 c 32 342.734 34.867 345.602 38.398 345.602 c 345.602 345.602 l 349.133 
345.602 352 342.734 352 339.199 c 352 335.664 349.133 332.801 345.602 332.801
 c h
345.602 332.801 m f
Q Q
showpage
%%Trailer
end
%%EOF
