%!PS-Adobe-3.0 EPSF-3.0
%%Creator: cairo 1.16.0 (https://cairographics.org)
%%CreationDate: Fri Nov 29 10:41:54 2019
%%Pages: 1
%%DocumentData: Clean7Bit
%%LanguageLevel: 2
%%BoundingBox: 89 6 295 378
%%EndComments
%%BeginProlog
50 dict begin
/q { gsave } bind def
/Q { grestore } bind def
/cm { 6 array astore concat } bind def
/w { setlinewidth } bind def
/J { setlinecap } bind def
/j { setlinejoin } bind def
/M { setmiterlimit } bind def
/d { setdash } bind def
/m { moveto } bind def
/l { lineto } bind def
/c { curveto } bind def
/h { closepath } bind def
/re { exch dup neg 3 1 roll 5 3 roll moveto 0 rlineto
      0 exch rlineto 0 rlineto closepath } bind def
/S { stroke } bind def
/f { fill } bind def
/f* { eofill } bind def
/n { newpath } bind def
/W { clip } bind def
/W* { eoclip } bind def
/BT { } bind def
/ET { } bind def
/BDC { mark 3 1 roll /BDC pdfmark } bind def
/EMC { mark /EMC pdfmark } bind def
/cairo_store_point { /cairo_point_y exch def /cairo_point_x exch def } def
/Tj { show currentpoint cairo_store_point } bind def
/TJ {
  {
    dup
    type /stringtype eq
    { show } { -0.001 mul 0 cairo_font_matrix dtransform rmoveto } ifelse
  } forall
  currentpoint cairo_store_point
} bind def
/cairo_selectfont { cairo_font_matrix aload pop pop pop 0 0 6 array astore
    cairo_font exch selectfont cairo_point_x cairo_point_y moveto } bind def
/Tf { pop /cairo_font exch def /cairo_font_matrix where
      { pop cairo_selectfont } if } bind def
/Td { matrix translate cairo_font_matrix matrix concatmatrix dup
      /cairo_font_matrix exch def dup 4 get exch 5 get cairo_store_point
      /cairo_font where { pop cairo_selectfont } if } bind def
/Tm { 2 copy 8 2 roll 6 array astore /cairo_font_matrix exch def
      cairo_store_point /cairo_font where { pop cairo_selectfont } if } bind def
/g { setgray } bind def
/rg { setrgbcolor } bind def
/d1 { setcachedevice } bind def
/cairo_data_source {
  CairoDataIndex CairoData length lt
    { CairoData CairoDataIndex get /CairoDataIndex CairoDataIndex 1 add def }
    { () } ifelse
} def
/cairo_flush_ascii85_file { cairo_ascii85_file status { cairo_ascii85_file flushfile } if } def
/cairo_image { image cairo_flush_ascii85_file } def
/cairo_imagemask { imagemask cairo_flush_ascii85_file } def
%%EndProlog
%%BeginSetup
%%EndSetup
%%Page: 1 1
%%BeginPageSetup
%%PageBoundingBox: 89 6 295 378
%%EndPageSetup
q 89 6 206 372 rectclip
1 0 0 -1 0 384 cm q
0.356863 g
262.398 128 m 281.602 128 l 288.668 128 294.398 133.73 294.398 140.801 
c 294.398 166.398 l 294.398 173.469 288.668 179.199 281.602 179.199 c 262.398
 179.199 l h
262.398 128 m f
0.215686 0.796078 0.631373 rg
128 294.398 m 128 294.398 140.223 316.629 146.035 366.266 c 146.777 372.715
 152.23 377.586 158.719 377.602 c 199.68 377.602 l 206.176 377.59 211.633
 372.719 212.379 366.266 c 218.176 316.629 230.398 294.398 230.398 294.398
 c 230.398 89.602 l 230.398 89.602 218.176 67.371 212.363 17.734 c 211.621
 11.285 206.172 6.414 199.68 6.398 c 158.719 6.398 l 152.227 6.41 146.766
 11.281 146.023 17.734 c 140.223 67.371 128 89.602 128 89.602 c h
128 294.398 m f
0.298039 g
128 89.602 m 230.398 89.602 l 251.672 89.602 268.801 106.727 268.801 128
 c 268.801 256 l 268.801 277.273 251.672 294.398 230.398 294.398 c 128 294.398
 l 106.727 294.398 89.602 277.273 89.602 256 c 89.602 128 l 89.602 106.727
 106.727 89.602 128 89.602 c h
128 89.602 m f
0.356863 g
243.199 134.398 m 243.199 249.602 l 243.199 260.238 234.637 268.801 224
 268.801 c 134.398 268.801 l 123.762 268.801 115.199 260.238 115.199 249.602
 c 115.199 134.398 l 115.199 123.762 123.762 115.199 134.398 115.199 c 224
 115.199 l 234.637 115.199 243.199 123.762 243.199 134.398 c h
243.199 134.398 m f
1 g
147.199 147.199 m 140.801 147.199 l 137.266 147.199 134.398 144.336 134.398
 140.801 c 134.398 137.266 137.266 134.398 140.801 134.398 c 147.199 134.398
 l 150.734 134.398 153.602 137.266 153.602 140.801 c 153.602 144.336 150.734
 147.199 147.199 147.199 c h
147.199 147.199 m f
147.199 172.801 m 140.801 172.801 l 137.266 172.801 134.398 169.934 134.398
 166.398 c 134.398 162.867 137.266 160 140.801 160 c 147.199 160 l 150.734
 160 153.602 162.867 153.602 166.398 c 153.602 169.934 150.734 172.801 147.199
 172.801 c h
147.199 172.801 m f
147.199 198.398 m 140.801 198.398 l 137.266 198.398 134.398 195.535 134.398
 192 c 134.398 188.465 137.266 185.602 140.801 185.602 c 147.199 185.602
 l 150.734 185.602 153.602 188.465 153.602 192 c 153.602 195.535 150.734
 198.398 147.199 198.398 c h
147.199 198.398 m f
147.199 224 m 140.801 224 l 137.266 224 134.398 221.133 134.398 217.602
 c 134.398 214.066 137.266 211.199 140.801 211.199 c 147.199 211.199 l 150.734
 211.199 153.602 214.066 153.602 217.602 c 153.602 221.133 150.734 224 147.199
 224 c h
147.199 224 m f
147.199 249.602 m 140.801 249.602 l 137.266 249.602 134.398 246.734 134.398
 243.199 c 134.398 239.664 137.266 236.801 140.801 236.801 c 147.199 236.801
 l 150.734 236.801 153.602 239.664 153.602 243.199 c 153.602 246.734 150.734
 249.602 147.199 249.602 c h
147.199 249.602 m f
0.25098 0.8 0.945098 rg
204.801 147.199 m 172.801 147.199 l 169.266 147.199 166.398 144.336 166.398
 140.801 c 166.398 137.266 169.266 134.398 172.801 134.398 c 204.801 134.398
 l 208.336 134.398 211.199 137.266 211.199 140.801 c 211.199 144.336 208.336
 147.199 204.801 147.199 c h
204.801 147.199 m f
217.602 172.801 m 172.801 172.801 l 169.266 172.801 166.398 169.934 166.398
 166.398 c 166.398 162.867 169.266 160 172.801 160 c 217.602 160 l 221.133
 160 224 162.867 224 166.398 c 224 169.934 221.133 172.801 217.602 172.801
 c h
217.602 172.801 m f
185.602 198.398 m 172.801 198.398 l 169.266 198.398 166.398 195.535 166.398
 192 c 166.398 188.465 169.266 185.602 172.801 185.602 c 185.602 185.602
 l 189.133 185.602 192 188.465 192 192 c 192 195.535 189.133 198.398 185.602
 198.398 c h
185.602 198.398 m f
217.602 224 m 172.801 224 l 169.266 224 166.398 221.133 166.398 217.602
 c 166.398 214.066 169.266 211.199 172.801 211.199 c 217.602 211.199 l 221.133
 211.199 224 214.066 224 217.602 c 224 221.133 221.133 224 217.602 224 c
 h
217.602 224 m f
204.801 249.602 m 172.801 249.602 l 169.266 249.602 166.398 246.734 166.398
 243.199 c 166.398 239.664 169.266 236.801 172.801 236.801 c 204.801 236.801
 l 208.336 236.801 211.199 239.664 211.199 243.199 c 211.199 246.734 208.336
 249.602 204.801 249.602 c h
204.801 249.602 m f
Q Q
showpage
%%Trailer
end
%%EOF
