%!PS-Adobe-3.0 EPSF-3.0
%%Creator: cairo 1.16.0 (https://cairographics.org)
%%CreationDate: Fri Nov 29 10:41:54 2019
%%Pages: 1
%%DocumentData: Clean7Bit
%%LanguageLevel: 2
%%BoundingBox: 6 6 378 378
%%EndComments
%%BeginProlog
50 dict begin
/q { gsave } bind def
/Q { grestore } bind def
/cm { 6 array astore concat } bind def
/w { setlinewidth } bind def
/J { setlinecap } bind def
/j { setlinejoin } bind def
/M { setmiterlimit } bind def
/d { setdash } bind def
/m { moveto } bind def
/l { lineto } bind def
/c { curveto } bind def
/h { closepath } bind def
/re { exch dup neg 3 1 roll 5 3 roll moveto 0 rlineto
      0 exch rlineto 0 rlineto closepath } bind def
/S { stroke } bind def
/f { fill } bind def
/f* { eofill } bind def
/n { newpath } bind def
/W { clip } bind def
/W* { eoclip } bind def
/BT { } bind def
/ET { } bind def
/BDC { mark 3 1 roll /BDC pdfmark } bind def
/EMC { mark /EMC pdfmark } bind def
/cairo_store_point { /cairo_point_y exch def /cairo_point_x exch def } def
/Tj { show currentpoint cairo_store_point } bind def
/TJ {
  {
    dup
    type /stringtype eq
    { show } { -0.001 mul 0 cairo_font_matrix dtransform rmoveto } ifelse
  } forall
  currentpoint cairo_store_point
} bind def
/cairo_selectfont { cairo_font_matrix aload pop pop pop 0 0 6 array astore
    cairo_font exch selectfont cairo_point_x cairo_point_y moveto } bind def
/Tf { pop /cairo_font exch def /cairo_font_matrix where
      { pop cairo_selectfont } if } bind def
/Td { matrix translate cairo_font_matrix matrix concatmatrix dup
      /cairo_font_matrix exch def dup 4 get exch 5 get cairo_store_point
      /cairo_font where { pop cairo_selectfont } if } bind def
/Tm { 2 copy 8 2 roll 6 array astore /cairo_font_matrix exch def
      cairo_store_point /cairo_font where { pop cairo_selectfont } if } bind def
/g { setgray } bind def
/rg { setrgbcolor } bind def
/d1 { setcachedevice } bind def
/cairo_data_source {
  CairoDataIndex CairoData length lt
    { CairoData CairoDataIndex get /CairoDataIndex CairoDataIndex 1 add def }
    { () } ifelse
} def
/cairo_flush_ascii85_file { cairo_ascii85_file status { cairo_ascii85_file flushfile } if } def
/cairo_image { image cairo_flush_ascii85_file } def
/cairo_imagemask { imagemask cairo_flush_ascii85_file } def
%%EndProlog
%%BeginSetup
%%EndSetup
%%Page: 1 1
%%BeginPageSetup
%%PageBoundingBox: 6 6 378 378
%%EndPageSetup
q 6 6 372 372 rectclip
1 0 0 -1 0 384 cm q
0.172549 0.494118 0.607843 rg
300.801 57.602 m 300.801 326.398 l 294.398 332.801 l 89.602 332.801 l 83.199
 326.398 l 83.199 57.602 l 89.602 51.199 l 294.398 51.199 l h
300.801 57.602 m f
0.72549 0.74902 0.8 rg
300.801 25.602 m 300.801 57.602 l 83.199 57.602 l 83.199 25.602 l 83.199
 14.996 91.797 6.398 102.398 6.398 c 281.602 6.398 l 292.203 6.398 300.801
 14.996 300.801 25.602 c h
300.801 25.602 m f
83.199 326.398 m 300.801 326.398 l 300.801 358.398 l 300.801 369.004 292.203
 377.602 281.602 377.602 c 102.398 377.602 l 91.797 377.602 83.199 369.004
 83.199 358.398 c h
83.199 326.398 m f
0.839216 0.858824 0.890196 rg
377.602 134.398 m 377.602 268.801 l 377.602 279.402 369.004 288 358.398
 288 c 217.602 288 l 206.996 288 198.398 279.402 198.398 268.801 c 198.398
 134.398 l h
377.602 134.398 m f
0.137255 0.372549 0.427451 rg
377.602 102.398 m 377.602 134.398 l 198.398 134.398 l 198.398 102.398 l
 198.398 91.797 206.996 83.199 217.602 83.199 c 358.398 83.199 l 369.004
 83.199 377.602 91.797 377.602 102.398 c h
377.602 102.398 m f
0.8 0.815686 0.854902 rg
172.48 184.895 m 172.309 183.078 171.117 181.512 169.406 180.863 c 156.031
 175.488 l 154.379 168.883 151.746 162.562 148.223 156.734 c 153.922 143.426
 l 154.668 141.762 154.395 139.82 153.215 138.434 c 151.734 136.578 150.133
 134.824 148.414 133.184 c 146.777 131.469 145.023 129.863 143.168 128.383
 c 141.781 127.207 139.836 126.93 138.176 127.68 c 124.863 133.375 l 119.035
 129.855 112.715 127.223 106.113 125.566 c 100.734 112.191 l 100.086 110.484
 98.523 109.293 96.703 109.121 c 94.336 108.93 91.969 108.801 89.602 108.801
 c 87.23 108.801 84.863 108.93 82.496 109.121 c 80.676 109.293 79.113 110.484
 78.465 112.191 c 73.09 125.566 l 66.484 127.223 60.164 129.855 54.336 133.375
 c 41.023 127.68 l 39.363 126.93 37.422 127.207 36.031 128.383 c 34.176 
129.863 32.426 131.469 30.785 133.184 c 29.066 134.824 27.465 136.578 25.984
 138.434 c 24.805 139.82 24.531 141.762 25.281 143.426 c 30.977 156.734 
l 27.453 162.562 24.82 168.883 23.168 175.488 c 9.793 180.863 l 8.082 181.512
 6.891 183.078 6.719 184.895 c 6.527 187.266 6.398 189.633 6.398 192 c 6.398
 194.367 6.527 196.734 6.719 199.105 c 6.891 200.922 8.082 202.488 9.793
 203.137 c 23.168 208.512 l 24.82 215.117 27.453 221.438 30.977 227.266 
c 25.281 240.574 l 24.531 242.238 24.805 244.18 25.984 245.566 c 27.465 
247.422 29.066 249.176 30.785 250.816 c 32.426 252.531 34.176 254.137 36.031
 255.617 c 37.422 256.793 39.363 257.07 41.023 256.32 c 54.336 250.625 l
 60.164 254.145 66.484 256.777 73.09 258.434 c 78.465 271.809 l 79.113 273.516
 80.676 274.707 82.496 274.879 c 84.863 275.07 87.23 275.199 89.602 275.199
 c 91.969 275.199 94.336 275.07 96.703 274.879 c 98.523 274.707 100.086 
273.516 100.734 271.809 c 106.113 258.434 l 112.715 256.777 119.035 254.145
 124.863 250.625 c 138.176 256.32 l 139.836 257.07 141.781 256.793 143.168
 255.617 c 145.023 254.137 146.777 252.531 148.414 250.816 c 150.133 249.176
 151.734 247.422 153.215 245.566 c 154.395 244.18 154.668 242.238 153.922
 240.574 c 148.223 227.266 l 151.746 221.438 154.379 215.117 156.031 208.512
 c 169.406 203.137 l 171.117 202.488 172.309 200.922 172.48 199.105 c 172.672
 196.734 172.801 194.367 172.801 192 c 172.801 189.633 172.672 187.266 172.48
 184.895 c h
89.602 236.801 m 71.48 236.801 55.145 225.887 48.211 209.145 c 41.277 192.402
 45.109 173.133 57.922 160.32 c 70.734 147.508 90.004 143.676 106.746 150.609
 c 123.484 157.543 134.398 173.879 134.398 192 c 134.41 203.883 129.691 
215.285 121.289 223.688 c 112.883 232.09 101.484 236.809 89.602 236.801 
c h
89.602 236.801 m f
0.72549 0.74902 0.8 rg
89.602 243.199 m 68.891 243.199 50.223 230.727 42.297 211.594 c 34.371 
192.461 38.754 170.438 53.395 155.797 c 68.039 141.152 90.062 136.773 109.195
 144.699 c 128.324 152.621 140.801 171.293 140.801 192 c 140.77 220.266 
117.863 243.168 89.602 243.199 c h
89.602 153.602 m 74.07 153.602 60.066 162.957 54.121 177.305 c 48.18 191.652
 51.465 208.172 62.445 219.152 c 73.43 230.137 89.945 233.422 104.297 227.477
 c 118.645 221.535 128 207.531 128 192 c 127.98 170.801 110.801 153.621 
89.602 153.602 c h
89.602 153.602 m f
0.8 0.815686 0.854902 rg
108.801 192 m 108.801 202.605 100.203 211.199 89.602 211.199 c 78.996 211.199
 70.398 202.605 70.398 192 c 70.398 181.395 78.996 172.801 89.602 172.801
 c 100.203 172.801 108.801 181.395 108.801 192 c h
108.801 192 m f
0.72549 0.74902 0.8 rg
230.398 160 m 345.602 160 l 349.145 160 352 162.855 352 166.398 c 352 192
 l 352 195.547 349.145 198.398 345.602 198.398 c 230.398 198.398 l 226.855
 198.398 224 195.547 224 192 c 224 166.398 l 224 162.855 226.855 160 230.398
 160 c h
230.398 160 m f
0.537255 0.568627 0.627451 rg
172.801 38.398 m 166.398 38.398 l 162.867 38.398 160 35.535 160 32 c 160
 28.465 162.867 25.602 166.398 25.602 c 172.801 25.602 l 176.336 25.602 
179.199 28.465 179.199 32 c 179.199 35.535 176.336 38.398 172.801 38.398
 c h
172.801 38.398 m f
217.602 38.398 m 198.398 38.398 l 194.867 38.398 192 35.535 192 32 c 192
 28.465 194.867 25.602 198.398 25.602 c 217.602 25.602 l 221.133 25.602 
224 28.465 224 32 c 224 35.535 221.133 38.398 217.602 38.398 c h
217.602 38.398 m f
204.801 358.398 m 179.199 358.398 l 175.664 358.398 172.801 355.535 172.801
 352 c 172.801 348.465 175.664 345.602 179.199 345.602 c 204.801 345.602
 l 208.336 345.602 211.199 348.465 211.199 352 c 211.199 355.535 208.336
 358.398 204.801 358.398 c h
204.801 358.398 m f
0.972549 0.32549 0.423529 rg
230.398 115.199 m 224 115.199 l 220.465 115.199 217.602 112.336 217.602
 108.801 c 217.602 105.266 220.465 102.398 224 102.398 c 230.398 102.398
 l 233.934 102.398 236.801 105.266 236.801 108.801 c 236.801 112.336 233.934
 115.199 230.398 115.199 c h
230.398 115.199 m f
0.662745 0.862745 0.384314 rg
262.398 115.199 m 256 115.199 l 252.465 115.199 249.602 112.336 249.602
 108.801 c 249.602 105.266 252.465 102.398 256 102.398 c 262.398 102.398
 l 265.934 102.398 268.801 105.266 268.801 108.801 c 268.801 112.336 265.934
 115.199 262.398 115.199 c h
262.398 115.199 m f
0.117647 0.313726 0.356863 rg
352 115.199 m 320 115.199 l 316.465 115.199 313.602 112.336 313.602 108.801
 c 313.602 105.266 316.465 102.398 320 102.398 c 352 102.398 l 355.535 102.398
 358.398 105.266 358.398 108.801 c 358.398 112.336 355.535 115.199 352 115.199
 c h
352 115.199 m f
0.654902 0.678431 0.717647 rg
294.398 230.398 m 236.801 230.398 l 233.266 230.398 230.398 227.535 230.398
 224 c 230.398 220.465 233.266 217.602 236.801 217.602 c 294.398 217.602
 l 297.934 217.602 300.801 220.465 300.801 224 c 300.801 227.535 297.934
 230.398 294.398 230.398 c h
294.398 230.398 m f
281.602 256 m 236.801 256 l 233.266 256 230.398 253.133 230.398 249.602
 c 230.398 246.066 233.266 243.199 236.801 243.199 c 281.602 243.199 l 285.133
 243.199 288 246.066 288 249.602 c 288 253.133 285.133 256 281.602 256 c
 h
281.602 256 m f
339.199 230.398 m 320 230.398 l 316.465 230.398 313.602 227.535 313.602
 224 c 313.602 220.465 316.465 217.602 320 217.602 c 339.199 217.602 l 342.734
 217.602 345.602 220.465 345.602 224 c 345.602 227.535 342.734 230.398 339.199
 230.398 c h
339.199 230.398 m f
326.398 256 m 307.199 256 l 303.664 256 300.801 253.133 300.801 249.602
 c 300.801 246.066 303.664 243.199 307.199 243.199 c 326.398 243.199 l 329.934
 243.199 332.801 246.066 332.801 249.602 c 332.801 253.133 329.934 256 326.398
 256 c h
326.398 256 m f
Q Q
showpage
%%Trailer
end
%%EOF
