%!PS-Adobe-3.0 EPSF-3.0
%%Creator: cairo 1.16.0 (https://cairographics.org)
%%CreationDate: Fri Nov 29 10:41:54 2019
%%Pages: 1
%%DocumentData: Clean7Bit
%%LanguageLevel: 2
%%BoundingBox: 32 6 352 378
%%EndComments
%%BeginProlog
50 dict begin
/q { gsave } bind def
/Q { grestore } bind def
/cm { 6 array astore concat } bind def
/w { setlinewidth } bind def
/J { setlinecap } bind def
/j { setlinejoin } bind def
/M { setmiterlimit } bind def
/d { setdash } bind def
/m { moveto } bind def
/l { lineto } bind def
/c { curveto } bind def
/h { closepath } bind def
/re { exch dup neg 3 1 roll 5 3 roll moveto 0 rlineto
      0 exch rlineto 0 rlineto closepath } bind def
/S { stroke } bind def
/f { fill } bind def
/f* { eofill } bind def
/n { newpath } bind def
/W { clip } bind def
/W* { eoclip } bind def
/BT { } bind def
/ET { } bind def
/BDC { mark 3 1 roll /BDC pdfmark } bind def
/EMC { mark /EMC pdfmark } bind def
/cairo_store_point { /cairo_point_y exch def /cairo_point_x exch def } def
/Tj { show currentpoint cairo_store_point } bind def
/TJ {
  {
    dup
    type /stringtype eq
    { show } { -0.001 mul 0 cairo_font_matrix dtransform rmoveto } ifelse
  } forall
  currentpoint cairo_store_point
} bind def
/cairo_selectfont { cairo_font_matrix aload pop pop pop 0 0 6 array astore
    cairo_font exch selectfont cairo_point_x cairo_point_y moveto } bind def
/Tf { pop /cairo_font exch def /cairo_font_matrix where
      { pop cairo_selectfont } if } bind def
/Td { matrix translate cairo_font_matrix matrix concatmatrix dup
      /cairo_font_matrix exch def dup 4 get exch 5 get cairo_store_point
      /cairo_font where { pop cairo_selectfont } if } bind def
/Tm { 2 copy 8 2 roll 6 array astore /cairo_font_matrix exch def
      cairo_store_point /cairo_font where { pop cairo_selectfont } if } bind def
/g { setgray } bind def
/rg { setrgbcolor } bind def
/d1 { setcachedevice } bind def
/cairo_data_source {
  CairoDataIndex CairoData length lt
    { CairoData CairoDataIndex get /CairoDataIndex CairoDataIndex 1 add def }
    { () } ifelse
} def
/cairo_flush_ascii85_file { cairo_ascii85_file status { cairo_ascii85_file flushfile } if } def
/cairo_image { image cairo_flush_ascii85_file } def
/cairo_imagemask { imagemask cairo_flush_ascii85_file } def
%%EndProlog
%%BeginSetup
%%EndSetup
%%Page: 1 1
%%BeginPageSetup
%%PageBoundingBox: 32 6 352 378
%%EndPageSetup
q 32 6 320 372 rectclip
1 0 0 -1 0 384 cm q
0.686275 0.709804 0.74902 rg
115.199 294.398 153.602 38.402 re f
0.8 0.815686 0.854902 rg
312.383 352 m 311.887 351.227 311.207 350.586 310.398 350.145 c 268.801
 326.398 l 115.199 326.398 l 73.602 350.145 l 72.793 350.586 72.113 351.227
 71.617 352 c 70.832 353.082 70.41 354.379 70.398 355.711 c 70.398 371.199
 l 70.398 374.734 73.266 377.602 76.801 377.602 c 307.199 377.602 l 310.734
 377.602 313.602 374.734 313.602 371.199 c 313.602 355.711 l 313.59 354.379
 313.168 353.082 312.383 352 c h
312.383 352 m f
0.686275 0.709804 0.74902 rg
313.602 355.711 m 313.602 371.199 l 313.602 374.734 310.734 377.602 307.199
 377.602 c 76.801 377.602 l 73.266 377.602 70.398 374.734 70.398 371.199
 c 70.398 355.711 l 70.41 354.379 70.832 353.082 71.617 352 c 312.383 352
 l 313.168 353.082 313.59 354.379 313.602 355.711 c h
313.602 355.711 m f
0.8 0.815686 0.854902 rg
352 249.602 m 352 281.602 l 352 292.203 343.402 300.801 332.801 300.801
 c 51.199 300.801 l 40.598 300.801 32 292.203 32 281.602 c 32 249.602 l 
44.801 236.801 l 345.602 236.801 l h
352 249.602 m f
0.172549 0.494118 0.607843 rg
352 51.199 m 352 249.602 l 32 249.602 l 32 51.199 l 32 40.598 40.598 32
 51.199 32 c 332.801 32 l 343.402 32 352 40.598 352 51.199 c h
352 51.199 m f
0.839216 0.858824 0.890196 rg
320 57.602 m 320 198.398 l 319.98 205.461 314.262 211.18 307.199 211.199
 c 76.801 211.199 l 69.738 211.18 64.02 205.461 64 198.398 c 64 57.602 l
 h
320 57.602 m f
0.137255 0.372549 0.427451 rg
320 19.199 m 320 57.602 l 64 57.602 l 64 19.199 l 64.02 12.141 69.738 6.422
 76.801 6.398 c 307.199 6.398 l 314.262 6.422 319.98 12.141 320 19.199 c
 h
320 19.199 m f
134.398 172.801 m 131.004 172.805 127.746 171.457 125.352 169.051 c 99.75
 143.449 l 94.754 138.453 94.754 130.348 99.75 125.352 c 124.871 100.23 
l 129.312 95.582 136.453 94.793 141.805 98.355 c 144.879 100.535 146.84 
103.961 147.156 107.719 c 147.473 111.477 146.117 115.184 143.449 117.848
 c 129.164 132.133 l 127.91 133.383 127.91 135.414 129.164 136.664 c 142.875
 150.398 l 147.855 155.152 148.406 162.91 144.152 168.32 c 141.719 171.176
 138.152 172.812 134.398 172.801 c h
134.398 172.801 m f
249.602 172.801 m 252.996 172.805 256.254 171.457 258.648 169.051 c 284.25
 143.449 l 289.246 138.453 289.246 130.348 284.25 125.352 c 259.129 100.23
 l 254.684 95.582 247.543 94.793 242.188 98.355 c 239.113 100.539 237.156
 103.965 236.84 107.723 c 236.527 111.48 237.883 115.184 240.551 117.848
 c 254.836 132.133 l 256.09 133.383 256.09 135.414 254.836 136.664 c 241.125
 150.398 l 236.145 155.152 235.594 162.91 239.848 168.32 c 242.281 171.176
 245.848 172.812 249.602 172.801 c h
249.602 172.801 m f
185.602 172.801 m 181.656 172.801 177.934 170.984 175.508 167.879 c 173.082
 164.773 172.223 160.719 173.176 156.895 c 185.977 105.695 l 186.754 102.352
 188.84 99.461 191.766 97.668 c 194.695 95.875 198.223 95.336 201.551 96.168
 c 204.883 97 207.738 99.137 209.48 102.098 c 211.219 105.055 211.699 108.59
 210.809 111.902 c 198.008 163.105 l 196.586 168.801 191.469 172.797 185.602
 172.801 c h
185.602 172.801 m f
0.537255 0.568627 0.627451 rg
204.801 281.602 m 179.199 281.602 l 175.664 281.602 172.801 278.734 172.801
 275.199 c 172.801 271.664 175.664 268.801 179.199 268.801 c 204.801 268.801
 l 208.336 268.801 211.199 271.664 211.199 275.199 c 211.199 278.734 208.336
 281.602 204.801 281.602 c h
204.801 281.602 m f
0.972549 0.32549 0.423529 rg
96 38.398 m 89.602 38.398 l 86.066 38.398 83.199 35.535 83.199 32 c 83.199
 28.465 86.066 25.602 89.602 25.602 c 96 25.602 l 99.535 25.602 102.398 
28.465 102.398 32 c 102.398 35.535 99.535 38.398 96 38.398 c h
96 38.398 m f
0.988235 0.796078 0.333333 rg
128 38.398 m 121.602 38.398 l 118.066 38.398 115.199 35.535 115.199 32 
c 115.199 28.465 118.066 25.602 121.602 25.602 c 128 25.602 l 131.535 25.602
 134.398 28.465 134.398 32 c 134.398 35.535 131.535 38.398 128 38.398 c 
h
128 38.398 m f
0.662745 0.862745 0.384314 rg
160 38.398 m 153.602 38.398 l 150.066 38.398 147.199 35.535 147.199 32 
c 147.199 28.465 150.066 25.602 153.602 25.602 c 160 25.602 l 163.535 25.602
 166.398 28.465 166.398 32 c 166.398 35.535 163.535 38.398 160 38.398 c 
h
160 38.398 m f
0.117647 0.313726 0.356863 rg
294.398 38.398 m 236.801 38.398 l 233.266 38.398 230.398 35.535 230.398
 32 c 230.398 28.465 233.266 25.602 236.801 25.602 c 294.398 25.602 l 297.934
 25.602 300.801 28.465 300.801 32 c 300.801 35.535 297.934 38.398 294.398
 38.398 c h
294.398 38.398 m f
Q Q
showpage
%%Trailer
end
%%EOF
