%!PS-Adobe-3.0 EPSF-3.0
%%Creator: cairo 1.16.0 (https://cairographics.org)
%%CreationDate: Fri Nov 29 10:41:55 2019
%%Pages: 1
%%DocumentData: Clean7Bit
%%LanguageLevel: 2
%%BoundingBox: 6 6 378 378
%%EndComments
%%BeginProlog
50 dict begin
/q { gsave } bind def
/Q { grestore } bind def
/cm { 6 array astore concat } bind def
/w { setlinewidth } bind def
/J { setlinecap } bind def
/j { setlinejoin } bind def
/M { setmiterlimit } bind def
/d { setdash } bind def
/m { moveto } bind def
/l { lineto } bind def
/c { curveto } bind def
/h { closepath } bind def
/re { exch dup neg 3 1 roll 5 3 roll moveto 0 rlineto
      0 exch rlineto 0 rlineto closepath } bind def
/S { stroke } bind def
/f { fill } bind def
/f* { eofill } bind def
/n { newpath } bind def
/W { clip } bind def
/W* { eoclip } bind def
/BT { } bind def
/ET { } bind def
/BDC { mark 3 1 roll /BDC pdfmark } bind def
/EMC { mark /EMC pdfmark } bind def
/cairo_store_point { /cairo_point_y exch def /cairo_point_x exch def } def
/Tj { show currentpoint cairo_store_point } bind def
/TJ {
  {
    dup
    type /stringtype eq
    { show } { -0.001 mul 0 cairo_font_matrix dtransform rmoveto } ifelse
  } forall
  currentpoint cairo_store_point
} bind def
/cairo_selectfont { cairo_font_matrix aload pop pop pop 0 0 6 array astore
    cairo_font exch selectfont cairo_point_x cairo_point_y moveto } bind def
/Tf { pop /cairo_font exch def /cairo_font_matrix where
      { pop cairo_selectfont } if } bind def
/Td { matrix translate cairo_font_matrix matrix concatmatrix dup
      /cairo_font_matrix exch def dup 4 get exch 5 get cairo_store_point
      /cairo_font where { pop cairo_selectfont } if } bind def
/Tm { 2 copy 8 2 roll 6 array astore /cairo_font_matrix exch def
      cairo_store_point /cairo_font where { pop cairo_selectfont } if } bind def
/g { setgray } bind def
/rg { setrgbcolor } bind def
/d1 { setcachedevice } bind def
/cairo_data_source {
  CairoDataIndex CairoData length lt
    { CairoData CairoDataIndex get /CairoDataIndex CairoDataIndex 1 add def }
    { () } ifelse
} def
/cairo_flush_ascii85_file { cairo_ascii85_file status { cairo_ascii85_file flushfile } if } def
/cairo_image { image cairo_flush_ascii85_file } def
/cairo_imagemask { imagemask cairo_flush_ascii85_file } def
%%EndProlog
%%BeginSetup
%%EndSetup
%%Page: 1 1
%%BeginPageSetup
%%PageBoundingBox: 6 6 378 378
%%EndPageSetup
q 6 6 372 372 rectclip
1 0 0 -1 0 384 cm q
0.839216 0.858824 0.890196 rg
377.602 57.602 m 377.602 358.398 l 377.602 369.004 369.004 377.602 358.398
 377.602 c 25.602 377.602 l 14.996 377.602 6.398 369.004 6.398 358.398 c
 6.398 57.602 l 12.801 51.199 l 371.199 51.199 l h
377.602 57.602 m f
0.152941 0.435294 0.509804 rg
377.602 25.602 m 377.602 57.602 l 6.398 57.602 l 6.398 25.602 l 6.398 14.996
 14.996 6.398 25.602 6.398 c 358.398 6.398 l 369.004 6.398 377.602 14.996
 377.602 25.602 c h
377.602 25.602 m f
0.94902 0.560784 0.00784314 rg
161.922 160.383 m 169.207 143.223 166.637 123.461 155.199 108.734 c 142.137
 92.309 120.312 85.617 100.289 91.902 c 97.898 92.598 97.152 95.617 98.945
 97.344 c 128.832 127.23 l 129.906 128.297 130.512 129.75 130.512 131.266
 c 130.512 132.777 129.906 134.23 128.832 135.297 c 109.695 154.434 l 108.629
 155.508 107.18 156.113 105.664 156.113 c 104.148 156.113 102.699 155.508
 101.633 154.434 c 71.742 124.543 l 70.016 122.754 67 123.5 66.305 125.887
 c 60.34 144.805 65.973 165.465 80.719 178.734 c 95.461 192.004 116.598 
195.438 134.785 187.52 c 222.078 274.816 l 214.16 293.004 217.598 314.141
 230.867 328.883 c 244.137 343.625 264.793 349.262 283.711 343.297 c 286.102
 342.602 286.848 339.582 285.055 337.855 c 255.168 307.969 l 254.094 306.902
 253.488 305.449 253.488 303.938 c 253.488 302.422 254.094 300.969 255.168
 299.902 c 274.305 280.77 l 275.371 279.691 276.82 279.086 278.336 279.086
 c 279.852 279.086 281.301 279.691 282.367 280.77 c 312.258 310.656 l 313.984
 312.445 317 311.699 317.695 309.312 c 323.98 289.289 317.293 267.461 300.863
 254.398 c 286.141 242.961 266.379 240.391 249.215 247.68 c h
161.922 160.383 m f
0.866667 0.470588 0 rg
317.691 125.887 m 316.984 123.516 313.992 122.766 312.258 124.531 c 282.363
 154.426 l 280.133 156.645 276.527 156.645 274.297 154.426 c 255.18 135.309
 l 252.961 133.078 252.961 129.473 255.18 127.246 c 285.074 97.352 l 286.828
 95.609 286.086 92.625 283.719 91.91 c 263.691 85.625 241.863 92.324 228.812
 108.762 c 217.367 123.465 214.793 143.211 222.078 160.359 c 134.758 247.68
 l 117.609 240.395 97.859 242.977 83.16 254.426 c 66.723 267.477 60.023 
289.305 66.309 309.332 c 67.023 311.699 70.008 312.441 71.75 310.688 c 101.645
 280.793 l 103.875 278.574 107.48 278.574 109.707 280.793 c 128.824 299.91
 l 131.047 302.141 131.047 305.746 128.824 307.973 c 98.926 337.855 l 97.172
 339.598 97.918 342.582 100.289 343.289 c 119.195 349.234 139.832 343.598
 153.098 328.867 c 166.359 314.141 169.809 293.023 161.922 274.84 c 249.246
 187.52 l 267.43 195.402 288.543 191.953 303.27 178.691 c 317.996 165.43
 323.633 144.793 317.691 125.887 c h
317.691 125.887 m f
0.972549 0.32549 0.423529 rg
38.398 38.398 m 32 38.398 l 28.465 38.398 25.602 35.535 25.602 32 c 25.602
 28.465 28.465 25.602 32 25.602 c 38.398 25.602 l 41.934 25.602 44.801 28.465
 44.801 32 c 44.801 35.535 41.934 38.398 38.398 38.398 c h
38.398 38.398 m f
0.988235 0.796078 0.333333 rg
70.398 38.398 m 64 38.398 l 60.465 38.398 57.602 35.535 57.602 32 c 57.602
 28.465 60.465 25.602 64 25.602 c 70.398 25.602 l 73.934 25.602 76.801 28.465
 76.801 32 c 76.801 35.535 73.934 38.398 70.398 38.398 c h
70.398 38.398 m f
0.662745 0.862745 0.384314 rg
102.398 38.398 m 96 38.398 l 92.465 38.398 89.602 35.535 89.602 32 c 89.602
 28.465 92.465 25.602 96 25.602 c 102.398 25.602 l 105.934 25.602 108.801
 28.465 108.801 32 c 108.801 35.535 105.934 38.398 102.398 38.398 c h
102.398 38.398 m f
0.117647 0.313726 0.356863 rg
352 38.398 m 300.801 38.398 l 297.266 38.398 294.398 35.535 294.398 32 
c 294.398 28.465 297.266 25.602 300.801 25.602 c 352 25.602 l 355.535 25.602
 358.398 28.465 358.398 32 c 358.398 35.535 355.535 38.398 352 38.398 c 
h
352 38.398 m f
Q Q
showpage
%%Trailer
end
%%EOF
