%!PS-Adobe-3.0 EPSF-3.0
%%Creator: cairo 1.16.0 (https://cairographics.org)
%%CreationDate: Fri Nov 29 10:41:55 2019
%%Pages: 1
%%DocumentData: Clean7Bit
%%LanguageLevel: 2
%%BoundingBox: 6 6 378 378
%%EndComments
%%BeginProlog
50 dict begin
/q { gsave } bind def
/Q { grestore } bind def
/cm { 6 array astore concat } bind def
/w { setlinewidth } bind def
/J { setlinecap } bind def
/j { setlinejoin } bind def
/M { setmiterlimit } bind def
/d { setdash } bind def
/m { moveto } bind def
/l { lineto } bind def
/c { curveto } bind def
/h { closepath } bind def
/re { exch dup neg 3 1 roll 5 3 roll moveto 0 rlineto
      0 exch rlineto 0 rlineto closepath } bind def
/S { stroke } bind def
/f { fill } bind def
/f* { eofill } bind def
/n { newpath } bind def
/W { clip } bind def
/W* { eoclip } bind def
/BT { } bind def
/ET { } bind def
/BDC { mark 3 1 roll /BDC pdfmark } bind def
/EMC { mark /EMC pdfmark } bind def
/cairo_store_point { /cairo_point_y exch def /cairo_point_x exch def } def
/Tj { show currentpoint cairo_store_point } bind def
/TJ {
  {
    dup
    type /stringtype eq
    { show } { -0.001 mul 0 cairo_font_matrix dtransform rmoveto } ifelse
  } forall
  currentpoint cairo_store_point
} bind def
/cairo_selectfont { cairo_font_matrix aload pop pop pop 0 0 6 array astore
    cairo_font exch selectfont cairo_point_x cairo_point_y moveto } bind def
/Tf { pop /cairo_font exch def /cairo_font_matrix where
      { pop cairo_selectfont } if } bind def
/Td { matrix translate cairo_font_matrix matrix concatmatrix dup
      /cairo_font_matrix exch def dup 4 get exch 5 get cairo_store_point
      /cairo_font where { pop cairo_selectfont } if } bind def
/Tm { 2 copy 8 2 roll 6 array astore /cairo_font_matrix exch def
      cairo_store_point /cairo_font where { pop cairo_selectfont } if } bind def
/g { setgray } bind def
/rg { setrgbcolor } bind def
/d1 { setcachedevice } bind def
/cairo_data_source {
  CairoDataIndex CairoData length lt
    { CairoData CairoDataIndex get /CairoDataIndex CairoDataIndex 1 add def }
    { () } ifelse
} def
/cairo_flush_ascii85_file { cairo_ascii85_file status { cairo_ascii85_file flushfile } if } def
/cairo_image { image cairo_flush_ascii85_file } def
/cairo_imagemask { imagemask cairo_flush_ascii85_file } def
%%EndProlog
%%BeginSetup
%%EndSetup
%%Page: 1 1
%%BeginPageSetup
%%PageBoundingBox: 6 6 378 378
%%EndPageSetup
q 6 6 372 372 rectclip
1 0 0 -1 0 384 cm q
0.8 0.815686 0.854902 rg
376.895 176.129 m 376.492 172.105 373.871 168.648 370.113 167.168 c 340.16
 155.199 l 336.512 140.426 330.641 126.293 322.754 113.281 c 335.488 83.648
 l 337.129 79.922 336.535 75.594 333.953 72.449 c 330.625 68.414 326.977
 64.512 323.266 60.734 c 319.551 56.961 315.586 53.375 311.551 50.047 c 
308.406 47.465 304.078 46.871 300.352 48.512 c 270.719 61.246 l 257.707 
53.359 243.574 47.488 228.801 43.84 c 216.832 13.887 l 215.352 10.129 211.895
 7.508 207.871 7.105 c 202.625 6.594 197.312 6.398 192 6.398 c 186.688 6.398
 181.375 6.594 176.129 7.105 c 172.105 7.508 168.648 10.129 167.168 13.887
 c 155.199 43.84 l 140.426 47.488 126.293 53.359 113.281 61.246 c 83.648
 48.512 l 79.922 46.871 75.594 47.465 72.449 50.047 c 68.414 53.375 64.512
 57.023 60.734 60.734 c 56.961 64.449 53.375 68.414 50.047 72.449 c 47.465
 75.594 46.871 79.922 48.512 83.648 c 61.246 113.281 l 53.359 126.293 47.488
 140.426 43.84 155.199 c 13.887 167.168 l 10.129 168.648 7.508 172.105 7.105
 176.129 c 6.594 181.375 6.398 186.688 6.398 192 c 6.398 197.312 6.594 202.625
 7.105 207.871 c 7.508 211.895 10.129 215.352 13.887 216.832 c 43.84 228.801
 l 47.488 243.574 53.359 257.707 61.246 270.719 c 48.512 300.352 l 46.871
 304.078 47.465 308.406 50.047 311.551 c 53.375 315.586 57.023 319.488 60.734
 323.266 c 64.449 327.039 68.414 330.625 72.449 333.953 c 75.594 336.535
 79.922 337.129 83.648 335.488 c 113.281 322.754 l 126.293 330.641 140.426
 336.512 155.199 340.16 c 167.168 370.113 l 168.648 373.871 172.105 376.492
 176.129 376.895 c 181.375 377.406 186.688 377.602 192 377.602 c 197.312
 377.602 202.625 377.406 207.871 376.895 c 211.895 376.492 215.352 373.871
 216.832 370.113 c 228.801 340.16 l 243.574 336.512 257.707 330.641 270.719
 322.754 c 300.352 335.488 l 304.078 337.129 308.406 336.535 311.551 333.953
 c 315.586 330.625 319.488 326.977 323.266 323.266 c 327.039 319.551 330.625
 315.586 333.953 311.551 c 336.535 308.406 337.129 304.078 335.488 300.352
 c 322.754 270.719 l 330.641 257.707 336.512 243.574 340.16 228.801 c 370.113
 216.832 l 373.871 215.352 376.492 211.895 376.895 207.871 c 377.406 202.625
 377.602 197.312 377.602 192 c 377.602 186.688 377.406 181.375 376.895 176.129
 c h
192 307.199 m 145.406 307.199 103.398 279.133 85.57 236.086 c 67.738 193.039
 77.594 143.488 110.543 110.543 c 143.488 77.594 193.039 67.738 236.086 
85.57 c 279.133 103.398 307.199 145.406 307.199 192 c 307.105 255.582 255.582
 307.105 192 307.199 c h
192 307.199 m f
0.980392 0.631373 0.0862745 rg
288 192 m 288 245.02 245.02 288 192 288 c 138.98 288 96 245.02 96 192 c
 96 138.98 138.98 96 192 96 c 245.02 96 288 138.98 288 192 c h
288 192 m f
0.72549 0.74902 0.8 rg
192 64 m 140.23 64 93.555 95.188 73.742 143.016 c 53.93 190.848 64.883 
245.902 101.492 282.508 c 138.098 319.117 193.152 330.07 240.984 310.258
 c 288.812 290.445 320 243.77 320 192 c 319.93 121.336 262.664 64.07 192
 64 c h
192 307.199 m 145.406 307.199 103.398 279.133 85.57 236.086 c 67.738 193.039
 77.594 143.488 110.543 110.543 c 143.488 77.594 193.039 67.738 236.086 
85.57 c 279.133 103.398 307.199 145.406 307.199 192 c 307.105 255.582 255.582
 307.105 192 307.199 c h
192 307.199 m f
1 g
217.602 185.602 m 215.312 185.598 213.203 184.375 212.062 182.395 c 210.918
 180.414 210.922 177.977 212.066 175.996 c 213.211 174.02 215.32 172.801
 217.609 172.801 c 219.895 172.801 222.004 174.02 223.148 176 c 224.969 
178.941 228.797 179.906 231.793 178.176 c 234.789 176.445 235.867 172.645
 234.227 169.602 c 230.797 163.66 224.457 160 217.598 160 c 210.738 160 
204.402 163.66 200.973 169.602 c 197.543 175.539 197.543 182.859 200.973
 188.801 c 204.402 194.742 210.742 198.398 217.602 198.398 c 219.887 198.402
 221.996 199.625 223.137 201.605 c 224.281 203.586 224.277 206.023 223.133
 208.004 c 221.992 209.98 219.879 211.199 217.594 211.199 c 215.305 211.199
 213.195 209.98 212.051 208 c 210.23 205.059 206.402 204.094 203.406 205.824
 c 200.41 207.555 199.332 211.355 200.973 214.398 c 204.402 220.34 210.742
 224 217.602 224 c 224.461 224 230.797 220.34 234.227 214.398 c 237.656 
208.461 237.656 201.141 234.227 195.199 c 230.797 189.258 224.461 185.602
 217.602 185.602 c h
217.602 185.602 m f
185.602 160 m 160 160 l 156.465 160 153.602 162.867 153.602 166.398 c 153.602
 169.934 156.465 172.801 160 172.801 c 172.801 172.801 l 172.801 204.801
 l 172.801 208.336 169.934 211.199 166.398 211.199 c 162.867 211.199 160
 208.336 160 204.801 c 160 198.398 l 160 194.867 157.133 192 153.602 192
 c 150.066 192 147.199 194.867 147.199 198.398 c 147.199 204.801 l 147.199
 215.402 155.797 224 166.398 224 c 177.004 224 185.602 215.402 185.602 204.801
 c 185.602 172.801 l 189.133 172.801 192 169.934 192 166.398 c 192 162.867
 189.133 160 185.602 160 c h
185.602 160 m f
0.866667 0.470588 0 rg
132.891 224 m 125.82 224 120.09 218.27 120.09 211.199 c 120.09 207.82 l
 120.09 206.828 119.859 205.848 119.41 204.961 c 117.223 200.59 l 114.539
 195.18 114.539 188.828 117.223 183.418 c 119.41 179.039 l 119.859 178.152
 120.09 177.172 120.09 176.18 c 120.09 172.801 l 120.09 165.73 125.82 160
 132.891 160 c 136.426 160 139.289 162.867 139.289 166.398 c 139.289 169.934
 136.426 172.801 132.891 172.801 c 132.891 176.18 l 132.887 179.16 132.191
 182.098 130.859 184.762 c 128.672 189.141 l 127.781 190.945 127.781 193.062
 128.672 194.867 c 130.859 199.238 l 132.191 201.902 132.887 204.84 132.891
 207.82 c 132.891 211.199 l 136.426 211.199 139.289 214.066 139.289 217.602
 c 139.289 221.133 136.426 224 132.891 224 c h
132.891 224 m f
251.109 224 m 247.574 224 244.711 221.133 244.711 217.602 c 244.711 214.066
 247.574 211.199 251.109 211.199 c 251.109 207.82 l 251.113 204.84 251.809
 201.902 253.141 199.238 c 255.328 194.859 l 256.219 193.055 256.219 190.938
 255.328 189.133 c 253.141 184.762 l 251.809 182.098 251.113 179.16 251.109
 176.18 c 251.109 172.801 l 247.574 172.801 244.711 169.934 244.711 166.398
 c 244.711 162.867 247.574 160 251.109 160 c 258.18 160 263.91 165.73 263.91
 172.801 c 263.91 176.18 l 263.91 177.172 264.141 178.152 264.59 179.039
 c 266.777 183.41 l 269.461 188.82 269.461 195.172 266.777 200.582 c 264.59
 204.961 l 264.141 205.848 263.91 206.828 263.91 207.82 c 263.91 211.199
 l 263.91 218.27 258.18 224 251.109 224 c h
251.109 224 m f
Q Q
showpage
%%Trailer
end
%%EOF
