%!PS-Adobe-3.0 EPSF-3.0
%%Creator: cairo 1.16.0 (https://cairographics.org)
%%CreationDate: Fri Nov 29 10:41:56 2019
%%Pages: 1
%%DocumentData: Clean7Bit
%%LanguageLevel: 2
%%BoundingBox: 6 6 378 378
%%EndComments
%%BeginProlog
50 dict begin
/q { gsave } bind def
/Q { grestore } bind def
/cm { 6 array astore concat } bind def
/w { setlinewidth } bind def
/J { setlinecap } bind def
/j { setlinejoin } bind def
/M { setmiterlimit } bind def
/d { setdash } bind def
/m { moveto } bind def
/l { lineto } bind def
/c { curveto } bind def
/h { closepath } bind def
/re { exch dup neg 3 1 roll 5 3 roll moveto 0 rlineto
      0 exch rlineto 0 rlineto closepath } bind def
/S { stroke } bind def
/f { fill } bind def
/f* { eofill } bind def
/n { newpath } bind def
/W { clip } bind def
/W* { eoclip } bind def
/BT { } bind def
/ET { } bind def
/BDC { mark 3 1 roll /BDC pdfmark } bind def
/EMC { mark /EMC pdfmark } bind def
/cairo_store_point { /cairo_point_y exch def /cairo_point_x exch def } def
/Tj { show currentpoint cairo_store_point } bind def
/TJ {
  {
    dup
    type /stringtype eq
    { show } { -0.001 mul 0 cairo_font_matrix dtransform rmoveto } ifelse
  } forall
  currentpoint cairo_store_point
} bind def
/cairo_selectfont { cairo_font_matrix aload pop pop pop 0 0 6 array astore
    cairo_font exch selectfont cairo_point_x cairo_point_y moveto } bind def
/Tf { pop /cairo_font exch def /cairo_font_matrix where
      { pop cairo_selectfont } if } bind def
/Td { matrix translate cairo_font_matrix matrix concatmatrix dup
      /cairo_font_matrix exch def dup 4 get exch 5 get cairo_store_point
      /cairo_font where { pop cairo_selectfont } if } bind def
/Tm { 2 copy 8 2 roll 6 array astore /cairo_font_matrix exch def
      cairo_store_point /cairo_font where { pop cairo_selectfont } if } bind def
/g { setgray } bind def
/rg { setrgbcolor } bind def
/d1 { setcachedevice } bind def
/cairo_data_source {
  CairoDataIndex CairoData length lt
    { CairoData CairoDataIndex get /CairoDataIndex CairoDataIndex 1 add def }
    { () } ifelse
} def
/cairo_flush_ascii85_file { cairo_ascii85_file status { cairo_ascii85_file flushfile } if } def
/cairo_image { image cairo_flush_ascii85_file } def
/cairo_imagemask { imagemask cairo_flush_ascii85_file } def
%%EndProlog
%%BeginSetup
%%EndSetup
%%Page: 1 1
%%BeginPageSetup
%%PageBoundingBox: 6 6 378 378
%%EndPageSetup
q 6 6 372 372 rectclip
1 0 0 -1 0 384 cm q
0.717647 0.517647 0.337255 rg
204.801 204.801 m 192 377.602 l 190.391 377.582 188.801 377.234 187.328
 376.574 c 52.414 320.383 l 47.82 318.531 44.805 314.074 44.801 309.121 
c 44.801 204.801 l h
204.801 204.801 m f
0.815686 0.603922 0.384314 rg
339.199 204.801 m 339.199 309.121 l 339.195 314.074 336.18 318.531 331.586
 320.383 c 196.672 376.574 l 195.199 377.234 193.609 377.582 192 377.602
 c 192 204.801 l h
339.199 204.801 m f
0.898039 0.682353 0.486275 rg
44.801 160 m 9.973 196.32 l 7.094 199.238 5.844 203.391 6.629 207.41 c 
7.418 211.434 10.137 214.809 13.902 216.43 c 135.75 267.852 l 140.309 269.773
 145.578 268.715 149.043 265.184 c 192 224 l 234.957 265.184 l 238.422 268.715
 243.691 269.773 248.25 267.852 c 370.098 216.43 l 373.863 214.809 376.582
 211.434 377.371 207.41 c 378.156 203.391 376.906 199.238 374.027 196.32
 c 339.199 160 l 374.023 123.68 l 376.898 120.762 378.148 116.609 377.363
 112.59 c 376.578 108.566 373.855 105.191 370.094 103.57 c 248.25 52.148
 l 243.691 50.227 238.422 51.285 234.957 54.816 c 192 96 l 149.043 54.816
 l 145.578 51.285 140.309 50.227 135.75 52.148 c 13.902 103.57 l 10.137 
105.191 7.418 108.566 6.629 112.59 c 5.844 116.609 7.094 120.762 9.973 123.68
 c h
44.801 160 m f
0.627451 0.447059 0.294118 rg
339.207 160 m 192 96 l 44.793 160 l 192 224 l h
339.207 160 m f
0.152941 0.435294 0.509804 rg
83.199 6.398 m 300.801 6.398 l 311.438 6.398 320 14.965 320 25.602 c 320
 115.199 l 320 125.836 311.438 134.398 300.801 134.398 c 83.199 134.398 
l 72.562 134.398 64 125.836 64 115.199 c 64 25.602 l 64 14.965 72.562 6.398
 83.199 6.398 c h
83.199 6.398 m f
1 g
134.398 38.398 m 141.469 38.398 147.199 44.129 147.199 51.199 c 147.199
 54.734 150.066 57.602 153.602 57.602 c 157.133 57.602 160 54.734 160 51.199
 c 160 40.848 153.762 31.512 144.195 27.547 c 134.629 23.586 123.621 25.777
 116.297 33.098 c 108.977 40.418 106.785 51.43 110.75 60.996 c 114.711 70.562
 124.047 76.801 134.398 76.801 c 139.578 76.801 144.246 79.918 146.227 84.703
 c 148.207 89.484 147.113 94.988 143.449 98.652 c 139.789 102.312 134.285
 103.406 129.5 101.426 c 124.719 99.445 121.602 94.777 121.602 89.602 c 
121.602 86.066 118.734 83.199 115.199 83.199 c 111.664 83.199 108.801 86.066
 108.801 89.602 c 108.801 99.953 115.039 109.289 124.602 113.25 c 134.168
 117.215 145.18 115.023 152.5 107.703 c 159.824 100.379 162.016 89.371 158.051
 79.805 c 154.09 70.238 144.754 64 134.398 64 c 127.332 64 121.602 58.27
 121.602 51.199 c 121.602 44.129 127.332 38.398 134.398 38.398 c h
134.398 38.398 m f
192 25.602 m 179.199 25.602 l 175.664 25.602 172.801 28.465 172.801 32 
c 172.801 108.801 l 172.801 112.336 175.664 115.199 179.199 115.199 c 192
 115.199 l 206.137 115.199 217.602 103.738 217.602 89.602 c 217.602 51.199
 l 217.602 37.062 206.137 25.602 192 25.602 c h
204.801 89.602 m 204.801 96.668 199.07 102.398 192 102.398 c 185.602 102.398
 l 185.602 38.398 l 192 38.398 l 199.07 38.398 204.801 44.129 204.801 51.199
 c h
204.801 89.602 m f
245.121 70.398 m 273.707 36.102 l 275.973 33.383 275.609 29.344 272.891
 27.078 c 270.172 24.812 266.133 25.18 263.867 27.898 c 243.199 52.719 l
 243.199 32 l 243.199 28.465 240.336 25.602 236.801 25.602 c 233.266 25.602
 230.398 28.465 230.398 32 c 230.398 108.801 l 230.398 112.336 233.266 115.199
 236.801 115.199 c 240.336 115.199 243.199 112.336 243.199 108.801 c 243.199
 88.082 l 263.879 112.902 l 264.965 114.207 266.527 115.027 268.223 115.18
 c 269.914 115.336 271.598 114.809 272.902 113.723 c 274.207 112.633 275.027
 111.07 275.18 109.379 c 275.336 107.688 274.809 106.004 273.723 104.699
 c h
245.121 70.398 m f
Q Q
showpage
%%Trailer
end
%%EOF
