%!PS-Adobe-3.0 EPSF-3.0
%%Creator: cairo 1.16.0 (https://cairographics.org)
%%CreationDate: Fri Nov 29 10:41:57 2019
%%Pages: 1
%%DocumentData: Clean7Bit
%%LanguageLevel: 2
%%BoundingBox: 6 6 378 378
%%EndComments
%%BeginProlog
50 dict begin
/q { gsave } bind def
/Q { grestore } bind def
/cm { 6 array astore concat } bind def
/w { setlinewidth } bind def
/J { setlinecap } bind def
/j { setlinejoin } bind def
/M { setmiterlimit } bind def
/d { setdash } bind def
/m { moveto } bind def
/l { lineto } bind def
/c { curveto } bind def
/h { closepath } bind def
/re { exch dup neg 3 1 roll 5 3 roll moveto 0 rlineto
      0 exch rlineto 0 rlineto closepath } bind def
/S { stroke } bind def
/f { fill } bind def
/f* { eofill } bind def
/n { newpath } bind def
/W { clip } bind def
/W* { eoclip } bind def
/BT { } bind def
/ET { } bind def
/BDC { mark 3 1 roll /BDC pdfmark } bind def
/EMC { mark /EMC pdfmark } bind def
/cairo_store_point { /cairo_point_y exch def /cairo_point_x exch def } def
/Tj { show currentpoint cairo_store_point } bind def
/TJ {
  {
    dup
    type /stringtype eq
    { show } { -0.001 mul 0 cairo_font_matrix dtransform rmoveto } ifelse
  } forall
  currentpoint cairo_store_point
} bind def
/cairo_selectfont { cairo_font_matrix aload pop pop pop 0 0 6 array astore
    cairo_font exch selectfont cairo_point_x cairo_point_y moveto } bind def
/Tf { pop /cairo_font exch def /cairo_font_matrix where
      { pop cairo_selectfont } if } bind def
/Td { matrix translate cairo_font_matrix matrix concatmatrix dup
      /cairo_font_matrix exch def dup 4 get exch 5 get cairo_store_point
      /cairo_font where { pop cairo_selectfont } if } bind def
/Tm { 2 copy 8 2 roll 6 array astore /cairo_font_matrix exch def
      cairo_store_point /cairo_font where { pop cairo_selectfont } if } bind def
/g { setgray } bind def
/rg { setrgbcolor } bind def
/d1 { setcachedevice } bind def
/cairo_data_source {
  CairoDataIndex CairoData length lt
    { CairoData CairoDataIndex get /CairoDataIndex CairoDataIndex 1 add def }
    { () } ifelse
} def
/cairo_flush_ascii85_file { cairo_ascii85_file status { cairo_ascii85_file flushfile } if } def
/cairo_image { image cairo_flush_ascii85_file } def
/cairo_imagemask { imagemask cairo_flush_ascii85_file } def
%%EndProlog
%%BeginSetup
%%EndSetup
%%Page: 1 1
%%BeginPageSetup
%%PageBoundingBox: 6 6 378 378
%%EndPageSetup
q 6 6 372 372 rectclip
1 0 0 -1 0 384 cm q
0.839216 0.858824 0.890196 rg
377.602 57.602 m 377.602 230.398 l 377.57 240.992 368.992 249.57 358.398
 249.602 c 147.199 249.602 l 140.141 249.578 134.422 243.859 134.398 236.801
 c 134.398 57.602 l 140.801 51.199 l 371.199 51.199 l h
377.602 57.602 m f
0.152941 0.435294 0.509804 rg
377.602 19.199 m 377.602 57.602 l 134.398 57.602 l 134.398 19.199 l 134.422
 12.141 140.141 6.422 147.199 6.398 c 364.801 6.398 l 371.859 6.422 377.578
 12.141 377.602 19.199 c h
377.602 19.199 m f
19.199 198.398 m 313.602 198.398 l 320.691 198.398 326.398 204.109 326.398
 211.199 c 326.398 364.801 l 326.398 371.891 320.691 377.602 313.602 377.602
 c 19.199 377.602 l 12.109 377.602 6.398 371.891 6.398 364.801 c 6.398 211.199
 l 6.398 204.109 12.109 198.398 19.199 198.398 c h
19.199 198.398 m f
0.117647 0.313726 0.356863 rg
38.398 224 m 89.602 224 l 93.145 224 96 226.855 96 230.398 c 96 243.199
 l 96 246.746 93.145 249.602 89.602 249.602 c 38.398 249.602 l 34.855 249.602
 32 246.746 32 243.199 c 32 230.398 l 32 226.855 34.855 224 38.398 224 c
 h
38.398 224 m f
128 224 m 140.801 224 l 144.344 224 147.199 226.855 147.199 230.398 c 147.199
 243.199 l 147.199 246.746 144.344 249.602 140.801 249.602 c 128 249.602
 l 124.453 249.602 121.602 246.746 121.602 243.199 c 121.602 230.398 l 121.602
 226.855 124.453 224 128 224 c h
128 224 m f
179.199 224 m 192 224 l 195.547 224 198.398 226.855 198.398 230.398 c 198.398
 243.199 l 198.398 246.746 195.547 249.602 192 249.602 c 179.199 249.602
 l 175.656 249.602 172.801 246.746 172.801 243.199 c 172.801 230.398 l 172.801
 226.855 175.656 224 179.199 224 c h
179.199 224 m f
230.398 224 m 243.199 224 l 246.746 224 249.602 226.855 249.602 230.398
 c 249.602 243.199 l 249.602 246.746 246.746 249.602 243.199 249.602 c 230.398
 249.602 l 226.855 249.602 224 246.746 224 243.199 c 224 230.398 l 224 226.855
 226.855 224 230.398 224 c h
230.398 224 m f
38.398 275.199 m 64 275.199 l 67.547 275.199 70.398 278.055 70.398 281.602
 c 70.398 294.398 l 70.398 297.945 67.547 300.801 64 300.801 c 38.398 300.801
 l 34.855 300.801 32 297.945 32 294.398 c 32 281.602 l 32 278.055 34.855
 275.199 38.398 275.199 c h
38.398 275.199 m f
38.398 326.398 m 70.398 326.398 l 73.945 326.398 76.801 329.254 76.801 
332.801 c 76.801 345.602 l 76.801 349.145 73.945 352 70.398 352 c 38.398
 352 l 34.855 352 32 349.145 32 345.602 c 32 332.801 l 32 329.254 34.855
 326.398 38.398 326.398 c h
38.398 326.398 m f
275.199 326.398 m 294.398 326.398 l 297.945 326.398 300.801 329.254 300.801
 332.801 c 300.801 345.602 l 300.801 349.145 297.945 352 294.398 352 c 275.199
 352 l 271.656 352 268.801 349.145 268.801 345.602 c 268.801 332.801 l 268.801
 329.254 271.656 326.398 275.199 326.398 c h
275.199 326.398 m f
108.801 326.398 m 236.801 326.398 l 240.344 326.398 243.199 329.254 243.199
 332.801 c 243.199 345.602 l 243.199 349.145 240.344 352 236.801 352 c 108.801
 352 l 105.254 352 102.398 349.145 102.398 345.602 c 102.398 332.801 l 102.398
 329.254 105.254 326.398 108.801 326.398 c h
108.801 326.398 m f
102.398 275.199 m 115.199 275.199 l 118.746 275.199 121.602 278.055 121.602
 281.602 c 121.602 294.398 l 121.602 297.945 118.746 300.801 115.199 300.801
 c 102.398 300.801 l 98.855 300.801 96 297.945 96 294.398 c 96 281.602 l
 96 278.055 98.855 275.199 102.398 275.199 c h
102.398 275.199 m f
153.602 275.199 m 166.398 275.199 l 169.945 275.199 172.801 278.055 172.801
 281.602 c 172.801 294.398 l 172.801 297.945 169.945 300.801 166.398 300.801
 c 153.602 300.801 l 150.055 300.801 147.199 297.945 147.199 294.398 c 147.199
 281.602 l 147.199 278.055 150.055 275.199 153.602 275.199 c h
153.602 275.199 m f
204.801 275.199 m 217.602 275.199 l 221.145 275.199 224 278.055 224 281.602
 c 224 294.398 l 224 297.945 221.145 300.801 217.602 300.801 c 204.801 300.801
 l 201.254 300.801 198.398 297.945 198.398 294.398 c 198.398 281.602 l 198.398
 278.055 201.254 275.199 204.801 275.199 c h
204.801 275.199 m f
300.801 230.398 m 300.801 294.398 l 300.801 297.934 297.934 300.801 294.398
 300.801 c 256 300.801 l 252.465 300.801 249.602 297.934 249.602 294.398
 c 249.602 281.602 l 249.602 278.066 252.465 275.199 256 275.199 c 268.801
 275.199 l 272.336 275.199 275.199 272.336 275.199 268.801 c 275.199 230.398
 l 275.199 226.867 278.066 224 281.602 224 c 294.398 224 l 297.934 224 300.801
 226.867 300.801 230.398 c h
300.801 230.398 m f
0.972549 0.32549 0.423529 rg
166.398 38.398 m 160 38.398 l 156.465 38.398 153.602 35.535 153.602 32 
c 153.602 28.465 156.465 25.602 160 25.602 c 166.398 25.602 l 169.934 25.602
 172.801 28.465 172.801 32 c 172.801 35.535 169.934 38.398 166.398 38.398
 c h
166.398 38.398 m f
0.988235 0.796078 0.333333 rg
198.398 38.398 m 192 38.398 l 188.465 38.398 185.602 35.535 185.602 32 
c 185.602 28.465 188.465 25.602 192 25.602 c 198.398 25.602 l 201.934 25.602
 204.801 28.465 204.801 32 c 204.801 35.535 201.934 38.398 198.398 38.398
 c h
198.398 38.398 m f
0.662745 0.862745 0.384314 rg
230.398 38.398 m 224 38.398 l 220.465 38.398 217.602 35.535 217.602 32 
c 217.602 28.465 220.465 25.602 224 25.602 c 230.398 25.602 l 233.934 25.602
 236.801 28.465 236.801 32 c 236.801 35.535 233.934 38.398 230.398 38.398
 c h
230.398 38.398 m f
0.117647 0.313726 0.356863 rg
352 38.398 m 307.199 38.398 l 303.664 38.398 300.801 35.535 300.801 32 
c 300.801 28.465 303.664 25.602 307.199 25.602 c 352 25.602 l 355.535 25.602
 358.398 28.465 358.398 32 c 358.398 35.535 355.535 38.398 352 38.398 c 
h
352 38.398 m f
0.152941 0.435294 0.509804 rg
217.602 166.398 m 215.902 166.398 214.273 165.727 213.074 164.523 c 181.074
 132.523 l 178.578 130.027 178.578 125.973 181.074 123.477 c 213.074 91.477
 l 215.586 89.051 219.578 89.086 222.047 91.555 c 224.516 94.023 224.551
 98.012 222.125 100.523 c 194.648 128 l 222.125 155.477 l 223.953 157.305
 224.5 160.059 223.512 162.449 c 222.52 164.84 220.188 166.398 217.602 166.398
 c h
217.602 166.398 m f
294.398 166.398 m 291.812 166.398 289.48 164.84 288.488 162.449 c 287.5
 160.059 288.047 157.305 289.875 155.477 c 317.352 128 l 289.875 100.523
 l 287.449 98.012 287.484 94.023 289.953 91.555 c 292.422 89.086 296.414
 89.051 298.926 91.477 c 330.926 123.477 l 333.422 125.973 333.422 130.027
 330.926 132.523 c 298.926 164.523 l 297.727 165.727 296.098 166.398 294.398
 166.398 c h
294.398 166.398 m f
243.199 166.398 m 242.387 166.402 241.582 166.25 240.824 165.945 c 239.25
 165.316 237.984 164.086 237.316 162.527 c 236.645 160.965 236.625 159.203
 237.254 157.625 c 262.855 93.625 l 264.164 90.344 267.891 88.742 271.176
 90.055 c 274.457 91.367 276.059 95.09 274.746 98.375 c 249.145 162.375 
l 248.176 164.805 245.82 166.402 243.199 166.398 c h
243.199 166.398 m f
0.219608 g
160 198.398 m 160 179.199 l 160 172.129 154.27 166.398 147.199 166.398 
c 86.398 166.398 l 70.496 166.398 57.602 153.504 57.602 137.602 c 57.602
 121.695 70.496 108.801 86.398 108.801 c 134.398 108.801 l 134.398 121.602
 l 86.398 121.602 l 77.562 121.602 70.398 128.762 70.398 137.602 c 70.398
 146.438 77.562 153.602 86.398 153.602 c 147.199 153.602 l 161.34 153.602
 172.801 165.062 172.801 179.199 c 172.801 198.398 l h
160 198.398 m f
Q Q
showpage
%%Trailer
end
%%EOF
