%!PS-Adobe-3.0 EPSF-3.0
%%Creator: cairo 1.16.0 (https://cairographics.org)
%%CreationDate: Fri Nov 29 10:41:58 2019
%%Pages: 1
%%DocumentData: Clean7Bit
%%LanguageLevel: 2
%%BoundingBox: 6 6 378 378
%%EndComments
%%BeginProlog
50 dict begin
/q { gsave } bind def
/Q { grestore } bind def
/cm { 6 array astore concat } bind def
/w { setlinewidth } bind def
/J { setlinecap } bind def
/j { setlinejoin } bind def
/M { setmiterlimit } bind def
/d { setdash } bind def
/m { moveto } bind def
/l { lineto } bind def
/c { curveto } bind def
/h { closepath } bind def
/re { exch dup neg 3 1 roll 5 3 roll moveto 0 rlineto
      0 exch rlineto 0 rlineto closepath } bind def
/S { stroke } bind def
/f { fill } bind def
/f* { eofill } bind def
/n { newpath } bind def
/W { clip } bind def
/W* { eoclip } bind def
/BT { } bind def
/ET { } bind def
/BDC { mark 3 1 roll /BDC pdfmark } bind def
/EMC { mark /EMC pdfmark } bind def
/cairo_store_point { /cairo_point_y exch def /cairo_point_x exch def } def
/Tj { show currentpoint cairo_store_point } bind def
/TJ {
  {
    dup
    type /stringtype eq
    { show } { -0.001 mul 0 cairo_font_matrix dtransform rmoveto } ifelse
  } forall
  currentpoint cairo_store_point
} bind def
/cairo_selectfont { cairo_font_matrix aload pop pop pop 0 0 6 array astore
    cairo_font exch selectfont cairo_point_x cairo_point_y moveto } bind def
/Tf { pop /cairo_font exch def /cairo_font_matrix where
      { pop cairo_selectfont } if } bind def
/Td { matrix translate cairo_font_matrix matrix concatmatrix dup
      /cairo_font_matrix exch def dup 4 get exch 5 get cairo_store_point
      /cairo_font where { pop cairo_selectfont } if } bind def
/Tm { 2 copy 8 2 roll 6 array astore /cairo_font_matrix exch def
      cairo_store_point /cairo_font where { pop cairo_selectfont } if } bind def
/g { setgray } bind def
/rg { setrgbcolor } bind def
/d1 { setcachedevice } bind def
/cairo_data_source {
  CairoDataIndex CairoData length lt
    { CairoData CairoDataIndex get /CairoDataIndex CairoDataIndex 1 add def }
    { () } ifelse
} def
/cairo_flush_ascii85_file { cairo_ascii85_file status { cairo_ascii85_file flushfile } if } def
/cairo_image { image cairo_flush_ascii85_file } def
/cairo_imagemask { imagemask cairo_flush_ascii85_file } def
%%EndProlog
%%BeginSetup
%%EndSetup
%%Page: 1 1
%%BeginPageSetup
%%PageBoundingBox: 6 6 378 378
%%EndPageSetup
q 6 6 372 372 rectclip
1 0 0 -1 0 384 cm q
0.839216 0.858824 0.890196 rg
377.602 57.602 m 377.602 358.398 l 377.602 369.004 369.004 377.602 358.398
 377.602 c 25.602 377.602 l 14.996 377.602 6.398 369.004 6.398 358.398 c
 6.398 57.602 l 12.801 51.199 l 371.199 51.199 l h
377.602 57.602 m f
0.152941 0.435294 0.509804 rg
377.602 25.602 m 377.602 57.602 l 6.398 57.602 l 6.398 25.602 l 6.398 14.996
 14.996 6.398 25.602 6.398 c 358.398 6.398 l 369.004 6.398 377.602 14.996
 377.602 25.602 c h
377.602 25.602 m f
0.941176 0.94902 0.960784 rg
217.602 300.801 m 319.039 300.801 l 329.141 300.762 338.668 296.105 344.906
 288.16 c 351.141 280.215 353.402 269.852 351.039 260.031 c 343.84 230.992
 328.965 204.422 307.969 183.105 c 277.422 151.953 235.629 134.402 192 134.402
 c 148.371 134.402 106.578 151.953 76.031 183.105 c 55.035 204.422 40.16
 230.992 32.961 260.031 c 30.598 269.852 32.859 280.215 39.094 288.16 c 
45.332 296.105 54.859 300.762 64.961 300.801 c 166.398 300.801 l f
0.72549 0.74902 0.8 rg
217.602 300.801 m 217.602 311.152 211.363 320.488 201.797 324.453 c 192.23
 328.414 181.219 326.223 173.898 318.902 c 166.578 311.582 164.387 300.57
 168.348 291.004 c 172.312 281.438 181.645 275.199 192 275.199 c 192.832
 275.199 193.602 275.266 194.434 275.328 c 207.562 276.582 217.594 287.609
 217.602 300.801 c h
217.602 300.801 m f
0.972549 0.32549 0.423529 rg
38.398 38.398 m 32 38.398 l 28.465 38.398 25.602 35.535 25.602 32 c 25.602
 28.465 28.465 25.602 32 25.602 c 38.398 25.602 l 41.934 25.602 44.801 28.465
 44.801 32 c 44.801 35.535 41.934 38.398 38.398 38.398 c h
38.398 38.398 m f
0.988235 0.796078 0.333333 rg
70.398 38.398 m 64 38.398 l 60.465 38.398 57.602 35.535 57.602 32 c 57.602
 28.465 60.465 25.602 64 25.602 c 70.398 25.602 l 73.934 25.602 76.801 28.465
 76.801 32 c 76.801 35.535 73.934 38.398 70.398 38.398 c h
70.398 38.398 m f
0.662745 0.862745 0.384314 rg
102.398 38.398 m 96 38.398 l 92.465 38.398 89.602 35.535 89.602 32 c 89.602
 28.465 92.465 25.602 96 25.602 c 102.398 25.602 l 105.934 25.602 108.801
 28.465 108.801 32 c 108.801 35.535 105.934 38.398 102.398 38.398 c h
102.398 38.398 m f
0.117647 0.313726 0.356863 rg
352 38.398 m 300.801 38.398 l 297.266 38.398 294.398 35.535 294.398 32 
c 294.398 28.465 297.266 25.602 300.801 25.602 c 352 25.602 l 355.535 25.602
 358.398 28.465 358.398 32 c 358.398 35.535 355.535 38.398 352 38.398 c 
h
352 38.398 m f
0.988235 0.756863 0.0392157 rg
192 166.398 m 188.465 166.398 185.602 163.535 185.602 160 c 185.602 134.398
 l 185.602 130.867 188.465 128 192 128 c 195.535 128 198.398 130.867 198.398
 134.398 c 198.398 160 l 198.398 163.535 195.535 166.398 192 166.398 c h
192 166.398 m f
0.960784 0.670588 0.00392157 rg
224 170.457 m 223.504 170.457 223.012 170.398 222.527 170.285 c 219.094
 169.477 216.961 166.043 217.762 162.605 c 223.668 137.445 l 224.043 135.781
 225.066 134.332 226.516 133.426 c 227.961 132.52 229.711 132.23 231.375
 132.621 c 233.035 133.012 234.473 134.051 235.367 135.504 c 236.258 136.961
 236.535 138.711 236.129 140.371 c 230.227 165.531 l 229.543 168.418 226.969
 170.457 224 170.457 c h
224 170.457 m f
0.972549 0.32549 0.423529 rg
254.719 181.762 m 253.734 181.773 252.758 181.555 251.871 181.121 c 248.707
 179.543 247.422 175.699 249 172.539 c 260.453 149.555 l 261.188 147.996
 262.52 146.801 264.148 146.238 c 265.773 145.672 267.562 145.789 269.102
 146.559 c 270.645 147.328 271.809 148.684 272.336 150.324 c 272.863 151.965
 272.707 153.746 271.902 155.27 c 260.449 178.254 l 259.355 180.41 257.137
 181.766 254.719 181.762 c h
254.719 181.762 m f
0.92549 0.227451 0.282353 rg
282.043 199.938 m 279.559 199.938 277.297 198.5 276.242 196.254 c 275.188
 194.004 275.531 191.348 277.121 189.441 c 293.305 169.984 l 295.59 167.355
 299.555 167.035 302.23 169.262 c 304.906 171.488 305.312 175.445 303.141
 178.168 c 286.957 197.625 l 285.742 199.086 283.941 199.934 282.043 199.938
 c h
282.043 199.938 m f
0.85098 0.160784 0.211765 rg
304.52 224 m 301.762 224 299.316 222.238 298.445 219.625 c 297.574 217.012
 298.473 214.133 300.68 212.48 c 320.582 197.504 l 323.41 195.383 327.422
 195.957 329.543 198.785 c 331.664 201.613 331.09 205.625 328.262 207.742
 c 308.359 222.719 l 307.25 223.551 305.902 224 304.52 224 c h
304.52 224 m f
0.988235 0.796078 0.333333 rg
160 170.457 m 157.027 170.457 154.449 168.41 153.773 165.516 c 147.84 140.359
 l 147.07 136.934 149.203 133.523 152.621 132.723 c 156.039 131.922 159.469
 134.023 160.301 137.434 c 166.207 162.594 l 167.008 166.027 164.875 169.465
 161.441 170.273 c 160.969 170.387 160.484 170.449 160 170.457 c h
160 170.457 m f
0.192157 0.717647 0.568627 rg
129.281 181.762 m 126.855 181.762 124.637 180.391 123.551 178.223 c 112.098
 155.238 l 110.613 152.094 111.914 148.336 115.027 146.785 c 118.141 145.23
 121.922 146.445 123.547 149.523 c 135 172.504 l 136.578 175.668 135.293
 179.512 132.129 181.09 c 131.246 181.531 130.27 181.762 129.281 181.762
 c h
129.281 181.762 m f
0.215686 0.796078 0.631373 rg
101.957 199.938 m 100.055 199.938 98.25 199.094 97.031 197.633 c 80.844
 178.176 l 79.715 176.875 79.16 175.18 79.297 173.461 c 79.438 171.746 80.262
 170.16 81.582 169.059 c 82.906 167.957 84.617 167.438 86.328 167.613 c 
88.039 167.789 89.609 168.645 90.68 169.992 c 106.879 189.441 l 108.465 
191.348 108.805 193.996 107.754 196.242 c 106.703 198.488 104.449 199.926
 101.973 199.93 c h
101.957 199.938 m f
0.247059 0.854902 0.694118 rg
79.48 224 m 78.098 224 76.75 223.551 75.641 222.719 c 55.738 207.742 l 
52.91 205.625 52.336 201.613 54.457 198.785 c 56.578 195.957 60.59 195.383
 63.418 197.504 c 83.32 212.48 l 85.527 214.133 86.426 217.012 85.555 219.625
 c 84.684 222.238 82.238 224 79.48 224 c h
79.48 224 m f
0.537255 0.568627 0.627451 rg
223.617 232.574 m 206.465 279.68 l 202.887 277.23 198.746 275.734 194.434
 275.328 c 211.586 228.223 l 212.855 225 216.457 223.375 219.715 224.551
 c 222.973 225.73 224.703 229.285 223.617 232.574 c h
223.617 232.574 m f
0.72549 0.74902 0.8 rg
147.199 281.602 m 76.801 281.602 l 73.266 281.602 70.398 278.734 70.398
 275.199 c 70.398 271.664 73.266 268.801 76.801 268.801 c 147.199 268.801
 l 150.734 268.801 153.602 271.664 153.602 275.199 c 153.602 278.734 150.734
 281.602 147.199 281.602 c h
147.199 281.602 m f
307.199 281.602 m 236.801 281.602 l 233.266 281.602 230.398 278.734 230.398
 275.199 c 230.398 271.664 233.266 268.801 236.801 268.801 c 307.199 268.801
 l 310.734 268.801 313.602 271.664 313.602 275.199 c 313.602 278.734 310.734
 281.602 307.199 281.602 c h
307.199 281.602 m f
0.152941 0.435294 0.509804 rg
350.016 292.031 m 342.605 301.621 331.16 307.227 319.039 307.199 c 216.77
 307.199 l 217.879 303.004 217.879 298.594 216.77 294.398 c 319.039 294.398
 l 327.172 294.359 334.84 290.605 339.863 284.211 c 344.887 277.816 346.715
 269.48 344.832 261.566 c 337.895 233.648 323.598 208.098 303.426 187.586
 c 274.07 157.66 233.918 140.797 192 140.797 c 150.082 140.797 109.93 157.66
 80.574 187.586 c 60.402 208.098 46.105 233.648 39.168 261.566 c 37.285 
269.48 39.113 277.816 44.137 284.211 c 49.16 290.605 56.828 294.359 64.961
 294.398 c 167.23 294.398 l 166.121 298.594 166.121 303.004 167.23 307.199
 c 64.961 307.199 l 52.891 307.168 41.496 301.609 34.047 292.113 c 26.598
 282.613 23.906 270.227 26.754 258.496 c 34.227 228.34 49.68 200.75 71.488
 178.625 c 103.227 146.246 146.66 128 192 128 c 237.34 128 280.773 146.246
 312.512 178.625 c 334.32 200.75 349.773 228.34 357.246 258.496 c 360.141
 270.191 357.473 282.566 350.016 292.031 c h
350.016 292.031 m f
Q Q
showpage
%%Trailer
end
%%EOF
