%!PS-Adobe-3.0 EPSF-3.0
%%Creator: cairo 1.16.0 (https://cairographics.org)
%%CreationDate: Fri Nov 29 10:41:58 2019
%%Pages: 1
%%DocumentData: Clean7Bit
%%LanguageLevel: 2
%%BoundingBox: 0 0 45 45
%%EndComments
%%BeginProlog
50 dict begin
/q { gsave } bind def
/Q { grestore } bind def
/cm { 6 array astore concat } bind def
/w { setlinewidth } bind def
/J { setlinecap } bind def
/j { setlinejoin } bind def
/M { setmiterlimit } bind def
/d { setdash } bind def
/m { moveto } bind def
/l { lineto } bind def
/c { curveto } bind def
/h { closepath } bind def
/re { exch dup neg 3 1 roll 5 3 roll moveto 0 rlineto
      0 exch rlineto 0 rlineto closepath } bind def
/S { stroke } bind def
/f { fill } bind def
/f* { eofill } bind def
/n { newpath } bind def
/W { clip } bind def
/W* { eoclip } bind def
/BT { } bind def
/ET { } bind def
/BDC { mark 3 1 roll /BDC pdfmark } bind def
/EMC { mark /EMC pdfmark } bind def
/cairo_store_point { /cairo_point_y exch def /cairo_point_x exch def } def
/Tj { show currentpoint cairo_store_point } bind def
/TJ {
  {
    dup
    type /stringtype eq
    { show } { -0.001 mul 0 cairo_font_matrix dtransform rmoveto } ifelse
  } forall
  currentpoint cairo_store_point
} bind def
/cairo_selectfont { cairo_font_matrix aload pop pop pop 0 0 6 array astore
    cairo_font exch selectfont cairo_point_x cairo_point_y moveto } bind def
/Tf { pop /cairo_font exch def /cairo_font_matrix where
      { pop cairo_selectfont } if } bind def
/Td { matrix translate cairo_font_matrix matrix concatmatrix dup
      /cairo_font_matrix exch def dup 4 get exch 5 get cairo_store_point
      /cairo_font where { pop cairo_selectfont } if } bind def
/Tm { 2 copy 8 2 roll 6 array astore /cairo_font_matrix exch def
      cairo_store_point /cairo_font where { pop cairo_selectfont } if } bind def
/g { setgray } bind def
/rg { setrgbcolor } bind def
/d1 { setcachedevice } bind def
/cairo_data_source {
  CairoDataIndex CairoData length lt
    { CairoData CairoDataIndex get /CairoDataIndex CairoDataIndex 1 add def }
    { () } ifelse
} def
/cairo_flush_ascii85_file { cairo_ascii85_file status { cairo_ascii85_file flushfile } if } def
/cairo_image { image cairo_flush_ascii85_file } def
/cairo_imagemask { imagemask cairo_flush_ascii85_file } def
%%EndProlog
%%BeginSetup
%%EndSetup
%%Page: 1 1
%%BeginPageSetup
%%PageBoundingBox: 0 0 45 45
%%EndPageSetup
q 0 0 45 45 rectclip
1 0 0 -1 0 45 cm q
0.839216 0.858824 0.890196 rg
32.25 17.25 m 30.914 17.25 30.246 15.633 31.188 14.688 c 32.133 13.746 
33.75 14.414 33.75 15.75 c 33.746 16.578 33.078 17.246 32.25 17.25 c h
32.25 17.25 m f
44.25 15.75 m 44.242 22.375 38.875 27.742 32.25 27.75 c 31.496 27.75 30.742
 27.68 30 27.539 c 30 3.961 l 30.742 3.82 31.496 3.75 32.25 3.75 c 38.875
 3.758 44.242 9.125 44.25 15.75 c h
44.25 15.75 m f
0.537255 0.568627 0.627451 rg
32.25 11.25 m 31.461 11.25 30.684 11.457 30 11.852 c 30 19.648 l 32.562
 21.125 35.828 19.77 36.59 16.914 c 37.355 14.059 35.207 11.254 32.25 11.25
 c h
32.25 17.25 m 30.914 17.25 30.246 15.633 31.188 14.688 c 32.133 13.746 
33.75 14.414 33.75 15.75 c 33.746 16.578 33.078 17.246 32.25 17.25 c h
32.25 17.25 m f
0.627451 0.447059 0.294118 rg
3 0.75 m 28.5 0.75 l 29.746 0.75 30.75 1.754 30.75 3 c 30.75 28.5 l 30.75
 29.746 29.746 30.75 28.5 30.75 c 3 30.75 l 1.754 30.75 0.75 29.746 0.75
 28.5 c 0.75 3 l 0.75 1.754 1.754 0.75 3 0.75 c h
3 0.75 m f
0.117647 0.313726 0.356863 rg
6.75 12.75 m 9.75 12.75 l 10.582 12.75 11.25 13.418 11.25 14.25 c 11.25
 23.25 l 11.25 24.082 10.582 24.75 9.75 24.75 c 6.75 24.75 l 5.918 24.75
 5.25 24.082 5.25 23.25 c 5.25 14.25 l 5.25 13.418 5.918 12.75 6.75 12.75
 c h
6.75 12.75 m f
0.886275 0.67451 0.498039 rg
18 7.5 m 18 13.5 l 24.66 13.5 l 25.414 13.48 26.074 14.004 26.227 14.742
 c 26.383 15.66 25.68 16.496 24.75 16.5 c 24.609 16.5 l 25.523 16.531 26.203
 17.367 26.039 18.273 c 25.875 19.004 25.219 19.52 24.473 19.5 c 24.383 
19.5 l 24.41 19.5 24.438 19.5 24.465 19.508 c 25.371 19.559 26.027 20.398
 25.855 21.289 c 25.688 22.012 25.035 22.52 24.293 22.5 c 24.188 22.5 l 
24.234 22.5 24.281 22.5 24.328 22.508 c 25.219 22.598 25.832 23.434 25.656
 24.309 c 25.48 25.02 24.832 25.516 24.098 25.5 c 15.414 25.5 l 15.141 25.5
 14.875 25.422 14.641 25.281 c 11.25 23.25 l 11.25 14.25 l 13.695 13.027
 l 14.051 12.848 14.32 12.539 14.445 12.16 c 14.805 11.078 l 14.934 10.695
 15 10.293 15 9.891 c 15 7.5 l 15 6.672 15.672 6 16.5 6 c 17.328 6 18 6.672
 18 7.5 c h
18 7.5 m f
0.192157 0.717647 0.568627 rg
23.25 36.75 m 23.25 40.891 19.891 44.25 15.75 44.25 c 11.609 44.25 8.25
 40.891 8.25 36.75 c 8.25 32.609 11.609 29.25 15.75 29.25 c 17.738 29.25
 19.648 30.039 21.055 31.445 c 22.461 32.852 23.25 34.762 23.25 36.75 c 
h
23.25 36.75 m f
0.941176 0.94902 0.960784 rg
40.043 12 m 39.773 12 39.527 11.855 39.395 11.625 c 38.168 9.492 36.051
 8.023 33.625 7.613 c 33.211 7.551 32.93 7.16 33 6.746 c 33.066 6.336 33.461
 6.059 33.875 6.133 c 36.742 6.617 39.242 8.355 40.691 10.875 c 40.98 11.375
 40.621 12 40.043 12 c h
40.043 12 m f
41.219 15.75 m 40.828 15.75 40.504 15.449 40.473 15.062 c 40.453 14.828
 40.422 14.602 40.387 14.375 c 40.219 13.391 41.695 13.141 41.863 14.125
 c 41.91 14.391 41.945 14.664 41.965 14.938 c 42.004 15.352 41.695 15.715
 41.281 15.75 c 41.262 15.75 41.238 15.75 41.219 15.75 c h
41.219 15.75 m f
0.776471 0.588235 0.443137 rg
18 13.5 m 17.25 13.5 l 16.25 13.5 16.25 12 17.25 12 c 18 12 l h
18 13.5 m f
0.152941 0.435294 0.509804 rg
8.25 17.25 m 7.836 17.25 7.5 16.914 7.5 16.5 c 7.5 15.75 l 7.5 14.75 9 
14.75 9 15.75 c 9 16.5 l 9 16.914 8.664 17.25 8.25 17.25 c h
8.25 17.25 m f
8.25 22.5 m 7.836 22.5 7.5 22.164 7.5 21.75 c 7.5 21 l 7.5 20 9 20 9 21
 c 9 21.75 l 9 22.164 8.664 22.5 8.25 22.5 c h
8.25 22.5 m f
1 g
15 40.5 m 14.801 40.5 14.609 40.422 14.469 40.281 c 12.969 38.781 l 12.285
 38.074 13.324 37.035 14.031 37.719 c 14.793 38.484 l 17.328 33.414 l 17.777
 32.52 19.117 33.191 18.672 34.086 c 15.672 40.086 l 15.562 40.301 15.359
 40.453 15.121 40.492 c 15.082 40.496 15.039 40.5 15 40.5 c h
15 40.5 m f
Q Q
showpage
%%Trailer
end
%%EOF
