%!PS-Adobe-3.0 EPSF-3.0
%%Creator: cairo 1.16.0 (https://cairographics.org)
%%CreationDate: Fri Nov 29 10:41:59 2019
%%Pages: 1
%%DocumentData: Clean7Bit
%%LanguageLevel: 2
%%BoundingBox: 6 6 378 378
%%EndComments
%%BeginProlog
50 dict begin
/q { gsave } bind def
/Q { grestore } bind def
/cm { 6 array astore concat } bind def
/w { setlinewidth } bind def
/J { setlinecap } bind def
/j { setlinejoin } bind def
/M { setmiterlimit } bind def
/d { setdash } bind def
/m { moveto } bind def
/l { lineto } bind def
/c { curveto } bind def
/h { closepath } bind def
/re { exch dup neg 3 1 roll 5 3 roll moveto 0 rlineto
      0 exch rlineto 0 rlineto closepath } bind def
/S { stroke } bind def
/f { fill } bind def
/f* { eofill } bind def
/n { newpath } bind def
/W { clip } bind def
/W* { eoclip } bind def
/BT { } bind def
/ET { } bind def
/BDC { mark 3 1 roll /BDC pdfmark } bind def
/EMC { mark /EMC pdfmark } bind def
/cairo_store_point { /cairo_point_y exch def /cairo_point_x exch def } def
/Tj { show currentpoint cairo_store_point } bind def
/TJ {
  {
    dup
    type /stringtype eq
    { show } { -0.001 mul 0 cairo_font_matrix dtransform rmoveto } ifelse
  } forall
  currentpoint cairo_store_point
} bind def
/cairo_selectfont { cairo_font_matrix aload pop pop pop 0 0 6 array astore
    cairo_font exch selectfont cairo_point_x cairo_point_y moveto } bind def
/Tf { pop /cairo_font exch def /cairo_font_matrix where
      { pop cairo_selectfont } if } bind def
/Td { matrix translate cairo_font_matrix matrix concatmatrix dup
      /cairo_font_matrix exch def dup 4 get exch 5 get cairo_store_point
      /cairo_font where { pop cairo_selectfont } if } bind def
/Tm { 2 copy 8 2 roll 6 array astore /cairo_font_matrix exch def
      cairo_store_point /cairo_font where { pop cairo_selectfont } if } bind def
/g { setgray } bind def
/rg { setrgbcolor } bind def
/d1 { setcachedevice } bind def
/cairo_data_source {
  CairoDataIndex CairoData length lt
    { CairoData CairoDataIndex get /CairoDataIndex CairoDataIndex 1 add def }
    { () } ifelse
} def
/cairo_flush_ascii85_file { cairo_ascii85_file status { cairo_ascii85_file flushfile } if } def
/cairo_image { image cairo_flush_ascii85_file } def
/cairo_imagemask { imagemask cairo_flush_ascii85_file } def
%%EndProlog
%%BeginSetup
%%EndSetup
%%Page: 1 1
%%BeginPageSetup
%%PageBoundingBox: 6 6 378 378
%%EndPageSetup
q 6 6 372 372 rectclip
1 0 0 -1 0 384 cm q
0.607843 g
172.801 345.602 m 211.199 345.602 l 211.199 358.398 l 211.199 369.004 202.605
 377.602 192 377.602 c 181.395 377.602 172.801 369.004 172.801 358.398 c
 h
172.801 345.602 m f
0.8 0.815686 0.854902 rg
151.168 307.199 m 83.648 335.488 l 79.922 337.129 75.594 336.535 72.449
 333.953 c 68.414 330.625 64.512 326.977 60.734 323.266 c 56.961 319.551
 53.375 315.586 50.047 311.551 c 47.465 308.406 46.871 304.078 48.512 300.352
 c 61.246 270.719 l 53.359 257.707 47.488 243.574 43.84 228.801 c 13.887
 216.832 l 10.129 215.352 7.508 211.895 7.105 207.871 c 6.594 202.625 6.398
 197.312 6.398 192 c 6.398 186.688 6.594 181.375 7.105 176.129 c 7.508 172.105
 10.129 168.648 13.887 167.168 c 43.84 155.199 l 47.488 140.426 53.359 126.293
 61.246 113.281 c 48.512 83.648 l 46.871 79.922 47.465 75.594 50.047 72.449
 c 53.375 68.414 57.023 64.512 60.734 60.734 c 64.449 56.961 68.414 53.375
 72.449 50.047 c 75.594 47.465 79.922 46.871 83.648 48.512 c 113.281 61.246
 l 126.293 53.359 140.426 47.488 155.199 43.84 c 167.168 13.887 l 168.648
 10.129 172.105 7.508 176.129 7.105 c 181.375 6.594 186.688 6.398 192 6.398
 c 197.312 6.398 202.625 6.594 207.871 7.105 c 211.895 7.508 215.352 10.129
 216.832 13.887 c 228.801 43.84 l 243.574 47.488 257.707 53.359 270.719 
61.246 c 300.352 48.512 l 304.078 46.871 308.406 47.465 311.551 50.047 c
 315.586 53.375 319.488 57.023 323.266 60.734 c 327.039 64.449 330.625 68.414
 333.953 72.449 c 336.535 75.594 337.129 79.922 335.488 83.648 c 322.754
 113.281 l 330.641 126.293 336.512 140.426 340.16 155.199 c 370.113 167.168
 l 373.871 168.648 376.492 172.105 376.895 176.129 c 377.406 181.375 377.602
 186.688 377.602 192 c 377.602 197.312 377.406 202.625 376.895 207.871 c
 376.492 211.895 373.871 215.352 370.113 216.832 c 340.16 228.801 l 336.512
 243.574 330.641 257.707 322.754 270.719 c 335.488 300.352 l 337.129 304.078
 336.535 308.406 333.953 311.551 c 330.625 315.586 326.977 319.488 323.266
 323.266 c 319.551 327.039 315.586 330.625 311.551 333.953 c 308.406 336.535
 304.078 337.129 300.352 335.488 c 232.832 307.199 l h
151.168 307.199 m f
0.686275 g
224 326.398 m 224 339.199 l 223.98 346.262 218.262 351.98 211.199 352 c
 172.801 352 l 165.738 351.98 160.02 346.262 160 339.199 c 160 326.398 l
 192 320 l h
224 326.398 m f
0.988235 0.796078 0.333333 rg
236.609 305.152 m 229.094 307.969 224.086 315.113 224 323.137 c 224 326.398
 l 160 326.398 l 160 323.137 l 159.914 315.113 154.906 307.969 147.391 305.152
 c 93.035 283.727 61.59 226.68 72.492 169.277 c 83.398 111.879 133.57 70.336
 192 70.336 c 250.43 70.336 300.602 111.879 311.508 169.277 c 322.41 226.68
 290.965 283.727 236.609 305.152 c h
236.609 305.152 m f
1 0.87451 0.6 rg
101.406 230.398 m 98.688 230.402 96.266 228.684 95.367 226.117 c 94.582
 223.879 93.875 221.605 93.242 219.297 c 92.395 215.922 94.395 212.488 97.75
 211.562 c 101.109 210.641 104.586 212.57 105.582 215.902 c 106.137 217.926
 106.758 219.918 107.441 221.883 c 108.609 225.215 106.859 228.863 103.527
 230.035 c 102.848 230.277 102.129 230.402 101.406 230.398 c h
101.406 230.398 m f
96 198.398 m 92.465 198.398 89.602 195.535 89.602 192 c 89.668 135.473 
135.473 89.668 192 89.602 c 195.535 89.602 198.398 92.465 198.398 96 c 198.398
 99.535 195.535 102.398 192 102.398 c 142.539 102.453 102.453 142.539 102.398
 192 c 102.398 195.535 99.535 198.398 96 198.398 c h
96 198.398 m f
0.839216 0.666667 0.278431 rg
235.969 227.199 m 231.914 221.043 224.969 217.414 217.602 217.602 c 213.043
 217.562 208.582 218.902 204.801 221.441 c 197.035 216.32 186.965 216.32
 179.199 221.441 c 175.418 218.902 170.957 217.562 166.398 217.602 c 159.031
 217.414 152.086 221.043 148.031 227.199 c 147.133 228.801 146.949 230.703
 147.52 232.449 c 178.816 326.398 l 205.184 326.398 l 236.48 232.449 l 237.051
 230.703 236.867 228.801 235.969 227.199 c h
192.32 324.352 m 192.121 324.973 192.012 325.621 192 326.273 c 191.988 
325.621 191.879 324.973 191.68 324.352 c 160.895 232 l 162.516 230.895 164.441
 230.336 166.398 230.398 c 169.195 230.18 171.914 231.383 173.633 233.602
 c 174.773 235.523 176.836 236.715 179.07 236.734 c 179.266 236.734 l 181.461
 236.684 183.492 235.559 184.703 233.727 c 186.391 231.426 189.156 230.164
 192 230.398 c 194.797 230.18 197.516 231.383 199.23 233.602 c 200.371 235.523
 202.434 236.715 204.672 236.734 c 204.863 236.734 l 207.059 236.684 209.09
 235.559 210.305 233.727 c 211.992 231.426 214.754 230.164 217.602 230.398
 c 219.547 230.352 221.465 230.887 223.105 231.938 c h
192.32 324.352 m f
0.72549 0.74902 0.8 rg
326.398 192 m 326.422 244.277 296.109 291.82 248.703 313.855 c 232.832 
307.199 l 233.98 306.332 235.254 305.641 236.609 305.152 c 290.941 283.727
 322.367 226.703 311.461 169.328 c 300.559 111.949 250.402 70.43 192 70.43
 c 133.598 70.43 83.441 111.949 72.539 169.328 c 61.633 226.703 93.059 283.727
 147.391 305.152 c 148.746 305.641 150.02 306.332 151.168 307.199 c 135.297
 313.855 l 90.805 293.152 61.133 249.84 57.895 200.875 c 54.652 151.906 
78.363 105.066 119.742 78.68 c 161.121 52.297 213.59 50.562 256.621 74.156
 c 299.648 97.754 326.398 142.926 326.398 192 c h
326.398 192 m f
Q Q
showpage
%%Trailer
end
%%EOF
