%!PS-Adobe-3.0 EPSF-3.0
%%Creator: cairo 1.16.0 (https://cairographics.org)
%%CreationDate: Fri Nov 29 10:41:59 2019
%%Pages: 1
%%DocumentData: Clean7Bit
%%LanguageLevel: 2
%%BoundingBox: 6 6 378 378
%%EndComments
%%BeginProlog
50 dict begin
/q { gsave } bind def
/Q { grestore } bind def
/cm { 6 array astore concat } bind def
/w { setlinewidth } bind def
/J { setlinecap } bind def
/j { setlinejoin } bind def
/M { setmiterlimit } bind def
/d { setdash } bind def
/m { moveto } bind def
/l { lineto } bind def
/c { curveto } bind def
/h { closepath } bind def
/re { exch dup neg 3 1 roll 5 3 roll moveto 0 rlineto
      0 exch rlineto 0 rlineto closepath } bind def
/S { stroke } bind def
/f { fill } bind def
/f* { eofill } bind def
/n { newpath } bind def
/W { clip } bind def
/W* { eoclip } bind def
/BT { } bind def
/ET { } bind def
/BDC { mark 3 1 roll /BDC pdfmark } bind def
/EMC { mark /EMC pdfmark } bind def
/cairo_store_point { /cairo_point_y exch def /cairo_point_x exch def } def
/Tj { show currentpoint cairo_store_point } bind def
/TJ {
  {
    dup
    type /stringtype eq
    { show } { -0.001 mul 0 cairo_font_matrix dtransform rmoveto } ifelse
  } forall
  currentpoint cairo_store_point
} bind def
/cairo_selectfont { cairo_font_matrix aload pop pop pop 0 0 6 array astore
    cairo_font exch selectfont cairo_point_x cairo_point_y moveto } bind def
/Tf { pop /cairo_font exch def /cairo_font_matrix where
      { pop cairo_selectfont } if } bind def
/Td { matrix translate cairo_font_matrix matrix concatmatrix dup
      /cairo_font_matrix exch def dup 4 get exch 5 get cairo_store_point
      /cairo_font where { pop cairo_selectfont } if } bind def
/Tm { 2 copy 8 2 roll 6 array astore /cairo_font_matrix exch def
      cairo_store_point /cairo_font where { pop cairo_selectfont } if } bind def
/g { setgray } bind def
/rg { setrgbcolor } bind def
/d1 { setcachedevice } bind def
/cairo_data_source {
  CairoDataIndex CairoData length lt
    { CairoData CairoDataIndex get /CairoDataIndex CairoDataIndex 1 add def }
    { () } ifelse
} def
/cairo_flush_ascii85_file { cairo_ascii85_file status { cairo_ascii85_file flushfile } if } def
/cairo_image { image cairo_flush_ascii85_file } def
/cairo_imagemask { imagemask cairo_flush_ascii85_file } def
%%EndProlog
%%BeginSetup
%%EndSetup
%%Page: 1 1
%%BeginPageSetup
%%PageBoundingBox: 6 6 378 378
%%EndPageSetup
q 6 6 372 372 rectclip
1 0 0 -1 0 384 cm q
0.8 0.815686 0.854902 rg
282.305 255.629 m 285.164 254.512 287.16 251.891 287.477 248.84 c 287.832
 244.863 288 240.832 288 236.801 c 288 232.77 287.832 228.734 287.477 224.762
 c 287.16 221.707 285.164 219.086 282.305 217.973 c 259.617 208.895 l 256.832
 197.688 252.375 186.961 246.398 177.074 c 256.039 154.578 l 257.273 151.77
 256.836 148.508 254.898 146.125 c 252.34 143.059 249.605 140.09 246.754
 137.242 c 243.898 134.395 240.934 131.656 237.867 129.094 c 235.488 127.16
 232.223 126.719 229.414 127.957 c 206.926 137.602 l 197.039 131.629 186.312
 127.176 175.105 124.391 c 166.027 101.695 l 164.914 98.836 162.293 96.84
 159.238 96.523 c 155.266 96.168 151.23 96 147.199 96 c 143.168 96 139.137
 96.168 135.16 96.523 c 132.109 96.84 129.488 98.836 128.371 101.695 c 119.297
 124.383 l 108.086 127.172 97.359 131.625 87.477 137.602 c 64.98 127.961
 l 62.172 126.727 58.906 127.164 56.523 129.102 c 53.461 131.66 50.488 134.395
 47.641 137.246 c 44.793 140.102 42.055 143.066 39.496 146.133 c 37.559 
148.512 37.117 151.777 38.355 154.586 c 48 177.074 l 42.023 186.961 37.57
 197.688 34.785 208.895 c 12.098 217.973 l 9.234 219.086 7.238 221.707 6.926
 224.762 c 6.566 228.734 6.398 232.77 6.398 236.801 c 6.398 240.832 6.566
 244.863 6.926 248.84 c 7.238 251.891 9.234 254.512 12.098 255.629 c 34.785
 264.703 l 37.57 275.914 42.023 286.641 48 296.523 c 38.355 319.02 l 37.117
 321.828 37.559 325.094 39.496 327.477 c 42.055 330.539 44.789 333.512 47.641
 336.359 c 50.496 339.207 53.461 341.945 56.523 344.504 c 58.906 346.441
 62.172 346.883 64.98 345.645 c 87.477 336 l 97.359 341.973 108.086 346.426
 119.297 349.211 c 128.371 371.898 l 129.488 374.758 132.109 376.754 135.16
 377.07 c 139.137 377.434 143.168 377.602 147.199 377.602 c 151.23 377.602
 155.266 377.434 159.238 377.074 c 162.293 376.762 164.914 374.766 166.027
 371.902 c 175.105 349.215 l 186.312 346.43 197.039 341.977 206.926 336 
c 229.422 345.637 l 232.23 346.875 235.492 346.434 237.875 344.5 c 240.941
 341.938 243.91 339.207 246.758 336.352 c 249.605 333.496 252.344 330.535
 254.906 327.469 c 256.84 325.086 257.281 321.824 256.043 319.016 c 246.398
 296.523 l 252.371 286.641 256.824 275.914 259.609 264.703 c h
282.305 255.629 m f
375.039 78.957 m 376.336 78.449 377.242 77.258 377.391 75.871 c 377.547
 74.066 377.625 72.23 377.625 70.398 c 377.625 68.57 377.547 66.734 377.391
 64.93 c 377.242 63.543 376.336 62.352 375.039 61.844 c 364.723 57.715 l
 363.461 52.621 361.438 47.742 358.719 43.25 c 363.105 33.012 l 363.664 
31.734 363.461 30.25 362.578 29.172 c 361.422 27.777 360.18 26.426 358.879
 25.133 c 357.582 23.84 356.238 22.574 354.84 21.434 c 353.762 20.551 352.277
 20.352 351 20.91 c 340.762 25.293 l 336.27 22.578 331.395 20.555 326.297
 19.289 c 322.156 8.961 l 321.648 7.664 320.457 6.758 319.07 6.609 c 317.266
 6.477 315.43 6.398 313.602 6.398 c 311.77 6.398 309.934 6.477 308.129 6.637
 c 306.742 6.781 305.551 7.688 305.043 8.984 c 300.914 19.301 l 295.82 20.566
 290.945 22.59 286.453 25.305 c 276.211 20.922 l 274.934 20.363 273.453 
20.566 272.371 21.445 c 270.977 22.605 269.625 23.848 268.332 25.145 c 267.039
 26.445 265.773 27.789 264.633 29.184 c 263.754 30.266 263.551 31.746 264.109
 33.023 c 268.492 43.266 l 265.777 47.758 263.754 52.633 262.488 57.727 
c 252.16 61.844 l 250.863 62.352 249.957 63.543 249.812 64.93 c 249.652 
66.734 249.574 68.57 249.574 70.398 c 249.574 72.23 249.652 74.066 249.812
 75.871 c 249.957 77.258 250.863 78.449 252.16 78.957 c 262.477 83.086 l
 263.742 88.18 265.766 93.055 268.48 97.547 c 264.098 107.789 l 263.539 
109.066 263.738 110.547 264.621 111.629 c 265.777 113.023 267.02 114.375
 268.32 115.668 c 269.621 116.961 270.965 118.227 272.359 119.367 c 273.438
 120.246 274.922 120.449 276.199 119.891 c 286.438 115.508 l 290.93 118.223
 295.809 120.246 300.902 121.512 c 305.031 131.828 l 305.539 133.125 306.73
 134.031 308.113 134.176 c 309.922 134.336 311.758 134.414 313.586 134.414
 c 315.418 134.414 317.254 134.336 319.059 134.176 c 320.445 134.031 321.637
 133.125 322.145 131.828 c 326.273 121.512 l 331.367 120.246 336.242 118.223
 340.734 115.508 c 350.977 119.891 l 352.254 120.449 353.734 120.246 354.816
 119.367 c 356.211 118.207 357.562 116.965 358.855 115.668 c 360.148 114.367
 361.414 113.023 362.555 111.629 c 363.434 110.547 363.637 109.066 363.078
 107.789 c 358.695 97.547 l 361.41 93.055 363.434 88.18 364.699 83.086 c
 h
375.039 78.957 m f
0.168627 0.713726 0.909804 rg
236.801 236.801 m 236.801 286.285 196.684 326.398 147.199 326.398 c 97.715
 326.398 57.602 286.285 57.602 236.801 c 57.602 187.316 97.715 147.199 147.199
 147.199 c 196.684 147.199 236.801 187.316 236.801 236.801 c h
236.801 236.801 m f
0.72549 0.74902 0.8 rg
339.199 70.398 m 339.199 84.539 327.738 96 313.602 96 c 299.461 96 288 
84.539 288 70.398 c 288 56.262 299.461 44.801 313.602 44.801 c 327.738 44.801
 339.199 56.262 339.199 70.398 c h
339.199 70.398 m f
0.172549 0.494118 0.607843 rg
160 236.801 m 160 243.871 154.27 249.602 147.199 249.602 c 140.129 249.602
 134.398 243.871 134.398 236.801 c 134.398 229.73 140.129 224 147.199 224
 c 154.27 224 160 229.73 160 236.801 c h
160 236.801 m f
0.145098 0.639216 0.854902 rg
147.199 185.602 m 143.664 185.602 140.801 182.734 140.801 179.199 c 140.801
 172.801 l 140.801 169.266 143.664 166.398 147.199 166.398 c 150.734 166.398
 153.602 169.266 153.602 172.801 c 153.602 179.199 l 153.602 182.734 150.734
 185.602 147.199 185.602 c h
147.199 185.602 m f
106.469 202.469 m 104.773 202.469 103.145 201.797 101.945 200.594 c 97.422
 196.07 l 94.996 193.559 95.031 189.566 97.5 187.098 c 99.969 184.629 103.961
 184.594 106.469 187.02 c 110.996 191.547 l 112.824 193.375 113.371 196.129
 112.383 198.52 c 111.391 200.91 109.059 202.469 106.469 202.469 c h
106.469 202.469 m f
89.602 243.199 m 83.199 243.199 l 79.664 243.199 76.801 240.336 76.801 
236.801 c 76.801 233.266 79.664 230.398 83.199 230.398 c 89.602 230.398 
l 93.133 230.398 96 233.266 96 236.801 c 96 240.336 93.133 243.199 89.602
 243.199 c h
89.602 243.199 m f
101.945 288.453 m 99.359 288.453 97.023 286.895 96.035 284.504 c 95.043
 282.113 95.59 279.359 97.422 277.531 c 101.945 273.004 l 104.457 270.578
 108.449 270.613 110.918 273.082 c 113.387 275.551 113.422 279.543 110.996
 282.055 c 106.469 286.578 l 105.27 287.781 103.645 288.453 101.945 288.453
 c h
101.945 288.453 m f
147.199 307.199 m 143.664 307.199 140.801 304.336 140.801 300.801 c 140.801
 294.398 l 140.801 290.867 143.664 288 147.199 288 c 150.734 288 153.602
 290.867 153.602 294.398 c 153.602 300.801 l 153.602 304.336 150.734 307.199
 147.199 307.199 c h
147.199 307.199 m f
192.453 288.453 m 190.758 288.453 189.129 287.781 187.93 286.578 c 183.406
 282.055 l 180.98 279.543 181.016 275.551 183.484 273.082 c 185.953 270.613
 189.941 270.578 192.453 273.004 c 196.98 277.531 l 198.809 279.359 199.355
 282.113 198.367 284.504 c 197.375 286.895 195.043 288.453 192.453 288.453
 c h
192.453 288.453 m f
211.199 243.199 m 204.801 243.199 l 201.266 243.199 198.398 240.336 198.398
 236.801 c 198.398 233.266 201.266 230.398 204.801 230.398 c 211.199 230.398
 l 214.734 230.398 217.602 233.266 217.602 236.801 c 217.602 240.336 214.734
 243.199 211.199 243.199 c h
211.199 243.199 m f
187.93 202.469 m 185.34 202.469 183.008 200.91 182.02 198.52 c 181.027 
196.129 181.574 193.375 183.406 191.547 c 187.93 187.02 l 190.441 184.594
 194.434 184.629 196.902 187.098 c 199.371 189.566 199.406 193.559 196.98
 196.07 c 192.453 200.594 l 191.254 201.797 189.625 202.469 187.93 202.469
 c h
187.93 202.469 m f
182.078 226.496 m 160 237.246 l 160 236.801 l 160 232.414 157.754 228.332
 154.047 225.984 c 176.32 215.105 l 177.844 214.188 179.684 213.945 181.391
 214.438 c 183.102 214.93 184.527 216.113 185.332 217.699 c 186.133 219.289
 186.238 221.137 185.621 222.805 c 185.008 224.477 183.723 225.812 182.078
 226.496 c h
182.078 226.496 m f
165.695 259.52 m 167.277 262.668 166.02 266.5 162.879 268.098 c 161.996
 268.57 161.004 268.812 160 268.801 c 157.57 268.805 155.344 267.445 154.238
 265.281 c 146.434 249.535 l 146.684 249.59 146.941 249.609 147.199 249.602
 c 151.48 249.562 155.469 247.434 157.887 243.902 c h
165.695 259.52 m f
0.72549 0.74902 0.8 rg
147.199 332.801 m 108.371 332.801 73.367 309.41 58.508 273.539 c 43.648
 237.664 51.863 196.375 79.316 168.918 c 106.773 141.461 148.066 133.25 
183.938 148.109 c 219.809 162.965 243.199 197.973 243.199 236.801 c 243.141
 289.793 200.195 332.738 147.199 332.801 c h
147.199 153.602 m 113.547 153.602 83.211 173.871 70.332 204.961 c 57.457
 236.051 64.574 271.836 88.367 295.633 c 112.164 319.426 147.949 326.543
 179.039 313.668 c 210.129 300.789 230.398 270.453 230.398 236.801 c 230.348
 190.871 193.129 153.652 147.199 153.602 c h
147.199 153.602 m f
Q Q
showpage
%%Trailer
end
%%EOF
