%!PS-Adobe-3.0 EPSF-3.0
%%Creator: cairo 1.16.0 (https://cairographics.org)
%%CreationDate: Fri Nov 29 10:42:00 2019
%%Pages: 1
%%DocumentData: Clean7Bit
%%LanguageLevel: 2
%%BoundingBox: 32 6 352 378
%%EndComments
%%BeginProlog
50 dict begin
/q { gsave } bind def
/Q { grestore } bind def
/cm { 6 array astore concat } bind def
/w { setlinewidth } bind def
/J { setlinecap } bind def
/j { setlinejoin } bind def
/M { setmiterlimit } bind def
/d { setdash } bind def
/m { moveto } bind def
/l { lineto } bind def
/c { curveto } bind def
/h { closepath } bind def
/re { exch dup neg 3 1 roll 5 3 roll moveto 0 rlineto
      0 exch rlineto 0 rlineto closepath } bind def
/S { stroke } bind def
/f { fill } bind def
/f* { eofill } bind def
/n { newpath } bind def
/W { clip } bind def
/W* { eoclip } bind def
/BT { } bind def
/ET { } bind def
/BDC { mark 3 1 roll /BDC pdfmark } bind def
/EMC { mark /EMC pdfmark } bind def
/cairo_store_point { /cairo_point_y exch def /cairo_point_x exch def } def
/Tj { show currentpoint cairo_store_point } bind def
/TJ {
  {
    dup
    type /stringtype eq
    { show } { -0.001 mul 0 cairo_font_matrix dtransform rmoveto } ifelse
  } forall
  currentpoint cairo_store_point
} bind def
/cairo_selectfont { cairo_font_matrix aload pop pop pop 0 0 6 array astore
    cairo_font exch selectfont cairo_point_x cairo_point_y moveto } bind def
/Tf { pop /cairo_font exch def /cairo_font_matrix where
      { pop cairo_selectfont } if } bind def
/Td { matrix translate cairo_font_matrix matrix concatmatrix dup
      /cairo_font_matrix exch def dup 4 get exch 5 get cairo_store_point
      /cairo_font where { pop cairo_selectfont } if } bind def
/Tm { 2 copy 8 2 roll 6 array astore /cairo_font_matrix exch def
      cairo_store_point /cairo_font where { pop cairo_selectfont } if } bind def
/g { setgray } bind def
/rg { setrgbcolor } bind def
/d1 { setcachedevice } bind def
/cairo_data_source {
  CairoDataIndex CairoData length lt
    { CairoData CairoDataIndex get /CairoDataIndex CairoDataIndex 1 add def }
    { () } ifelse
} def
/cairo_flush_ascii85_file { cairo_ascii85_file status { cairo_ascii85_file flushfile } if } def
/cairo_image { image cairo_flush_ascii85_file } def
/cairo_imagemask { imagemask cairo_flush_ascii85_file } def
%%EndProlog
%%BeginSetup
%%EndSetup
%%Page: 1 1
%%BeginPageSetup
%%PageBoundingBox: 32 6 352 378
%%EndPageSetup
q 32 6 320 372 rectclip
1 0 0 -1 0 384 cm q
0.686275 0.709804 0.74902 rg
115.199 294.398 153.602 38.402 re f
0.8 0.815686 0.854902 rg
312.383 352 m 311.887 351.227 311.207 350.586 310.398 350.145 c 268.801
 326.398 l 115.199 326.398 l 73.602 350.145 l 72.793 350.586 72.113 351.227
 71.617 352 c 70.832 353.082 70.41 354.379 70.398 355.711 c 70.398 371.199
 l 70.398 374.734 73.266 377.602 76.801 377.602 c 307.199 377.602 l 310.734
 377.602 313.602 374.734 313.602 371.199 c 313.602 355.711 l 313.59 354.379
 313.168 353.082 312.383 352 c h
312.383 352 m f
0.686275 0.709804 0.74902 rg
313.602 355.711 m 313.602 371.199 l 313.602 374.734 310.734 377.602 307.199
 377.602 c 76.801 377.602 l 73.266 377.602 70.398 374.734 70.398 371.199
 c 70.398 355.711 l 70.41 354.379 70.832 353.082 71.617 352 c 312.383 352
 l 313.168 353.082 313.59 354.379 313.602 355.711 c h
313.602 355.711 m f
0.8 0.815686 0.854902 rg
352 249.602 m 352 281.602 l 352 292.203 343.402 300.801 332.801 300.801
 c 51.199 300.801 l 40.598 300.801 32 292.203 32 281.602 c 32 249.602 l 
44.801 236.801 l 345.602 236.801 l h
352 249.602 m f
0.172549 0.494118 0.607843 rg
352 51.199 m 352 249.602 l 32 249.602 l 32 51.199 l 32 40.598 40.598 32
 51.199 32 c 332.801 32 l 343.402 32 352 40.598 352 51.199 c h
352 51.199 m f
0.921569 0.458824 0.709804 rg
137.602 147.199 m 133.219 141.391 133.348 133.344 137.922 127.68 c 130.938
 126.676 125.086 121.895 122.711 115.254 c 120.336 108.613 121.832 101.203
 126.594 96 c 119.938 88.766 119.938 77.637 126.594 70.398 c 122.09 65.484
 120.492 58.574 122.375 52.18 c 124.262 45.789 129.359 40.852 135.809 39.168
 c 133.406 33.254 134.109 26.535 137.68 21.242 c 141.25 15.953 147.219 12.789
 153.602 12.801 c 155.109 12.824 156.613 13.02 158.078 13.375 c 163.223 
7.129 171.738 4.793 179.348 7.535 c 186.957 10.277 192.023 17.508 192 25.602
 c 191.977 17.508 197.043 10.277 204.652 7.535 c 212.262 4.793 220.777 7.129
 225.922 13.375 c 227.387 13.02 228.891 12.824 230.398 12.801 c 236.781 
12.789 242.75 15.953 246.32 21.242 c 249.891 26.535 250.594 33.254 248.191
 39.168 c 254.641 40.852 259.738 45.789 261.625 52.18 c 263.508 58.574 261.91
 65.484 257.406 70.398 c 264.062 77.637 264.062 88.766 257.406 96 c 262.168
 101.203 263.664 108.613 261.289 115.254 c 258.914 121.895 253.062 126.676
 246.078 127.68 c 250.652 133.344 250.781 141.391 246.398 147.199 c h
137.602 147.199 m f
0.537255 0.568627 0.627451 rg
204.801 281.602 m 179.199 281.602 l 175.664 281.602 172.801 278.734 172.801
 275.199 c 172.801 271.664 175.664 268.801 179.199 268.801 c 204.801 268.801
 l 208.336 268.801 211.199 271.664 211.199 275.199 c 211.199 278.734 208.336
 281.602 204.801 281.602 c h
204.801 281.602 m f
0.835294 0.364706 0.643137 rg
166.398 128 m 162.961 128.004 160.133 125.285 160 121.848 c 159.938 121.406
 159.188 117.414 151.57 114.867 c 148.215 113.75 146.398 110.121 147.512
 106.766 c 148.629 103.406 152.258 101.59 155.617 102.707 c 169.184 107.25
 172.801 116.719 172.801 121.602 c 172.801 125.133 169.934 128 166.398 128
 c h
166.398 128 m f
217.602 89.602 m 214.406 89.598 211.707 87.242 211.266 84.078 c 210.828
 80.918 212.789 77.914 215.859 77.043 c 219.852 76.164 223.031 73.152 224.121
 69.215 c 224.855 65.801 228.152 63.578 231.59 64.172 c 235.004 64.797 237.285
 68.047 236.711 71.469 c 234.777 80.246 228.059 87.18 219.348 89.391 c 218.777
 89.539 218.188 89.609 217.602 89.602 c h
217.602 89.602 m f
217.602 128.141 m 214.035 128.078 211.184 125.164 211.199 121.602 c 211.199
 116.719 214.816 107.25 228.379 102.734 c 231.734 101.617 235.363 103.434
 236.48 106.789 c 237.598 110.148 235.781 113.777 232.422 114.895 c 224.523
 117.504 224 121.707 224 121.883 c 223.996 123.566 223.316 125.176 222.113
 126.352 c 220.906 127.527 219.281 128.172 217.602 128.141 c h
217.602 128.141 m f
166.398 57.602 m 162.887 57.602 160.031 54.77 160 51.258 c 159.938 48.355
 158.645 45.617 156.449 43.727 c 153.508 41.762 152.715 37.789 154.676 34.848
 c 156.637 31.906 160.609 31.113 163.551 33.074 c 169.316 37.32 172.746 
44.039 172.801 51.199 c 172.801 54.734 169.934 57.602 166.398 57.602 c h
166.398 57.602 m f
217.602 57.602 m 214.066 57.602 211.199 54.734 211.199 51.199 c 211.254
 44.039 214.684 37.32 220.449 33.074 c 223.391 31.113 227.363 31.906 229.324
 34.848 c 231.285 37.789 230.492 41.762 227.551 43.727 c 225.383 45.617 
224.094 48.324 224 51.199 c 224 54.734 221.133 57.602 217.602 57.602 c h
217.602 57.602 m f
0.137255 0.372549 0.427451 rg
300.801 153.602 m 83.199 153.602 l 79.664 153.602 76.801 150.734 76.801
 147.199 c 76.801 143.664 79.664 140.801 83.199 140.801 c 300.801 140.801
 l 304.336 140.801 307.199 143.664 307.199 147.199 c 307.199 150.734 304.336
 153.602 300.801 153.602 c h
300.801 153.602 m f
1 g
89.602 179.199 m 83.199 179.199 l 79.664 179.199 76.801 176.336 76.801 
172.801 c 76.801 169.266 79.664 166.398 83.199 166.398 c 89.602 166.398 
l 93.133 166.398 96 169.266 96 172.801 c 96 176.336 93.133 179.199 89.602
 179.199 c h
89.602 179.199 m f
89.602 204.801 m 83.199 204.801 l 79.664 204.801 76.801 201.934 76.801 
198.398 c 76.801 194.867 79.664 192 83.199 192 c 89.602 192 l 93.133 192
 96 194.867 96 198.398 c 96 201.934 93.133 204.801 89.602 204.801 c h
89.602 204.801 m f
89.602 230.398 m 83.199 230.398 l 79.664 230.398 76.801 227.535 76.801 
224 c 76.801 220.465 79.664 217.602 83.199 217.602 c 89.602 217.602 l 93.133
 217.602 96 220.465 96 224 c 96 227.535 93.133 230.398 89.602 230.398 c 
h
89.602 230.398 m f
0.988235 0.796078 0.333333 rg
249.602 179.199 m 217.602 179.199 l 214.066 179.199 211.199 176.336 211.199
 172.801 c 211.199 169.266 214.066 166.398 217.602 166.398 c 249.602 166.398
 l 253.133 166.398 256 169.266 256 172.801 c 256 176.336 253.133 179.199
 249.602 179.199 c h
249.602 179.199 m f
0.65098 0.588235 0.941176 rg
192 179.199 m 153.602 179.199 l 150.066 179.199 147.199 176.336 147.199
 172.801 c 147.199 169.266 150.066 166.398 153.602 166.398 c 192 166.398
 l 195.535 166.398 198.398 169.266 198.398 172.801 c 198.398 176.336 195.535
 179.199 192 179.199 c h
192 179.199 m f
0.25098 0.8 0.945098 rg
128 179.199 m 115.199 179.199 l 111.664 179.199 108.801 176.336 108.801
 172.801 c 108.801 169.266 111.664 166.398 115.199 166.398 c 128 166.398
 l 131.535 166.398 134.398 169.266 134.398 172.801 c 134.398 176.336 131.535
 179.199 128 179.199 c h
128 179.199 m f
0.988235 0.796078 0.333333 rg
300.801 204.801 m 288 204.801 l 284.465 204.801 281.602 201.934 281.602
 198.398 c 281.602 194.867 284.465 192 288 192 c 300.801 192 l 304.336 192
 307.199 194.867 307.199 198.398 c 307.199 201.934 304.336 204.801 300.801
 204.801 c h
300.801 204.801 m f
0.65098 0.588235 0.941176 rg
262.398 204.801 m 192 204.801 l 188.465 204.801 185.602 201.934 185.602
 198.398 c 185.602 194.867 188.465 192 192 192 c 262.398 192 l 265.934 192
 268.801 194.867 268.801 198.398 c 268.801 201.934 265.934 204.801 262.398
 204.801 c h
262.398 204.801 m f
0.25098 0.8 0.945098 rg
166.398 204.801 m 115.199 204.801 l 111.664 204.801 108.801 201.934 108.801
 198.398 c 108.801 194.867 111.664 192 115.199 192 c 166.398 192 l 169.934
 192 172.801 194.867 172.801 198.398 c 172.801 201.934 169.934 204.801 166.398
 204.801 c h
166.398 204.801 m f
0.65098 0.588235 0.941176 rg
230.398 230.398 m 166.398 230.398 l 162.867 230.398 160 227.535 160 224
 c 160 220.465 162.867 217.602 166.398 217.602 c 230.398 217.602 l 233.934
 217.602 236.801 220.465 236.801 224 c 236.801 227.535 233.934 230.398 230.398
 230.398 c h
230.398 230.398 m f
0.25098 0.8 0.945098 rg
140.801 230.398 m 115.199 230.398 l 111.664 230.398 108.801 227.535 108.801
 224 c 108.801 220.465 111.664 217.602 115.199 217.602 c 140.801 217.602
 l 144.336 217.602 147.199 220.465 147.199 224 c 147.199 227.535 144.336
 230.398 140.801 230.398 c h
140.801 230.398 m f
0.835294 0.364706 0.643137 rg
166.398 89.602 m 165.887 89.602 165.371 89.539 164.871 89.422 c 156.223
 87.23 149.484 80.453 147.34 71.797 c 146.551 68.348 148.707 64.914 152.156
 64.125 c 155.605 63.336 159.039 65.492 159.828 68.941 c 160.914 72.859 
163.988 75.918 167.918 76.98 c 171.07 77.742 173.156 80.742 172.766 83.965
 c 172.379 87.184 169.645 89.605 166.398 89.602 c h
166.398 89.602 m f
214.336 6.719 m 213.277 6.84 212.238 7.121 211.266 7.551 c 203.559 10.199
 198.387 17.453 198.398 25.602 c 198.398 140.801 l 185.535 140.801 l 185.535
 25.602 l 185.547 17.453 180.379 10.199 172.672 7.551 c 171.695 7.121 170.66
 6.84 169.602 6.719 c 170.629 6.484 171.68 6.375 172.734 6.398 c 173.832
 6.379 174.93 6.488 176 6.719 c 176.062 6.719 l 179.621 7.297 182.938 8.898
 185.602 11.328 c 186.832 12.391 187.91 13.617 188.801 14.977 c 190.781 
18.008 191.867 21.531 191.938 25.152 c 192.059 21.531 193.164 18.016 195.137
 14.977 c 196.027 13.617 197.105 12.391 198.336 11.328 c 201 8.898 204.312
 7.297 207.871 6.719 c 207.938 6.719 l 209.008 6.488 210.102 6.379 211.199
 6.398 c 212.254 6.375 213.309 6.484 214.336 6.719 c h
214.336 6.719 m f
Q Q
showpage
%%Trailer
end
%%EOF
