%!PS-Adobe-3.0 EPSF-3.0
%%Creator: cairo 1.14.6 (http://cairographics.org)
%%CreationDate: Wed Apr  3 07:48:49 2019
%%Pages: 1
%%DocumentData: Clean7Bit
%%LanguageLevel: 2
%%BoundingBox: 0 0 512 512
%%EndComments
%%BeginProlog
save
50 dict begin
/q { gsave } bind def
/Q { grestore } bind def
/cm { 6 array astore concat } bind def
/w { setlinewidth } bind def
/J { setlinecap } bind def
/j { setlinejoin } bind def
/M { setmiterlimit } bind def
/d { setdash } bind def
/m { moveto } bind def
/l { lineto } bind def
/c { curveto } bind def
/h { closepath } bind def
/re { exch dup neg 3 1 roll 5 3 roll moveto 0 rlineto
      0 exch rlineto 0 rlineto closepath } bind def
/S { stroke } bind def
/f { fill } bind def
/f* { eofill } bind def
/n { newpath } bind def
/W { clip } bind def
/W* { eoclip } bind def
/BT { } bind def
/ET { } bind def
/pdfmark where { pop globaldict /?pdfmark /exec load put }
    { globaldict begin /?pdfmark /pop load def /pdfmark
    /cleartomark load def end } ifelse
/BDC { mark 3 1 roll /BDC pdfmark } bind def
/EMC { mark /EMC pdfmark } bind def
/cairo_store_point { /cairo_point_y exch def /cairo_point_x exch def } def
/Tj { show currentpoint cairo_store_point } bind def
/TJ {
  {
    dup
    type /stringtype eq
    { show } { -0.001 mul 0 cairo_font_matrix dtransform rmoveto } ifelse
  } forall
  currentpoint cairo_store_point
} bind def
/cairo_selectfont { cairo_font_matrix aload pop pop pop 0 0 6 array astore
    cairo_font exch selectfont cairo_point_x cairo_point_y moveto } bind def
/Tf { pop /cairo_font exch def /cairo_font_matrix where
      { pop cairo_selectfont } if } bind def
/Td { matrix translate cairo_font_matrix matrix concatmatrix dup
      /cairo_font_matrix exch def dup 4 get exch 5 get cairo_store_point
      /cairo_font where { pop cairo_selectfont } if } bind def
/Tm { 2 copy 8 2 roll 6 array astore /cairo_font_matrix exch def
      cairo_store_point /cairo_font where { pop cairo_selectfont } if } bind def
/g { setgray } bind def
/rg { setrgbcolor } bind def
/d1 { setcachedevice } bind def
%%EndProlog
%%BeginSetup
%%EndSetup
%%Page: 1 1
%%BeginPageSetup
%%PageBoundingBox: 0 0 512 512
%%EndPageSetup
q 0 0 512 512 rectclip q
0.388235 0.423529 0.466667 rg
485.516 44.137 m 458.152 9.941 l 453.129 3.66 445.52 0 437.477 0 c 74.523
 0 l 66.48 0 58.871 3.66 53.848 9.941 c 26.484 44.137 l 26.484 61.793 l 
485.516 61.793 l h
485.516 44.137 m f
476.691 70.621 m 476.691 441.379 l 476.66 451.117 468.773 459.004 459.035
 459.035 c 52.965 459.035 l 43.227 459.004 35.34 451.117 35.309 441.379 
c 35.309 70.621 l h
476.691 70.621 m f
0.309804 0.752941 0.909804 rg
389.562 423.723 m 432.551 423.723 l 437.426 423.723 441.379 419.773 441.379
 414.898 c 441.379 158.898 l 441.379 154.02 437.426 150.07 432.551 150.07
 c 79.449 150.07 l 74.574 150.07 70.621 154.02 70.621 158.898 c 70.621 414.898
 l 70.621 419.773 74.574 423.723 79.449 423.723 c h
389.562 423.723 m f
0.921569 0.52549 0.745098 rg
326.621 370.758 m 326.621 264.387 l 326.629 259.816 324.82 255.434 321.59
 252.203 c 318.359 248.973 313.977 247.164 309.406 247.172 c 309.32 247.172
 l 303.57 247.188 298.207 250.07 295.02 254.852 c 270.035 292.281 l 266.789
 297.203 261.277 300.156 255.383 300.137 c 251.586 300.137 l 239.914 300.125
 230.266 309.23 229.605 320.883 c 229.516 379.586 l h
326.621 370.758 m f
0.835294 0.435294 0.67451 rg
377.82 358.398 m 378.992 354.414 379.586 350.281 379.586 346.129 c 378.516
 319.762 356.348 299.215 329.977 300.137 c 328.855 300.105 327.73 300.164
 326.621 300.316 c 323.766 300.426 320.926 300.809 318.145 301.461 c 301.969
 304.844 288.645 316.266 282.836 331.742 c 282.836 379.586 l 370.758 379.586
 l h
377.82 358.398 m f
0.662745 0.690196 0.733333 rg
512 97.102 m 512 61.793 l 511.973 52.055 504.082 44.168 494.344 44.137 
c 17.656 44.137 l 7.918 44.168 0.027 52.055 0 61.793 c 0 97.102 l 0.027 
106.844 7.918 114.73 17.656 114.758 c 176.551 114.758 l 181.426 114.758 
185.379 110.805 185.379 105.93 c 185.379 97.102 l 185.379 92.227 189.332
 88.277 194.207 88.277 c 317.793 88.277 l 322.668 88.277 326.621 92.227 
326.621 97.102 c 326.621 105.93 l 326.621 110.805 330.574 114.758 335.449
 114.758 c 494.344 114.758 l 504.082 114.73 511.973 106.844 512 97.102 c
 h
512 97.102 m f
0.945098 0.6 0.807843 rg
396.535 417.898 m 392 422.816 386.195 426.391 379.762 428.227 c 379.777
 428.848 379.836 429.469 379.938 430.078 c 380.117 431.633 380.207 433.195
 380.203 434.758 c 380.207 453.43 370.902 470.875 355.398 481.281 c 355.309
 481.367 l 346.723 487.336 336.625 490.766 326.18 491.254 c 315.633 501.289
 301.629 506.883 287.074 506.879 c 279.969 506.883 272.93 505.535 266.328
 502.906 c 258.992 508.793 249.867 512 240.465 512 c 237.129 511.996 233.809
 511.582 230.578 510.766 c 224.02 509.176 217.953 505.988 212.922 501.496
 c 207.207 504.996 200.641 506.855 193.941 506.879 c 187.234 506.926 180.648
 505.059 174.961 501.496 c 168.949 497.789 164.137 492.426 161.102 486.047
 c 159.961 486.195 158.812 486.254 157.66 486.223 c 145.59 486.25 134.301
 480.258 127.559 470.246 c 123.562 464.328 121.441 457.348 121.469 450.207
 c 121.453 449.766 121.484 449.32 121.555 448.883 c 111.773 442.219 105.922
 431.148 105.93 419.309 c 105.926 412.73 107.762 406.277 111.227 400.684
 c 111.156 400.039 111.125 399.391 111.141 398.742 c 111.195 378.02 125 
359.855 144.949 354.25 c 149.07 353.008 153.355 352.383 157.66 352.398 c
 159.758 352.41 161.852 352.559 163.93 352.84 c 164.094 352.035 164.301 
351.238 164.547 350.457 c 170.098 330.27 188.457 316.285 209.391 316.293
 c 219.656 316.277 229.629 319.695 237.727 326.004 c 242.684 329.719 246.828
 334.402 249.91 339.773 c 250.367 339.574 250.812 339.336 251.234 339.066
 c 279.004 324.938 312.844 331.691 333.066 355.398 c 336.836 359.82 340.012
 364.719 342.512 369.965 c 352.387 358.551 368.309 354.469 382.461 359.715
 c 396.609 364.965 406.02 378.441 406.07 393.535 c 406.098 402.57 402.688
 411.281 396.535 417.898 c h
396.535 417.898 m f
0.329412 0.364706 0.4 rg
485.516 44.137 m 458.152 9.977 l 453.16 3.66 445.547 -0.016 437.496 0 c
 419.84 0 l 427.891 -0.016 435.504 3.66 440.496 9.977 c 467.863 44.137 l
 h
485.516 44.137 m f
476.691 441.379 m 476.691 114.758 l 459.035 114.758 l 459.035 441.379 l
 459.004 451.117 451.117 459.004 441.379 459.035 c 459.035 459.035 l 468.773
 459.004 476.66 451.117 476.691 441.379 c h
476.691 441.379 m f
0.576471 0.603922 0.647059 rg
512 97.102 m 512 61.793 l 511.973 52.055 504.082 44.168 494.344 44.137 
c 476.691 44.137 l 486.441 44.137 494.344 52.043 494.344 61.793 c 494.344
 97.102 l 494.316 106.844 486.43 114.73 476.691 114.758 c 494.344 114.758
 l 504.082 114.73 511.973 106.844 512 97.102 c h
512 97.102 m f
194.207 88.277 m 176.551 88.277 l 171.676 88.277 167.723 92.227 167.723
 97.102 c 167.723 105.93 l 167.723 110.805 163.773 114.758 158.898 114.758
 c 176.551 114.758 l 181.426 114.758 185.379 110.805 185.379 105.93 c 185.379
 97.102 l 185.379 92.227 189.332 88.277 194.207 88.277 c h
194.207 88.277 m f
1 0.839216 0.482353 rg
44.137 70.621 m 35.309 70.621 l 30.434 70.621 26.484 74.574 26.484 79.449
 c 26.484 84.324 30.434 88.277 35.309 88.277 c 44.137 88.277 l 49.012 88.277
 52.965 84.324 52.965 79.449 c 52.965 74.574 49.012 70.621 44.137 70.621
 c h
44.137 70.621 m f
88.277 70.621 m 79.449 70.621 l 74.574 70.621 70.621 74.574 70.621 79.449
 c 70.621 84.324 74.574 88.277 79.449 88.277 c 88.277 88.277 l 93.152 88.277
 97.102 84.324 97.102 79.449 c 97.102 74.574 93.152 70.621 88.277 70.621
 c h
88.277 70.621 m f
0.921569 0.52549 0.745098 rg
280.453 437.582 m 280.453 432.707 276.5 428.758 271.625 428.758 c 254.059
 428.758 l 253.969 419.93 l 254.258 415.164 252.488 410.504 249.113 407.129
 c 245.738 403.754 241.078 401.988 236.316 402.273 c 201.004 402.273 l 180.172
 402.273 161.809 387.621 160.926 370.316 c 160.582 364.34 161.609 358.359
 163.93 352.84 c 161.852 352.559 159.758 352.41 157.66 352.398 c 153.355
 352.383 149.07 353.008 144.949 354.25 c 143.535 359.785 142.973 365.5 143.273
 371.199 c 144.598 398.035 170.461 419.93 201.004 419.93 c 236.227 419.93
 l 236.316 428.758 l 236.059 433.512 237.836 438.156 241.203 441.523 c 244.57
 444.891 249.215 446.668 253.969 446.41 c 271.625 446.41 l 276.5 446.41 
280.453 442.457 280.453 437.582 c h
280.453 437.582 m f
249.91 339.773 m 246.828 334.402 242.684 329.719 237.727 326.004 c 232.758
 328.512 228.078 331.562 223.781 335.094 c 220.066 338.238 219.555 343.773
 222.633 347.543 c 224.117 349.367 226.273 350.516 228.613 350.73 c 230.957
 350.949 233.285 350.211 235.078 348.691 c 239.547 344.988 244.547 341.984
 249.91 339.773 c h
249.91 339.773 m f
342.512 369.965 m 340.012 364.719 336.836 359.82 333.066 355.398 c 331.973
 355.844 330.984 356.504 330.152 357.34 c 324.715 362.676 320.711 369.297
 318.5 376.586 c 317.824 378.82 318.066 381.234 319.18 383.289 c 320.289
 385.344 322.172 386.871 324.414 387.531 c 326.66 388.219 329.09 387.977
 331.16 386.867 c 333.23 385.758 334.773 383.867 335.449 381.617 c 336.766
 377.191 339.199 373.18 342.512 369.965 c h
342.512 369.965 m f
350.984 470.07 m 349.836 469.484 348.566 469.184 347.277 469.188 c 343.836
 469.199 340.711 471.191 339.246 474.305 c 336.219 480.863 331.75 486.656
 326.18 491.254 c 336.625 490.766 346.723 487.336 355.309 481.367 c 355.398
 481.281 l 357.215 476.965 355.254 471.988 350.984 470.07 c h
350.984 470.07 m f
396.535 417.898 m 395.816 413.309 394.605 408.809 392.914 404.48 c 391.605
 401.086 388.348 398.84 384.707 398.832 c 383.586 398.82 382.477 399.031
 381.441 399.449 c 379.262 400.312 377.516 402.008 376.59 404.16 c 375.66
 406.312 375.629 408.746 376.496 410.926 c 378.688 416.426 379.797 422.301
 379.762 428.227 c 386.195 426.391 392 422.816 396.535 417.898 c h
396.535 417.898 m f
127.117 378.352 m 125.656 375.285 122.566 373.328 119.172 373.32 c 118.82
 373.32 l 113.797 380.844 111.125 389.695 111.141 398.742 c 111.125 399.391
 111.156 400.039 111.227 400.684 c 114.031 396.09 118.109 392.41 122.969
 390.09 c 125.09 389.098 126.719 387.297 127.5 385.09 c 128.281 382.883 
128.141 380.453 127.117 378.352 c h
127.117 378.352 m f
140.711 463.449 m 141.395 458.652 138.086 454.199 133.297 453.473 c 129.082
 452.863 125.066 451.293 121.555 448.883 c 121.484 449.32 121.453 449.766
 121.469 450.207 c 121.441 457.348 123.562 464.328 127.559 470.246 c 128.629
 470.566 129.719 470.801 130.824 470.953 c 133.133 471.289 135.48 470.684
 137.34 469.273 c 139.199 467.859 140.414 465.762 140.711 463.449 c h
140.711 463.449 m f
184.586 487.637 m 183.109 484.543 179.98 482.578 176.551 482.605 c 175.273
 482.613 174.012 482.883 172.844 483.398 c 169.18 485.156 165.168 486.062
 161.102 486.047 c 164.137 492.426 168.949 497.789 174.961 501.496 c 176.793
 500.883 178.59 500.172 180.348 499.375 c 184.758 497.305 186.656 492.047
 184.586 487.637 c h
184.586 487.637 m f
235.961 490.285 m 234.449 489.258 232.668 488.703 230.84 488.695 c 228 
488.707 225.34 490.09 223.691 492.402 c 220.949 496.316 217.238 499.449 
212.922 501.496 c 217.953 505.988 224.02 509.176 230.578 510.766 c 233.434
 508.375 235.957 505.617 238.078 502.555 c 240.871 498.578 239.922 493.094
 235.961 490.285 c h
235.961 490.285 m f
0.956863 0.964706 0.972549 rg
229.516 256 m 123.586 256 l 118.711 256 114.758 259.953 114.758 264.828
 c 114.758 269.703 118.711 273.656 123.586 273.656 c 229.516 273.656 l 234.395
 273.656 238.344 269.703 238.344 264.828 c 238.344 259.953 234.395 256 229.516
 256 c h
229.516 256 m f
397.242 256 m 370.758 256 l 365.883 256 361.93 259.953 361.93 264.828 c
 361.93 269.703 365.883 273.656 370.758 273.656 c 397.242 273.656 l 402.117
 273.656 406.07 269.703 406.07 264.828 c 406.07 259.953 402.117 256 397.242
 256 c h
397.242 256 m f
256 220.691 m 123.586 220.691 l 118.711 220.691 114.758 224.641 114.758
 229.516 c 114.758 234.395 118.711 238.344 123.586 238.344 c 256 238.344
 l 260.875 238.344 264.828 234.395 264.828 229.516 c 264.828 224.641 260.875
 220.691 256 220.691 c h
256 220.691 m f
397.242 220.691 m 353.102 220.691 l 348.227 220.691 344.277 224.641 344.277
 229.516 c 344.277 234.395 348.227 238.344 353.102 238.344 c 397.242 238.344
 l 402.117 238.344 406.07 234.395 406.07 229.516 c 406.07 224.641 402.117
 220.691 397.242 220.691 c h
397.242 220.691 m f
397.242 185.379 m 194.207 185.379 l 189.332 185.379 185.379 189.332 185.379
 194.207 c 185.379 199.082 189.332 203.035 194.207 203.035 c 397.242 203.035
 l 402.117 203.035 406.07 199.082 406.07 194.207 c 406.07 189.332 402.117
 185.379 397.242 185.379 c h
397.242 185.379 m f
158.898 185.379 m 123.586 185.379 l 118.711 185.379 114.758 189.332 114.758
 194.207 c 114.758 199.082 118.711 203.035 123.586 203.035 c 158.898 203.035
 l 163.773 203.035 167.723 199.082 167.723 194.207 c 167.723 189.332 163.773
 185.379 158.898 185.379 c h
158.898 185.379 m f
Q Q
showpage
%%Trailer
end restore
%%EOF
