%!PS-Adobe-3.0 EPSF-3.0
%%Creator: cairo 1.14.6 (http://cairographics.org)
%%CreationDate: Wed Apr  3 07:48:49 2019
%%Pages: 1
%%DocumentData: Clean7Bit
%%LanguageLevel: 2
%%BoundingBox: 0 0 512 512
%%EndComments
%%BeginProlog
save
50 dict begin
/q { gsave } bind def
/Q { grestore } bind def
/cm { 6 array astore concat } bind def
/w { setlinewidth } bind def
/J { setlinecap } bind def
/j { setlinejoin } bind def
/M { setmiterlimit } bind def
/d { setdash } bind def
/m { moveto } bind def
/l { lineto } bind def
/c { curveto } bind def
/h { closepath } bind def
/re { exch dup neg 3 1 roll 5 3 roll moveto 0 rlineto
      0 exch rlineto 0 rlineto closepath } bind def
/S { stroke } bind def
/f { fill } bind def
/f* { eofill } bind def
/n { newpath } bind def
/W { clip } bind def
/W* { eoclip } bind def
/BT { } bind def
/ET { } bind def
/pdfmark where { pop globaldict /?pdfmark /exec load put }
    { globaldict begin /?pdfmark /pop load def /pdfmark
    /cleartomark load def end } ifelse
/BDC { mark 3 1 roll /BDC pdfmark } bind def
/EMC { mark /EMC pdfmark } bind def
/cairo_store_point { /cairo_point_y exch def /cairo_point_x exch def } def
/Tj { show currentpoint cairo_store_point } bind def
/TJ {
  {
    dup
    type /stringtype eq
    { show } { -0.001 mul 0 cairo_font_matrix dtransform rmoveto } ifelse
  } forall
  currentpoint cairo_store_point
} bind def
/cairo_selectfont { cairo_font_matrix aload pop pop pop 0 0 6 array astore
    cairo_font exch selectfont cairo_point_x cairo_point_y moveto } bind def
/Tf { pop /cairo_font exch def /cairo_font_matrix where
      { pop cairo_selectfont } if } bind def
/Td { matrix translate cairo_font_matrix matrix concatmatrix dup
      /cairo_font_matrix exch def dup 4 get exch 5 get cairo_store_point
      /cairo_font where { pop cairo_selectfont } if } bind def
/Tm { 2 copy 8 2 roll 6 array astore /cairo_font_matrix exch def
      cairo_store_point /cairo_font where { pop cairo_selectfont } if } bind def
/g { setgray } bind def
/rg { setrgbcolor } bind def
/d1 { setcachedevice } bind def
%%EndProlog
%%BeginSetup
%%EndSetup
%%Page: 1 1
%%BeginPageSetup
%%PageBoundingBox: 0 0 512 512
%%EndPageSetup
q 0 0 512 512 rectclip q
0.792157 0.815686 0.843137 rg
353.102 0 m 323.852 0 300.137 23.715 300.137 52.965 c 300.137 97.102 l 
211.863 97.102 l 211.863 52.965 l 211.863 23.715 188.148 0 158.898 0 c h
353.102 0 m f
0.894118 0.909804 0.921569 rg
512 158.898 m 512 114.758 l 512 100.133 500.145 88.277 485.516 88.277 c
 26.484 88.277 l 11.855 88.277 0 100.133 0 114.758 c 0 158.898 l 256 176.551
 l h
512 158.898 m f
0.309804 0.752941 0.909804 rg
512 485.516 m 512 158.898 l 0 158.898 l 0 485.516 l 0 500.145 11.855 512
 26.484 512 c 485.516 512 l 500.145 512 512 500.145 512 485.516 c h
512 485.516 m f
0.619608 0.823529 0.415686 rg
353.102 406.07 m 353.102 264.828 l 353.109 261.879 352.602 258.953 351.602
 256.176 c 349.02 248.473 342.977 242.426 335.273 239.844 c 332.496 238.848
 329.57 238.34 326.621 238.344 c 185.379 238.344 l 182.43 238.34 179.504
 238.848 176.727 239.844 c 169.023 242.426 162.98 248.473 160.398 256.176
 c 159.398 258.953 158.891 261.879 158.898 264.828 c 158.898 406.07 l 158.891
 409.02 159.398 411.945 160.398 414.719 c 162.98 422.422 169.023 428.469
 176.727 431.051 c 179.504 432.047 182.43 432.555 185.379 432.551 c 326.621
 432.551 l 329.57 432.555 332.496 432.047 335.273 431.051 c 342.977 428.469
 349.02 422.422 351.602 414.719 c 352.602 411.945 353.109 409.02 353.102
 406.07 c h
353.102 406.07 m f
0.537255 0.752941 0.32549 rg
220.691 388.414 m 291.309 388.414 l 301.062 388.414 308.965 380.508 308.965
 370.758 c 308.965 300.137 l 308.965 290.387 301.062 282.484 291.309 282.484
 c 220.691 282.484 l 210.938 282.484 203.035 290.387 203.035 300.137 c 203.035
 370.758 l 203.035 380.508 210.938 388.414 220.691 388.414 c h
220.691 388.414 m f
0.792157 0.815686 0.843137 rg
512 158.898 m 512 114.758 l 512 100.133 500.145 88.277 485.516 88.277 c
 450.207 88.277 l 464.832 88.277 476.691 100.133 476.691 114.758 c 476.691
 158.898 l h
512 158.898 m f
0.227451 0.678431 0.85098 rg
512 485.516 m 512 158.898 l 476.691 158.898 l 476.691 485.516 l 476.691
 500.145 464.832 512 450.207 512 c 485.516 512 l 500.145 512 512 500.145
 512 485.516 c h
512 485.516 m f
0.537255 0.752941 0.32549 rg
353.102 406.07 m 353.102 264.828 l 353.109 261.879 352.602 258.953 351.602
 256.176 c 349.02 248.473 342.977 242.426 335.273 239.844 c 332.496 238.848
 329.57 238.34 326.621 238.344 c 308.965 238.344 l 311.914 238.34 314.84
 238.848 317.617 239.844 c 325.32 242.426 331.367 248.473 333.949 256.176
 c 334.945 258.953 335.453 261.879 335.449 264.828 c 335.449 406.07 l 335.453
 409.02 334.945 411.945 333.949 414.719 c 331.367 422.422 325.32 428.469
 317.617 431.051 c 314.84 432.047 311.914 432.555 308.965 432.551 c 326.621
 432.551 l 329.57 432.555 332.496 432.047 335.273 431.051 c 342.977 428.469
 349.02 422.422 351.602 414.719 c 352.602 411.945 353.109 409.02 353.102
 406.07 c h
353.102 406.07 m f
0.662745 0.690196 0.733333 rg
353.102 0 m 335.449 0 l 306.195 0 282.484 23.715 282.484 52.965 c 282.484
 88.277 l 300.137 88.277 l 300.137 52.965 l 300.137 23.715 323.852 0 353.102
 0 c h
353.102 0 m f
1 0.839216 0.482353 rg
264.828 467.863 m 264.828 432.551 l 247.172 432.551 l 247.172 467.863 l
 247.172 472.738 251.125 476.691 256 476.691 c 260.875 476.691 264.828 472.738
 264.828 467.863 c h
264.828 467.863 m f
335.449 467.863 m 335.449 432.551 l 335.438 432.047 335.379 431.543 335.273
 431.051 c 332.496 432.047 329.57 432.555 326.621 432.551 c 317.793 432.551
 l 317.793 467.863 l 317.793 472.738 321.746 476.691 326.621 476.691 c 331.496
 476.691 335.449 472.738 335.449 467.863 c h
335.449 467.863 m f
300.137 467.863 m 300.137 432.551 l 282.484 432.551 l 282.484 467.863 l
 282.484 472.738 286.434 476.691 291.309 476.691 c 296.188 476.691 300.137
 472.738 300.137 467.863 c h
300.137 467.863 m f
194.207 467.863 m 194.207 432.551 l 185.379 432.551 l 182.43 432.555 179.504
 432.047 176.727 431.051 c 176.621 431.543 176.562 432.047 176.551 432.551
 c 176.551 467.863 l 176.551 472.738 180.504 476.691 185.379 476.691 c 190.254
 476.691 194.207 472.738 194.207 467.863 c h
194.207 467.863 m f
229.516 467.863 m 229.516 432.551 l 211.863 432.551 l 211.863 467.863 l
 211.863 472.738 215.812 476.691 220.691 476.691 c 225.566 476.691 229.516
 472.738 229.516 467.863 c h
229.516 467.863 m f
185.379 238.344 m 194.207 238.344 l 194.207 203.035 l 194.207 198.16 190.254
 194.207 185.379 194.207 c 180.504 194.207 176.551 198.16 176.551 203.035
 c 176.551 238.344 l 176.562 238.848 176.621 239.352 176.727 239.844 c 179.504
 238.848 182.43 238.34 185.379 238.344 c h
185.379 238.344 m f
211.863 238.344 m 229.516 238.344 l 229.516 203.035 l 229.516 198.16 225.566
 194.207 220.691 194.207 c 215.812 194.207 211.863 198.16 211.863 203.035
 c h
211.863 238.344 m f
247.172 238.344 m 264.828 238.344 l 264.828 203.035 l 264.828 198.16 260.875
 194.207 256 194.207 c 251.125 194.207 247.172 198.16 247.172 203.035 c 
h
247.172 238.344 m f
282.484 238.344 m 300.137 238.344 l 300.137 203.035 l 300.137 198.16 296.188
 194.207 291.309 194.207 c 286.434 194.207 282.484 198.16 282.484 203.035
 c h
282.484 238.344 m f
335.449 238.344 m 335.449 203.035 l 335.449 198.16 331.496 194.207 326.621
 194.207 c 321.746 194.207 317.793 198.16 317.793 203.035 c 317.793 238.344
 l 326.621 238.344 l 329.57 238.34 332.496 238.848 335.273 239.844 c 335.379
 239.352 335.438 238.848 335.449 238.344 c h
335.449 238.344 m f
114.758 370.758 m 114.758 375.633 118.711 379.586 123.586 379.586 c 158.898
 379.586 l 158.898 361.93 l 123.586 361.93 l 118.711 361.93 114.758 365.883
 114.758 370.758 c h
114.758 370.758 m f
114.758 300.137 m 114.758 305.012 118.711 308.965 123.586 308.965 c 158.898
 308.965 l 158.898 291.309 l 123.586 291.309 l 118.711 291.309 114.758 295.262
 114.758 300.137 c h
114.758 300.137 m f
158.898 264.828 m 158.891 261.879 159.398 258.953 160.398 256.176 c 159.902
 256.07 159.402 256.012 158.898 256 c 123.586 256 l 118.711 256 114.758 
259.953 114.758 264.828 c 114.758 269.703 118.711 273.656 123.586 273.656
 c 158.898 273.656 l h
158.898 264.828 m f
114.758 335.449 m 114.758 340.324 118.711 344.277 123.586 344.277 c 158.898
 344.277 l 158.898 326.621 l 123.586 326.621 l 118.711 326.621 114.758 330.574
 114.758 335.449 c h
114.758 335.449 m f
114.758 406.07 m 114.758 410.945 118.711 414.898 123.586 414.898 c 158.898
 414.898 l 159.402 414.887 159.902 414.828 160.398 414.719 c 159.398 411.945
 158.891 409.02 158.898 406.07 c 158.898 397.242 l 123.586 397.242 l 118.711
 397.242 114.758 401.195 114.758 406.07 c h
114.758 406.07 m f
397.242 264.828 m 397.242 259.953 393.289 256 388.414 256 c 353.102 256
 l 352.598 256.012 352.098 256.07 351.602 256.176 c 352.602 258.953 353.109
 261.879 353.102 264.828 c 353.102 273.656 l 388.414 273.656 l 393.289 273.656
 397.242 269.703 397.242 264.828 c h
397.242 264.828 m f
353.102 406.07 m 353.109 409.02 352.602 411.945 351.602 414.719 c 352.098
 414.828 352.598 414.887 353.102 414.898 c 388.414 414.898 l 393.289 414.898
 397.242 410.945 397.242 406.07 c 397.242 401.195 393.289 397.242 388.414
 397.242 c 353.102 397.242 l h
353.102 406.07 m f
397.242 370.758 m 397.242 365.883 393.289 361.93 388.414 361.93 c 353.102
 361.93 l 353.102 379.586 l 388.414 379.586 l 393.289 379.586 397.242 375.633
 397.242 370.758 c h
397.242 370.758 m f
397.242 300.137 m 397.242 295.262 393.289 291.309 388.414 291.309 c 353.102
 291.309 l 353.102 308.965 l 388.414 308.965 l 393.289 308.965 397.242 305.012
 397.242 300.137 c h
397.242 300.137 m f
397.242 335.449 m 397.242 330.574 393.289 326.621 388.414 326.621 c 353.102
 326.621 l 353.102 344.277 l 388.414 344.277 l 393.289 344.277 397.242 340.324
 397.242 335.449 c h
397.242 335.449 m f
0.662745 0.690196 0.733333 rg
282.484 114.758 m 229.516 114.758 l 224.641 114.758 220.691 118.711 220.691
 123.586 c 220.691 128.461 224.641 132.414 229.516 132.414 c 282.484 132.414
 l 287.359 132.414 291.309 128.461 291.309 123.586 c 291.309 118.711 287.359
 114.758 282.484 114.758 c h
282.484 114.758 m f
370.758 0 m 141.242 0 l 136.367 0 132.414 3.953 132.414 8.828 c 132.414
 13.703 136.367 17.656 141.242 17.656 c 370.758 17.656 l 375.633 17.656 
379.586 13.703 379.586 8.828 c 379.586 3.953 375.633 0 370.758 0 c h
370.758 0 m f
Q Q
showpage
%%Trailer
end restore
%%EOF
