%!PS-Adobe-3.0 EPSF-3.0
%%Creator: cairo 1.14.6 (http://cairographics.org)
%%CreationDate: Wed Apr  3 07:48:50 2019
%%Pages: 1
%%DocumentData: Clean7Bit
%%LanguageLevel: 2
%%BoundingBox: 18 0 495 512
%%EndComments
%%BeginProlog
save
50 dict begin
/q { gsave } bind def
/Q { grestore } bind def
/cm { 6 array astore concat } bind def
/w { setlinewidth } bind def
/J { setlinecap } bind def
/j { setlinejoin } bind def
/M { setmiterlimit } bind def
/d { setdash } bind def
/m { moveto } bind def
/l { lineto } bind def
/c { curveto } bind def
/h { closepath } bind def
/re { exch dup neg 3 1 roll 5 3 roll moveto 0 rlineto
      0 exch rlineto 0 rlineto closepath } bind def
/S { stroke } bind def
/f { fill } bind def
/f* { eofill } bind def
/n { newpath } bind def
/W { clip } bind def
/W* { eoclip } bind def
/BT { } bind def
/ET { } bind def
/pdfmark where { pop globaldict /?pdfmark /exec load put }
    { globaldict begin /?pdfmark /pop load def /pdfmark
    /cleartomark load def end } ifelse
/BDC { mark 3 1 roll /BDC pdfmark } bind def
/EMC { mark /EMC pdfmark } bind def
/cairo_store_point { /cairo_point_y exch def /cairo_point_x exch def } def
/Tj { show currentpoint cairo_store_point } bind def
/TJ {
  {
    dup
    type /stringtype eq
    { show } { -0.001 mul 0 cairo_font_matrix dtransform rmoveto } ifelse
  } forall
  currentpoint cairo_store_point
} bind def
/cairo_selectfont { cairo_font_matrix aload pop pop pop 0 0 6 array astore
    cairo_font exch selectfont cairo_point_x cairo_point_y moveto } bind def
/Tf { pop /cairo_font exch def /cairo_font_matrix where
      { pop cairo_selectfont } if } bind def
/Td { matrix translate cairo_font_matrix matrix concatmatrix dup
      /cairo_font_matrix exch def dup 4 get exch 5 get cairo_store_point
      /cairo_font where { pop cairo_selectfont } if } bind def
/Tm { 2 copy 8 2 roll 6 array astore /cairo_font_matrix exch def
      cairo_store_point /cairo_font where { pop cairo_selectfont } if } bind def
/g { setgray } bind def
/rg { setrgbcolor } bind def
/d1 { setcachedevice } bind def
%%EndProlog
%%BeginSetup
%%EndSetup
%%Page: 1 1
%%BeginPageSetup
%%PageBoundingBox: 18 0 495 512
%%EndPageSetup
q 18 0 477 512 rectclip q
0.662745 0.690196 0.733333 rg
406.414 441.379 m 406.398 423.574 395.723 407.508 379.312 400.598 c 339.941
 479.426 l 346.703 483.43 354.418 485.535 362.277 485.516 c 382.207 485.57
 399.676 472.195 404.824 452.945 c 405.891 449.18 406.426 445.289 406.414
 441.379 c h
406.414 441.379 m f
106.277 441.379 m 106.289 423.574 116.965 407.508 133.375 400.598 c 172.746
 479.426 l 165.988 483.43 158.27 485.535 150.414 485.516 c 130.484 485.57
 113.016 472.195 107.863 452.945 c 106.801 449.18 106.266 445.289 106.277
 441.379 c h
106.277 441.379 m f
0.792157 0.815686 0.843137 rg
150.414 82.715 m 150.414 26.484 l 185.723 26.484 l 185.723 71.77 l h
150.414 82.715 m f
0.309804 0.752941 0.909804 rg
207.738 88.719 m 206.438 86.316 204.836 84.094 202.973 82.098 c 193.145
 71.328 177.707 67.711 164.117 72.988 c 150.527 78.266 141.574 91.352 141.586
 105.93 c 141.598 115.207 145.242 124.113 151.738 130.738 c h
207.738 88.719 m f
141.586 35.309 m 194.551 35.309 l 204.301 35.309 212.207 27.406 212.207
 17.656 c 212.207 8.828 l 212.207 3.953 208.254 0 203.379 0 c 132.758 0 
l 127.883 0 123.93 3.953 123.93 8.828 c 123.93 17.656 l 123.93 27.406 131.836
 35.309 141.586 35.309 c h
141.586 35.309 m f
0.894118 0.909804 0.921569 rg
35.656 165.695 35.309 -46.875 re f
88.621 247.172 m 53.309 211.863 l 79.617 188.117 l 79.617 188.203 l 104.598
 213.188 l h
88.621 247.172 m f
0.309804 0.752941 0.909804 rg
148.383 288.398 m 143.406 290.355 138.105 291.344 132.758 291.309 c 109.961
 291.43 90.824 274.164 88.602 251.473 c 86.379 228.781 101.809 208.133 124.195
 203.828 c h
148.383 288.398 m f
79.793 185.379 m 79.793 170.754 67.938 158.898 53.309 158.898 c 38.684 
158.898 26.828 170.754 26.828 185.379 c 26.828 200.004 38.684 211.863 53.309
 211.863 c 67.938 211.863 79.793 200.004 79.793 185.379 c h
79.793 185.379 m f
86.855 96.566 m 88.414 91.18 88.961 85.555 88.469 79.969 c 87.703 71.496
 78.293 67.344 73.305 73.789 c 68.59 80.109 61.195 83.867 53.309 83.949 
c 45.434 83.855 38.047 80.09 33.344 73.773 c 31.086 71.07 27.398 70.031 
24.062 71.164 c 20.73 72.297 18.434 75.363 18.293 78.883 c 18.098 80.566
 18 82.258 18 83.949 c 18 108.535 37.906 127.867 60.629 122.793 c 73.457
 119.41 83.473 109.395 86.855 96.566 c h
86.855 96.566 m f
0.792157 0.815686 0.843137 rg
362.277 82.715 m 362.277 26.484 l 326.965 26.484 l 326.965 71.77 l h
362.277 82.715 m f
0.309804 0.752941 0.909804 rg
304.949 88.719 m 306.254 86.316 307.855 84.094 309.715 82.098 c 319.547
 71.328 334.984 67.711 348.574 72.988 c 362.164 78.266 371.113 91.352 371.102
 105.93 c 371.09 115.207 367.449 124.113 360.953 130.738 c h
304.949 88.719 m f
379.93 0 m 309.309 0 l 304.434 0 300.484 3.953 300.484 8.828 c 300.484 
17.656 l 300.484 27.406 308.387 35.309 318.137 35.309 c 371.102 35.309 l
 380.855 35.309 388.758 27.406 388.758 17.656 c 388.758 8.828 l 388.758 
3.953 384.805 0 379.93 0 c h
379.93 0 m f
0.894118 0.909804 0.921569 rg
441.723 165.695 35.312 -46.875 re f
424.07 247.172 m 459.379 211.863 l 433.074 188.117 l 433.074 188.203 l 
408.09 213.188 l h
424.07 247.172 m f
0.309804 0.752941 0.909804 rg
364.305 288.398 m 369.281 290.355 374.586 291.344 379.93 291.309 c 402.73
 291.43 421.867 274.164 424.09 251.473 c 426.309 228.781 410.883 208.133
 388.492 203.828 c h
364.305 288.398 m f
0.792157 0.815686 0.843137 rg
348.77 306.492 m 387.344 268.895 399.297 211.68 379 161.785 c 358.707 111.887
 310.211 79.258 256.344 79.258 c 202.48 79.258 153.984 111.887 133.688 161.785
 c 113.395 211.68 125.348 268.895 163.922 306.492 c h
348.77 306.492 m f
0.894118 0.909804 0.921569 rg
379.93 388.414 m 379.93 320.16 324.602 264.828 256.344 264.828 c 188.09
 264.828 132.758 320.16 132.758 388.414 c 132.758 456.668 188.09 512 256.344
 512 c 324.602 512 379.93 456.668 379.93 388.414 c h
379.93 388.414 m f
0.309804 0.752941 0.909804 rg
335.793 397.242 m 335.793 426.492 300.223 450.207 256.344 450.207 c 212.465
 450.207 176.898 426.492 176.898 397.242 c 176.898 367.988 212.465 344.277
 256.344 344.277 c 300.223 344.277 335.793 367.988 335.793 397.242 c h
335.793 397.242 m f
485.863 185.379 m 485.863 170.754 474.004 158.898 459.379 158.898 c 444.754
 158.898 432.898 170.754 432.898 185.379 c 432.898 200.004 444.754 211.863
 459.379 211.863 c 474.004 211.863 485.863 200.004 485.863 185.379 c h
485.863 185.379 m f
425.836 96.566 m 424.277 91.18 423.727 85.555 424.219 79.969 c 424.988 
71.496 434.398 67.344 439.387 73.789 c 444.039 80.168 451.457 83.938 459.352
 83.938 c 467.246 83.938 474.668 80.168 479.32 73.789 c 481.586 71.121 485.25
 70.105 488.566 71.234 c 491.879 72.363 494.164 75.406 494.328 78.902 c 
494.547 80.574 494.668 82.262 494.691 83.949 c 494.691 108.535 474.785 127.867
 452.062 122.793 c 439.234 119.41 429.215 109.395 425.836 96.566 c h
425.836 96.566 m f
0.662745 0.690196 0.733333 rg
251.285 114.891 m 220.434 116.539 192.203 132.746 175.227 158.559 c 158.25
 184.375 154.551 216.719 165.262 245.699 c 166.156 248.102 168.055 249.992
 170.457 250.887 c 172.859 251.777 175.531 251.582 177.781 250.352 c 226.492
 222.578 286.242 222.578 334.953 250.352 c 337.211 251.586 339.891 251.773
 342.301 250.867 c 344.707 249.961 346.598 248.051 347.48 245.637 c 358.773
 214.984 353.922 180.711 334.566 154.398 c 315.211 128.086 283.938 113.246
 251.312 114.898 c h
251.285 114.891 m f
388.758 211.863 m 388.734 138.742 329.465 79.473 256.344 79.449 c 252.008
 79.414 247.676 79.652 243.367 80.156 c 291.195 85.023 332.617 115.453 351.562
 159.637 c 370.512 203.824 364 254.809 334.559 292.812 c 339.676 296.961
 344.43 301.535 348.77 306.492 c 374.395 281.688 388.828 247.527 388.758
 211.863 c h
388.758 211.863 m f
0.792157 0.815686 0.843137 rg
379.93 388.414 m 379.984 358.203 368.887 329.031 348.77 306.492 c 344.43
 301.535 339.676 296.961 334.559 292.812 c 312.527 274.684 284.875 264.793
 256.344 264.828 c 251.922 264.84 247.504 265.074 243.102 265.535 c 305.891
 272.273 353.496 325.266 353.496 388.414 c 353.496 451.562 305.891 504.551
 243.102 511.293 c 247.504 511.754 251.922 511.988 256.344 512 c 324.602
 512 379.93 456.668 379.93 388.414 c h
379.93 388.414 m f
0.662745 0.690196 0.733333 rg
362.277 82.715 m 362.277 35.309 l 344.621 35.309 l 344.621 71.77 l 351.496
 73.5 357.668 77.324 362.277 82.715 c h
362.277 82.715 m f
0.227451 0.678431 0.85098 rg
371.102 105.93 m 371.105 99.555 369.363 93.297 366.07 87.836 c 365.016 
85.98 363.742 84.262 362.277 82.715 c 357.668 77.324 351.496 73.5 344.621
 71.77 c 338.836 70.238 332.75 70.238 326.965 71.77 c 327.574 71.863 328.168
 72.043 328.73 72.297 c 334.922 74.16 340.441 77.781 344.621 82.715 c 346.086
 84.262 347.363 85.98 348.418 87.836 c 351.707 93.297 353.449 99.555 353.449
 105.93 c 353.43 110.504 352.531 115.027 350.801 119.262 c 354.387 122.844
 357.75 126.648 360.863 130.648 c 360.863 130.695 360.902 130.738 360.953
 130.738 c 367.449 124.113 371.09 115.207 371.102 105.93 c h
371.102 105.93 m f
388.758 17.656 m 388.758 8.828 l 388.758 3.953 384.805 0 379.93 0 c 362.277
 0 l 367.152 0 371.102 3.953 371.102 8.828 c 371.102 17.656 l 371.102 27.406
 363.199 35.309 353.449 35.309 c 371.102 35.309 l 380.844 35.281 388.73 
27.395 388.758 17.656 c h
388.758 17.656 m f
0.792157 0.815686 0.843137 rg
477.035 165.695 m 477.035 118.82 l 476.238 118.82 l 471.156 121.906 465.328
 123.555 459.379 123.586 c 459.379 158.898 l 465.906 158.883 472.203 161.305
 477.035 165.695 c h
477.035 165.695 m f
459.379 211.863 m 456.363 211.879 453.371 211.344 450.551 210.273 c 447.73
 211.344 444.738 211.879 441.723 211.863 c 421.508 232.078 l 423.223 236.926
 424.09 242.031 424.07 247.172 c h
459.379 211.863 m f
0.227451 0.678431 0.85098 rg
424.07 247.172 m 424.09 242.031 423.223 236.926 421.508 232.078 c 418.75
 224.723 414.129 218.211 408.09 213.188 c 404.797 210.398 401.07 208.16 
397.055 206.566 c 394.312 205.336 391.441 204.418 388.492 203.828 c 388.672
 206.477 388.758 209.125 388.758 211.863 c 389.289 212.305 389.906 212.746
 390.438 213.188 c 403.52 224.012 409.234 241.387 405.129 257.863 c 401.023
 274.344 387.828 287.008 371.191 290.426 c 374.066 291.035 376.996 291.332
 379.93 291.309 c 404.309 291.309 424.07 271.551 424.07 247.172 c h
424.07 247.172 m f
485.863 185.379 m 485.809 170.777 473.984 158.949 459.379 158.898 c 456.363
 158.879 453.371 159.418 450.551 160.484 c 453.816 161.605 456.82 163.375
 459.379 165.695 c 465.039 170.664 468.262 177.848 468.207 185.379 c 468.223
 194.734 463.285 203.398 455.23 208.156 c 453.766 209.055 452.195 209.766
 450.551 210.273 c 453.371 211.344 456.363 211.879 459.379 211.863 c 474.004
 211.863 485.863 200.004 485.863 185.379 c h
485.863 185.379 m f
494.691 83.949 m 494.691 82.27 494.602 80.59 494.426 78.918 c 494.285 75.387
 491.984 72.305 488.637 71.172 c 485.289 70.035 481.59 71.078 479.328 73.797
 c 478.453 74.941 477.477 76.004 476.418 76.977 c 476.504 77.594 476.68 
78.211 476.77 78.918 c 476.949 80.59 477.035 82.27 477.035 83.949 c 477.324
 97.98 470.348 111.164 458.586 118.82 c 456.07 120.336 453.371 121.523 450.551
 122.352 c 451.035 122.551 451.539 122.699 452.051 122.793 c 454.461 123.312
 456.914 123.578 459.379 123.586 c 465.328 123.555 471.156 121.906 476.238
 118.82 c 488 111.164 494.977 97.98 494.691 83.949 c h
494.691 83.949 m f
0.956863 0.964706 0.972549 rg
229.863 379.586 m 224.988 379.586 221.035 383.539 221.035 388.414 c 221.035
 406.07 l 221.035 410.945 224.988 414.898 229.863 414.898 c 234.738 414.898
 238.691 410.945 238.691 406.07 c 238.691 388.414 l 238.691 383.539 234.738
 379.586 229.863 379.586 c h
229.863 379.586 m f
282.828 379.586 m 277.953 379.586 274 383.539 274 388.414 c 274 406.07 
l 274 410.945 277.953 414.898 282.828 414.898 c 287.703 414.898 291.656 
410.945 291.656 406.07 c 291.656 388.414 l 291.656 383.539 287.703 379.586
 282.828 379.586 c h
282.828 379.586 m f
0.309804 0.752941 0.909804 rg
436.867 468.746 m 405.707 453.297 l 405.43 453.141 405.133 453.023 404.824
 452.945 c 403.305 458.617 400.664 463.93 397.055 468.566 c 397.246 468.801
 397.488 468.98 397.762 469.098 c 428.926 484.633 l 433.312 486.828 438.648
 485.051 440.84 480.66 c 443.035 476.273 441.258 470.938 436.867 468.746
 c h
436.867 468.746 m f
75.805 468.746 m 106.965 453.297 l 107.242 453.141 107.539 453.023 107.848
 452.945 c 109.367 458.617 112.008 463.93 115.617 468.566 c 115.426 468.801
 115.184 468.98 114.91 469.098 c 83.746 484.633 l 79.359 486.828 74.023 
485.051 71.832 480.66 c 69.637 476.273 71.414 470.938 75.805 468.746 c h
75.805 468.746 m f
Q Q
showpage
%%Trailer
end restore
%%EOF
