%!PS-Adobe-3.0 EPSF-3.0
%%Creator: cairo 1.14.6 (http://cairographics.org)
%%CreationDate: Wed Apr  3 07:48:50 2019
%%Pages: 1
%%DocumentData: Clean7Bit
%%LanguageLevel: 2
%%BoundingBox: 0 0 512 512
%%EndComments
%%BeginProlog
save
50 dict begin
/q { gsave } bind def
/Q { grestore } bind def
/cm { 6 array astore concat } bind def
/w { setlinewidth } bind def
/J { setlinecap } bind def
/j { setlinejoin } bind def
/M { setmiterlimit } bind def
/d { setdash } bind def
/m { moveto } bind def
/l { lineto } bind def
/c { curveto } bind def
/h { closepath } bind def
/re { exch dup neg 3 1 roll 5 3 roll moveto 0 rlineto
      0 exch rlineto 0 rlineto closepath } bind def
/S { stroke } bind def
/f { fill } bind def
/f* { eofill } bind def
/n { newpath } bind def
/W { clip } bind def
/W* { eoclip } bind def
/BT { } bind def
/ET { } bind def
/pdfmark where { pop globaldict /?pdfmark /exec load put }
    { globaldict begin /?pdfmark /pop load def /pdfmark
    /cleartomark load def end } ifelse
/BDC { mark 3 1 roll /BDC pdfmark } bind def
/EMC { mark /EMC pdfmark } bind def
/cairo_store_point { /cairo_point_y exch def /cairo_point_x exch def } def
/Tj { show currentpoint cairo_store_point } bind def
/TJ {
  {
    dup
    type /stringtype eq
    { show } { -0.001 mul 0 cairo_font_matrix dtransform rmoveto } ifelse
  } forall
  currentpoint cairo_store_point
} bind def
/cairo_selectfont { cairo_font_matrix aload pop pop pop 0 0 6 array astore
    cairo_font exch selectfont cairo_point_x cairo_point_y moveto } bind def
/Tf { pop /cairo_font exch def /cairo_font_matrix where
      { pop cairo_selectfont } if } bind def
/Td { matrix translate cairo_font_matrix matrix concatmatrix dup
      /cairo_font_matrix exch def dup 4 get exch 5 get cairo_store_point
      /cairo_font where { pop cairo_selectfont } if } bind def
/Tm { 2 copy 8 2 roll 6 array astore /cairo_font_matrix exch def
      cairo_store_point /cairo_font where { pop cairo_selectfont } if } bind def
/g { setgray } bind def
/rg { setrgbcolor } bind def
/d1 { setcachedevice } bind def
%%EndProlog
%%BeginSetup
%%EndSetup
%%Page: 1 1
%%BeginPageSetup
%%PageBoundingBox: 0 0 512 512
%%EndPageSetup
q 0 0 512 512 rectclip q
0.258824 0.282353 0.321569 rg
370.758 441.379 m 370.758 141.242 l 370.758 121.738 354.949 105.93 335.449
 105.93 c 35.309 105.93 l 15.809 105.93 0 121.738 0 141.242 c 0 441.379 
l 8.828 450.207 l 361.93 450.207 l h
370.758 441.379 m f
0.894118 0.909804 0.921569 rg
370.758 476.691 m 370.758 441.379 l 0 441.379 l 0 476.691 l 0 496.191 15.809
 512 35.309 512 c 335.449 512 l 354.949 512 370.758 496.191 370.758 476.691
 c h
370.758 476.691 m f
0.388235 0.423529 0.466667 rg
512 335.449 m 512 35.309 l 512 15.809 496.191 0 476.691 0 c 176.551 0 l
 157.051 0 141.242 15.809 141.242 35.309 c 141.242 335.449 l 150.07 344.277
 l 503.172 344.277 l h
512 335.449 m f
0.662745 0.690196 0.733333 rg
194.207 238.344 m 194.219 221.629 205.926 207.199 222.277 203.742 c 254.676
 263.148 l 248.016 269.855 238.965 273.633 229.516 273.656 c 219.059 273.699
 209.137 269.031 202.504 260.945 c 200.574 258.742 198.969 256.273 197.738
 253.617 c 196.43 250.988 195.48 248.199 194.914 245.32 c 194.449 243.023
 194.215 240.688 194.207 238.344 c h
194.207 238.344 m f
0.894118 0.909804 0.921569 rg
432.551 185.379 m 432.551 126.875 385.125 79.449 326.621 79.449 c 268.117
 79.449 220.691 126.875 220.691 185.379 c 220.691 243.883 268.117 291.309
 326.621 291.309 c 385.125 291.309 432.551 243.883 432.551 185.379 c h
432.551 185.379 m f
512 370.758 m 512 335.449 l 141.238 335.449 l 141.242 370.758 l 141.215
 373.738 141.602 376.711 142.391 379.586 c 143.926 385.57 147 391.047 151.305
 395.477 c 151.91 396.109 152.559 396.699 153.246 397.242 c 159.676 402.934
 167.965 406.074 176.551 406.07 c 476.691 406.07 l 486.055 406.07 495.035
 402.348 501.656 395.727 c 508.281 389.105 512 380.125 512 370.758 c h
512 370.758 m f
0.309804 0.752941 0.909804 rg
397.242 185.379 m 397.242 209.758 365.625 229.516 326.621 229.516 c 287.617
 229.516 256 209.758 256 185.379 c 256 161.004 287.617 141.242 326.621 141.242
 c 365.625 141.242 397.242 161.004 397.242 185.379 c h
397.242 185.379 m f
0.662745 0.690196 0.733333 rg
459.035 238.344 m 459.02 221.629 447.316 207.199 430.961 203.742 c 398.566
 263.148 l 405.223 269.855 414.277 273.633 423.723 273.656 c 434.184 273.699
 444.105 269.031 450.738 260.945 c 452.668 258.742 454.273 256.273 455.504
 253.617 c 456.812 250.988 457.762 248.199 458.328 245.32 c 458.789 243.023
 459.027 240.688 459.035 238.344 c h
459.035 238.344 m f
0.792157 0.815686 0.843137 rg
432.551 185.379 m 432.598 159.484 423.086 134.484 405.84 115.164 c 402.121
 110.914 398.043 106.988 393.656 103.434 c 374.773 87.898 351.074 79.418
 326.621 79.449 c 322.828 79.457 319.039 79.66 315.27 80.059 c 369.07 85.852
 409.855 131.266 409.855 185.379 c 409.855 239.492 369.07 284.906 315.27
 290.703 c 319.039 291.098 322.828 291.301 326.621 291.309 c 385.125 291.309
 432.551 243.883 432.551 185.379 c h
432.551 185.379 m f
0.32549 0.368627 0.407843 rg
512 335.449 m 512 35.309 l 512 15.809 496.191 0 476.691 0 c 459.035 0 l
 478.535 0 494.344 15.809 494.344 35.309 c 494.344 335.449 l h
512 335.449 m f
0.792157 0.815686 0.843137 rg
512 370.758 m 512 335.449 l 494.344 335.449 l 494.344 370.758 l 494.344
 390.262 478.535 406.07 459.035 406.07 c 476.691 406.07 l 496.191 406.07
 512 390.262 512 370.758 c h
512 370.758 m f
0.223529 0.247059 0.278431 rg
353.102 441.379 17.656 -35.309 re f
0.792157 0.815686 0.843137 rg
370.758 476.691 m 370.758 441.379 l 353.102 441.379 l 353.102 476.691 l
 353.102 496.191 337.293 512 317.793 512 c 335.449 512 l 354.949 512 370.758
 496.191 370.758 476.691 c h
370.758 476.691 m f
0.705882 0.87451 0.501961 rg
326.621 467.863 m 317.793 467.863 l 312.918 467.863 308.965 471.812 308.965
 476.691 c 308.965 481.566 312.918 485.516 317.793 485.516 c 326.621 485.516
 l 331.496 485.516 335.449 481.566 335.449 476.691 c 335.449 471.812 331.496
 467.863 326.621 467.863 c h
326.621 467.863 m f
1 0.839216 0.482353 rg
282.484 467.863 m 273.656 467.863 l 268.781 467.863 264.828 471.812 264.828
 476.691 c 264.828 481.566 268.781 485.516 273.656 485.516 c 282.484 485.516
 l 287.359 485.516 291.309 481.566 291.309 476.691 c 291.309 471.812 287.359
 467.863 282.484 467.863 c h
282.484 467.863 m f
0.968627 0.423529 0.509804 rg
238.344 467.863 m 229.516 467.863 l 224.641 467.863 220.691 471.812 220.691
 476.691 c 220.691 481.566 224.641 485.516 229.516 485.516 c 238.344 485.516
 l 243.219 485.516 247.172 481.566 247.172 476.691 c 247.172 471.812 243.219
 467.863 238.344 467.863 c h
238.344 467.863 m f
0.309804 0.752941 0.909804 rg
172.395 257.059 m 193.582 245.848 l 193.988 245.598 194.438 245.418 194.902
 245.32 c 195.473 248.199 196.422 250.988 197.73 253.617 c 198.961 256.273
 200.566 258.742 202.496 260.945 c 202.328 261.137 202.117 261.289 201.879
 261.387 c 180.691 272.598 l 176.457 274.496 171.477 272.793 169.289 268.703
 c 167.105 264.609 168.461 259.52 172.395 257.059 c h
172.395 257.059 m f
0.705882 0.87451 0.501961 rg
467.863 361.93 m 459.035 361.93 l 454.16 361.93 450.207 365.883 450.207
 370.758 c 450.207 375.633 454.16 379.586 459.035 379.586 c 467.863 379.586
 l 472.738 379.586 476.691 375.633 476.691 370.758 c 476.691 365.883 472.738
 361.93 467.863 361.93 c h
467.863 361.93 m f
1 0.839216 0.482353 rg
423.723 361.93 m 414.898 361.93 l 410.02 361.93 406.07 365.883 406.07 370.758
 c 406.07 375.633 410.02 379.586 414.898 379.586 c 423.723 379.586 l 428.598
 379.586 432.551 375.633 432.551 370.758 c 432.551 365.883 428.598 361.93
 423.723 361.93 c h
423.723 361.93 m f
0.968627 0.423529 0.509804 rg
379.586 361.93 m 370.758 361.93 l 365.883 361.93 361.93 365.883 361.93 
370.758 c 361.93 375.633 365.883 379.586 370.758 379.586 c 379.586 379.586
 l 384.461 379.586 388.414 375.633 388.414 370.758 c 388.414 365.883 384.461
 361.93 379.586 361.93 c h
379.586 361.93 m f
0.705882 0.87451 0.501961 rg
44.137 379.586 m 35.309 379.586 l 30.434 379.586 26.484 383.539 26.484 
388.414 c 26.484 393.289 30.434 397.242 35.309 397.242 c 44.137 397.242 
l 49.012 397.242 52.965 393.289 52.965 388.414 c 52.965 383.539 49.012 379.586
 44.137 379.586 c h
44.137 379.586 m f
44.137 344.277 m 35.309 344.277 l 30.434 344.277 26.484 348.227 26.484 
353.102 c 26.484 357.98 30.434 361.93 35.309 361.93 c 44.137 361.93 l 49.012
 361.93 52.965 357.98 52.965 353.102 c 52.965 348.227 49.012 344.277 44.137
 344.277 c h
44.137 344.277 m f
44.137 308.965 m 35.309 308.965 l 30.434 308.965 26.484 312.918 26.484 
317.793 c 26.484 322.668 30.434 326.621 35.309 326.621 c 44.137 326.621 
l 49.012 326.621 52.965 322.668 52.965 317.793 c 52.965 312.918 49.012 308.965
 44.137 308.965 c h
44.137 308.965 m f
44.137 273.656 m 35.309 273.656 l 30.434 273.656 26.484 277.605 26.484 
282.484 c 26.484 287.359 30.434 291.309 35.309 291.309 c 44.137 291.309 
l 49.012 291.309 52.965 287.359 52.965 282.484 c 52.965 277.605 49.012 273.656
 44.137 273.656 c h
44.137 273.656 m f
44.137 238.344 m 35.309 238.344 l 30.434 238.344 26.484 242.297 26.484 
247.172 c 26.484 252.047 30.434 256 35.309 256 c 44.137 256 l 49.012 256
 52.965 252.047 52.965 247.172 c 52.965 242.297 49.012 238.344 44.137 238.344
 c h
44.137 238.344 m f
44.137 203.035 m 35.309 203.035 l 30.434 203.035 26.484 206.988 26.484 
211.863 c 26.484 216.738 30.434 220.691 35.309 220.691 c 44.137 220.691 
l 49.012 220.691 52.965 216.738 52.965 211.863 c 52.965 206.988 49.012 203.035
 44.137 203.035 c h
44.137 203.035 m f
44.137 167.723 m 35.309 167.723 l 30.434 167.723 26.484 171.676 26.484 
176.551 c 26.484 181.426 30.434 185.379 35.309 185.379 c 44.137 185.379 
l 49.012 185.379 52.965 181.426 52.965 176.551 c 52.965 171.676 49.012 167.723
 44.137 167.723 c h
44.137 167.723 m f
0.968627 0.423529 0.509804 rg
79.449 326.621 m 141.242 326.621 l 141.242 308.965 l 79.449 308.965 l 74.574
 308.965 70.621 312.918 70.621 317.793 c 70.621 322.668 74.574 326.621 79.449
 326.621 c h
79.449 326.621 m f
153.246 397.242 m 152.559 396.699 151.91 396.109 151.305 395.477 c 147 
391.047 143.926 385.57 142.391 379.586 c 79.449 379.586 l 74.574 379.586
 70.621 383.539 70.621 388.414 c 70.621 393.289 74.574 397.242 79.449 397.242
 c h
153.246 397.242 m f
79.449 185.379 m 141.242 185.379 l 141.242 167.723 l 79.449 167.723 l 74.574
 167.723 70.621 171.676 70.621 176.551 c 70.621 181.426 74.574 185.379 79.449
 185.379 c h
79.449 185.379 m f
79.449 291.309 m 141.242 291.309 l 141.242 273.656 l 79.449 273.656 l 74.574
 273.656 70.621 277.605 70.621 282.484 c 70.621 287.359 74.574 291.309 79.449
 291.309 c h
79.449 291.309 m f
79.449 220.691 m 141.242 220.691 l 141.242 203.035 l 79.449 203.035 l 74.574
 203.035 70.621 206.988 70.621 211.863 c 70.621 216.738 74.574 220.691 79.449
 220.691 c h
79.449 220.691 m f
79.449 361.93 m 141.242 361.93 l 141.242 344.277 l 79.449 344.277 l 74.574
 344.277 70.621 348.227 70.621 353.102 c 70.621 357.98 74.574 361.93 79.449
 361.93 c h
79.449 361.93 m f
79.449 256 m 141.242 256 l 141.242 238.344 l 79.449 238.344 l 74.574 238.344
 70.621 242.297 70.621 247.172 c 70.621 252.047 74.574 256 79.449 256 c 
h
79.449 256 m f
0.956863 0.964706 0.972549 rg
300.137 167.723 m 295.262 167.723 291.309 171.676 291.309 176.551 c 291.309
 194.207 l 291.309 199.082 295.262 203.035 300.137 203.035 c 305.012 203.035
 308.965 199.082 308.965 194.207 c 308.965 176.551 l 308.965 171.676 305.012
 167.723 300.137 167.723 c h
300.137 167.723 m f
353.102 167.723 m 348.227 167.723 344.277 171.676 344.277 176.551 c 344.277
 194.207 l 344.277 199.082 348.227 203.035 353.102 203.035 c 357.98 203.035
 361.93 199.082 361.93 194.207 c 361.93 176.551 l 361.93 171.676 357.98 
167.723 353.102 167.723 c h
353.102 167.723 m f
0.309804 0.752941 0.909804 rg
480.84 257.059 m 459.652 245.848 l 459.246 245.598 458.797 245.418 458.328
 245.32 c 457.762 248.199 456.812 250.988 455.504 253.617 c 454.273 256.273
 452.668 258.742 450.738 260.945 c 450.902 261.137 451.117 261.289 451.355
 261.387 c 472.539 272.598 l 475.336 274.344 478.875 274.391 481.715 272.711
 c 484.555 271.035 486.223 267.914 486.039 264.621 c 485.852 261.324 483.848
 258.41 480.84 257.059 c h
480.84 257.059 m f
0.894118 0.909804 0.921569 rg
317.793 35.309 m 211.863 35.309 l 206.988 35.309 203.035 39.262 203.035
 44.137 c 203.035 49.012 206.988 52.965 211.863 52.965 c 317.793 52.965 
l 322.668 52.965 326.621 49.012 326.621 44.137 c 326.621 39.262 322.668 
35.309 317.793 35.309 c h
317.793 35.309 m f
361.93 35.309 m 353.102 35.309 l 348.227 35.309 344.277 39.262 344.277 
44.137 c 344.277 49.012 348.227 52.965 353.102 52.965 c 361.93 52.965 l 
366.805 52.965 370.758 49.012 370.758 44.137 c 370.758 39.262 366.805 35.309
 361.93 35.309 c h
361.93 35.309 m f
441.379 35.309 m 397.242 35.309 l 392.367 35.309 388.414 39.262 388.414
 44.137 c 388.414 49.012 392.367 52.965 397.242 52.965 c 441.379 52.965 
l 446.254 52.965 450.207 49.012 450.207 44.137 c 450.207 39.262 446.254 
35.309 441.379 35.309 c h
441.379 35.309 m f
Q Q
showpage
%%Trailer
end restore
%%EOF
