%!PS-Adobe-3.0 EPSF-3.0
%%Creator: cairo 1.14.6 (http://cairographics.org)
%%CreationDate: Wed Apr  3 07:48:50 2019
%%Pages: 1
%%DocumentData: Clean7Bit
%%LanguageLevel: 2
%%BoundingBox: 0 0 512 512
%%EndComments
%%BeginProlog
save
50 dict begin
/q { gsave } bind def
/Q { grestore } bind def
/cm { 6 array astore concat } bind def
/w { setlinewidth } bind def
/J { setlinecap } bind def
/j { setlinejoin } bind def
/M { setmiterlimit } bind def
/d { setdash } bind def
/m { moveto } bind def
/l { lineto } bind def
/c { curveto } bind def
/h { closepath } bind def
/re { exch dup neg 3 1 roll 5 3 roll moveto 0 rlineto
      0 exch rlineto 0 rlineto closepath } bind def
/S { stroke } bind def
/f { fill } bind def
/f* { eofill } bind def
/n { newpath } bind def
/W { clip } bind def
/W* { eoclip } bind def
/BT { } bind def
/ET { } bind def
/pdfmark where { pop globaldict /?pdfmark /exec load put }
    { globaldict begin /?pdfmark /pop load def /pdfmark
    /cleartomark load def end } ifelse
/BDC { mark 3 1 roll /BDC pdfmark } bind def
/EMC { mark /EMC pdfmark } bind def
/cairo_store_point { /cairo_point_y exch def /cairo_point_x exch def } def
/Tj { show currentpoint cairo_store_point } bind def
/TJ {
  {
    dup
    type /stringtype eq
    { show } { -0.001 mul 0 cairo_font_matrix dtransform rmoveto } ifelse
  } forall
  currentpoint cairo_store_point
} bind def
/cairo_selectfont { cairo_font_matrix aload pop pop pop 0 0 6 array astore
    cairo_font exch selectfont cairo_point_x cairo_point_y moveto } bind def
/Tf { pop /cairo_font exch def /cairo_font_matrix where
      { pop cairo_selectfont } if } bind def
/Td { matrix translate cairo_font_matrix matrix concatmatrix dup
      /cairo_font_matrix exch def dup 4 get exch 5 get cairo_store_point
      /cairo_font where { pop cairo_selectfont } if } bind def
/Tm { 2 copy 8 2 roll 6 array astore /cairo_font_matrix exch def
      cairo_store_point /cairo_font where { pop cairo_selectfont } if } bind def
/g { setgray } bind def
/rg { setrgbcolor } bind def
/d1 { setcachedevice } bind def
%%EndProlog
%%BeginSetup
%%EndSetup
%%Page: 1 1
%%BeginPageSetup
%%PageBoundingBox: 0 0 512 512
%%EndPageSetup
q 0 0 512 512 rectclip q
0.94902 0.631373 0.286275 rg
381.445 167.363 m 504.387 44.422 l 514.535 34.262 514.535 17.797 504.387
 7.633 c 499.512 2.75 492.898 0.004 485.996 0.004 c 479.09 0.004 472.477
 2.75 467.602 7.633 c 415.543 59.695 l 390.992 84.25 l 388.473 86.762 l 
344.656 130.578 l h
381.445 167.363 m f
0.4 0.831373 0.945098 rg
425.262 294.992 m 425.262 179.992 332.035 86.762 217.027 86.762 c 102.027
 86.762 8.801 179.992 8.801 294.992 c 8.801 409.996 102.027 503.227 217.027
 503.227 c 332.035 503.227 425.262 409.996 425.262 294.992 c h
425.262 294.992 m f
0.894118 0.909804 0.921569 rg
381.27 93.965 m 418.055 130.75 l 442.609 106.195 l 405.824 69.41 l h
381.27 93.965 m f
0.921569 0.52549 0.745098 rg
147.621 373.078 m 182.324 373.078 l 187.117 373.078 191.004 369.195 191.004
 364.406 c 191.004 321.023 l 147.621 321.023 l 142.828 321.023 138.941 324.91
 138.941 329.699 c 138.941 364.406 l 138.941 369.195 142.828 373.078 147.621
 373.078 c h
147.621 373.078 m f
0.368627 0.611765 0.917647 rg
234.379 268.965 m 199.676 268.965 l 194.883 268.965 191.004 272.848 191.004
 277.641 c 191.004 321.023 l 234.379 321.023 l 239.172 321.023 243.059 317.137
 243.059 312.344 c 243.059 277.641 l 243.059 272.848 239.172 268.965 234.379
 268.965 c h
234.379 268.965 m f
0.921569 0.52549 0.745098 rg
112.914 286.316 m 147.621 286.316 l 152.41 286.316 156.293 282.434 156.293
 277.641 c 156.293 234.258 l 112.914 234.258 l 108.125 234.258 104.238 238.145
 104.238 242.938 c 104.238 277.641 l 104.238 282.434 108.125 286.316 112.914
 286.316 c h
112.914 286.316 m f
0.368627 0.611765 0.917647 rg
199.676 182.203 m 164.973 182.203 l 160.18 182.203 156.293 186.086 156.293
 190.879 c 156.293 234.258 l 199.676 234.258 l 204.469 234.258 208.355 230.375
 208.355 225.586 c 208.355 190.879 l 208.355 186.086 204.469 182.203 199.676
 182.203 c h
199.676 182.203 m f
0.921569 0.52549 0.745098 rg
234.379 416.461 m 269.09 416.461 l 273.879 416.461 277.762 412.578 277.762
 407.785 c 277.762 364.406 l 234.379 364.406 l 229.59 364.406 225.707 368.285
 225.707 373.078 c 225.707 407.785 l 225.707 412.578 229.59 416.461 234.379
 416.461 c h
234.379 416.461 m f
0.368627 0.611765 0.917647 rg
321.145 312.344 m 286.441 312.344 l 281.648 312.344 277.762 316.23 277.762
 321.023 c 277.762 364.406 l 321.145 364.406 l 325.938 364.406 329.824 360.52
 329.824 355.727 c 329.824 321.023 l 329.824 316.23 325.938 312.344 321.145
 312.344 c h
321.145 312.344 m f
0.878431 0.560784 0.247059 rg
418.059 130.75 m 406.348 118.953 l 404.262 121.035 l 376.844 148.449 l 
380.578 152.527 384.223 156.781 387.605 161.207 c h
418.059 130.75 m f
504.387 7.633 m 499.535 2.719 492.906 -0.035 485.996 0 c 481.926 0.012 
477.918 0.965 474.277 2.777 c 476.711 4.047 478.938 5.688 480.875 7.633 
c 491.027 17.797 491.027 34.262 480.875 44.422 c 430.902 94.398 l 442.613
 106.195 l 504.387 44.422 l 514.535 34.262 514.535 17.797 504.387 7.633 
c h
504.387 7.633 m f
0.792157 0.815686 0.843137 rg
442.613 106.195 m 430.902 94.398 l 406.348 118.953 l 418.059 130.75 l h
442.613 106.195 m f
0.992157 0.803922 0.337255 rg
217.027 511.898 m 117.668 511.945 30.98 444.48 6.637 348.145 c -17.715 
251.816 26.504 151.258 113.949 104.09 c 201.402 56.918 309.719 75.195 376.844
 148.449 c 380.578 152.527 384.223 156.781 387.605 161.207 c 438.898 226.473
 448.41 315.301 412.102 389.949 c 375.793 464.602 300.039 511.957 217.027
 511.898 c h
217.027 95.438 m 106.82 95.438 17.473 184.785 17.473 294.992 c 17.473 405.207
 106.82 494.547 217.027 494.547 c 327.242 494.547 416.582 405.207 416.582
 294.992 c 416.445 184.844 327.184 95.578 217.027 95.438 c h
217.027 95.438 m f
0.560784 0.917647 1 rg
217.027 112.793 m 127.516 112.766 51.238 177.773 37.074 266.16 c 22.906
 354.547 75.047 440.133 160.086 468.082 c 163.031 469.055 166.27 468.379
 168.586 466.316 c 170.898 464.254 171.93 461.109 171.301 458.074 c 170.668
 455.039 168.465 452.57 165.52 451.598 c 83.816 424.754 36.469 339.625 56.75
 256.051 c 77.031 172.477 158.137 118.523 243.055 132.109 c 327.977 145.699
 388.195 222.27 381.383 307.996 c 374.574 393.723 303.027 459.828 217.027
 459.844 c 212.234 459.844 208.355 463.73 208.355 468.516 c 208.355 473.309
 212.234 477.195 217.027 477.195 c 317.656 477.195 399.23 395.621 399.23
 294.992 c 399.23 194.367 317.656 112.793 217.027 112.793 c h
217.027 112.793 m f
Q Q
showpage
%%Trailer
end restore
%%EOF
