%!PS-Adobe-3.0 EPSF-3.0
%%Creator: cairo 1.14.6 (http://cairographics.org)
%%CreationDate: Wed Apr  3 07:48:50 2019
%%Pages: 1
%%DocumentData: Clean7Bit
%%LanguageLevel: 2
%%BoundingBox: 0 0 512 512
%%EndComments
%%BeginProlog
save
50 dict begin
/q { gsave } bind def
/Q { grestore } bind def
/cm { 6 array astore concat } bind def
/w { setlinewidth } bind def
/J { setlinecap } bind def
/j { setlinejoin } bind def
/M { setmiterlimit } bind def
/d { setdash } bind def
/m { moveto } bind def
/l { lineto } bind def
/c { curveto } bind def
/h { closepath } bind def
/re { exch dup neg 3 1 roll 5 3 roll moveto 0 rlineto
      0 exch rlineto 0 rlineto closepath } bind def
/S { stroke } bind def
/f { fill } bind def
/f* { eofill } bind def
/n { newpath } bind def
/W { clip } bind def
/W* { eoclip } bind def
/BT { } bind def
/ET { } bind def
/pdfmark where { pop globaldict /?pdfmark /exec load put }
    { globaldict begin /?pdfmark /pop load def /pdfmark
    /cleartomark load def end } ifelse
/BDC { mark 3 1 roll /BDC pdfmark } bind def
/EMC { mark /EMC pdfmark } bind def
/cairo_store_point { /cairo_point_y exch def /cairo_point_x exch def } def
/Tj { show currentpoint cairo_store_point } bind def
/TJ {
  {
    dup
    type /stringtype eq
    { show } { -0.001 mul 0 cairo_font_matrix dtransform rmoveto } ifelse
  } forall
  currentpoint cairo_store_point
} bind def
/cairo_selectfont { cairo_font_matrix aload pop pop pop 0 0 6 array astore
    cairo_font exch selectfont cairo_point_x cairo_point_y moveto } bind def
/Tf { pop /cairo_font exch def /cairo_font_matrix where
      { pop cairo_selectfont } if } bind def
/Td { matrix translate cairo_font_matrix matrix concatmatrix dup
      /cairo_font_matrix exch def dup 4 get exch 5 get cairo_store_point
      /cairo_font where { pop cairo_selectfont } if } bind def
/Tm { 2 copy 8 2 roll 6 array astore /cairo_font_matrix exch def
      cairo_store_point /cairo_font where { pop cairo_selectfont } if } bind def
/g { setgray } bind def
/rg { setrgbcolor } bind def
/d1 { setcachedevice } bind def
%%EndProlog
%%BeginSetup
%%EndSetup
%%Page: 1 1
%%BeginPageSetup
%%PageBoundingBox: 0 0 512 512
%%EndPageSetup
q 0 0 512 512 rectclip q
0.792157 0.815686 0.843137 rg
220.691 494.344 m 220.691 317.793 l 220.711 314.012 219.504 310.324 217.246
 307.289 c 213.902 302.797 208.633 300.148 203.035 300.137 c 17.656 300.137
 l 7.918 300.168 0.027 308.055 0 317.793 c 0 494.344 l 0.027 504.082 7.918
 511.973 17.656 512 c 203.035 512 l 212.773 511.973 220.66 504.082 220.691
 494.344 c h
220.691 494.344 m f
0.662745 0.690196 0.733333 rg
0 441.379 220.691 -70.621 re f
0.792157 0.815686 0.843137 rg
220.691 194.207 m 220.691 17.656 l 220.66 7.918 212.773 0.027 203.035 0
 c 17.656 0 l 7.918 0.027 0.027 7.918 0 17.656 c 0 194.207 l 0.027 203.945
 7.918 211.832 17.656 211.863 c 203.035 211.863 l 208.633 211.852 213.902
 209.203 217.246 204.711 c 219.504 201.676 220.711 197.988 220.691 194.207
 c h
220.691 194.207 m f
0.662745 0.690196 0.733333 rg
0 141.242 220.691 -70.621 re f
0.792157 0.815686 0.843137 rg
512 494.344 m 512 317.793 l 511.973 308.055 504.082 300.168 494.344 300.137
 c 308.965 300.137 l 303.367 300.148 298.098 302.797 294.754 307.289 c 292.496
 310.324 291.289 314.012 291.309 317.793 c 291.309 494.344 l 291.34 504.082
 299.227 511.973 308.965 512 c 494.344 512 l 504.082 511.973 511.973 504.082
 512 494.344 c h
512 494.344 m f
0.662745 0.690196 0.733333 rg
291.309 441.379 220.691 -70.621 re f
0.792157 0.815686 0.843137 rg
512 194.207 m 512 17.656 l 511.973 7.918 504.082 0.027 494.344 0 c 308.965
 0 l 299.227 0.027 291.34 7.918 291.309 17.656 c 291.309 194.207 l 291.289
 197.988 292.496 201.676 294.754 204.711 c 298.098 209.203 303.367 211.852
 308.965 211.863 c 494.344 211.863 l 504.082 211.832 511.973 203.945 512
 194.207 c h
512 194.207 m f
0.662745 0.690196 0.733333 rg
291.309 141.242 220.691 -70.621 re f
220.691 494.344 m 220.691 441.379 l 203.035 441.379 l 203.035 494.344 l
 203.004 504.082 195.117 511.973 185.379 512 c 203.035 512 l 212.773 511.973
 220.66 504.082 220.691 494.344 c h
220.691 494.344 m f
220.691 370.758 m 220.691 317.793 l 220.66 308.055 212.773 300.168 203.035
 300.137 c 185.379 300.137 l 195.117 300.168 203.004 308.055 203.035 317.793
 c 203.035 370.758 l h
220.691 370.758 m f
0.592157 0.623529 0.666667 rg
203.035 441.379 17.656 -70.621 re f
0.662745 0.690196 0.733333 rg
220.691 194.207 m 220.691 141.242 l 203.035 141.242 l 203.035 194.207 l
 203.004 203.945 195.117 211.832 185.379 211.863 c 203.035 211.863 l 212.773
 211.832 220.66 203.945 220.691 194.207 c h
220.691 194.207 m f
220.691 70.621 m 220.691 17.656 l 220.66 7.918 212.773 0.027 203.035 0 
c 185.379 0 l 195.117 0.027 203.004 7.918 203.035 17.656 c 203.035 70.621
 l h
220.691 70.621 m f
0.592157 0.623529 0.666667 rg
203.035 141.242 17.656 -70.621 re f
0.662745 0.690196 0.733333 rg
512 494.344 m 512 441.379 l 494.344 441.379 l 494.344 494.344 l 494.316
 504.082 486.43 511.973 476.691 512 c 494.344 512 l 504.082 511.973 511.973
 504.082 512 494.344 c h
512 494.344 m f
512 370.758 m 512 317.793 l 511.973 308.055 504.082 300.168 494.344 300.137
 c 476.691 300.137 l 486.43 300.168 494.316 308.055 494.344 317.793 c 494.344
 370.758 l h
512 370.758 m f
0.592157 0.623529 0.666667 rg
494.344 441.379 17.656 -70.621 re f
0.662745 0.690196 0.733333 rg
512 194.207 m 512 141.242 l 494.344 141.242 l 494.344 194.207 l 494.316
 203.945 486.43 211.832 476.691 211.863 c 494.344 211.863 l 504.082 211.832
 511.973 203.945 512 194.207 c h
512 194.207 m f
512 70.621 m 512 17.656 l 511.973 7.918 504.082 0.027 494.344 0 c 476.691
 0 l 486.43 0.027 494.316 7.918 494.344 17.656 c 494.344 70.621 l h
512 70.621 m f
0.592157 0.623529 0.666667 rg
494.344 141.242 17.656 -70.621 re f
0.537255 0.752941 0.32549 rg
44.137 467.863 m 35.309 467.863 l 30.434 467.863 26.484 471.812 26.484 
476.691 c 26.484 481.566 30.434 485.516 35.309 485.516 c 44.137 485.516 
l 49.012 485.516 52.965 481.566 52.965 476.691 c 52.965 471.812 49.012 467.863
 44.137 467.863 c h
44.137 467.863 m f
0.309804 0.752941 0.909804 rg
88.277 467.863 m 79.449 467.863 l 74.574 467.863 70.621 471.812 70.621 
476.691 c 70.621 481.566 74.574 485.516 79.449 485.516 c 88.277 485.516 
l 93.152 485.516 97.102 481.566 97.102 476.691 c 97.102 471.812 93.152 467.863
 88.277 467.863 c h
88.277 467.863 m f
0.705882 0.87451 0.501961 rg
44.137 397.242 m 35.309 397.242 l 30.434 397.242 26.484 401.195 26.484 
406.07 c 26.484 410.945 30.434 414.898 35.309 414.898 c 44.137 414.898 l
 49.012 414.898 52.965 410.945 52.965 406.07 c 52.965 401.195 49.012 397.242
 44.137 397.242 c h
44.137 397.242 m f
0.4 0.831373 0.945098 rg
88.277 397.242 m 79.449 397.242 l 74.574 397.242 70.621 401.195 70.621 
406.07 c 70.621 410.945 74.574 414.898 79.449 414.898 c 88.277 414.898 l
 93.152 414.898 97.102 410.945 97.102 406.07 c 97.102 401.195 93.152 397.242
 88.277 397.242 c h
88.277 397.242 m f
0.537255 0.752941 0.32549 rg
44.137 326.621 m 35.309 326.621 l 30.434 326.621 26.484 330.574 26.484 
335.449 c 26.484 340.324 30.434 344.277 35.309 344.277 c 44.137 344.277 
l 49.012 344.277 52.965 340.324 52.965 335.449 c 52.965 330.574 49.012 326.621
 44.137 326.621 c h
44.137 326.621 m f
0.309804 0.752941 0.909804 rg
88.277 326.621 m 79.449 326.621 l 74.574 326.621 70.621 330.574 70.621 
335.449 c 70.621 340.324 74.574 344.277 79.449 344.277 c 88.277 344.277 
l 93.152 344.277 97.102 340.324 97.102 335.449 c 97.102 330.574 93.152 326.621
 88.277 326.621 c h
88.277 326.621 m f
0.662745 0.690196 0.733333 rg
185.379 467.863 m 158.898 467.863 l 154.02 467.863 150.07 471.812 150.07
 476.691 c 150.07 481.566 154.02 485.516 158.898 485.516 c 185.379 485.516
 l 190.254 485.516 194.207 481.566 194.207 476.691 c 194.207 471.812 190.254
 467.863 185.379 467.863 c h
185.379 467.863 m f
0.388235 0.423529 0.466667 rg
185.379 397.242 m 158.898 397.242 l 154.02 397.242 150.07 401.195 150.07
 406.07 c 150.07 410.945 154.02 414.898 158.898 414.898 c 185.379 414.898
 l 190.254 414.898 194.207 410.945 194.207 406.07 c 194.207 401.195 190.254
 397.242 185.379 397.242 c h
185.379 397.242 m f
0.662745 0.690196 0.733333 rg
185.379 326.621 m 158.898 326.621 l 154.02 326.621 150.07 330.574 150.07
 335.449 c 150.07 340.324 154.02 344.277 158.898 344.277 c 185.379 344.277
 l 190.254 344.277 194.207 340.324 194.207 335.449 c 194.207 330.574 190.254
 326.621 185.379 326.621 c h
185.379 326.621 m f
0.537255 0.752941 0.32549 rg
44.137 167.723 m 35.309 167.723 l 30.434 167.723 26.484 171.676 26.484 
176.551 c 26.484 181.426 30.434 185.379 35.309 185.379 c 44.137 185.379 
l 49.012 185.379 52.965 181.426 52.965 176.551 c 52.965 171.676 49.012 167.723
 44.137 167.723 c h
44.137 167.723 m f
0.309804 0.752941 0.909804 rg
88.277 167.723 m 79.449 167.723 l 74.574 167.723 70.621 171.676 70.621 
176.551 c 70.621 181.426 74.574 185.379 79.449 185.379 c 88.277 185.379 
l 93.152 185.379 97.102 181.426 97.102 176.551 c 97.102 171.676 93.152 167.723
 88.277 167.723 c h
88.277 167.723 m f
0.705882 0.87451 0.501961 rg
44.137 97.102 m 35.309 97.102 l 30.434 97.102 26.484 101.055 26.484 105.93
 c 26.484 110.805 30.434 114.758 35.309 114.758 c 44.137 114.758 l 49.012
 114.758 52.965 110.805 52.965 105.93 c 52.965 101.055 49.012 97.102 44.137
 97.102 c h
44.137 97.102 m f
0.4 0.831373 0.945098 rg
88.277 97.102 m 79.449 97.102 l 74.574 97.102 70.621 101.055 70.621 105.93
 c 70.621 110.805 74.574 114.758 79.449 114.758 c 88.277 114.758 l 93.152
 114.758 97.102 110.805 97.102 105.93 c 97.102 101.055 93.152 97.102 88.277
 97.102 c h
88.277 97.102 m f
0.537255 0.752941 0.32549 rg
44.137 26.484 m 35.309 26.484 l 30.434 26.484 26.484 30.434 26.484 35.309
 c 26.484 40.188 30.434 44.137 35.309 44.137 c 44.137 44.137 l 49.012 44.137
 52.965 40.188 52.965 35.309 c 52.965 30.434 49.012 26.484 44.137 26.484
 c h
44.137 26.484 m f
0.309804 0.752941 0.909804 rg
88.277 26.484 m 79.449 26.484 l 74.574 26.484 70.621 30.434 70.621 35.309
 c 70.621 40.188 74.574 44.137 79.449 44.137 c 88.277 44.137 l 93.152 44.137
 97.102 40.188 97.102 35.309 c 97.102 30.434 93.152 26.484 88.277 26.484
 c h
88.277 26.484 m f
0.662745 0.690196 0.733333 rg
185.379 167.723 m 158.898 167.723 l 154.02 167.723 150.07 171.676 150.07
 176.551 c 150.07 181.426 154.02 185.379 158.898 185.379 c 185.379 185.379
 l 190.254 185.379 194.207 181.426 194.207 176.551 c 194.207 171.676 190.254
 167.723 185.379 167.723 c h
185.379 167.723 m f
0.388235 0.423529 0.466667 rg
185.379 97.102 m 158.898 97.102 l 154.02 97.102 150.07 101.055 150.07 105.93
 c 150.07 110.805 154.02 114.758 158.898 114.758 c 185.379 114.758 l 190.254
 114.758 194.207 110.805 194.207 105.93 c 194.207 101.055 190.254 97.102
 185.379 97.102 c h
185.379 97.102 m f
0.662745 0.690196 0.733333 rg
185.379 26.484 m 158.898 26.484 l 154.02 26.484 150.07 30.434 150.07 35.309
 c 150.07 40.188 154.02 44.137 158.898 44.137 c 185.379 44.137 l 190.254
 44.137 194.207 40.188 194.207 35.309 c 194.207 30.434 190.254 26.484 185.379
 26.484 c h
185.379 26.484 m f
0.537255 0.752941 0.32549 rg
335.449 467.863 m 326.621 467.863 l 321.746 467.863 317.793 471.812 317.793
 476.691 c 317.793 481.566 321.746 485.516 326.621 485.516 c 335.449 485.516
 l 340.324 485.516 344.277 481.566 344.277 476.691 c 344.277 471.812 340.324
 467.863 335.449 467.863 c h
335.449 467.863 m f
0.309804 0.752941 0.909804 rg
379.586 467.863 m 370.758 467.863 l 365.883 467.863 361.93 471.812 361.93
 476.691 c 361.93 481.566 365.883 485.516 370.758 485.516 c 379.586 485.516
 l 384.461 485.516 388.414 481.566 388.414 476.691 c 388.414 471.812 384.461
 467.863 379.586 467.863 c h
379.586 467.863 m f
0.705882 0.87451 0.501961 rg
335.449 397.242 m 326.621 397.242 l 321.746 397.242 317.793 401.195 317.793
 406.07 c 317.793 410.945 321.746 414.898 326.621 414.898 c 335.449 414.898
 l 340.324 414.898 344.277 410.945 344.277 406.07 c 344.277 401.195 340.324
 397.242 335.449 397.242 c h
335.449 397.242 m f
0.4 0.831373 0.945098 rg
379.586 397.242 m 370.758 397.242 l 365.883 397.242 361.93 401.195 361.93
 406.07 c 361.93 410.945 365.883 414.898 370.758 414.898 c 379.586 414.898
 l 384.461 414.898 388.414 410.945 388.414 406.07 c 388.414 401.195 384.461
 397.242 379.586 397.242 c h
379.586 397.242 m f
0.537255 0.752941 0.32549 rg
335.449 326.621 m 326.621 326.621 l 321.746 326.621 317.793 330.574 317.793
 335.449 c 317.793 340.324 321.746 344.277 326.621 344.277 c 335.449 344.277
 l 340.324 344.277 344.277 340.324 344.277 335.449 c 344.277 330.574 340.324
 326.621 335.449 326.621 c h
335.449 326.621 m f
0.309804 0.752941 0.909804 rg
379.586 326.621 m 370.758 326.621 l 365.883 326.621 361.93 330.574 361.93
 335.449 c 361.93 340.324 365.883 344.277 370.758 344.277 c 379.586 344.277
 l 384.461 344.277 388.414 340.324 388.414 335.449 c 388.414 330.574 384.461
 326.621 379.586 326.621 c h
379.586 326.621 m f
0.662745 0.690196 0.733333 rg
476.691 467.863 m 450.207 467.863 l 445.332 467.863 441.379 471.812 441.379
 476.691 c 441.379 481.566 445.332 485.516 450.207 485.516 c 476.691 485.516
 l 481.566 485.516 485.516 481.566 485.516 476.691 c 485.516 471.812 481.566
 467.863 476.691 467.863 c h
476.691 467.863 m f
0.388235 0.423529 0.466667 rg
476.691 397.242 m 450.207 397.242 l 445.332 397.242 441.379 401.195 441.379
 406.07 c 441.379 410.945 445.332 414.898 450.207 414.898 c 476.691 414.898
 l 481.566 414.898 485.516 410.945 485.516 406.07 c 485.516 401.195 481.566
 397.242 476.691 397.242 c h
476.691 397.242 m f
0.662745 0.690196 0.733333 rg
476.691 326.621 m 450.207 326.621 l 445.332 326.621 441.379 330.574 441.379
 335.449 c 441.379 340.324 445.332 344.277 450.207 344.277 c 476.691 344.277
 l 481.566 344.277 485.516 340.324 485.516 335.449 c 485.516 330.574 481.566
 326.621 476.691 326.621 c h
476.691 326.621 m f
0.537255 0.752941 0.32549 rg
335.449 167.723 m 326.621 167.723 l 321.746 167.723 317.793 171.676 317.793
 176.551 c 317.793 181.426 321.746 185.379 326.621 185.379 c 335.449 185.379
 l 340.324 185.379 344.277 181.426 344.277 176.551 c 344.277 171.676 340.324
 167.723 335.449 167.723 c h
335.449 167.723 m f
0.309804 0.752941 0.909804 rg
379.586 167.723 m 370.758 167.723 l 365.883 167.723 361.93 171.676 361.93
 176.551 c 361.93 181.426 365.883 185.379 370.758 185.379 c 379.586 185.379
 l 384.461 185.379 388.414 181.426 388.414 176.551 c 388.414 171.676 384.461
 167.723 379.586 167.723 c h
379.586 167.723 m f
0.705882 0.87451 0.501961 rg
335.449 97.102 m 326.621 97.102 l 321.746 97.102 317.793 101.055 317.793
 105.93 c 317.793 110.805 321.746 114.758 326.621 114.758 c 335.449 114.758
 l 340.324 114.758 344.277 110.805 344.277 105.93 c 344.277 101.055 340.324
 97.102 335.449 97.102 c h
335.449 97.102 m f
0.4 0.831373 0.945098 rg
379.586 97.102 m 370.758 97.102 l 365.883 97.102 361.93 101.055 361.93 
105.93 c 361.93 110.805 365.883 114.758 370.758 114.758 c 379.586 114.758
 l 384.461 114.758 388.414 110.805 388.414 105.93 c 388.414 101.055 384.461
 97.102 379.586 97.102 c h
379.586 97.102 m f
0.537255 0.752941 0.32549 rg
335.449 26.484 m 326.621 26.484 l 321.746 26.484 317.793 30.434 317.793
 35.309 c 317.793 40.188 321.746 44.137 326.621 44.137 c 335.449 44.137 
l 340.324 44.137 344.277 40.188 344.277 35.309 c 344.277 30.434 340.324 
26.484 335.449 26.484 c h
335.449 26.484 m f
0.309804 0.752941 0.909804 rg
379.586 26.484 m 370.758 26.484 l 365.883 26.484 361.93 30.434 361.93 35.309
 c 361.93 40.188 365.883 44.137 370.758 44.137 c 379.586 44.137 l 384.461
 44.137 388.414 40.188 388.414 35.309 c 388.414 30.434 384.461 26.484 379.586
 26.484 c h
379.586 26.484 m f
0.662745 0.690196 0.733333 rg
476.691 167.723 m 450.207 167.723 l 445.332 167.723 441.379 171.676 441.379
 176.551 c 441.379 181.426 445.332 185.379 450.207 185.379 c 476.691 185.379
 l 481.566 185.379 485.516 181.426 485.516 176.551 c 485.516 171.676 481.566
 167.723 476.691 167.723 c h
476.691 167.723 m f
0.388235 0.423529 0.466667 rg
476.691 97.102 m 450.207 97.102 l 445.332 97.102 441.379 101.055 441.379
 105.93 c 441.379 110.805 445.332 114.758 450.207 114.758 c 476.691 114.758
 l 481.566 114.758 485.516 110.805 485.516 105.93 c 485.516 101.055 481.566
 97.102 476.691 97.102 c h
476.691 97.102 m f
0.662745 0.690196 0.733333 rg
476.691 26.484 m 450.207 26.484 l 445.332 26.484 441.379 30.434 441.379
 35.309 c 441.379 40.188 445.332 44.137 450.207 44.137 c 476.691 44.137 
l 481.566 44.137 485.516 40.188 485.516 35.309 c 485.516 30.434 481.566 
26.484 476.691 26.484 c h
476.691 26.484 m f
0.270588 0.45098 0.576471 rg
268.445 256 m 312.672 211.863 l 308.965 211.863 l 303.367 211.852 298.098
 209.203 294.754 204.711 c 256 243.555 l 217.246 204.711 l 213.902 209.203
 208.633 211.852 203.035 211.863 c 199.328 211.863 l 243.555 256 l 199.328
 300.137 l 203.035 300.137 l 208.633 300.148 213.902 302.797 217.246 307.289
 c 256 268.445 l 294.754 307.289 l 298.098 302.797 303.367 300.148 308.965
 300.137 c 312.672 300.137 l h
268.445 256 m f
220.691 114.758 70.617 -17.656 re f
220.691 414.898 70.617 -17.656 re f
97.102 300.137 17.656 -88.273 re f
397.242 300.137 17.656 -88.273 re f
Q Q
showpage
%%Trailer
end restore
%%EOF
