%!PS-Adobe-3.0 EPSF-3.0
%%Creator: cairo 1.14.6 (http://cairographics.org)
%%CreationDate: Wed Apr  3 07:48:50 2019
%%Pages: 1
%%DocumentData: Clean7Bit
%%LanguageLevel: 2
%%BoundingBox: 4 0 508 512
%%EndComments
%%BeginProlog
save
50 dict begin
/q { gsave } bind def
/Q { grestore } bind def
/cm { 6 array astore concat } bind def
/w { setlinewidth } bind def
/J { setlinecap } bind def
/j { setlinejoin } bind def
/M { setmiterlimit } bind def
/d { setdash } bind def
/m { moveto } bind def
/l { lineto } bind def
/c { curveto } bind def
/h { closepath } bind def
/re { exch dup neg 3 1 roll 5 3 roll moveto 0 rlineto
      0 exch rlineto 0 rlineto closepath } bind def
/S { stroke } bind def
/f { fill } bind def
/f* { eofill } bind def
/n { newpath } bind def
/W { clip } bind def
/W* { eoclip } bind def
/BT { } bind def
/ET { } bind def
/pdfmark where { pop globaldict /?pdfmark /exec load put }
    { globaldict begin /?pdfmark /pop load def /pdfmark
    /cleartomark load def end } ifelse
/BDC { mark 3 1 roll /BDC pdfmark } bind def
/EMC { mark /EMC pdfmark } bind def
/cairo_store_point { /cairo_point_y exch def /cairo_point_x exch def } def
/Tj { show currentpoint cairo_store_point } bind def
/TJ {
  {
    dup
    type /stringtype eq
    { show } { -0.001 mul 0 cairo_font_matrix dtransform rmoveto } ifelse
  } forall
  currentpoint cairo_store_point
} bind def
/cairo_selectfont { cairo_font_matrix aload pop pop pop 0 0 6 array astore
    cairo_font exch selectfont cairo_point_x cairo_point_y moveto } bind def
/Tf { pop /cairo_font exch def /cairo_font_matrix where
      { pop cairo_selectfont } if } bind def
/Td { matrix translate cairo_font_matrix matrix concatmatrix dup
      /cairo_font_matrix exch def dup 4 get exch 5 get cairo_store_point
      /cairo_font where { pop cairo_selectfont } if } bind def
/Tm { 2 copy 8 2 roll 6 array astore /cairo_font_matrix exch def
      cairo_store_point /cairo_font where { pop cairo_selectfont } if } bind def
/g { setgray } bind def
/rg { setrgbcolor } bind def
/d1 { setcachedevice } bind def
%%EndProlog
%%BeginSetup
%%EndSetup
%%Page: 1 1
%%BeginPageSetup
%%PageBoundingBox: 4 0 508 512
%%EndPageSetup
q 4 0 504 512 rectclip q
0.698039 0.584314 0.501961 rg
325.086 112.812 m 325.086 86.781 l 325.062 77.875 318.32 70.426 309.465
 69.512 c 309.379 69.512 l 308.832 69.438 308.281 69.406 307.73 69.422 c
 203.594 69.422 l 203.043 69.406 202.492 69.438 201.945 69.512 c 201.859
 69.512 l 193 70.426 186.262 77.875 186.238 86.781 c 186.238 112.812 l h
325.086 112.812 m f
0.992157 0.803922 0.337255 rg
21.355 477.289 468.609 -338.441 re f
0.662745 0.690196 0.733333 rg
377.152 390.508 m 377.16 374.473 366.184 360.52 350.598 356.75 c 160.723
 356.75 l 145.137 360.52 134.16 374.473 134.168 390.508 c 134.176 392.812
 134.41 395.105 134.863 397.363 c 135.422 400.195 136.355 402.938 137.641
 405.52 c 138.852 408.133 140.43 410.559 142.328 412.723 c 148.848 420.672
 158.602 425.266 168.883 425.219 c 176.934 425.203 184.727 422.379 190.922
 417.238 c 320.398 417.238 l 326.594 422.379 334.391 425.203 342.441 425.219
 c 352.723 425.266 362.477 420.672 368.996 412.723 c 370.895 410.559 372.469
 408.133 373.68 405.52 c 374.969 402.938 375.902 400.195 376.457 397.363
 c 376.914 395.105 377.145 392.812 377.152 390.508 c h
377.152 390.508 m f
0.639216 0.52549 0.443137 rg
21.355 512 m 489.965 512 l 499.551 512 507.324 504.23 507.324 494.645 c
 507.324 485.059 499.551 477.289 489.965 477.289 c 21.355 477.289 l 11.77
 477.289 4 485.059 4 494.645 c 4 504.23 11.77 512 21.355 512 c h
21.355 512 m f
507.324 121.492 m 507.25 111.938 499.523 104.207 489.965 104.137 c 21.355
 104.137 l 11.781 104.164 4.027 111.918 4 121.492 c 3.977 126.098 5.824 
130.512 9.121 133.727 c 12.336 137.023 16.75 138.871 21.355 138.848 c 489.965
 138.848 l 499.539 138.82 507.293 131.066 507.324 121.492 c h
507.324 121.492 m f
0.894118 0.909804 0.921569 rg
351.117 347.117 m 351.117 294.398 308.383 251.66 255.66 251.66 c 202.941
 251.66 160.203 294.398 160.203 347.117 c 160.203 399.84 202.941 442.578
 255.66 442.578 c 308.383 442.578 351.117 399.84 351.117 347.117 c h
351.117 347.117 m f
0.309804 0.752941 0.909804 rg
316.406 351.457 m 316.406 373.023 289.211 390.508 255.66 390.508 c 222.113
 390.508 194.914 373.023 194.914 351.457 c 194.914 329.891 222.113 312.406
 255.66 312.406 c 289.211 312.406 316.406 329.891 316.406 351.457 c h
316.406 351.457 m f
0.576471 0.462745 0.380392 rg
507.324 494.645 m 507.348 490.039 505.5 485.621 502.203 482.406 c 498.988
 479.113 494.57 477.262 489.965 477.289 c 463.934 477.289 l 468.535 477.262
 472.953 479.113 476.168 482.406 c 479.465 485.621 481.312 490.039 481.289
 494.645 c 481.262 504.219 473.508 511.973 463.934 512 c 489.965 512 l 499.539
 511.973 507.293 504.219 507.324 494.645 c h
507.324 494.645 m f
507.324 121.492 m 507.25 111.938 499.523 104.207 489.965 104.137 c 463.934
 104.137 l 473.488 104.207 481.219 111.938 481.289 121.492 c 481.262 131.066
 473.508 138.82 463.934 138.848 c 489.965 138.848 l 499.539 138.82 507.293
 131.066 507.324 121.492 c h
507.324 121.492 m f
0.960784 0.72549 0.270588 rg
463.934 477.289 26.031 -338.441 re f
0.639216 0.52549 0.443137 rg
325.086 104.137 m 325.086 86.781 l 325.055 77.207 317.301 69.453 307.73
 69.422 c 281.695 69.422 l 291.27 69.453 299.023 77.207 299.051 86.781 c
 299.051 104.137 l h
325.086 104.137 m f
0.956863 0.964706 0.972549 rg
238.305 338.441 m 233.512 338.441 229.629 342.324 229.629 347.117 c 229.629
 355.797 l 229.629 360.59 233.512 364.473 238.305 364.473 c 243.098 364.473
 246.984 360.59 246.984 355.797 c 246.984 347.117 l 246.984 342.324 243.098
 338.441 238.305 338.441 c h
238.305 338.441 m f
273.016 338.441 m 268.223 338.441 264.34 342.324 264.34 347.117 c 264.34
 355.797 l 264.34 360.59 268.223 364.473 273.016 364.473 c 277.809 364.473
 281.695 360.59 281.695 355.797 c 281.695 347.117 l 281.695 342.324 277.809
 338.441 273.016 338.441 c h
273.016 338.441 m f
0.309804 0.752941 0.909804 rg
142.328 412.723 m 140.43 410.559 138.852 408.133 137.641 405.52 c 136.355
 402.938 135.422 400.195 134.863 397.363 c 134.402 397.461 133.965 397.637
 133.562 397.883 c 112.734 408.906 l 110.695 409.973 109.172 411.816 108.504
 414.02 c 107.836 416.223 108.078 418.598 109.176 420.621 c 111.438 424.828
 116.672 426.418 120.891 424.18 c 141.719 413.156 l 141.953 413.066 142.164
 412.914 142.328 412.723 c h
142.328 412.723 m f
398.586 408.906 m 377.762 397.883 l 377.359 397.637 376.918 397.461 376.457
 397.363 c 375.902 400.195 374.969 402.938 373.68 405.52 c 372.469 408.133
 370.895 410.559 368.996 412.723 c 369.16 412.914 369.367 413.066 369.602
 413.156 c 390.43 424.18 l 394.648 426.418 399.887 424.828 402.145 420.621
 c 403.246 418.598 403.488 416.223 402.82 414.02 c 402.152 411.816 400.625
 409.973 398.586 408.906 c h
398.586 408.906 m f
1 g
220.949 208.27 m 125.492 208.27 l 120.699 208.27 116.812 212.156 116.812
 216.949 c 116.812 221.742 120.699 225.629 125.492 225.629 c 220.949 225.629
 l 225.742 225.629 229.629 221.742 229.629 216.949 c 229.629 212.156 225.742
 208.27 220.949 208.27 c h
220.949 208.27 m f
385.832 208.27 m 255.66 208.27 l 250.867 208.27 246.984 212.156 246.984
 216.949 c 246.984 221.742 250.867 225.629 255.66 225.629 c 385.832 225.629
 l 390.625 225.629 394.508 221.742 394.508 216.949 c 394.508 212.156 390.625
 208.27 385.832 208.27 c h
385.832 208.27 m f
307.73 173.559 m 125.492 173.559 l 120.699 173.559 116.812 177.445 116.812
 182.238 c 116.812 187.031 120.699 190.914 125.492 190.914 c 307.73 190.914
 l 312.523 190.914 316.406 187.031 316.406 182.238 c 316.406 177.445 312.523
 173.559 307.73 173.559 c h
307.73 173.559 m f
385.832 173.559 m 342.441 173.559 l 337.648 173.559 333.762 177.445 333.762
 182.238 c 333.762 187.031 337.648 190.914 342.441 190.914 c 385.832 190.914
 l 390.625 190.914 394.508 187.031 394.508 182.238 c 394.508 177.445 390.625
 173.559 385.832 173.559 c h
385.832 173.559 m f
0.258824 0.282353 0.321569 rg
246.984 69.422 m 264.34 69.422 l 264.34 8.68 l 264.34 3.887 260.453 0 255.66
 0 c 250.867 0 246.984 3.887 246.984 8.68 c h
246.984 69.422 m f
203.594 69.422 m 224.855 69.422 l 166.711 2.949 l 165.059 1.09 162.691 
0.016 160.203 0 c 156.797 0.004 153.707 2 152.305 5.105 c 150.902 8.211 
151.445 11.848 153.695 14.406 c 201.859 69.512 l 201.945 69.512 l 202.492
 69.438 203.043 69.406 203.594 69.422 c h
203.594 69.422 m f
356.848 2.168 m 355.27 0.77 353.23 -0.004 351.117 0 c 348.629 0.016 346.262
 1.09 344.609 2.949 c 286.469 69.422 l 307.73 69.422 l 308.281 69.406 308.832
 69.438 309.379 69.512 c 309.465 69.512 l 357.629 14.406 l 360.785 10.809
 360.438 5.336 356.848 2.168 c h
356.848 2.168 m f
Q Q
showpage
%%Trailer
end restore
%%EOF
