%!PS-Adobe-3.0 EPSF-3.0
%%Creator: cairo 1.14.6 (http://cairographics.org)
%%CreationDate: Wed Apr  3 07:48:51 2019
%%Pages: 1
%%DocumentData: Clean7Bit
%%LanguageLevel: 2
%%BoundingBox: 0 0 512 512
%%EndComments
%%BeginProlog
save
50 dict begin
/q { gsave } bind def
/Q { grestore } bind def
/cm { 6 array astore concat } bind def
/w { setlinewidth } bind def
/J { setlinecap } bind def
/j { setlinejoin } bind def
/M { setmiterlimit } bind def
/d { setdash } bind def
/m { moveto } bind def
/l { lineto } bind def
/c { curveto } bind def
/h { closepath } bind def
/re { exch dup neg 3 1 roll 5 3 roll moveto 0 rlineto
      0 exch rlineto 0 rlineto closepath } bind def
/S { stroke } bind def
/f { fill } bind def
/f* { eofill } bind def
/n { newpath } bind def
/W { clip } bind def
/W* { eoclip } bind def
/BT { } bind def
/ET { } bind def
/pdfmark where { pop globaldict /?pdfmark /exec load put }
    { globaldict begin /?pdfmark /pop load def /pdfmark
    /cleartomark load def end } ifelse
/BDC { mark 3 1 roll /BDC pdfmark } bind def
/EMC { mark /EMC pdfmark } bind def
/cairo_store_point { /cairo_point_y exch def /cairo_point_x exch def } def
/Tj { show currentpoint cairo_store_point } bind def
/TJ {
  {
    dup
    type /stringtype eq
    { show } { -0.001 mul 0 cairo_font_matrix dtransform rmoveto } ifelse
  } forall
  currentpoint cairo_store_point
} bind def
/cairo_selectfont { cairo_font_matrix aload pop pop pop 0 0 6 array astore
    cairo_font exch selectfont cairo_point_x cairo_point_y moveto } bind def
/Tf { pop /cairo_font exch def /cairo_font_matrix where
      { pop cairo_selectfont } if } bind def
/Td { matrix translate cairo_font_matrix matrix concatmatrix dup
      /cairo_font_matrix exch def dup 4 get exch 5 get cairo_store_point
      /cairo_font where { pop cairo_selectfont } if } bind def
/Tm { 2 copy 8 2 roll 6 array astore /cairo_font_matrix exch def
      cairo_store_point /cairo_font where { pop cairo_selectfont } if } bind def
/g { setgray } bind def
/rg { setrgbcolor } bind def
/d1 { setcachedevice } bind def
%%EndProlog
%%BeginSetup
%%EndSetup
%%Page: 1 1
%%BeginPageSetup
%%PageBoundingBox: 0 0 512 512
%%EndPageSetup
q 0 0 512 512 rectclip q
0.388235 0.423529 0.466667 rg
485.52 70.613 m 485.52 405.113 l 485.547 415.301 477.344 423.598 467.16
 423.695 c 44.879 423.695 l 34.691 423.598 26.492 415.301 26.516 405.113
 c 26.516 70.613 l h
485.52 70.613 m f
0.309804 0.752941 0.909804 rg
395.926 388.383 m 440.945 388.383 l 446.129 388.301 450.273 384.039 450.211
 378.855 c 450.211 159.594 l 450.273 154.41 446.141 150.152 440.961 150.059
 c 71.074 150.059 l 65.898 150.152 61.766 154.41 61.828 159.594 c 61.828
 378.855 l 61.766 384.031 65.898 388.293 71.074 388.383 c h
395.926 388.383 m f
0.388235 0.423529 0.466667 rg
485.52 44.137 m 458.156 9.938 l 453.129 3.66 445.523 0.004 437.484 0 c 
74.555 0 l 66.516 0.004 58.906 3.66 53.883 9.938 c 26.516 44.137 l 26.516
 61.789 l 485.52 61.789 l h
485.52 44.137 m f
0.662745 0.690196 0.733333 rg
512 97.098 m 512 61.789 l 511.969 52.051 504.082 44.164 494.344 44.137 
c 17.695 44.137 l 7.953 44.164 0.066 52.051 0.039 61.789 c 0.039 97.098 
l 0.066 106.836 7.953 114.723 17.695 114.754 c 176.578 114.754 l 181.449
 114.754 185.402 110.801 185.402 105.926 c 185.402 97.098 l 185.402 92.223
 189.355 88.27 194.23 88.27 c 317.809 88.27 l 322.684 88.27 326.637 92.223
 326.637 97.098 c 326.637 105.926 l 326.637 110.801 330.59 114.754 335.465
 114.754 c 494.344 114.754 l 504.082 114.723 511.969 106.836 512 97.098 
c h
512 97.098 m f
0.937255 0.780392 0.643137 rg
367.855 259.953 m 364.109 256.785 361.922 252.148 361.855 247.242 c 361.855
 150.059 l 202.969 150.059 l 202.969 199.402 l 201.109 206.711 194.535 211.836
 186.992 211.848 c 150.008 211.848 l 135.918 211.797 124.289 222.844 123.617
 236.914 c 123.574 236.945 123.551 236.996 123.551 237.047 c 123.551 237.098
 123.574 237.148 123.617 237.18 c 123.543 237.559 123.516 237.941 123.527
 238.328 c 123.531 247.176 127.926 255.449 135.266 260.395 c 134.109 264.25
 130.633 266.941 126.613 267.105 c 124.883 267.875 123.797 269.625 123.879
 271.52 c 123.852 273.188 124.684 274.754 126.086 275.664 c 127.703 276.75
 128.535 278.684 128.211 280.605 c 127.887 282.527 126.469 284.082 124.582
 284.578 c 120.086 285.727 l 118.664 286.07 117.465 287.027 116.816 288.34
 c 116.168 289.652 116.137 291.188 116.73 292.523 c 117.785 294.938 118.473
 297.496 118.762 300.117 c 118.852 301.262 118.938 302.41 118.938 303.734
 c 119.598 309.02 117.578 314.285 113.555 317.77 c 105.875 317.77 l 102.578
 317.785 99.562 319.637 98.059 322.57 c 96.555 325.504 96.812 329.027 98.723
 331.715 c 136.414 384.941 l 137.781 386.879 138.523 389.191 138.531 391.562
 c 138.531 393.812 137.887 396.02 136.68 397.918 c 134.867 400.477 134.195
 403.672 134.824 406.746 c 152.77 473.004 215.398 517.051 283.816 511.535
 c 352.238 506.02 407.008 452.512 414.109 384.234 c 419.496 337.789 402.293
 291.578 367.855 259.953 c h
367.855 259.953 m f
0.388235 0.423529 0.466667 rg
361.324 386.355 m 343.316 393.504 l 341.488 400.883 338.543 407.938 334.582
 414.426 c 342.258 432.258 l 339.977 435.215 337.5 438.016 334.844 440.641
 c 332.242 443.32 329.441 445.801 326.461 448.055 c 308.629 440.461 l 302.121
 444.367 295.07 447.285 287.707 449.113 c 280.473 467.121 l 273.055 468.062
 265.551 468.062 258.137 467.121 c 250.988 449.113 l 243.59 447.301 236.508
 444.383 229.977 440.461 c 212.148 448.055 l 209.168 445.801 206.367 443.32
 203.762 440.641 c 201.129 437.992 198.652 435.191 196.348 432.258 c 204.027
 414.426 l 200.062 407.938 197.117 400.883 195.289 393.504 c 177.367 386.355
 l 176.43 378.914 176.43 371.379 177.367 363.934 c 195.289 356.785 l 197.117
 349.406 200.062 342.352 204.027 335.863 c 196.348 318.035 l 198.652 315.098
 201.129 312.297 203.762 309.648 c 206.367 306.969 209.168 304.488 212.148
 302.234 c 229.977 309.828 l 236.508 305.906 243.59 302.988 250.988 301.176
 c 258.137 283.168 l 265.551 282.227 273.055 282.227 280.473 283.168 c 287.707
 301.176 l 295.07 303.004 302.121 305.922 308.629 309.828 c 326.461 302.234
 l 329.441 304.488 332.242 306.969 334.844 309.648 c 337.5 312.273 339.977
 315.074 342.258 318.035 c 334.582 335.863 l 338.543 342.352 341.488 349.406
 343.316 356.785 c 361.324 363.934 l 362.266 371.379 362.266 378.914 361.324
 386.355 c h
269.262 344.25 m 256.766 344.25 245.496 351.777 240.715 363.324 c 235.934
 374.867 238.578 388.152 247.414 396.988 c 256.25 405.824 269.539 408.469
 281.082 403.688 c 292.625 398.906 300.152 387.641 300.152 375.145 c 300.152
 358.082 286.32 344.25 269.262 344.25 c h
269.262 344.25 m f
0.329412 0.364706 0.4 rg
485.52 406.039 m 485.52 114.754 l 467.867 114.754 l 467.867 406.039 l 467.836
 415.777 459.949 423.664 450.211 423.695 c 467.867 423.695 l 477.605 423.664
 485.492 415.777 485.52 406.039 c h
485.52 406.039 m f
485.52 44.137 m 458.156 9.973 l 453.16 3.664 445.547 -0.016 437.504 0 c
 419.848 0 l 427.898 -0.016 435.512 3.664 440.504 9.973 c 467.867 44.137
 l h
485.52 44.137 m f
0.576471 0.603922 0.647059 rg
512 97.098 m 512 61.789 l 511.969 52.051 504.082 44.164 494.344 44.137 
c 476.691 44.137 l 486.445 44.137 494.344 52.039 494.344 61.789 c 494.344
 97.098 l 494.316 106.836 486.43 114.723 476.691 114.754 c 494.344 114.754
 l 504.082 114.723 511.969 106.836 512 97.098 c h
512 97.098 m f
194.23 88.27 m 176.578 88.27 l 171.703 88.27 167.75 92.223 167.75 97.098
 c 167.75 105.926 l 167.75 110.801 163.797 114.754 158.922 114.754 c 176.578
 114.754 l 181.449 114.754 185.402 110.801 185.402 105.926 c 185.402 97.098
 l 185.402 92.223 189.355 88.27 194.23 88.27 c h
194.23 88.27 m f
0.890196 0.713726 0.572549 rg
367.945 259.953 m 364.199 256.785 362.008 252.148 361.941 247.242 c 361.941
 150.059 l 335.465 150.059 l 335.465 247.242 l 335.527 252.148 337.715 256.785
 341.461 259.953 c 375.902 291.578 393.102 337.789 387.719 384.234 c 380.73
 450.164 329.301 502.617 263.523 510.902 c 262.023 511.078 260.52 511.258
 259.02 511.344 c 269.336 512.254 279.719 512.105 290 510.902 c 355.777 
502.617 407.207 450.164 414.199 384.234 c 419.582 337.789 402.383 291.578
 367.945 259.953 c h
367.945 259.953 m f
1 0.839216 0.482353 rg
44.172 70.613 m 35.344 70.613 l 30.469 70.613 26.516 74.566 26.516 79.441
 c 26.516 84.316 30.469 88.27 35.344 88.27 c 44.172 88.27 l 49.047 88.27
 53 84.316 53 79.441 c 53 74.566 49.047 70.613 44.172 70.613 c h
44.172 70.613 m f
88.305 70.613 m 79.48 70.613 l 74.605 70.613 70.656 74.566 70.656 79.441
 c 70.656 84.316 74.605 88.27 79.48 88.27 c 88.305 88.27 l 93.184 88.27 
97.133 84.316 97.133 79.441 c 97.133 74.566 93.184 70.613 88.305 70.613 
c h
88.305 70.613 m f
0.890196 0.713726 0.572549 rg
141.27 308.945 m 141.27 304.066 137.316 300.117 132.441 300.117 c 118.762
 300.117 l 118.852 301.262 118.938 302.41 118.938 303.734 c 119.598 309.02
 117.578 314.285 113.555 317.77 c 132.441 317.77 l 137.316 317.77 141.27
 313.82 141.27 308.945 c h
141.27 308.945 m f
291.324 221.023 m 283.184 204.547 266.371 194.133 247.984 194.191 c 202.969
 194.191 l 202.969 199.402 l 201.109 206.711 194.535 211.836 186.992 211.848
 c 247.984 211.848 l 259.66 211.824 270.336 218.426 275.527 228.883 c 277.781
 233.086 282.965 234.738 287.234 232.613 c 291.504 230.492 293.316 225.359
 291.324 221.023 c h
291.324 221.023 m f
0.258824 0.282353 0.321569 rg
269.262 414.867 m 247.32 414.867 229.539 397.082 229.539 375.145 c 229.539
 353.207 247.32 335.422 269.262 335.422 c 291.195 335.422 308.98 353.207
 308.98 375.145 c 308.996 385.684 304.812 395.793 297.359 403.246 c 289.91
 410.699 279.801 414.879 269.262 414.867 c h
269.262 344.25 m 256.766 344.25 245.496 351.777 240.715 363.324 c 235.934
 374.867 238.578 388.152 247.414 396.988 c 256.25 405.824 269.539 408.469
 281.082 403.688 c 292.625 398.906 300.152 387.641 300.152 375.145 c 300.152
 358.082 286.32 344.25 269.262 344.25 c h
269.262 344.25 m f
Q Q
showpage
%%Trailer
end restore
%%EOF
