%!PS-Adobe-3.0 EPSF-3.0
%%Creator: cairo 1.14.6 (http://cairographics.org)
%%CreationDate: Wed Apr  3 07:48:51 2019
%%Pages: 1
%%DocumentData: Clean7Bit
%%LanguageLevel: 2
%%BoundingBox: 0 0 512 512
%%EndComments
%%BeginProlog
save
50 dict begin
/q { gsave } bind def
/Q { grestore } bind def
/cm { 6 array astore concat } bind def
/w { setlinewidth } bind def
/J { setlinecap } bind def
/j { setlinejoin } bind def
/M { setmiterlimit } bind def
/d { setdash } bind def
/m { moveto } bind def
/l { lineto } bind def
/c { curveto } bind def
/h { closepath } bind def
/re { exch dup neg 3 1 roll 5 3 roll moveto 0 rlineto
      0 exch rlineto 0 rlineto closepath } bind def
/S { stroke } bind def
/f { fill } bind def
/f* { eofill } bind def
/n { newpath } bind def
/W { clip } bind def
/W* { eoclip } bind def
/BT { } bind def
/ET { } bind def
/pdfmark where { pop globaldict /?pdfmark /exec load put }
    { globaldict begin /?pdfmark /pop load def /pdfmark
    /cleartomark load def end } ifelse
/BDC { mark 3 1 roll /BDC pdfmark } bind def
/EMC { mark /EMC pdfmark } bind def
/cairo_store_point { /cairo_point_y exch def /cairo_point_x exch def } def
/Tj { show currentpoint cairo_store_point } bind def
/TJ {
  {
    dup
    type /stringtype eq
    { show } { -0.001 mul 0 cairo_font_matrix dtransform rmoveto } ifelse
  } forall
  currentpoint cairo_store_point
} bind def
/cairo_selectfont { cairo_font_matrix aload pop pop pop 0 0 6 array astore
    cairo_font exch selectfont cairo_point_x cairo_point_y moveto } bind def
/Tf { pop /cairo_font exch def /cairo_font_matrix where
      { pop cairo_selectfont } if } bind def
/Td { matrix translate cairo_font_matrix matrix concatmatrix dup
      /cairo_font_matrix exch def dup 4 get exch 5 get cairo_store_point
      /cairo_font where { pop cairo_selectfont } if } bind def
/Tm { 2 copy 8 2 roll 6 array astore /cairo_font_matrix exch def
      cairo_store_point /cairo_font where { pop cairo_selectfont } if } bind def
/g { setgray } bind def
/rg { setrgbcolor } bind def
/d1 { setcachedevice } bind def
%%EndProlog
%%BeginSetup
%%EndSetup
%%Page: 1 1
%%BeginPageSetup
%%PageBoundingBox: 0 0 512 512
%%EndPageSetup
q 0 0 512 512 rectclip q
0.662745 0.690196 0.733333 rg
44.137 512 m 467.863 512 l 492.238 512 512 492.238 512 467.863 c 512 44.137
 l 512 19.762 492.238 0 467.863 0 c 44.137 0 l 19.762 0 0 19.762 0 44.137
 c 0 467.863 l 0 492.238 19.762 512 44.137 512 c h
44.137 512 m f
1 0.839216 0.482353 rg
335.449 414.898 m 335.449 385.645 311.734 361.93 282.484 361.93 c 253.23
 361.93 229.516 385.645 229.516 414.898 c 229.516 444.148 253.23 467.863
 282.484 467.863 c 282.484 414.898 l h
335.449 414.898 m f
0.619608 0.823529 0.415686 rg
335.449 414.898 m 282.484 414.898 l 282.484 467.863 l 311.734 467.863 335.449
 444.148 335.449 414.898 c h
335.449 414.898 m f
0.921569 0.329412 0.388235 rg
423.723 467.863 m 423.723 414.898 l 397.418 368.906 l 376.555 380.82 366.328
 405.285 372.5 428.504 c 378.672 451.723 399.699 467.879 423.723 467.863
 c h
423.723 467.863 m f
0.619608 0.823529 0.415686 rg
471.129 391.238 m 464.613 378.211 453.02 368.434 439.078 364.211 c 425.137
 359.984 410.07 361.684 397.418 368.906 c 423.723 414.898 l h
471.129 391.238 m f
0.584314 0.47451 0.854902 rg
476.691 414.898 m 476.703 406.684 474.797 398.586 471.129 391.238 c 423.723
 414.898 l 423.723 467.863 l 452.977 467.863 476.691 444.148 476.691 414.898
 c h
476.691 414.898 m f
0.921569 0.329412 0.388235 rg
335.449 273.656 m 335.449 244.402 311.734 220.691 282.484 220.691 c 253.23
 220.691 229.516 244.402 229.516 273.656 c 229.516 302.906 253.23 326.621
 282.484 326.621 c 282.484 273.656 l 329.887 297.312 l 333.555 289.969 335.461
 281.867 335.449 273.656 c h
335.449 273.656 m f
0.619608 0.823529 0.415686 rg
329.887 297.312 m 282.484 273.656 l 282.484 326.621 l 302.562 326.625 320.918
 315.277 329.887 297.312 c h
329.887 297.312 m f
476.691 273.656 m 423.723 273.656 l 423.723 326.621 l 452.977 326.621 476.691
 302.906 476.691 273.656 c h
476.691 273.656 m f
1 0.839216 0.482353 rg
423.723 326.621 m 423.723 273.656 l 370.758 273.656 l 370.758 302.906 394.473
 326.621 423.723 326.621 c h
423.723 326.621 m f
0.584314 0.47451 0.854902 rg
476.691 273.656 m 476.691 244.402 452.977 220.691 423.723 220.691 c 394.473
 220.691 370.758 244.402 370.758 273.656 c h
476.691 273.656 m f
0.619608 0.823529 0.415686 rg
264.828 97.102 m 264.828 87.352 256.922 79.449 247.172 79.449 c 237.422
 79.449 229.516 87.352 229.516 97.102 c 229.516 106.855 237.422 114.758 
247.172 114.758 c 248.816 114.754 250.449 114.516 252.027 114.051 c 257.867
 112.363 262.434 107.797 264.121 101.957 c 264.586 100.383 264.82 98.746
 264.828 97.102 c h
264.828 97.102 m f
335.449 167.723 m 335.441 166.082 335.203 164.445 334.742 162.867 c 333.051
 157.031 328.488 152.465 322.648 150.773 c 319.48 149.832 316.105 149.832
 312.938 150.773 c 307.098 152.465 302.535 157.031 300.844 162.867 c 300.383
 164.445 300.145 166.082 300.137 167.723 c 300.137 177.477 308.043 185.379
 317.793 185.379 c 327.543 185.379 335.449 177.477 335.449 167.723 c h
335.449 167.723 m f
476.691 167.723 m 476.66 157.984 468.773 150.098 459.035 150.07 c 457.391
 150.074 455.758 150.312 454.18 150.773 c 448.34 152.465 443.773 157.031
 442.086 162.867 c 441.621 164.445 441.387 166.082 441.379 167.723 c 441.379
 177.477 449.285 185.379 459.035 185.379 c 468.785 185.379 476.691 177.477
 476.691 167.723 c h
476.691 167.723 m f
406.07 97.102 m 406.07 87.352 398.164 79.449 388.414 79.449 c 378.664 79.449
 370.758 87.352 370.758 97.102 c 370.766 98.746 371 100.383 371.465 101.957
 c 373.156 107.797 377.719 112.363 383.559 114.051 c 386.727 114.992 390.102
 114.992 393.27 114.051 c 399.109 112.363 403.672 107.797 405.363 101.957
 c 405.824 100.383 406.062 98.746 406.07 97.102 c h
406.07 97.102 m f
0.4 0.831373 0.945098 rg
70.621 194.207 m 167.723 194.207 l 177.477 194.207 185.379 186.301 185.379
 176.551 c 185.379 123.586 l 185.379 113.836 177.477 105.93 167.723 105.93
 c 70.621 105.93 l 60.871 105.93 52.965 113.836 52.965 123.586 c 52.965 
176.551 l 52.965 186.301 60.871 194.207 70.621 194.207 c h
70.621 194.207 m f
0.576471 0.603922 0.647059 rg
512 467.863 m 512 44.137 l 512 19.762 492.238 0 467.863 0 c 448.793 0 l
 473.172 0 492.934 19.762 492.934 44.137 c 492.934 467.863 l 492.934 479.566
 488.281 490.793 480.004 499.074 c 471.727 507.352 460.5 512 448.793 512
 c 467.863 512 l 479.566 512 490.793 507.352 499.074 499.074 c 507.352 490.793
 512 479.566 512 467.863 c h
512 467.863 m f
0.258824 0.282353 0.321569 rg
203.035 229.516 m 203.035 224.641 199.082 220.691 194.207 220.691 c 52.965
 220.691 l 43.227 220.719 35.34 228.605 35.309 238.344 c 35.309 361.93 l
 35.309 366.805 39.262 370.758 44.137 370.758 c 49.012 370.758 52.965 366.805
 52.965 361.93 c 52.965 238.344 l 194.207 238.344 l 199.082 238.344 203.035
 234.395 203.035 229.516 c h
203.035 229.516 m f
0.584314 0.47451 0.854902 rg
97.102 308.965 m 97.102 238.344 l 79.449 238.344 l 79.449 308.965 l 79.449
 313.84 83.402 317.793 88.277 317.793 c 93.152 317.793 97.102 313.84 97.102
 308.965 c h
97.102 308.965 m f
0.921569 0.329412 0.388235 rg
167.723 291.309 m 167.723 238.344 l 150.07 238.344 l 150.07 291.309 l 150.07
 296.188 154.02 300.137 158.898 300.137 c 163.773 300.137 167.723 296.188
 167.723 291.309 c h
167.723 291.309 m f
1 0.839216 0.482353 rg
132.414 344.277 m 132.414 238.344 l 114.758 238.344 l 114.758 344.277 l
 114.758 349.152 118.711 353.102 123.586 353.102 c 128.461 353.102 132.414
 349.152 132.414 344.277 c h
132.414 344.277 m f
0.956863 0.964706 0.972549 rg
141.242 459.035 m 44.137 459.035 l 39.262 459.035 35.309 462.988 35.309
 467.863 c 35.309 472.738 39.262 476.691 44.137 476.691 c 141.242 476.691
 l 146.117 476.691 150.07 472.738 150.07 467.863 c 150.07 462.988 146.117
 459.035 141.242 459.035 c h
141.242 459.035 m f
185.379 459.035 m 176.551 459.035 l 171.676 459.035 167.723 462.988 167.723
 467.863 c 167.723 472.738 171.676 476.691 176.551 476.691 c 185.379 476.691
 l 190.254 476.691 194.207 472.738 194.207 467.863 c 194.207 462.988 190.254
 459.035 185.379 459.035 c h
185.379 459.035 m f
406.07 26.484 m 256 26.484 l 251.125 26.484 247.172 30.434 247.172 35.309
 c 247.172 40.188 251.125 44.137 256 44.137 c 406.07 44.137 l 410.945 44.137
 414.898 40.188 414.898 35.309 c 414.898 30.434 410.945 26.484 406.07 26.484
 c h
406.07 26.484 m f
450.207 26.484 m 441.379 26.484 l 436.504 26.484 432.551 30.434 432.551
 35.309 c 432.551 40.188 436.504 44.137 441.379 44.137 c 450.207 44.137 
l 455.082 44.137 459.035 40.188 459.035 35.309 c 459.035 30.434 455.082 
26.484 450.207 26.484 c h
450.207 26.484 m f
114.758 423.723 m 44.137 423.723 l 39.262 423.723 35.309 427.676 35.309
 432.551 c 35.309 437.426 39.262 441.379 44.137 441.379 c 114.758 441.379
 l 119.633 441.379 123.586 437.426 123.586 432.551 c 123.586 427.676 119.633
 423.723 114.758 423.723 c h
114.758 423.723 m f
0.258824 0.282353 0.321569 rg
454.18 150.773 m 453.816 150.133 453.371 149.539 452.855 149.008 c 407.129
 103.281 l 406.602 102.766 406.008 102.32 405.363 101.957 c 403.672 107.797
 399.109 112.363 393.27 114.051 c 393.629 114.695 394.074 115.289 394.594
 115.816 c 440.32 161.543 l 440.848 162.062 441.441 162.508 442.086 162.867
 c 443.773 157.031 448.34 152.465 454.18 150.773 c h
454.18 150.773 m f
383.559 114.051 m 377.719 112.363 373.156 107.797 371.465 101.957 c 370.82
 102.32 370.227 102.766 369.699 103.281 c 323.973 149.008 l 323.457 149.539
 323.012 150.133 322.648 150.773 c 328.488 152.465 333.051 157.031 334.742
 162.867 c 335.387 162.508 335.98 162.062 336.508 161.543 c 382.234 115.816
 l 382.75 115.289 383.195 114.695 383.559 114.051 c h
383.559 114.051 m f
312.938 150.773 m 312.574 150.133 312.133 149.539 311.613 149.008 c 265.887
 103.281 l 265.359 102.766 264.766 102.32 264.121 101.957 c 262.434 107.797
 257.867 112.363 252.027 114.051 c 252.391 114.695 252.836 115.289 253.352
 115.816 c 299.078 161.543 l 299.605 162.062 300.199 162.508 300.844 162.867
 c 302.535 157.031 307.098 152.465 312.938 150.773 c h
312.938 150.773 m f
0.956863 0.964706 0.972549 rg
132.414 61.793 m 61.793 61.793 l 56.918 61.793 52.965 65.746 52.965 70.621
 c 52.965 75.496 56.918 79.449 61.793 79.449 c 132.414 79.449 l 137.289 
79.449 141.242 75.496 141.242 70.621 c 141.242 65.746 137.289 61.793 132.414
 61.793 c h
132.414 61.793 m f
176.551 61.793 m 167.723 61.793 l 162.848 61.793 158.898 65.746 158.898
 70.621 c 158.898 75.496 162.848 79.449 167.723 79.449 c 176.551 79.449 
l 181.426 79.449 185.379 75.496 185.379 70.621 c 185.379 65.746 181.426 
61.793 176.551 61.793 c h
176.551 61.793 m f
123.586 26.484 m 61.793 26.484 l 56.918 26.484 52.965 30.434 52.965 35.309
 c 52.965 40.188 56.918 44.137 61.793 44.137 c 123.586 44.137 l 128.461 
44.137 132.414 40.188 132.414 35.309 c 132.414 30.434 128.461 26.484 123.586
 26.484 c h
123.586 26.484 m f
Q Q
showpage
%%Trailer
end restore
%%EOF
