%!PS-Adobe-3.0 EPSF-3.0
%%Creator: cairo 1.14.6 (http://cairographics.org)
%%CreationDate: Wed Apr  3 07:48:51 2019
%%Pages: 1
%%DocumentData: Clean7Bit
%%LanguageLevel: 2
%%BoundingBox: 44 0 468 512
%%EndComments
%%BeginProlog
save
50 dict begin
/q { gsave } bind def
/Q { grestore } bind def
/cm { 6 array astore concat } bind def
/w { setlinewidth } bind def
/J { setlinecap } bind def
/j { setlinejoin } bind def
/M { setmiterlimit } bind def
/d { setdash } bind def
/m { moveto } bind def
/l { lineto } bind def
/c { curveto } bind def
/h { closepath } bind def
/re { exch dup neg 3 1 roll 5 3 roll moveto 0 rlineto
      0 exch rlineto 0 rlineto closepath } bind def
/S { stroke } bind def
/f { fill } bind def
/f* { eofill } bind def
/n { newpath } bind def
/W { clip } bind def
/W* { eoclip } bind def
/BT { } bind def
/ET { } bind def
/pdfmark where { pop globaldict /?pdfmark /exec load put }
    { globaldict begin /?pdfmark /pop load def /pdfmark
    /cleartomark load def end } ifelse
/BDC { mark 3 1 roll /BDC pdfmark } bind def
/EMC { mark /EMC pdfmark } bind def
/cairo_store_point { /cairo_point_y exch def /cairo_point_x exch def } def
/Tj { show currentpoint cairo_store_point } bind def
/TJ {
  {
    dup
    type /stringtype eq
    { show } { -0.001 mul 0 cairo_font_matrix dtransform rmoveto } ifelse
  } forall
  currentpoint cairo_store_point
} bind def
/cairo_selectfont { cairo_font_matrix aload pop pop pop 0 0 6 array astore
    cairo_font exch selectfont cairo_point_x cairo_point_y moveto } bind def
/Tf { pop /cairo_font exch def /cairo_font_matrix where
      { pop cairo_selectfont } if } bind def
/Td { matrix translate cairo_font_matrix matrix concatmatrix dup
      /cairo_font_matrix exch def dup 4 get exch 5 get cairo_store_point
      /cairo_font where { pop cairo_selectfont } if } bind def
/Tm { 2 copy 8 2 roll 6 array astore /cairo_font_matrix exch def
      cairo_store_point /cairo_font where { pop cairo_selectfont } if } bind def
/g { setgray } bind def
/rg { setrgbcolor } bind def
/d1 { setcachedevice } bind def
%%EndProlog
%%BeginSetup
%%EndSetup
%%Page: 1 1
%%BeginPageSetup
%%PageBoundingBox: 44 0 468 512
%%EndPageSetup
q 44 0 424 512 rectclip q
0.921569 0.52549 0.745098 rg
428.48 113.211 m 428.551 112.445 428.582 111.68 428.566 110.914 c 428.645
 81.531 408.457 55.969 379.855 49.234 c 379.672 48.25 379.434 47.277 379.148
 46.32 c 378.973 45.789 378.883 45.438 378.707 44.906 c 378.176 43.23 377.648
 41.465 376.941 39.699 c 367.402 15.879 344.359 0.242 318.699 0.168 c 283.969
 0.477 255.973 28.707 255.953 63.438 c 256.348 31.633 232.848 4.574 201.301
 0.52 c 169.75 -3.543 140.168 16.684 132.496 47.555 c 132.473 48.141 132.324
 48.715 132.055 49.234 c 124.66 50.883 117.652 53.941 111.406 58.234 c 93.805
 69.977 83.266 89.758 83.34 110.914 c 83.328 111.68 83.355 112.445 83.43
 113.211 c 77.246 115.027 71.445 117.961 66.312 121.855 c 52.594 132.188
 44.418 148.27 44.16 165.438 c 43.902 182.602 51.586 198.93 64.988 209.664
 c 64.723 209.93 l 46.086 232.535 48.172 265.719 69.488 285.82 c 69.488 
285.91 69.402 286.086 69.402 286.176 c 68.301 290.98 67.738 295.895 67.723
 300.824 c 67.723 302.621 67.812 304.418 67.988 306.207 c 67.988 306.293
 l 70.391 336.035 93.355 359.996 122.965 363.652 c 114.012 375.293 112.242
 390.938 118.367 404.285 c 124.496 417.633 137.512 426.484 152.176 427.281
 c 359.73 427.281 l 372.66 426.578 384.43 419.598 391.242 408.582 c 398.047
 397.57 399.035 383.918 393.887 372.039 c 393.023 370 391.957 368.047 390.707
 366.215 c 390.262 365.348 389.699 364.543 389.031 363.832 c 389.023 363.762
 388.992 363.699 388.941 363.652 c 420.617 359.734 444.352 332.738 444.184
 300.824 c 444.184 295.801 443.59 290.793 442.418 285.91 c 442.418 285.82
 l 463.852 265.633 465.824 232.234 446.922 209.664 c 462.992 196.797 470.629
 176.102 466.762 155.883 c 462.898 135.66 448.16 119.238 428.48 113.211 
c h
428.48 113.211 m f
0.992157 0.803922 0.337255 rg
361.852 407.867 m 362.398 375.285 347.91 344.266 322.578 323.77 c 310.047
 313.496 302.082 298.68 300.43 282.555 c 300.176 280.418 300.059 278.266
 300.078 276.117 c 300.078 247.258 l 211.832 247.258 l 211.832 276.117 l
 211.848 278.266 211.727 280.418 211.48 282.555 c 209.672 298.898 201.492
 313.863 188.711 324.211 c 150.883 355.316 139.32 408.309 160.754 452.344
 c 182.184 496.379 231.02 519.973 278.84 509.398 c 326.66 498.824 360.988
 456.836 361.852 407.867 c h
361.852 407.867 m f
0.894118 0.909804 0.921569 rg
317.727 194.309 m 317.742 191.344 316.98 188.422 315.52 185.836 c 314.754
 184.352 313.738 183.008 312.52 181.863 c 309.254 178.516 304.762 176.637
 300.078 176.66 c 211.832 176.66 l 205.395 176.676 199.477 180.191 196.387
 185.836 c 193.445 191.102 193.445 197.516 196.387 202.781 c 197.156 204.266
 198.172 205.605 199.391 206.75 c 202.656 210.105 207.148 211.984 211.832
 211.957 c 300.078 211.957 l 306.516 211.945 312.43 208.426 315.52 202.781
 c 316.98 200.195 317.742 197.277 317.727 194.309 c h
317.727 194.309 m f
317.727 229.605 m 317.742 226.641 316.98 223.719 315.52 221.137 c 314.754
 219.652 313.738 218.309 312.52 217.168 c 309.254 213.812 304.762 211.934
 300.078 211.957 c 211.832 211.957 l 205.395 211.973 199.477 215.492 196.387
 221.137 c 193.445 226.402 193.445 232.812 196.387 238.082 c 197.156 239.566
 198.172 240.91 199.391 242.051 c 202.656 245.402 207.148 247.281 211.832
 247.258 c 300.078 247.258 l 306.516 247.242 312.43 243.723 315.52 238.082
 c 316.98 235.496 317.742 232.574 317.727 229.605 c h
317.727 229.605 m f
291.254 176.66 m 291.254 167.836 l 291.281 164.855 290.895 161.883 290.105
 159.008 c 288.566 153.031 285.5 147.551 281.195 143.125 c 276.633 138.543
 270.938 135.254 264.691 133.594 c 258.953 132.184 252.957 132.184 247.219
 133.594 c 240.969 135.254 235.277 138.543 230.715 143.125 c 226.41 147.551
 223.34 153.031 221.805 159.008 c 221.016 161.883 220.629 164.855 220.656
 167.836 c 220.656 176.66 l h
291.254 176.66 m f
1 0.839216 0.482353 rg
158.883 167.836 m 158.883 158.086 150.98 150.184 141.234 150.184 c 131.484
 150.184 123.582 158.086 123.582 167.836 c 123.582 177.582 131.484 185.484
 141.234 185.484 c 142.875 185.477 144.508 185.242 146.086 184.777 c 151.926
 183.086 156.484 178.527 158.176 172.688 c 158.641 171.109 158.875 169.48
 158.883 167.836 c h
158.883 167.836 m f
397.148 264.91 m 397.121 255.168 389.234 247.285 379.5 247.258 c 377.859
 247.262 376.223 247.5 374.645 247.965 c 368.812 249.652 364.246 254.215
 362.555 260.055 c 362.094 261.629 361.855 263.266 361.852 264.91 c 361.852
 274.656 369.754 282.555 379.5 282.555 c 389.25 282.555 397.148 274.656 
397.148 264.91 c h
397.148 264.91 m f
370.676 132.539 m 370.867 122.785 363.125 114.727 353.379 114.535 c 343.633
 114.34 335.57 122.082 335.375 131.832 c 335.375 132.539 l 335.375 142.285
 343.281 150.184 353.027 150.184 c 362.773 150.184 370.676 142.285 370.676
 132.539 c h
370.676 132.539 m f
0.792157 0.815686 0.843137 rg
317.727 194.309 m 317.656 184.59 309.797 176.73 300.078 176.66 c 211.832
 176.66 l 204.895 176.676 198.613 180.75 195.77 187.074 c 198.031 186.008
 200.508 185.465 203.004 185.484 c 291.254 185.484 l 300.969 185.555 308.832
 193.418 308.902 203.137 c 308.922 205.633 308.379 208.105 307.316 210.371
 c 313.637 207.527 317.715 201.242 317.727 194.309 c h
317.727 194.309 m f
317.727 229.605 m 317.754 224.926 315.871 220.434 312.52 217.168 c 309.195
 213.898 304.738 212.035 300.078 211.957 c 211.832 211.957 l 205.961 211.957
 200.477 214.867 197.184 219.723 c 196.645 220.566 196.172 221.453 195.77
 222.371 c 198.031 221.305 200.508 220.762 203.004 220.781 c 291.254 220.781
 l 300.969 220.855 308.832 228.715 308.902 238.434 c 308.922 240.934 308.379
 243.406 307.316 245.668 c 313.637 242.824 317.715 236.543 317.727 229.605
 c h
317.727 229.605 m f
291.254 176.66 m 291.254 167.836 l 291.215 152.434 281.199 138.836 266.504
 134.23 c 251.805 129.629 235.824 135.086 227.008 147.715 c 237.785 140.188
 251.852 139.281 263.504 145.367 c 275.152 151.449 282.453 163.516 282.43
 176.66 c h
291.254 176.66 m f
0.835294 0.435294 0.67451 rg
428.48 113.211 m 428.551 112.445 428.582 111.68 428.566 110.914 c 428.645
 81.531 408.457 55.969 379.855 49.234 c 379.672 48.25 379.434 47.277 379.148
 46.32 c 378.973 45.789 378.883 45.438 378.707 44.906 c 378.176 43.23 377.648
 41.465 376.941 39.699 c 367.402 15.879 344.359 0.242 318.699 0.168 c 314.246
 0.148 309.809 0.621 305.461 1.574 c 325.832 6.082 342.672 20.348 350.465
 39.699 c 351.172 41.465 351.703 43.23 352.23 44.906 c 352.41 45.438 352.496
 45.789 352.672 46.32 c 352.961 47.277 353.195 48.25 353.379 49.234 c 381.984
 55.969 402.168 81.531 402.094 110.914 c 402.105 111.68 402.078 112.445 
402.004 113.211 c 421.688 119.238 436.422 135.66 440.289 155.883 c 444.152
 176.102 436.52 196.797 420.445 209.664 c 439.352 232.234 437.375 265.633
 415.949 285.82 c 415.949 285.91 l 417.121 290.793 417.715 295.801 417.715
 300.824 c 417.879 332.738 394.145 359.734 362.469 363.652 c 362.52 363.699
 362.551 363.762 362.555 363.832 c 363.223 364.543 363.785 365.348 364.234
 366.215 c 365.48 368.047 366.547 370 367.41 372.039 c 373.324 385.727 371.074
 401.574 361.586 413.074 c 361.293 417.852 360.641 422.598 359.645 427.281
 c 359.73 427.281 l 372.66 426.578 384.43 419.598 391.242 408.582 c 398.047
 397.57 399.035 383.918 393.887 372.039 c 393.023 370 391.957 368.047 390.707
 366.215 c 390.262 365.348 389.699 364.543 389.031 363.832 c 389.023 363.762
 388.992 363.699 388.941 363.652 c 420.617 359.734 444.352 332.738 444.184
 300.824 c 444.184 295.801 443.59 290.793 442.418 285.91 c 442.418 285.82
 l 463.852 265.633 465.824 232.234 446.922 209.664 c 462.992 196.797 470.629
 176.102 466.762 155.883 c 462.898 135.66 448.16 119.238 428.48 113.211 
c h
428.48 113.211 m f
0.960784 0.72549 0.270588 rg
361.852 407.867 m 362.398 375.285 347.91 344.266 322.578 323.77 c 308.305
 312.07 300.039 294.57 300.078 276.117 c 300.078 247.258 l 282.43 247.258
 l 282.43 276.117 l 282.395 294.57 290.656 312.07 304.934 323.77 c 330.266
 344.266 344.75 375.285 344.203 407.867 c 344.094 413.883 343.445 419.883
 342.262 425.781 c 342.172 426.223 342.086 426.75 341.996 427.281 c 332.184
 473.062 293.828 507.203 247.219 511.645 c 251.621 512 256.043 512.09 260.457
 511.91 c 308.852 509.371 349.52 474.672 359.645 427.281 c 360.641 422.598
 361.293 417.852 361.586 413.074 c 361.762 411.344 361.852 409.609 361.852
 407.867 c h
361.852 407.867 m f
0.835294 0.435294 0.67451 rg
132.055 49.234 m 124.66 50.883 117.652 53.941 111.406 58.234 c 110.723 
62.016 110.398 65.859 110.434 69.703 c 110.465 72.715 110.672 75.719 111.051
 78.703 c 111.297 81.039 112.48 83.172 114.324 84.621 c 116.172 86.062 118.523
 86.699 120.848 86.383 c 123.18 86.094 125.301 84.895 126.742 83.039 c 128.184
 81.184 128.828 78.828 128.527 76.5 c 128.246 74.242 128.098 71.977 128.086
 69.703 c 128.062 62.684 129.414 55.73 132.055 49.234 c h
132.055 49.234 m f
86.695 131.832 m 84.516 125.863 83.41 119.562 83.43 113.211 c 77.246 115.027
 71.445 117.961 66.312 121.855 c 66.93 127.309 68.172 132.668 70.016 137.832
 c 71.676 142.41 76.73 144.781 81.316 143.125 c 85.891 141.461 88.285 136.434
 86.695 131.832 c h
86.695 131.832 m f
79.109 217.168 m 73.91 215.656 69.035 213.203 64.723 209.93 c 60.949 214.504
 57.938 219.66 55.812 225.195 c 61.371 229.09 67.508 232.094 73.988 234.109
 c 78.668 235.523 83.605 232.875 85.02 228.199 c 86.434 223.516 83.785 218.578
 79.109 217.168 c h
79.109 217.168 m f
98.961 305.852 m 99.316 303.535 98.734 301.176 97.344 299.285 c 95.953 
297.398 93.867 296.141 91.551 295.793 c 83.434 294.637 75.781 291.312 69.402
 286.176 c 68.301 290.98 67.738 295.895 67.723 300.824 c 67.723 302.621 
67.812 304.418 67.988 306.207 c 67.988 306.293 l 74.52 309.844 81.633 312.207
 88.992 313.27 c 91.297 313.613 93.648 313.027 95.516 311.633 c 97.387 310.242
 98.629 308.16 98.961 305.852 c h
98.961 305.852 m f
1 0.839216 0.482353 rg
321.453 370.805 m 318.52 370.801 315.773 372.258 314.133 374.688 c 312.492
 377.117 312.164 380.207 313.262 382.93 c 323.121 407.32 316.328 435.285
 296.371 452.434 c 293.844 454.469 292.637 457.727 293.23 460.914 c 293.824
 464.105 296.117 466.715 299.203 467.707 c 302.293 468.699 305.68 467.918
 308.02 465.668 c 333.602 443.578 342.293 407.66 329.641 376.316 c 328.293
 372.984 325.051 370.801 321.453 370.805 c h
321.453 370.805 m f
264.777 467.32 m 264.398 467.316 264.023 467.34 263.648 467.391 c 261.992
 467.602 260.309 467.746 258.602 467.824 c 253.73 468.027 249.953 472.141
 250.156 477.008 c 250.457 481.832 254.512 485.559 259.344 485.453 c 261.551
 485.355 263.754 485.172 265.891 484.898 c 270.512 484.309 273.879 480.234
 273.586 475.586 c 273.293 470.938 269.438 467.32 264.777 467.32 c h
264.777 467.32 m f
0.835294 0.435294 0.67451 rg
264.777 132.539 m 264.777 31.227 l 260.75 37.941 258.051 45.375 256.836
 53.113 c 256.23 56.523 255.934 59.98 255.953 63.438 c 255.973 60.008 255.676
 56.582 255.07 53.199 c 253.871 45.434 251.172 37.969 247.129 31.227 c 247.129
 132.539 l 247.117 132.895 247.145 133.25 247.219 133.594 c 252.957 132.184
 258.953 132.184 264.691 133.594 c 264.762 133.25 264.793 132.895 264.777
 132.539 c h
264.777 132.539 m f
0.705882 0.87451 0.501961 rg
247.129 88.41 m 247.129 70.766 l 203.004 70.766 l 198.133 70.766 194.18
 74.711 194.18 79.586 c 194.18 84.465 198.133 88.41 203.004 88.41 c h
247.129 88.41 m f
317.727 61.938 m 317.727 57.066 313.777 53.113 308.902 53.113 c 264.777
 53.113 l 264.777 70.766 l 308.902 70.766 l 313.777 70.766 317.727 66.812
 317.727 61.938 c h
317.727 61.938 m f
297.52 99.797 m 291.254 93.621 l 287.965 90.289 283.488 88.414 278.809 
88.41 c 264.777 88.41 l 264.777 106.062 l 278.809 106.062 l 284.988 112.328
 l 288.445 115.789 294.059 115.789 297.52 112.328 c 300.977 108.867 300.977
 103.258 297.52 99.797 c h
297.52 99.797 m f
171.766 273.73 m 171.766 278.605 175.719 282.555 180.59 282.555 c 211.48
 282.555 l 211.727 280.418 211.848 278.266 211.832 276.117 c 211.832 264.91
 l 180.59 264.91 l 175.719 264.91 171.766 268.855 171.766 273.73 c h
171.766 273.73 m f
194.18 194.309 m 194.168 191.344 194.926 188.422 196.387 185.836 c 195.68
 185.582 194.934 185.465 194.18 185.484 c 171.324 185.484 l 159.941 174.012
 l 159.414 173.496 158.82 173.051 158.176 172.688 c 156.484 178.527 151.926
 183.086 146.086 184.777 c 146.449 185.422 146.895 186.016 147.41 186.543
 c 158.883 197.926 l 162.168 201.258 166.648 203.133 171.324 203.137 c 194.18
 203.137 l 194.934 203.156 195.68 203.035 196.387 202.781 c 194.926 200.195
 194.168 197.277 194.18 194.309 c h
194.18 194.309 m f
230.715 143.125 m 229.172 142.008 227.324 141.395 225.422 141.363 c 206.625
 141.363 l 191.621 126.27 l 188.145 122.855 182.57 122.855 179.09 126.27
 c 175.652 129.738 175.652 135.332 179.09 138.801 c 194.18 153.805 l 197.469
 157.133 201.945 159.004 206.625 159.008 c 221.805 159.008 l 223.34 153.031
 226.41 147.551 230.715 143.125 c h
230.715 143.125 m f
194.18 220.781 m 141.234 220.781 l 136.359 220.781 132.406 224.734 132.406
 229.605 c 132.406 234.48 136.359 238.434 141.234 238.434 c 194.18 238.434
 l 194.934 238.453 195.68 238.332 196.387 238.082 c 193.445 232.812 193.445
 226.402 196.387 221.137 c 195.68 220.883 194.934 220.762 194.18 220.781
 c h
194.18 220.781 m f
342.969 147.008 m 338.207 143.727 335.371 138.316 335.375 132.539 c 335.375
 131.832 l 334.633 131.945 333.922 132.184 333.262 132.539 c 315.609 141.363
 l 286.484 141.363 l 284.586 141.395 282.734 142.008 281.195 143.125 c 285.5
 147.551 288.566 153.031 290.105 159.008 c 315.609 159.008 l 318.375 159.016
 321.102 158.348 323.551 157.07 c 341.203 148.242 l 341.844 147.914 342.438
 147.496 342.969 147.008 c h
342.969 147.008 m f
326.551 264.91 m 300.078 264.91 l 300.078 276.117 l 300.059 278.266 300.176
 280.418 300.43 282.555 c 326.551 282.555 l 331.426 282.555 335.375 278.605
 335.375 273.73 c 335.375 268.855 331.426 264.91 326.551 264.91 c h
326.551 264.91 m f
379.5 194.309 m 379.5 189.438 375.551 185.484 370.676 185.484 c 317.727
 185.484 l 316.977 185.465 316.23 185.582 315.52 185.836 c 318.465 191.102
 318.465 197.516 315.52 202.781 c 316.23 203.035 316.977 203.156 317.727
 203.137 c 370.676 203.137 l 375.551 203.137 379.5 199.184 379.5 194.309
 c h
379.5 194.309 m f
374.645 247.965 m 374.285 247.32 373.84 246.727 373.32 246.199 c 353.027
 225.992 l 349.738 222.66 345.262 220.785 340.582 220.781 c 317.727 220.781
 l 316.977 220.762 316.23 220.883 315.52 221.137 c 318.465 226.402 318.465
 232.812 315.52 238.082 c 316.23 238.332 316.977 238.453 317.727 238.434
 c 340.582 238.434 l 360.789 258.73 l 361.32 259.246 361.914 259.691 362.555
 260.055 c 364.246 254.215 368.812 249.652 374.645 247.965 c h
374.645 247.965 m f
Q Q
showpage
%%Trailer
end restore
%%EOF
