%!PS-Adobe-3.0 EPSF-3.0
%%Creator: cairo 1.14.6 (http://cairographics.org)
%%CreationDate: Wed Apr  3 07:48:51 2019
%%Pages: 1
%%DocumentData: Clean7Bit
%%LanguageLevel: 2
%%BoundingBox: 0 0 512 511
%%EndComments
%%BeginProlog
save
50 dict begin
/q { gsave } bind def
/Q { grestore } bind def
/cm { 6 array astore concat } bind def
/w { setlinewidth } bind def
/J { setlinecap } bind def
/j { setlinejoin } bind def
/M { setmiterlimit } bind def
/d { setdash } bind def
/m { moveto } bind def
/l { lineto } bind def
/c { curveto } bind def
/h { closepath } bind def
/re { exch dup neg 3 1 roll 5 3 roll moveto 0 rlineto
      0 exch rlineto 0 rlineto closepath } bind def
/S { stroke } bind def
/f { fill } bind def
/f* { eofill } bind def
/n { newpath } bind def
/W { clip } bind def
/W* { eoclip } bind def
/BT { } bind def
/ET { } bind def
/pdfmark where { pop globaldict /?pdfmark /exec load put }
    { globaldict begin /?pdfmark /pop load def /pdfmark
    /cleartomark load def end } ifelse
/BDC { mark 3 1 roll /BDC pdfmark } bind def
/EMC { mark /EMC pdfmark } bind def
/cairo_store_point { /cairo_point_y exch def /cairo_point_x exch def } def
/Tj { show currentpoint cairo_store_point } bind def
/TJ {
  {
    dup
    type /stringtype eq
    { show } { -0.001 mul 0 cairo_font_matrix dtransform rmoveto } ifelse
  } forall
  currentpoint cairo_store_point
} bind def
/cairo_selectfont { cairo_font_matrix aload pop pop pop 0 0 6 array astore
    cairo_font exch selectfont cairo_point_x cairo_point_y moveto } bind def
/Tf { pop /cairo_font exch def /cairo_font_matrix where
      { pop cairo_selectfont } if } bind def
/Td { matrix translate cairo_font_matrix matrix concatmatrix dup
      /cairo_font_matrix exch def dup 4 get exch 5 get cairo_store_point
      /cairo_font where { pop cairo_selectfont } if } bind def
/Tm { 2 copy 8 2 roll 6 array astore /cairo_font_matrix exch def
      cairo_store_point /cairo_font where { pop cairo_selectfont } if } bind def
/g { setgray } bind def
/rg { setrgbcolor } bind def
/d1 { setcachedevice } bind def
%%EndProlog
%%BeginSetup
%%EndSetup
%%Page: 1 1
%%BeginPageSetup
%%PageBoundingBox: 0 0 512 511
%%EndPageSetup
q 0 0 512 511 rectclip q
0.388235 0.423529 0.466667 rg
476.691 70.098 m 476.691 387.891 l 476.66 397.629 468.773 405.516 459.035
 405.547 c 52.965 405.547 l 43.227 405.516 35.34 397.629 35.309 387.891 
c 35.309 70.098 l h
476.691 70.098 m f
0.309804 0.752941 0.909804 rg
389.562 370.234 m 432.551 370.234 l 437.426 370.234 441.379 366.281 441.379
 361.406 c 441.379 158.375 l 441.379 153.496 437.426 149.547 432.551 149.547
 c 79.449 149.547 l 74.574 149.547 70.621 153.496 70.621 158.375 c 70.621
 361.406 l 70.621 366.281 74.574 370.234 79.449 370.234 c h
389.562 370.234 m f
0.388235 0.423529 0.466667 rg
485.516 43.613 m 458.152 9.418 l 453.129 3.137 445.52 -0.523 437.477 -0.523
 c 74.523 -0.523 l 66.48 -0.523 58.871 3.137 53.848 9.418 c 26.484 43.613
 l 26.484 61.27 l 485.516 61.27 l h
485.516 43.613 m f
0.662745 0.690196 0.733333 rg
512 96.578 m 512 61.27 l 511.973 51.531 504.082 43.645 494.344 43.613 c
 17.656 43.613 l 7.918 43.645 0.027 51.531 0 61.27 c 0 96.578 l 0.027 106.32
 7.918 114.207 17.656 114.234 c 176.551 114.234 l 181.426 114.234 185.379
 110.281 185.379 105.406 c 185.379 96.578 l 185.379 91.703 189.332 87.754
 194.207 87.754 c 317.793 87.754 l 322.668 87.754 326.621 91.703 326.621
 96.578 c 326.621 105.406 l 326.621 110.281 330.574 114.234 335.449 114.234
 c 494.344 114.234 l 504.082 114.207 511.973 106.32 512 96.578 c h
512 96.578 m f
0.270588 0.45098 0.576471 rg
150.07 438.473 m 150.07 352.578 l 150.16 349.344 151.34 346.234 153.422
 343.754 c 165.164 328.48 206.652 317.27 256 317.27 c 314.527 317.27 361.93
 333.07 361.93 352.578 c 361.93 438.473 l h
150.07 438.473 m f
0.211765 0.34902 0.447059 rg
399.59 450.133 m 258.992 406.43 l 257.043 405.828 254.957 405.828 253.008
 406.43 c 112.41 450.133 l 108.57 451.105 105.883 454.559 105.883 458.52
 c 105.883 462.48 108.57 465.934 112.41 466.906 c 253.008 510.551 l 254.957
 511.148 257.043 511.148 258.992 510.551 c 399.59 466.887 l 403.41 465.902
 406.082 462.457 406.082 458.512 c 406.082 454.566 403.41 451.117 399.59
 450.133 c h
399.59 450.133 m f
0.329412 0.364706 0.4 rg
476.691 387.891 m 476.691 114.234 l 459.035 114.234 l 459.035 387.891 l
 459.004 397.629 451.117 405.516 441.379 405.547 c 459.035 405.547 l 468.773
 405.516 476.66 397.629 476.691 387.891 c h
476.691 387.891 m f
485.516 43.613 m 458.152 9.453 l 453.16 3.137 445.547 -0.539 437.496 -0.523
 c 419.84 -0.523 l 427.891 -0.539 435.504 3.137 440.496 9.453 c 467.863 
43.613 l h
485.516 43.613 m f
0.576471 0.603922 0.647059 rg
512 96.578 m 512 61.27 l 511.973 51.531 504.082 43.645 494.344 43.613 c
 476.691 43.613 l 486.441 43.613 494.344 51.52 494.344 61.27 c 494.344 96.578
 l 494.316 106.32 486.43 114.207 476.691 114.234 c 494.344 114.234 l 504.082
 114.207 511.973 106.32 512 96.578 c h
512 96.578 m f
194.207 87.754 m 176.551 87.754 l 171.676 87.754 167.723 91.703 167.723
 96.578 c 167.723 105.406 l 167.723 110.281 163.773 114.234 158.898 114.234
 c 176.551 114.234 l 181.426 114.234 185.379 110.281 185.379 105.406 c 185.379
 96.578 l 185.379 91.703 189.332 87.754 194.207 87.754 c h
194.207 87.754 m f
0.211765 0.34902 0.447059 rg
361.93 438.473 m 361.93 352.578 l 361.93 333.07 314.527 317.27 256 317.27
 c 251.496 317.27 246.996 317.359 242.672 317.535 c 295.02 319.742 335.449
 334.57 335.449 352.578 c 335.449 430.262 l h
361.93 438.473 m f
0.168627 0.298039 0.376471 rg
399.625 450.125 m 361.93 438.473 l 335.449 430.262 l 259 406.516 l 257.047
 405.898 254.953 405.898 253 406.516 c 242.758 409.695 l 335.449 438.473
 l 335.535 438.473 l 373.141 450.125 l 376.934 451.148 379.566 454.586 379.566
 458.512 c 379.566 462.438 376.934 465.875 373.141 466.898 c 242.758 507.328
 l 253 510.504 l 254.953 511.125 257.047 511.125 259 510.504 c 399.625 466.898
 l 403.414 465.875 406.047 462.438 406.047 458.512 c 406.047 454.586 403.414
 451.148 399.625 450.125 c h
399.625 450.125 m f
1 0.839216 0.482353 rg
44.137 70.098 m 35.309 70.098 l 30.434 70.098 26.484 74.051 26.484 78.926
 c 26.484 83.801 30.434 87.754 35.309 87.754 c 44.137 87.754 l 49.012 87.754
 52.965 83.801 52.965 78.926 c 52.965 74.051 49.012 70.098 44.137 70.098
 c h
44.137 70.098 m f
88.277 70.098 m 79.449 70.098 l 74.574 70.098 70.621 74.051 70.621 78.926
 c 70.621 83.801 74.574 87.754 79.449 87.754 c 88.277 87.754 l 93.152 87.754
 97.102 83.801 97.102 78.926 c 97.102 74.051 93.152 70.098 88.277 70.098
 c h
88.277 70.098 m f
0.956863 0.964706 0.972549 rg
229.516 264.305 m 123.586 264.305 l 118.711 264.305 114.758 268.258 114.758
 273.133 c 114.758 278.008 118.711 281.961 123.586 281.961 c 229.516 281.961
 l 234.395 281.961 238.344 278.008 238.344 273.133 c 238.344 268.258 234.395
 264.305 229.516 264.305 c h
229.516 264.305 m f
397.242 264.305 m 264.828 264.305 l 259.953 264.305 256 268.258 256 273.133
 c 256 278.008 259.953 281.961 264.828 281.961 c 397.242 281.961 l 402.117
 281.961 406.07 278.008 406.07 273.133 c 406.07 268.258 402.117 264.305 
397.242 264.305 c h
397.242 264.305 m f
317.793 228.992 m 123.586 228.992 l 118.711 228.992 114.758 232.945 114.758
 237.82 c 114.758 242.695 118.711 246.648 123.586 246.648 c 317.793 246.648
 l 322.668 246.648 326.621 242.695 326.621 237.82 c 326.621 232.945 322.668
 228.992 317.793 228.992 c h
317.793 228.992 m f
397.242 228.992 m 353.102 228.992 l 348.227 228.992 344.277 232.945 344.277
 237.82 c 344.277 242.695 348.227 246.648 353.102 246.648 c 397.242 246.648
 l 402.117 246.648 406.07 242.695 406.07 237.82 c 406.07 232.945 402.117
 228.992 397.242 228.992 c h
397.242 228.992 m f
397.242 193.684 m 194.207 193.684 l 189.332 193.684 185.379 197.637 185.379
 202.512 c 185.379 207.387 189.332 211.34 194.207 211.34 c 397.242 211.34
 l 402.117 211.34 406.07 207.387 406.07 202.512 c 406.07 197.637 402.117
 193.684 397.242 193.684 c h
397.242 193.684 m f
158.898 193.684 m 123.586 193.684 l 118.711 193.684 114.758 197.637 114.758
 202.512 c 114.758 207.387 118.711 211.34 123.586 211.34 c 158.898 211.34
 l 163.773 211.34 167.723 207.387 167.723 202.512 c 167.723 197.637 163.773
 193.684 158.898 193.684 c h
158.898 193.684 m f
Q Q
showpage
%%Trailer
end restore
%%EOF
