%!PS-Adobe-3.0 EPSF-3.0
%%Creator: cairo 1.14.6 (http://cairographics.org)
%%CreationDate: Wed Apr  3 07:48:51 2019
%%Pages: 1
%%DocumentData: Clean7Bit
%%LanguageLevel: 2
%%BoundingBox: 0 0 512 512
%%EndComments
%%BeginProlog
save
50 dict begin
/q { gsave } bind def
/Q { grestore } bind def
/cm { 6 array astore concat } bind def
/w { setlinewidth } bind def
/J { setlinecap } bind def
/j { setlinejoin } bind def
/M { setmiterlimit } bind def
/d { setdash } bind def
/m { moveto } bind def
/l { lineto } bind def
/c { curveto } bind def
/h { closepath } bind def
/re { exch dup neg 3 1 roll 5 3 roll moveto 0 rlineto
      0 exch rlineto 0 rlineto closepath } bind def
/S { stroke } bind def
/f { fill } bind def
/f* { eofill } bind def
/n { newpath } bind def
/W { clip } bind def
/W* { eoclip } bind def
/BT { } bind def
/ET { } bind def
/pdfmark where { pop globaldict /?pdfmark /exec load put }
    { globaldict begin /?pdfmark /pop load def /pdfmark
    /cleartomark load def end } ifelse
/BDC { mark 3 1 roll /BDC pdfmark } bind def
/EMC { mark /EMC pdfmark } bind def
/cairo_store_point { /cairo_point_y exch def /cairo_point_x exch def } def
/Tj { show currentpoint cairo_store_point } bind def
/TJ {
  {
    dup
    type /stringtype eq
    { show } { -0.001 mul 0 cairo_font_matrix dtransform rmoveto } ifelse
  } forall
  currentpoint cairo_store_point
} bind def
/cairo_selectfont { cairo_font_matrix aload pop pop pop 0 0 6 array astore
    cairo_font exch selectfont cairo_point_x cairo_point_y moveto } bind def
/Tf { pop /cairo_font exch def /cairo_font_matrix where
      { pop cairo_selectfont } if } bind def
/Td { matrix translate cairo_font_matrix matrix concatmatrix dup
      /cairo_font_matrix exch def dup 4 get exch 5 get cairo_store_point
      /cairo_font where { pop cairo_selectfont } if } bind def
/Tm { 2 copy 8 2 roll 6 array astore /cairo_font_matrix exch def
      cairo_store_point /cairo_font where { pop cairo_selectfont } if } bind def
/g { setgray } bind def
/rg { setrgbcolor } bind def
/d1 { setcachedevice } bind def
%%EndProlog
%%BeginSetup
%%EndSetup
%%Page: 1 1
%%BeginPageSetup
%%PageBoundingBox: 0 0 512 512
%%EndPageSetup
q 0 0 512 512 rectclip q
0.937255 0.780392 0.643137 rg
433.234 109.336 m 432.961 109.047 432.668 108.781 432.352 108.543 c 426.695
 103.586 423.5 96.387 423.617 88.863 c 423.617 -0.098 l 167.672 -0.098 l
 163.879 15.172 l 163.703 16.004 163.406 16.805 162.996 17.555 c 159.598
 27.359 150.742 34.242 140.402 35.117 c 140.312 35.203 140.312 35.117 140.312
 35.117 c 139.609 35.191 138.902 35.219 138.195 35.203 c 70.062 35.203 l
 61.727 35.027 53.633 37.984 47.379 43.5 c 40.848 49.449 37.031 57.809 36.816
 66.645 c 36.598 75.473 40 84.012 46.23 90.273 c 55.059 99.102 l 58.098 
102.145 59.012 106.719 57.367 110.691 c 55.727 114.668 51.855 117.27 47.555
 117.281 c 44.816 118.605 43.102 121.395 43.145 124.434 c 43.148 127.129
 44.504 129.652 46.762 131.137 c 49.379 132.895 50.719 136.023 50.188 139.133
 c 49.652 142.234 47.344 144.738 44.289 145.523 c 37.055 147.289 l 34.762
 147.871 32.844 149.434 31.805 151.559 c 30.77 153.684 30.719 156.156 31.668
 158.32 c 34.137 164.027 35.367 170.195 35.289 176.414 c 35.316 179.371 
35.047 182.328 34.492 185.238 c 33.531 191.762 30.746 197.879 26.461 202.891
 c 8.809 202.891 l 5.531 202.895 2.523 204.723 1.004 207.629 c -0.516 210.539
 -0.297 214.047 1.574 216.746 c 63.441 307.207 l 65.625 310.344 66.797 314.07
 66.793 317.887 c 66.766 321.551 65.695 325.133 63.703 328.215 c 60.695 
332.664 59.762 338.199 61.148 343.395 c 87.262 438.066 170.715 505.633 268.75
 511.477 c 366.785 517.32 457.676 460.148 494.855 369.25 c 532.035 278.352
 507.262 173.871 433.234 109.336 c h
433.234 109.336 m f
0.619608 0.823529 0.415686 rg
388.312 361.75 m 388.312 220.543 l 388.316 217.594 387.809 214.664 386.812
 211.895 c 384.23 204.191 378.184 198.145 370.484 195.562 c 367.711 194.57
 364.785 194.062 361.836 194.066 c 220.625 194.066 l 217.68 194.062 214.754
 194.57 211.977 195.562 c 204.273 198.145 198.23 204.191 195.648 211.895
 c 194.652 214.664 194.145 217.594 194.148 220.543 c 194.148 361.75 l 194.145
 364.699 194.652 367.629 195.648 370.398 c 198.23 378.102 204.273 384.148
 211.977 386.73 c 214.754 387.723 217.68 388.23 220.625 388.227 c 361.836
 388.227 l 364.785 388.23 367.711 387.723 370.484 386.73 c 378.184 384.148
 384.23 378.102 386.812 370.398 c 387.809 367.629 388.316 364.699 388.312
 361.75 c h
388.312 361.75 m f
0.537255 0.752941 0.32549 rg
255.926 344.102 m 326.531 344.102 l 336.281 344.102 344.184 336.195 344.184
 326.449 c 344.184 255.844 l 344.184 246.098 336.281 238.191 326.531 238.191
 c 255.926 238.191 l 246.18 238.191 238.277 246.098 238.277 255.844 c 238.277
 326.449 l 238.277 336.195 246.18 344.102 255.926 344.102 c h
255.926 344.102 m f
0.890196 0.713726 0.572549 rg
433.234 109.336 m 432.961 109.047 432.668 108.781 432.352 108.543 c 426.695
 103.586 423.5 96.387 423.617 88.863 c 423.617 -0.098 l 397.137 -0.098 l
 397.137 88.863 l 397.02 96.387 400.215 103.586 405.875 108.543 c 406.191
 108.781 406.488 109.047 406.758 109.336 c 475.047 168.816 501.965 262.895
 475.48 349.492 c 448.988 436.094 374.047 499.012 284.172 510.109 c 279.141
 510.695 274.109 511.137 269.078 511.434 c 282.949 512.219 296.855 511.773
 310.645 510.109 c 400.523 499.012 475.469 436.094 501.953 349.492 c 528.445
 262.895 501.523 168.816 433.234 109.336 c h
433.234 109.336 m f
0.537255 0.752941 0.32549 rg
388.312 361.75 m 388.312 220.543 l 388.316 217.594 387.809 214.664 386.812
 211.895 c 384.23 204.191 378.184 198.145 370.484 195.562 c 367.711 194.57
 364.785 194.062 361.836 194.066 c 344.184 194.066 l 347.133 194.062 350.059
 194.57 352.836 195.562 c 360.535 198.145 366.578 204.191 369.16 211.895
 c 370.16 214.664 370.668 217.594 370.66 220.543 c 370.66 361.75 l 370.668
 364.699 370.16 367.629 369.16 370.398 c 366.578 378.102 360.535 384.148
 352.836 386.73 c 350.059 387.723 347.133 388.23 344.184 388.227 c 361.836
 388.227 l 364.785 388.23 367.711 387.723 370.484 386.73 c 378.184 384.148
 384.23 378.102 386.812 370.398 c 387.809 367.629 388.316 364.699 388.312
 361.75 c h
388.312 361.75 m f
0.890196 0.713726 0.572549 rg
68.031 178.973 m 64.551 175.562 58.98 175.562 55.5 178.973 c 54.441 180.031
 l 51.164 183.375 46.676 185.254 41.996 185.238 c 34.492 185.238 l 33.531
 191.762 30.746 197.879 26.461 202.891 c 41.996 202.891 l 51.348 202.836
 60.312 199.129 66.973 192.566 c 68.031 191.508 l 71.473 188.035 71.473 
182.441 68.031 178.973 c h
68.031 178.973 m f
307.91 57.707 m 295.703 33.016 270.5 17.434 242.953 17.555 c 162.996 17.555
 l 159.598 27.359 150.742 34.242 140.402 35.117 c 140.66 35.188 140.93 35.219
 141.195 35.203 c 242.953 35.203 l 263.832 35.141 282.93 46.945 292.199 
65.652 c 293.473 68.707 296.348 70.793 299.645 71.059 c 302.941 71.324 306.113
 69.719 307.852 66.906 c 309.594 64.094 309.617 60.543 307.91 57.707 c h
307.91 57.707 m f
0.984314 0.513726 0.435294 rg
370.66 423.527 m 370.66 388.227 l 370.652 387.723 370.594 387.223 370.484
 386.73 c 367.711 387.723 364.785 388.23 361.836 388.227 c 353.012 388.227
 l 353.012 423.527 l 353.012 428.402 356.965 432.355 361.836 432.355 c 366.711
 432.355 370.66 428.402 370.66 423.527 c h
370.66 423.527 m f
335.359 423.527 m 335.359 388.227 l 317.707 388.227 l 317.707 423.527 l
 317.707 428.402 321.66 432.355 326.531 432.355 c 331.406 432.355 335.359
 428.402 335.359 423.527 c h
335.359 423.527 m f
300.059 423.527 m 300.059 388.227 l 282.406 388.227 l 282.406 423.527 l
 282.406 428.402 286.359 432.355 291.23 432.355 c 296.105 432.355 300.059
 428.402 300.059 423.527 c h
300.059 423.527 m f
264.754 423.527 m 264.754 388.227 l 247.102 388.227 l 247.102 423.527 l
 247.102 428.402 251.055 432.355 255.926 432.355 c 260.801 432.355 264.754
 428.402 264.754 423.527 c h
264.754 423.527 m f
229.453 423.527 m 229.453 388.227 l 220.625 388.227 l 217.68 388.23 214.754
 387.723 211.977 386.73 c 211.871 387.223 211.812 387.723 211.801 388.227
 c 211.801 423.527 l 211.801 428.402 215.754 432.355 220.625 432.355 c 225.5
 432.355 229.453 428.402 229.453 423.527 c h
229.453 423.527 m f
370.66 194.066 m 370.66 158.762 l 370.66 153.887 366.711 149.938 361.836
 149.938 c 356.965 149.938 353.012 153.887 353.012 158.762 c 353.012 194.066
 l 361.836 194.066 l 364.785 194.062 367.711 194.57 370.484 195.562 c 370.594
 195.07 370.652 194.57 370.66 194.066 c h
370.66 194.066 m f
317.707 194.066 m 335.359 194.066 l 335.359 158.762 l 335.359 153.887 331.406
 149.938 326.531 149.938 c 321.66 149.938 317.707 153.887 317.707 158.762
 c h
317.707 194.066 m f
282.406 194.066 m 300.059 194.066 l 300.059 158.762 l 300.059 153.887 296.105
 149.938 291.23 149.938 c 286.359 149.938 282.406 153.887 282.406 158.762
 c h
282.406 194.066 m f
220.625 194.066 m 229.453 194.066 l 229.453 158.762 l 229.453 153.887 225.5
 149.938 220.625 149.938 c 215.754 149.938 211.801 153.887 211.801 158.762
 c 211.801 194.066 l 211.812 194.57 211.871 195.07 211.977 195.562 c 214.754
 194.57 217.68 194.062 220.625 194.066 c h
220.625 194.066 m f
247.102 194.066 m 264.754 194.066 l 264.754 158.762 l 264.754 153.887 260.801
 149.938 255.926 149.938 c 251.055 149.938 247.102 153.887 247.102 158.762
 c h
247.102 194.066 m f
150.02 255.844 m 150.02 260.719 153.973 264.672 158.848 264.672 c 194.148
 264.672 l 194.148 247.02 l 158.848 247.02 l 153.973 247.02 150.02 250.969
 150.02 255.844 c h
150.02 255.844 m f
150.02 361.75 m 150.02 366.625 153.973 370.574 158.848 370.574 c 194.148
 370.574 l 194.652 370.566 195.156 370.504 195.648 370.398 c 194.652 367.629
 194.145 364.699 194.148 361.75 c 194.148 352.922 l 158.848 352.922 l 153.973
 352.922 150.02 356.875 150.02 361.75 c h
150.02 361.75 m f
150.02 326.449 m 150.02 331.324 153.973 335.273 158.848 335.273 c 194.148
 335.273 l 194.148 317.621 l 158.848 317.621 l 153.973 317.621 150.02 321.574
 150.02 326.449 c h
150.02 326.449 m f
150.02 291.145 m 150.02 296.02 153.973 299.969 158.848 299.969 c 194.148
 299.969 l 194.148 282.32 l 158.848 282.32 l 153.973 282.32 150.02 286.27
 150.02 291.145 c h
150.02 291.145 m f
194.148 220.543 m 194.145 217.594 194.652 214.664 195.648 211.895 c 195.156
 211.785 194.652 211.727 194.148 211.719 c 158.848 211.719 l 153.973 211.719
 150.02 215.664 150.02 220.543 c 150.02 225.418 153.973 229.367 158.848 
229.367 c 194.148 229.367 l h
194.148 220.543 m f
388.312 361.75 m 388.316 364.699 387.809 367.629 386.812 370.398 c 387.305
 370.504 387.809 370.566 388.312 370.574 c 423.617 370.574 l 428.492 370.574
 432.441 366.625 432.441 361.75 c 432.441 356.875 428.492 352.922 423.617
 352.922 c 388.312 352.922 l h
388.312 361.75 m f
432.441 291.145 m 432.441 286.27 428.492 282.32 423.617 282.32 c 388.312
 282.32 l 388.312 299.969 l 423.617 299.969 l 428.492 299.969 432.441 296.02
 432.441 291.145 c h
432.441 291.145 m f
432.441 326.449 m 432.441 321.574 428.492 317.621 423.617 317.621 c 388.312
 317.621 l 388.312 335.273 l 423.617 335.273 l 428.492 335.273 432.441 331.324
 432.441 326.449 c h
432.441 326.449 m f
432.441 255.844 m 432.441 250.969 428.492 247.02 423.617 247.02 c 388.312
 247.02 l 388.312 264.672 l 423.617 264.672 l 428.492 264.672 432.441 260.719
 432.441 255.844 c h
432.441 255.844 m f
432.441 220.543 m 432.441 215.664 428.492 211.719 423.617 211.719 c 388.312
 211.719 l 387.809 211.727 387.305 211.785 386.812 211.895 c 387.809 214.664
 388.316 217.594 388.312 220.543 c 388.312 229.367 l 423.617 229.367 l 428.492
 229.367 432.441 225.418 432.441 220.543 c h
432.441 220.543 m f
0.619608 0.823529 0.415686 rg
282.406 299.969 m 273.578 299.969 l 268.707 299.969 264.754 303.922 264.754
 308.797 c 264.754 313.672 268.707 317.621 273.578 317.621 c 282.406 317.621
 l 287.281 317.621 291.23 313.672 291.23 308.797 c 291.23 303.922 287.281
 299.969 282.406 299.969 c h
282.406 299.969 m f
308.879 264.672 m 300.059 264.672 l 295.184 264.672 291.23 268.621 291.23
 273.496 c 291.23 278.371 295.184 282.32 300.059 282.32 c 308.879 282.32
 l 313.758 282.32 317.707 278.371 317.707 273.496 c 317.707 268.621 313.758
 264.672 308.879 264.672 c h
308.879 264.672 m f
Q Q
showpage
%%Trailer
end restore
%%EOF
