%!PS-Adobe-3.0 EPSF-3.0
%%Creator: cairo 1.14.6 (http://cairographics.org)
%%CreationDate: Wed Apr  3 07:48:53 2019
%%Pages: 1
%%DocumentData: Clean7Bit
%%LanguageLevel: 2
%%BoundingBox: 0 8 512 503
%%EndComments
%%BeginProlog
save
50 dict begin
/q { gsave } bind def
/Q { grestore } bind def
/cm { 6 array astore concat } bind def
/w { setlinewidth } bind def
/J { setlinecap } bind def
/j { setlinejoin } bind def
/M { setmiterlimit } bind def
/d { setdash } bind def
/m { moveto } bind def
/l { lineto } bind def
/c { curveto } bind def
/h { closepath } bind def
/re { exch dup neg 3 1 roll 5 3 roll moveto 0 rlineto
      0 exch rlineto 0 rlineto closepath } bind def
/S { stroke } bind def
/f { fill } bind def
/f* { eofill } bind def
/n { newpath } bind def
/W { clip } bind def
/W* { eoclip } bind def
/BT { } bind def
/ET { } bind def
/pdfmark where { pop globaldict /?pdfmark /exec load put }
    { globaldict begin /?pdfmark /pop load def /pdfmark
    /cleartomark load def end } ifelse
/BDC { mark 3 1 roll /BDC pdfmark } bind def
/EMC { mark /EMC pdfmark } bind def
/cairo_store_point { /cairo_point_y exch def /cairo_point_x exch def } def
/Tj { show currentpoint cairo_store_point } bind def
/TJ {
  {
    dup
    type /stringtype eq
    { show } { -0.001 mul 0 cairo_font_matrix dtransform rmoveto } ifelse
  } forall
  currentpoint cairo_store_point
} bind def
/cairo_selectfont { cairo_font_matrix aload pop pop pop 0 0 6 array astore
    cairo_font exch selectfont cairo_point_x cairo_point_y moveto } bind def
/Tf { pop /cairo_font exch def /cairo_font_matrix where
      { pop cairo_selectfont } if } bind def
/Td { matrix translate cairo_font_matrix matrix concatmatrix dup
      /cairo_font_matrix exch def dup 4 get exch 5 get cairo_store_point
      /cairo_font where { pop cairo_selectfont } if } bind def
/Tm { 2 copy 8 2 roll 6 array astore /cairo_font_matrix exch def
      cairo_store_point /cairo_font where { pop cairo_selectfont } if } bind def
/g { setgray } bind def
/rg { setrgbcolor } bind def
/d1 { setcachedevice } bind def
%%EndProlog
%%BeginSetup
%%EndSetup
%%Page: 1 1
%%BeginPageSetup
%%PageBoundingBox: 0 8 512 503
%%EndPageSetup
q 0 8 512 495 rectclip q
0.662745 0.690196 0.733333 rg
256 503 m 312.555 503 358.398 457.152 358.398 400.602 c 358.398 264.066
 l 358.398 207.512 312.555 161.668 256 161.668 c 199.445 161.668 153.602
 207.512 153.602 264.066 c 153.602 400.602 l 153.602 457.152 199.445 503
 256 503 c h
256 503 m f
0.270588 0.45098 0.576471 rg
281.602 50.734 m 281.602 33.668 l 230.398 33.668 l 230.398 50.734 l 238.934
 128.559 l 250.27 127.191 261.73 127.191 273.066 128.559 c h
281.602 50.734 m f
0.388235 0.423529 0.466667 rg
358.398 400.602 m 358.398 392.066 l 307.199 392.066 l 297.785 392.094 290.16
 399.719 290.133 409.133 c 290.203 418.531 297.805 426.129 307.199 426.199
 c 355.156 426.199 l 355.668 424.152 356.18 422.105 356.523 419.969 c 356.863
 417.836 357.289 415.789 357.547 413.656 c 357.773 412.215 357.914 410.762
 357.973 409.305 c 358.145 408.176 358.23 407.031 358.23 405.891 c 358.316
 404.098 358.398 402.391 358.398 400.602 c h
358.398 400.602 m f
0.662745 0.690196 0.733333 rg
153.602 400.602 m 153.605 406.32 154.09 412.027 155.051 417.668 c h
153.602 400.602 m f
358.398 264.066 m 358.395 258.348 357.91 252.637 356.949 247 c h
358.398 264.066 m f
0.388235 0.423529 0.466667 rg
221.867 264.066 m 221.797 254.668 214.195 247.07 204.801 247 c 155.051 
247 l 154.09 252.637 153.605 258.348 153.602 264.066 c 153.602 281.133 l
 204.801 281.133 l 214.215 281.105 221.84 273.48 221.867 264.066 c h
221.867 264.066 m f
221.867 332.332 m 221.797 322.938 214.195 315.336 204.801 315.266 c 153.602
 315.266 l 153.602 349.398 l 204.801 349.398 l 214.215 349.371 221.84 341.746
 221.867 332.332 c h
221.867 332.332 m f
221.867 400.602 m 221.797 391.203 214.195 383.602 204.801 383.535 c 153.602
 383.535 l 153.602 400.602 l 155.051 417.668 l 204.801 417.668 l 214.215
 417.637 221.84 410.016 221.867 400.602 c h
221.867 400.602 m f
358.398 281.133 m 358.398 264.066 l 356.949 247 l 307.199 247 l 297.805
 247.07 290.203 254.668 290.133 264.066 c 290.16 273.48 297.785 281.105 
307.199 281.133 c h
358.398 281.133 m f
358.398 349.398 m 358.398 315.266 l 307.199 315.266 l 297.805 315.336 290.203
 322.938 290.133 332.332 c 290.16 341.746 297.785 349.371 307.199 349.398
 c h
358.398 349.398 m f
0.211765 0.34902 0.447059 rg
196.266 50.734 m 315.734 50.734 l 329.871 50.734 341.332 39.273 341.332
 25.133 c 341.332 12.332 l 341.332 9.977 339.422 8.066 337.066 8.066 c 174.934
 8.066 l 172.578 8.066 170.668 9.977 170.668 12.332 c 170.668 25.133 l 170.668
 39.273 182.129 50.734 196.266 50.734 c h
196.266 50.734 m f
0.584314 0.607843 0.647059 rg
356.949 247 m 348.656 197.719 305.973 161.641 256 161.668 c 252.332 161.668
 248.746 161.836 245.246 162.18 c 290.957 166.973 327.855 201.668 335.445
 247 c h
356.949 247 m f
336.895 315.266 21.504 -34.133 re f
336.895 392.066 21.504 -42.668 re f
355.156 426.199 m 333.652 426.199 l 323.02 467.602 287.762 498.027 245.246
 502.488 c 248.746 502.828 252.332 503 256 503 c 302.723 503.074 343.543
 471.453 355.156 426.199 c h
355.156 426.199 m f
0.258824 0.282353 0.321569 rg
358.398 400.602 m 358.398 392.066 l 336.895 392.066 l 336.895 400.602 l
 336.91 409.238 335.824 417.84 333.652 426.199 c 355.156 426.199 l 355.668
 424.152 356.18 422.105 356.523 419.969 c 356.863 417.836 357.289 415.789
 357.547 413.656 c 357.773 412.215 357.914 410.762 357.973 409.305 c 358.145
 408.176 358.23 407.031 358.23 405.891 c 358.316 404.098 358.398 402.391
 358.398 400.602 c h
358.398 400.602 m f
336.895 349.398 21.504 -34.133 re f
336.895 281.133 m 358.398 281.133 l 358.398 264.066 l 358.395 258.348 357.91
 252.637 356.949 247 c 335.445 247 l 336.406 252.637 336.891 258.348 336.895
 264.066 c h
336.895 281.133 m f
0.172549 0.298039 0.376471 rg
341.332 25.133 m 341.332 12.332 l 341.332 9.977 339.422 8.066 337.066 8.066
 c 311.465 8.066 l 313.824 8.066 315.734 9.977 315.734 12.332 c 315.734 
25.133 l 315.734 39.273 304.273 50.734 290.133 50.734 c 315.734 50.734 l
 329.871 50.734 341.332 39.273 341.332 25.133 c h
341.332 25.133 m f
0.619608 0.823529 0.415686 rg
42.668 212.867 m 39.176 212.867 36.035 214.992 34.738 218.234 c 19.824 
255.535 l 8.535 255.535 l 3.82 255.535 0 259.355 0 264.066 c 0 268.781 3.82
 272.602 8.535 272.602 c 25.602 272.602 l 29.09 272.602 32.23 270.477 33.527
 267.23 c 41.516 247.258 l 60.09 309.184 l 61.129 312.66 64.254 315.102 
67.883 315.266 c 71.527 315.496 74.898 313.324 76.195 309.906 c 91.109 272.602
 l 119.465 272.602 l 124.18 272.602 128 268.781 128 264.066 c 128 259.355
 124.18 255.535 119.465 255.535 c 85.332 255.535 l 81.84 255.531 78.703 
257.656 77.406 260.902 c 69.418 280.879 l 50.84 218.949 l 49.805 215.473
 46.676 213.031 43.051 212.867 c h
42.668 212.867 m f
426.668 212.867 m 423.176 212.867 420.035 214.992 418.738 218.234 c 403.824
 255.535 l 392.535 255.535 l 387.82 255.535 384 259.355 384 264.066 c 384
 268.781 387.82 272.602 392.535 272.602 c 409.602 272.602 l 413.09 272.602
 416.23 270.477 417.527 267.23 c 425.516 247.258 l 444.09 309.184 l 445.129
 312.66 448.254 315.102 451.883 315.266 c 455.527 315.496 458.898 313.324
 460.195 309.906 c 475.109 272.602 l 503.465 272.602 l 508.18 272.602 512
 268.781 512 264.066 c 512 259.355 508.18 255.535 503.465 255.535 c 469.332
 255.535 l 465.84 255.531 462.703 257.656 461.406 260.902 c 453.418 280.879
 l 434.84 218.949 l 433.801 215.477 430.676 213.039 427.051 212.875 c h
426.668 212.867 m f
0.211765 0.34902 0.447059 rg
358.398 323.801 m 384 323.801 l 384 264.066 l 384 193.375 326.691 136.066
 256 136.066 c 185.309 136.066 128 193.375 128 264.066 c 128 323.801 l 153.602
 323.801 l 153.602 340.867 l 93.867 340.867 l 89.152 340.867 85.332 337.047
 85.332 332.332 c 85.332 327.621 89.152 323.801 93.867 323.801 c 110.934
 323.801 l 110.934 264.066 l 110.934 183.949 175.883 119 256 119 c 336.117
 119 401.066 183.949 401.066 264.066 c 401.066 323.801 l 418.133 323.801
 l 422.848 323.801 426.668 327.621 426.668 332.332 c 426.668 337.047 422.848
 340.867 418.133 340.867 c 358.398 340.867 l h
358.398 323.801 m f
Q Q
showpage
%%Trailer
end restore
%%EOF
