%!PS-Adobe-3.0 EPSF-3.0
%%Creator: cairo 1.14.6 (http://cairographics.org)
%%CreationDate: Wed Apr  3 07:48:53 2019
%%Pages: 1
%%DocumentData: Clean7Bit
%%LanguageLevel: 2
%%BoundingBox: 0 0 512 512
%%EndComments
%%BeginProlog
save
50 dict begin
/q { gsave } bind def
/Q { grestore } bind def
/cm { 6 array astore concat } bind def
/w { setlinewidth } bind def
/J { setlinecap } bind def
/j { setlinejoin } bind def
/M { setmiterlimit } bind def
/d { setdash } bind def
/m { moveto } bind def
/l { lineto } bind def
/c { curveto } bind def
/h { closepath } bind def
/re { exch dup neg 3 1 roll 5 3 roll moveto 0 rlineto
      0 exch rlineto 0 rlineto closepath } bind def
/S { stroke } bind def
/f { fill } bind def
/f* { eofill } bind def
/n { newpath } bind def
/W { clip } bind def
/W* { eoclip } bind def
/BT { } bind def
/ET { } bind def
/pdfmark where { pop globaldict /?pdfmark /exec load put }
    { globaldict begin /?pdfmark /pop load def /pdfmark
    /cleartomark load def end } ifelse
/BDC { mark 3 1 roll /BDC pdfmark } bind def
/EMC { mark /EMC pdfmark } bind def
/cairo_store_point { /cairo_point_y exch def /cairo_point_x exch def } def
/Tj { show currentpoint cairo_store_point } bind def
/TJ {
  {
    dup
    type /stringtype eq
    { show } { -0.001 mul 0 cairo_font_matrix dtransform rmoveto } ifelse
  } forall
  currentpoint cairo_store_point
} bind def
/cairo_selectfont { cairo_font_matrix aload pop pop pop 0 0 6 array astore
    cairo_font exch selectfont cairo_point_x cairo_point_y moveto } bind def
/Tf { pop /cairo_font exch def /cairo_font_matrix where
      { pop cairo_selectfont } if } bind def
/Td { matrix translate cairo_font_matrix matrix concatmatrix dup
      /cairo_font_matrix exch def dup 4 get exch 5 get cairo_store_point
      /cairo_font where { pop cairo_selectfont } if } bind def
/Tm { 2 copy 8 2 roll 6 array astore /cairo_font_matrix exch def
      cairo_store_point /cairo_font where { pop cairo_selectfont } if } bind def
/g { setgray } bind def
/rg { setrgbcolor } bind def
/d1 { setcachedevice } bind def
%%EndProlog
%%BeginSetup
%%EndSetup
%%Page: 1 1
%%BeginPageSetup
%%PageBoundingBox: 0 0 512 512
%%EndPageSetup
q 0 0 512 512 rectclip q
0.45098 0.690196 0.956863 rg
220.719 512 m 291.328 512 l 296.207 512 300.156 508.047 300.156 503.172
 c 300.156 432.559 l 300.156 427.684 296.207 423.73 291.328 423.73 c 220.719
 423.73 l 215.84 423.73 211.891 427.684 211.891 432.559 c 211.891 503.172
 l 211.891 508.047 215.84 512 220.719 512 c h
220.719 512 m f
0.619608 0.823529 0.415686 rg
300.156 185.762 m 300.156 150.102 l 300.129 140.367 292.242 132.477 282.504
 132.449 c 229.543 132.449 l 219.805 132.477 211.918 140.367 211.891 150.102
 c 211.891 185.762 l 211.902 191.117 214.336 196.176 218.512 199.531 c 247.195
 222.484 l 252.355 226.613 259.691 226.613 264.852 222.484 c 293.535 199.531
 l 297.711 196.176 300.145 191.117 300.156 185.762 c h
300.156 185.762 m f
512 185.762 m 512 150.102 l 511.973 140.367 504.082 132.477 494.344 132.449
 c 441.387 132.449 l 431.648 132.477 423.762 140.367 423.73 150.102 c 423.73
 185.762 l 423.746 191.117 426.18 196.176 430.352 199.531 c 459.039 222.484
 l 464.199 226.613 471.535 226.613 476.695 222.484 c 505.379 199.531 l 509.555
 196.176 511.988 191.117 512 185.762 c h
512 185.762 m f
88.316 185.762 m 88.316 150.102 l 88.285 140.367 80.398 132.477 70.66 132.449
 c 17.703 132.449 l 7.965 132.477 0.074 140.367 0.047 150.102 c 0.047 185.762
 l 0.059 191.117 2.492 196.176 6.668 199.531 c 35.352 222.484 l 40.512 226.613
 47.848 226.613 53.008 222.484 c 81.695 199.531 l 85.867 196.176 88.301 
191.117 88.316 185.762 c h
88.316 185.762 m f
1 0.839216 0.482353 rg
88.316 44.18 m 88.336 41.215 88.039 38.258 87.434 35.352 c 83.008 13.715
 63.27 -1.324 41.227 0.156 c 19.191 1.641 1.641 19.191 0.156 41.227 c -1.324
 63.27 13.715 83.008 35.352 87.434 c 38.258 88.039 41.215 88.336 44.18 88.316
 c 47.148 88.336 50.105 88.039 53.008 87.434 c 70.332 83.875 83.875 70.332
 87.434 53.008 c 88.039 50.105 88.336 47.145 88.316 44.18 c h
88.316 44.18 m f
0.921569 0.329412 0.388235 rg
300.156 44.18 m 300.18 41.215 299.883 38.258 299.273 35.352 c 295.098 14.785
 277.016 0.004 256.023 0.004 c 235.031 0.004 216.949 14.785 212.773 35.352
 c 211.594 41.18 211.594 47.184 212.773 53.008 c 216.328 70.332 229.871 
83.875 247.195 87.434 c 253.023 88.609 259.023 88.609 264.852 87.434 c 282.176
 83.875 295.719 70.332 299.273 53.008 c 299.883 50.105 300.18 47.145 300.156
 44.18 c h
300.156 44.18 m f
1 0.839216 0.482353 rg
312.164 320.367 m 309.602 317.812 l 262.293 270.5 l 258.82 267.059 253.227
 267.059 249.754 270.5 c 202.445 317.812 l 199.883 320.367 l 196.441 323.84
 196.441 329.434 199.883 332.902 c 249.754 382.777 l 253.227 386.219 258.82
 386.219 262.293 382.777 c 312.164 332.902 l 315.605 329.434 315.605 323.84
 312.164 320.367 c h
312.164 320.367 m f
512 44.18 m 512.023 21.504 494.859 2.504 472.301 0.227 c 449.742 -2.055
 429.129 13.133 424.613 35.352 c 423.438 41.18 423.438 47.184 424.613 53.008
 c 428.172 70.332 441.715 83.875 459.039 87.434 c 464.863 88.609 470.867
 88.609 476.695 87.434 c 497.242 83.238 512.004 65.156 512 44.18 c h
512 44.18 m f
0.290196 0.533333 0.854902 rg
300.156 503.172 m 300.156 432.559 l 300.156 427.684 296.207 423.73 291.328
 423.73 c 273.68 423.73 l 278.551 423.73 282.504 427.684 282.504 432.559
 c 282.504 503.172 l 282.504 508.047 278.551 512 273.68 512 c 291.328 512
 l 296.207 512 300.156 508.047 300.156 503.172 c h
300.156 503.172 m f
0.537255 0.752941 0.32549 rg
512 185.762 m 512 150.102 l 511.973 140.367 504.082 132.477 494.344 132.449
 c 476.695 132.449 l 486.434 132.477 494.316 140.367 494.344 150.102 c 494.344
 185.762 l 494.332 191.117 491.898 196.176 487.727 199.531 c 459.039 222.484
 l 464.199 226.613 471.535 226.613 476.695 222.484 c 505.379 199.531 l 509.555
 196.176 511.988 191.117 512 185.762 c h
512 185.762 m f
0.960784 0.72549 0.270588 rg
312.164 320.367 m 309.602 317.812 l 262.293 270.5 l 258.82 267.059 253.227
 267.059 249.754 270.5 c 247.195 273.062 l 291.949 317.812 l 294.508 320.367
 l 297.949 323.84 297.949 329.434 294.508 332.902 c 247.195 380.215 l 249.754
 382.777 l 253.227 386.219 258.82 386.219 262.293 382.777 c 312.164 332.902
 l 315.605 329.434 315.605 323.84 312.164 320.367 c h
312.164 320.367 m f
512 44.18 m 512 19.809 492.238 0.047 467.867 0.047 c 464.93 0.027 462 0.32
 459.125 0.93 c 479.695 5.129 494.453 23.227 494.434 44.219 c 494.41 65.203
 479.613 83.277 459.039 87.434 c 464.863 88.609 470.867 88.609 476.695 87.434
 c 497.242 83.238 512.004 65.156 512 44.18 c h
512 44.18 m f
0.537255 0.752941 0.32549 rg
300.156 185.762 m 300.156 150.102 l 300.129 140.367 292.242 132.477 282.504
 132.449 c 264.852 132.449 l 274.59 132.477 282.473 140.367 282.504 150.102
 c 282.504 185.762 l 282.488 191.117 280.055 196.176 275.887 199.531 c 247.195
 222.484 l 252.355 226.613 259.691 226.613 264.852 222.484 c 293.535 199.531
 l 297.711 196.176 300.145 191.117 300.156 185.762 c h
300.156 185.762 m f
0.85098 0.266667 0.321569 rg
300.156 44.18 m 300.156 19.809 280.395 0.047 256.023 0.047 c 253.086 0.027
 250.156 0.32 247.285 0.93 c 267.852 5.129 282.613 23.227 282.59 44.219 
c 282.57 65.203 267.77 83.277 247.195 87.434 c 253.023 88.609 259.023 88.609
 264.852 87.434 c 285.402 83.238 300.16 65.156 300.156 44.18 c h
300.156 44.18 m f
0.537255 0.752941 0.32549 rg
88.316 185.762 m 88.316 150.102 l 88.285 140.367 80.398 132.477 70.66 132.449
 c 53.008 132.449 l 62.746 132.477 70.629 140.367 70.66 150.102 c 70.66 
185.762 l 70.648 191.117 68.215 196.176 64.043 199.531 c 35.352 222.484 
l 40.512 226.613 47.848 226.613 53.008 222.484 c 81.695 199.531 l 85.867
 196.176 88.301 191.117 88.316 185.762 c h
88.316 185.762 m f
0.960784 0.72549 0.270588 rg
88.316 44.18 m 88.316 19.809 68.555 0.047 44.18 0.047 c 41.246 0.027 38.312
 0.32 35.441 0.93 c 56.008 5.129 70.77 23.227 70.75 44.219 c 70.727 65.203
 55.93 83.277 35.352 87.434 c 38.258 88.039 41.215 88.336 44.18 88.316 c
 47.148 88.336 50.105 88.039 53.008 87.434 c 73.559 83.238 88.32 65.156 
88.316 44.18 c h
88.316 44.18 m f
264.852 317.812 m 247.195 317.812 l 242.32 317.812 238.367 321.762 238.367
 326.637 c 238.367 331.512 242.32 335.465 247.195 335.465 c 264.852 335.465
 l 269.727 335.465 273.68 331.512 273.68 326.637 c 273.68 321.762 269.727
 317.812 264.852 317.812 c h
264.852 317.812 m f
0.290196 0.533333 0.854902 rg
264.852 459.039 m 247.195 459.039 l 242.32 459.039 238.367 462.992 238.367
 467.867 c 238.367 472.742 242.32 476.695 247.195 476.695 c 264.852 476.695
 l 269.727 476.695 273.68 472.742 273.68 467.867 c 273.68 462.992 269.727
 459.039 264.852 459.039 c h
264.852 459.039 m f
0.537255 0.752941 0.32549 rg
264.852 158.93 m 247.195 158.93 l 242.32 158.93 238.367 162.879 238.367
 167.754 c 238.367 172.629 242.32 176.582 247.195 176.582 c 264.852 176.582
 l 269.727 176.582 273.68 172.629 273.68 167.754 c 273.68 162.879 269.727
 158.93 264.852 158.93 c h
264.852 158.93 m f
53.008 158.93 m 35.352 158.93 l 30.477 158.93 26.527 162.879 26.527 167.754
 c 26.527 172.629 30.477 176.582 35.352 176.582 c 53.008 176.582 l 57.883
 176.582 61.836 172.629 61.836 167.754 c 61.836 162.879 57.883 158.93 53.008
 158.93 c h
53.008 158.93 m f
476.695 158.93 m 459.039 158.93 l 454.164 158.93 450.211 162.879 450.211
 167.754 c 450.211 172.629 454.164 176.582 459.039 176.582 c 476.695 176.582
 l 481.57 176.582 485.52 172.629 485.52 167.754 c 485.52 162.879 481.57 
158.93 476.695 158.93 c h
476.695 158.93 m f
0.211765 0.34902 0.447059 rg
211.891 44.18 m 211.867 41.215 212.164 38.258 212.773 35.352 c 87.434 35.352
 l 88.609 41.18 88.609 47.184 87.434 53.008 c 212.773 53.008 l 212.164 50.105
 211.867 47.145 211.891 44.18 c h
211.891 44.18 m f
476.695 132.449 m 476.695 87.434 l 470.867 88.609 464.863 88.609 459.039
 87.434 c 459.039 132.449 l h
476.695 132.449 m f
264.852 132.449 m 264.852 87.434 l 259.023 88.609 253.023 88.609 247.195
 87.434 c 247.195 132.449 l h
264.852 132.449 m f
53.008 132.449 m 53.008 87.434 l 50.105 88.039 47.148 88.336 44.18 88.316
 c 41.215 88.336 38.258 88.039 35.352 87.434 c 35.352 132.449 l h
53.008 132.449 m f
476.695 300.156 m 476.695 222.484 l 471.535 226.613 464.199 226.613 459.039
 222.484 c 459.039 300.156 l 459.008 309.895 451.121 317.785 441.387 317.812
 c 309.602 317.812 l 312.164 320.367 l 315.605 323.84 315.605 329.434 312.164
 332.902 c 309.602 335.465 l 441.387 335.465 l 460.883 335.465 476.695 319.66
 476.695 300.156 c h
476.695 300.156 m f
264.852 423.73 m 264.852 380.215 l 262.293 382.777 l 258.82 386.219 253.227
 386.219 249.754 382.777 c 247.195 380.215 l 247.195 423.73 l h
264.852 423.73 m f
199.883 320.367 m 202.445 317.812 l 70.66 317.812 l 60.926 317.785 53.039
 309.895 53.008 300.156 c 53.008 222.484 l 47.848 226.613 40.512 226.613
 35.352 222.484 c 35.352 300.156 l 35.352 319.66 51.164 335.465 70.66 335.465
 c 202.445 335.465 l 199.883 332.902 l 196.441 329.434 196.441 323.84 199.883
 320.367 c h
199.883 320.367 m f
264.852 273.062 m 264.852 222.484 l 259.691 226.613 252.355 226.613 247.195
 222.484 c 247.195 273.062 l 249.754 270.5 l 253.227 267.059 258.82 267.059
 262.293 270.5 c h
264.852 273.062 m f
423.73 44.18 m 423.711 41.215 424.008 38.258 424.613 35.352 c 299.273 35.352
 l 300.453 41.18 300.453 47.184 299.273 53.008 c 424.613 53.008 l 424.008
 50.105 423.711 47.145 423.73 44.18 c h
423.73 44.18 m f
Q Q
showpage
%%Trailer
end restore
%%EOF
