%!PS-Adobe-3.0 EPSF-3.0
%%Creator: cairo 1.14.6 (http://cairographics.org)
%%CreationDate: Wed Apr  3 07:48:53 2019
%%Pages: 1
%%DocumentData: Clean7Bit
%%LanguageLevel: 2
%%BoundingBox: 18 0 495 512
%%EndComments
%%BeginProlog
save
50 dict begin
/q { gsave } bind def
/Q { grestore } bind def
/cm { 6 array astore concat } bind def
/w { setlinewidth } bind def
/J { setlinecap } bind def
/j { setlinejoin } bind def
/M { setmiterlimit } bind def
/d { setdash } bind def
/m { moveto } bind def
/l { lineto } bind def
/c { curveto } bind def
/h { closepath } bind def
/re { exch dup neg 3 1 roll 5 3 roll moveto 0 rlineto
      0 exch rlineto 0 rlineto closepath } bind def
/S { stroke } bind def
/f { fill } bind def
/f* { eofill } bind def
/n { newpath } bind def
/W { clip } bind def
/W* { eoclip } bind def
/BT { } bind def
/ET { } bind def
/pdfmark where { pop globaldict /?pdfmark /exec load put }
    { globaldict begin /?pdfmark /pop load def /pdfmark
    /cleartomark load def end } ifelse
/BDC { mark 3 1 roll /BDC pdfmark } bind def
/EMC { mark /EMC pdfmark } bind def
/cairo_store_point { /cairo_point_y exch def /cairo_point_x exch def } def
/Tj { show currentpoint cairo_store_point } bind def
/TJ {
  {
    dup
    type /stringtype eq
    { show } { -0.001 mul 0 cairo_font_matrix dtransform rmoveto } ifelse
  } forall
  currentpoint cairo_store_point
} bind def
/cairo_selectfont { cairo_font_matrix aload pop pop pop 0 0 6 array astore
    cairo_font exch selectfont cairo_point_x cairo_point_y moveto } bind def
/Tf { pop /cairo_font exch def /cairo_font_matrix where
      { pop cairo_selectfont } if } bind def
/Td { matrix translate cairo_font_matrix matrix concatmatrix dup
      /cairo_font_matrix exch def dup 4 get exch 5 get cairo_store_point
      /cairo_font where { pop cairo_selectfont } if } bind def
/Tm { 2 copy 8 2 roll 6 array astore /cairo_font_matrix exch def
      cairo_store_point /cairo_font where { pop cairo_selectfont } if } bind def
/g { setgray } bind def
/rg { setrgbcolor } bind def
/d1 { setcachedevice } bind def
%%EndProlog
%%BeginSetup
%%EndSetup
%%Page: 1 1
%%BeginPageSetup
%%PageBoundingBox: 18 0 495 512
%%EndPageSetup
q 18 0 477 512 rectclip q
0.921569 0.52549 0.745098 rg
450.465 126.152 m 450.539 125.301 450.566 124.445 450.555 123.594 c 450.539
 90.707 427.855 62.172 395.82 54.738 c 395.559 53.68 395.293 52.531 394.938
 51.473 c 394.762 50.941 394.676 50.5 394.496 49.973 c 393.879 48.027 393.262
 46.086 392.469 44.145 c 382.242 18.898 358.41 1.785 331.223 0.164 c 304.031
 -1.457 278.332 12.703 265.176 36.555 c 259.355 46.965 256.316 58.699 256.352
 70.629 c 256.383 58.699 253.344 46.965 247.523 36.555 c 233.586 11.203 
205.586 -3.066 176.883 0.555 c 148.184 4.176 124.609 24.957 117.406 52.973
 c 117.191 53.547 117.016 54.137 116.879 54.738 c 110.297 56.195 103.984
 58.668 98.164 62.066 c 75.902 74.539 62.125 98.074 62.148 123.594 c 62.133
 124.445 62.16 125.301 62.234 126.152 c 56.117 127.973 50.312 130.711 45.02
 134.273 c 28.094 145.773 17.973 164.922 18.008 185.383 c 17.926 203.805
 26.207 221.273 40.52 232.875 c 40.695 233.051 l 40.918 233.332 41.188 233.57
 41.492 233.758 c 37.66 238.199 34.535 243.199 32.223 248.586 c 28.613 256.449
 26.777 265.008 26.836 273.656 c 26.789 290.613 33.793 306.824 46.168 318.414
 c 46.258 318.504 46.344 318.68 46.523 318.766 c 45.168 324.227 44.488 329.828
 44.492 335.449 c 44.461 336.57 44.52 337.695 44.668 338.805 c 45.891 366.215
 62.902 390.426 88.277 400.859 c 94.191 403.23 100.395 404.805 106.727 405.539
 c 106.496 405.75 106.289 405.988 106.109 406.246 c 96.941 418.66 94.926
 434.961 100.789 449.238 c 106.656 463.512 119.551 473.688 134.797 476.07
 c 137.039 476.5 139.316 476.707 141.594 476.688 c 145.438 476.691 149.266
 476.188 152.98 475.188 c 153.156 475.629 153.242 476.16 153.422 476.688
 c 153.684 477.484 154.039 478.367 154.391 479.16 c 154.922 480.395 155.539
 481.633 156.156 482.867 c 156.773 484.105 157.48 485.34 158.188 486.488
 c 158.848 487.699 159.617 488.852 160.48 489.93 c 161.277 491.078 162.07
 492.137 162.953 493.195 c 164.746 495.34 166.723 497.32 168.867 499.109
 c 169.594 499.805 170.359 500.453 171.164 501.055 c 171.582 501.406 172.027
 501.73 172.488 502.023 c 173.395 502.691 174.34 503.312 175.312 503.879
 c 176.371 504.582 177.609 505.289 178.754 505.906 c 182.629 507.969 186.754
 509.512 191.027 510.5 c 191.996 510.762 192.969 510.941 193.938 511.117
 c 197.051 511.723 200.215 512.02 203.383 512 c 221.156 512.012 237.742 
503.09 247.523 488.254 c 253.316 479.613 256.391 469.438 256.352 459.035
 c 256.309 469.438 259.383 479.613 265.176 488.254 c 274.957 503.09 291.543
 512.012 309.316 512 c 312.484 512.02 315.648 511.723 318.762 511.117 c 
319.73 510.941 320.703 510.762 321.676 510.5 c 325.949 509.512 330.074 507.969
 333.945 505.906 c 335.094 505.289 336.328 504.582 337.387 503.879 c 338.363
 503.312 339.305 502.691 340.211 502.023 c 340.676 501.73 341.117 501.406
 341.535 501.055 c 342.34 500.453 343.105 499.805 343.832 499.109 c 345.977
 497.32 347.953 495.34 349.746 493.195 c 350.629 492.137 351.422 491.078
 352.219 489.93 c 353.082 488.852 353.852 487.699 354.512 486.488 c 355.219
 485.34 355.926 484.105 356.543 482.867 c 357.16 481.633 357.777 480.395
 358.309 479.16 c 358.855 477.863 359.328 476.539 359.723 475.188 c 376.086
 479.547 393.508 474.152 404.551 461.305 c 415.59 448.457 418.305 430.426
 411.535 414.895 c 410.586 412.629 409.402 410.469 408.004 408.453 c 407.488
 407.5 406.867 406.613 406.148 405.805 c 406.062 405.715 406.062 405.625
 405.973 405.539 c 441.492 401.34 468.242 371.219 468.207 335.449 c 468.211
 329.855 467.531 324.285 466.176 318.855 c 466.176 318.766 l 490.336 296.344
 492.551 258.875 471.211 233.758 c 489.312 219.473 497.941 196.285 493.578
 173.645 c 489.211 151 472.582 132.684 450.465 126.152 c h
450.465 126.152 m f
0.835294 0.435294 0.67451 rg
450.465 126.152 m 450.539 125.301 450.566 124.445 450.555 123.594 c 450.539
 90.707 427.855 62.172 395.82 54.738 c 395.559 53.68 395.293 52.531 394.938
 51.473 c 394.762 50.941 394.676 50.5 394.496 49.973 c 393.879 48.027 393.262
 46.086 392.469 44.145 c 381.656 17.469 355.754 0.012 326.969 0.008 c 324.016
 -0.012 321.066 0.195 318.145 0.625 c 343.512 3.816 365.184 20.457 374.812
 44.145 c 375.605 46.086 376.227 48.027 376.844 49.973 c 377.02 50.5 377.105
 50.941 377.285 51.473 c 377.637 52.531 377.902 53.68 378.168 54.738 c 410.199
 62.172 432.883 90.707 432.898 123.594 c 432.914 124.445 432.883 125.301
 432.809 126.152 c 454.926 132.684 471.555 151 475.922 173.645 c 480.285
 196.285 471.66 219.473 453.555 233.758 c 474.898 258.875 472.68 296.344
 448.523 318.766 c 448.523 318.855 l 449.875 324.285 450.559 329.855 450.555
 335.449 c 450.586 371.219 423.836 401.34 388.32 405.539 c 388.406 405.625
 388.406 405.715 388.496 405.805 c 389.211 406.613 389.832 407.5 390.348
 408.453 c 391.75 410.469 392.93 412.629 393.879 414.895 c 399.215 427.078
 398.77 441.016 392.672 452.836 c 386.574 464.652 375.473 473.094 362.457
 475.805 c 365.301 476.414 368.203 476.711 371.105 476.688 c 385.988 476.68
 399.867 469.172 408.016 456.715 c 416.164 444.262 417.488 428.539 411.535
 414.895 c 410.586 412.629 409.402 410.469 408.004 408.453 c 407.488 407.5
 406.867 406.613 406.148 405.805 c 406.062 405.715 406.062 405.625 405.973
 405.539 c 441.492 401.34 468.242 371.219 468.207 335.449 c 468.211 329.855
 467.531 324.285 466.176 318.855 c 466.176 318.766 l 490.336 296.344 492.551
 258.875 471.211 233.758 c 489.312 219.473 497.941 196.285 493.578 173.645
 c 489.211 151 472.582 132.684 450.465 126.152 c h
450.465 126.152 m f
359.367 476.246 m 353.59 477.086 347.699 476.727 342.066 475.188 c 341.672
 476.539 341.203 477.863 340.652 479.16 c 340.125 480.395 339.504 481.633
 338.887 482.867 c 338.27 484.105 337.562 485.34 336.859 486.488 c 336.195
 487.699 335.43 488.852 334.562 489.93 c 333.77 491.078 332.973 492.137 
332.09 493.195 c 330.301 495.34 328.32 497.32 326.176 499.109 c 325.453 
499.805 324.684 500.453 323.883 501.055 c 323.461 501.406 323.02 501.73 
322.559 502.023 c 321.648 502.691 320.707 503.312 319.73 503.879 c 318.672
 504.582 317.438 505.289 316.289 505.906 c 312.418 507.969 308.293 509.512
 304.02 510.5 c 303.047 510.762 302.078 510.941 301.105 511.117 c 300.879
 511.188 300.637 511.219 300.398 511.203 c 303.34 511.734 306.324 512 309.316
 512 c 312.484 512.02 315.648 511.723 318.762 511.117 c 319.73 510.941 320.703
 510.762 321.676 510.5 c 325.949 509.512 330.074 507.969 333.945 505.906
 c 335.094 505.289 336.328 504.582 337.387 503.879 c 338.363 503.312 339.305
 502.691 340.211 502.023 c 340.676 501.73 341.117 501.406 341.535 501.055
 c 342.34 500.453 343.105 499.805 343.832 499.109 c 345.977 497.32 347.953
 495.34 349.746 493.195 c 350.629 492.137 351.422 491.078 352.219 489.93
 c 353.082 488.852 353.852 487.699 354.512 486.488 c 355.219 485.34 355.926
 484.105 356.543 482.867 c 357.16 481.633 357.777 480.395 358.309 479.16
 c 358.66 478.188 359.102 477.219 359.367 476.246 c h
359.367 476.246 m f
117.406 52.973 m 117.191 53.547 117.016 54.137 116.879 54.738 c 110.297
 56.195 103.984 58.668 98.164 62.066 c 98.074 63.832 97.988 65.508 97.988
 67.273 c 97.973 70.578 98.18 73.883 98.605 77.16 c 98.82 79.508 99.992 
81.66 101.848 83.113 c 103.703 84.57 106.074 85.191 108.402 84.84 c 110.73
 84.582 112.859 83.398 114.305 81.555 c 115.746 79.711 116.391 77.363 116.082
 75.043 c 115.758 72.465 115.609 69.871 115.641 67.273 c 115.609 62.449 
116.203 57.645 117.406 52.973 c h
117.406 52.973 m f
70.531 157.051 m 65.074 147.668 62.211 137.004 62.234 126.152 c 56.117 
127.973 50.312 130.711 45.02 134.273 c 46.137 145.418 49.629 156.195 55.262
 165.879 c 57.684 170.082 63.047 171.539 67.266 169.145 c 71.48 166.684 
72.938 161.297 70.531 157.051 c h
70.531 157.051 m f
56.32 240.645 m 50.727 239 45.445 236.434 40.695 233.051 c 40.918 233.332
 41.188 233.57 41.492 233.758 c 37.66 238.199 34.535 243.199 32.223 248.586
 c 38.086 252.535 44.516 255.57 51.289 257.594 c 55.969 258.98 60.891 256.312
 62.281 251.633 c 63.668 246.953 61 242.031 56.32 240.645 c h
56.32 240.645 m f
80.242 340.395 m 80.926 335.566 77.566 331.102 72.738 330.418 c 63.105 
328.992 54.039 324.961 46.523 318.766 c 45.168 324.227 44.488 329.828 44.492
 335.449 c 44.461 336.57 44.52 337.695 44.668 338.805 c 52.488 343.492 61.16
 346.582 70.18 347.898 c 75.012 348.531 79.473 345.207 80.242 340.395 c 
h
80.242 340.395 m f
123.676 384.797 m 122.289 381.551 119.082 379.461 115.555 379.5 c 114.371
 379.523 113.207 379.762 112.109 380.207 c 102.23 384.477 93.906 391.688
 88.277 400.859 c 94.191 403.23 100.395 404.805 106.727 405.539 c 110.141
 401.613 114.395 398.508 119.172 396.449 c 123.613 394.457 125.621 389.258
 123.676 384.797 c h
123.676 384.797 m f
265.176 379.59 m 265.176 36.555 l 259.355 46.965 256.316 58.699 256.352
 70.629 c 256.383 58.699 253.344 46.965 247.523 36.555 c 247.523 379.59 
l 247.523 384.465 251.473 388.418 256.352 388.418 c 261.227 388.418 265.176
 384.465 265.176 379.59 c h
265.176 379.59 m f
265.176 488.254 m 265.176 432.551 l 265.176 427.676 261.227 423.723 256.352
 423.723 c 251.473 423.723 247.523 427.676 247.523 432.551 c 247.523 488.254
 l 253.316 479.613 256.391 469.438 256.352 459.035 c 256.309 469.438 259.383
 479.613 265.176 488.254 c h
265.176 488.254 m f
0.956863 0.964706 0.972549 rg
141.594 291.312 m 126.969 291.312 115.113 303.172 115.113 317.797 c 115.113
 335.449 l 115.113 350.078 126.969 361.934 141.594 361.934 c 156.219 361.934
 168.074 350.078 168.074 335.449 c 168.074 317.797 l 168.074 303.172 156.219
 291.312 141.594 291.312 c h
141.594 344.277 m 136.719 344.277 132.77 340.328 132.77 335.449 c 132.77
 317.797 l 132.77 312.922 136.719 308.969 141.594 308.969 c 146.465 308.969
 150.418 312.922 150.418 317.797 c 150.418 335.449 l 150.418 340.328 146.465
 344.277 141.594 344.277 c h
141.594 344.277 m f
309.316 291.312 m 294.688 291.312 282.832 303.172 282.832 317.797 c 282.832
 335.449 l 282.832 350.078 294.688 361.934 309.316 361.934 c 323.941 361.934
 335.797 350.078 335.797 335.449 c 335.797 317.797 l 335.797 303.172 323.941
 291.312 309.316 291.312 c h
309.316 344.277 m 304.441 344.277 300.488 340.328 300.488 335.449 c 300.488
 317.797 l 300.488 312.922 304.441 308.969 309.316 308.969 c 314.191 308.969
 318.145 312.922 318.145 317.797 c 318.145 335.449 l 318.145 340.328 314.191
 344.277 309.316 344.277 c h
309.316 344.277 m f
379.934 291.312 m 365.309 291.312 353.453 303.172 353.453 317.797 c 353.453
 335.449 l 353.453 350.078 365.309 361.934 379.934 361.934 c 394.559 361.934
 406.414 350.078 406.414 335.449 c 406.414 317.797 l 406.414 303.172 394.559
 291.312 379.934 291.312 c h
379.934 344.277 m 375.059 344.277 371.105 340.328 371.105 335.449 c 371.105
 317.797 l 371.105 312.922 375.059 308.969 379.934 308.969 c 384.809 308.969
 388.762 312.922 388.762 317.797 c 388.762 335.449 l 388.762 340.328 384.809
 344.277 379.934 344.277 c h
379.934 344.277 m f
203.383 291.312 m 198.508 291.312 194.559 295.266 194.559 300.141 c 194.559
 335.449 l 190.988 335.453 187.77 337.602 186.402 340.902 c 185.035 344.199
 185.793 347.996 188.316 350.52 c 197.145 359.348 l 199.668 361.871 203.465
 362.625 206.762 361.262 c 210.059 359.895 212.211 356.676 212.211 353.105
 c 212.211 300.141 l 212.211 295.266 208.258 291.312 203.383 291.312 c h
203.383 291.312 m f
212.211 291.312 m 194.559 291.312 l 189.68 291.312 185.73 295.266 185.73
 300.141 c 185.73 305.016 189.68 308.969 194.559 308.969 c 212.211 308.969
 l 217.086 308.969 221.039 305.016 221.039 300.141 c 221.039 295.266 217.086
 291.312 212.211 291.312 c h
212.211 291.312 m f
141.594 203.039 m 126.969 203.039 115.113 214.895 115.113 229.52 c 115.113
 247.176 l 115.113 261.801 126.969 273.656 141.594 273.656 c 156.219 273.656
 168.074 261.801 168.074 247.176 c 168.074 229.52 l 168.074 214.895 156.219
 203.039 141.594 203.039 c h
141.594 256.004 m 136.719 256.004 132.77 252.051 132.77 247.176 c 132.77
 229.52 l 132.77 224.645 136.719 220.691 141.594 220.691 c 146.465 220.691
 150.418 224.645 150.418 229.52 c 150.418 247.176 l 150.418 252.051 146.465
 256.004 141.594 256.004 c h
141.594 256.004 m f
379.934 203.039 m 365.309 203.039 353.453 214.895 353.453 229.52 c 353.453
 247.176 l 353.453 261.801 365.309 273.656 379.934 273.656 c 394.559 273.656
 406.414 261.801 406.414 247.176 c 406.414 229.52 l 406.414 214.895 394.559
 203.039 379.934 203.039 c h
379.934 256.004 m 375.059 256.004 371.105 252.051 371.105 247.176 c 371.105
 229.52 l 371.105 224.645 375.059 220.691 379.934 220.691 c 384.809 220.691
 388.762 224.645 388.762 229.52 c 388.762 247.176 l 388.762 252.051 384.809
 256.004 379.934 256.004 c h
379.934 256.004 m f
203.383 203.039 m 198.508 203.039 194.559 206.988 194.559 211.863 c 194.559
 247.176 l 190.988 247.176 187.77 249.328 186.402 252.625 c 185.035 255.922
 185.793 259.719 188.316 262.242 c 197.145 271.07 l 199.668 273.594 203.465
 274.352 206.762 272.984 c 210.059 271.617 212.211 268.398 212.211 264.832
 c 212.211 211.863 l 212.211 206.988 208.258 203.039 203.383 203.039 c h
203.383 203.039 m f
212.211 203.039 m 194.559 203.039 l 189.68 203.039 185.73 206.988 185.73
 211.863 c 185.73 216.742 189.68 220.691 194.559 220.691 c 212.211 220.691
 l 217.086 220.691 221.039 216.742 221.039 211.863 c 221.039 206.988 217.086
 203.039 212.211 203.039 c h
212.211 203.039 m f
309.316 203.039 m 304.441 203.039 300.488 206.988 300.488 211.863 c 300.488
 247.176 l 296.918 247.176 293.699 249.328 292.336 252.625 c 290.969 255.922
 291.723 259.719 294.246 262.242 c 303.074 271.07 l 305.598 273.594 309.395
 274.352 312.691 272.984 c 315.992 271.617 318.141 268.398 318.145 264.832
 c 318.145 211.863 l 318.145 206.988 314.191 203.039 309.316 203.039 c h
309.316 203.039 m f
318.145 203.039 m 300.488 203.039 l 295.613 203.039 291.66 206.988 291.66
 211.863 c 291.66 216.742 295.613 220.691 300.488 220.691 c 318.145 220.691
 l 323.02 220.691 326.969 216.742 326.969 211.863 c 326.969 206.988 323.02
 203.039 318.145 203.039 c h
318.145 203.039 m f
141.594 114.766 m 126.969 114.766 115.113 126.621 115.113 141.25 c 115.113
 158.902 l 115.113 173.531 126.969 185.383 141.594 185.383 c 156.219 185.383
 168.074 173.531 168.074 158.902 c 168.074 141.25 l 168.074 126.621 156.219
 114.766 141.594 114.766 c h
141.594 167.73 m 136.719 167.73 132.77 163.777 132.77 158.902 c 132.77 
141.25 l 132.77 136.371 136.719 132.422 141.594 132.422 c 146.465 132.422
 150.418 136.371 150.418 141.25 c 150.418 158.902 l 150.418 163.777 146.465
 167.73 141.594 167.73 c h
141.594 167.73 m f
309.316 114.766 m 294.688 114.766 282.832 126.621 282.832 141.25 c 282.832
 158.902 l 282.832 173.531 294.688 185.383 309.316 185.383 c 323.941 185.383
 335.797 173.531 335.797 158.902 c 335.797 141.25 l 335.797 126.621 323.941
 114.766 309.316 114.766 c h
309.316 167.73 m 304.441 167.73 300.488 163.777 300.488 158.902 c 300.488
 141.25 l 300.488 136.371 304.441 132.422 309.316 132.422 c 314.191 132.422
 318.145 136.371 318.145 141.25 c 318.145 158.902 l 318.145 163.777 314.191
 167.73 309.316 167.73 c h
309.316 167.73 m f
379.934 114.766 m 365.309 114.766 353.453 126.621 353.453 141.25 c 353.453
 158.902 l 353.453 173.531 365.309 185.383 379.934 185.383 c 394.559 185.383
 406.414 173.531 406.414 158.902 c 406.414 141.25 l 406.414 126.621 394.559
 114.766 379.934 114.766 c h
379.934 167.73 m 375.059 167.73 371.105 163.777 371.105 158.902 c 371.105
 141.25 l 371.105 136.371 375.059 132.422 379.934 132.422 c 384.809 132.422
 388.762 136.371 388.762 141.25 c 388.762 158.902 l 388.762 163.777 384.809
 167.73 379.934 167.73 c h
379.934 167.73 m f
203.383 114.766 m 198.508 114.766 194.559 118.719 194.559 123.594 c 194.559
 158.902 l 190.988 158.902 187.77 161.055 186.402 164.352 c 185.035 167.652
 185.793 171.449 188.316 173.973 c 197.145 182.797 l 199.668 185.32 203.465
 186.074 206.762 184.707 c 210.059 183.344 212.211 180.125 212.211 176.555
 c 212.211 123.594 l 212.211 118.719 208.258 114.766 203.383 114.766 c h
203.383 114.766 m f
212.211 114.766 m 194.559 114.766 l 189.68 114.766 185.73 118.719 185.73
 123.594 c 185.73 128.469 189.68 132.422 194.559 132.422 c 212.211 132.422
 l 217.086 132.422 221.039 128.469 221.039 123.594 c 221.039 118.719 217.086
 114.766 212.211 114.766 c h
212.211 114.766 m f
0.835294 0.435294 0.67451 rg
150.508 460.445 m 150.488 457.988 150.695 455.539 151.125 453.117 c 151.508
 450.801 150.949 448.426 149.574 446.52 c 148.199 444.613 146.117 443.336
 143.801 442.969 c 143.336 442.863 142.863 442.805 142.391 442.789 c 138.059
 442.805 134.367 445.934 133.648 450.207 c 133.121 453.594 132.855 457.016
 132.855 460.445 c 132.828 465.715 133.48 470.969 134.797 476.07 c 137.039
 476.5 139.316 476.707 141.594 476.688 c 145.438 476.691 149.266 476.188
 152.98 475.188 c 151.309 470.453 150.473 465.465 150.508 460.445 c h
150.508 460.445 m f
Q Q
showpage
%%Trailer
end restore
%%EOF
