%!PS-Adobe-3.0 EPSF-3.0
%%Creator: cairo 1.14.6 (http://cairographics.org)
%%CreationDate: Wed Apr  3 07:48:53 2019
%%Pages: 1
%%DocumentData: Clean7Bit
%%LanguageLevel: 2
%%BoundingBox: 0 0 512 512
%%EndComments
%%BeginProlog
save
50 dict begin
/q { gsave } bind def
/Q { grestore } bind def
/cm { 6 array astore concat } bind def
/w { setlinewidth } bind def
/J { setlinecap } bind def
/j { setlinejoin } bind def
/M { setmiterlimit } bind def
/d { setdash } bind def
/m { moveto } bind def
/l { lineto } bind def
/c { curveto } bind def
/h { closepath } bind def
/re { exch dup neg 3 1 roll 5 3 roll moveto 0 rlineto
      0 exch rlineto 0 rlineto closepath } bind def
/S { stroke } bind def
/f { fill } bind def
/f* { eofill } bind def
/n { newpath } bind def
/W { clip } bind def
/W* { eoclip } bind def
/BT { } bind def
/ET { } bind def
/pdfmark where { pop globaldict /?pdfmark /exec load put }
    { globaldict begin /?pdfmark /pop load def /pdfmark
    /cleartomark load def end } ifelse
/BDC { mark 3 1 roll /BDC pdfmark } bind def
/EMC { mark /EMC pdfmark } bind def
/cairo_store_point { /cairo_point_y exch def /cairo_point_x exch def } def
/Tj { show currentpoint cairo_store_point } bind def
/TJ {
  {
    dup
    type /stringtype eq
    { show } { -0.001 mul 0 cairo_font_matrix dtransform rmoveto } ifelse
  } forall
  currentpoint cairo_store_point
} bind def
/cairo_selectfont { cairo_font_matrix aload pop pop pop 0 0 6 array astore
    cairo_font exch selectfont cairo_point_x cairo_point_y moveto } bind def
/Tf { pop /cairo_font exch def /cairo_font_matrix where
      { pop cairo_selectfont } if } bind def
/Td { matrix translate cairo_font_matrix matrix concatmatrix dup
      /cairo_font_matrix exch def dup 4 get exch 5 get cairo_store_point
      /cairo_font where { pop cairo_selectfont } if } bind def
/Tm { 2 copy 8 2 roll 6 array astore /cairo_font_matrix exch def
      cairo_store_point /cairo_font where { pop cairo_selectfont } if } bind def
/g { setgray } bind def
/rg { setrgbcolor } bind def
/d1 { setcachedevice } bind def
%%EndProlog
%%BeginSetup
%%EndSetup
%%Page: 1 1
%%BeginPageSetup
%%PageBoundingBox: 0 0 512 512
%%EndPageSetup
q 0 0 512 512 rectclip q
0.270588 0.45098 0.576471 rg
262.461 262.461 m 264.492 264.754 266.434 267.051 268.199 269.434 c 255.84
 298.301 l 262.184 308.836 266.914 320.258 269.879 332.195 c 299.004 343.848
 l 300.535 355.863 300.535 368.023 299.004 380.035 c 269.879 391.688 l 266.914
 403.625 262.184 415.051 255.84 425.586 c 268.199 454.449 l 260.758 464.008
 252.16 472.605 242.602 480.047 c 213.738 467.688 l 203.203 474.031 191.777
 478.762 179.84 481.727 c 168.191 510.852 l 156.176 512.383 144.016 512.383
 131.996 510.852 c 120.344 481.727 l 108.414 478.762 96.988 474.031 86.453
 467.688 c 57.59 480.047 l 48.031 472.605 39.43 464.008 31.988 454.449 c
 44.348 425.586 l 38.004 415.051 33.273 403.625 30.312 391.688 c 1.184 380.035
 l -0.344 368.023 -0.344 355.863 1.184 343.848 c 30.312 332.195 l 33.273
 320.258 38.004 308.836 44.348 298.301 c 31.988 269.434 l 39.43 259.875 
48.031 251.277 57.59 243.836 c 86.453 256.195 l 96.988 249.852 108.414 245.121
 120.344 242.16 c 131.996 213.027 l 144.016 211.5 156.176 211.5 168.191 
213.027 c 179.84 242.16 l 191.777 245.121 203.203 249.852 213.738 256.195
 c 242.602 243.836 l 244.984 245.602 247.277 247.547 249.574 249.574 c f
0.368627 0.560784 0.666667 rg
510.852 132 m 512.379 144.016 512.379 156.172 510.852 168.188 c 481.723
 179.832 l 478.758 191.781 474.012 203.211 467.645 213.746 c 480.004 242.594
 l 472.594 252.18 463.988 260.781 454.402 268.188 c 425.559 255.836 l 415.023
 262.199 403.59 266.945 391.645 269.91 c 380.004 299.043 l 367.988 300.57
 355.824 300.57 343.809 299.043 c 332.168 269.91 l 320.223 266.945 308.789
 262.199 298.254 255.836 c 269.41 268.188 l 259.82 260.781 251.219 252.18
 243.809 242.594 c 256.168 213.746 l 249.801 203.211 245.055 191.781 242.086
 179.832 c 212.961 168.188 l 211.43 156.172 211.43 144.016 212.961 132 c
 242.086 120.355 l 245.055 108.41 249.801 96.977 256.168 86.445 c 243.809
 57.598 l 251.219 48.008 259.82 39.406 269.41 31.996 c 298.254 44.355 l 
308.789 37.988 320.223 33.238 332.168 30.277 c 343.809 1.148 l 355.824 -0.383
 367.988 -0.383 380.004 1.148 c 391.645 30.277 l 403.59 33.238 415.023 37.988
 425.559 44.355 c 454.402 31.996 l 463.988 39.406 472.594 48.008 480.004
 57.598 c 467.645 86.445 l 474.012 96.977 478.758 108.41 481.723 120.355
 c h
510.852 132 m f
0.619608 0.823529 0.415686 rg
414.902 185.402 m 414.902 114.785 l 414.918 111.816 414.156 108.895 412.695
 106.312 c 411.082 103.371 408.66 100.953 405.723 99.336 c 403.137 97.879
 400.215 97.117 397.25 97.129 c 326.633 97.129 l 323.664 97.117 320.746 
97.879 318.16 99.336 c 315.219 100.953 312.801 103.371 311.188 106.312 c
 309.727 108.895 308.965 111.816 308.98 114.785 c 308.98 185.402 l 308.965
 188.371 309.727 191.293 311.188 193.879 c 312.801 196.816 315.219 199.234
 318.16 200.852 c 320.746 202.309 323.664 203.066 326.633 203.055 c 397.25
 203.055 l 400.215 203.066 403.137 202.309 405.723 200.852 c 408.66 199.234
 411.082 196.816 412.695 193.879 c 414.156 191.293 414.918 188.371 414.902
 185.402 c h
414.902 185.402 m f
0.537255 0.752941 0.32549 rg
353.113 167.746 m 370.77 167.746 l 375.645 167.746 379.598 163.797 379.598
 158.922 c 379.598 141.27 l 379.598 136.395 375.645 132.441 370.77 132.441
 c 353.113 132.441 l 348.238 132.441 344.285 136.395 344.285 141.27 c 344.285
 158.922 l 344.285 163.797 348.238 167.746 353.113 167.746 c h
353.113 167.746 m f
0.619608 0.823529 0.415686 rg
203.055 397.25 m 203.055 326.633 l 203.07 323.664 202.309 320.742 200.848
 318.156 c 199.234 315.219 196.816 312.805 193.875 311.188 c 191.289 309.727
 188.371 308.969 185.402 308.98 c 114.785 308.98 l 111.82 308.969 108.898
 309.727 106.312 311.188 c 103.375 312.805 100.953 315.219 99.34 318.156
 c 97.879 320.742 97.117 323.664 97.133 326.633 c 97.133 397.25 l 97.117
 400.219 97.879 403.141 99.34 405.723 c 100.953 408.664 103.375 411.082 
106.312 412.699 c 108.898 414.156 111.82 414.918 114.785 414.906 c 185.402
 414.906 l 188.371 414.918 191.289 414.156 193.875 412.699 c 196.816 411.082
 199.234 408.664 200.848 405.723 c 202.309 403.141 203.07 400.219 203.055
 397.25 c h
203.055 397.25 m f
0.537255 0.752941 0.32549 rg
141.266 379.594 m 158.922 379.594 l 163.797 379.594 167.75 375.641 167.75
 370.766 c 167.75 353.113 l 167.75 348.238 163.797 344.289 158.922 344.289
 c 141.266 344.289 l 136.391 344.289 132.438 348.238 132.438 353.113 c 132.438
 370.766 l 132.438 375.641 136.391 379.594 141.266 379.594 c h
141.266 379.594 m f
0.270588 0.45098 0.576471 rg
512 150.094 m 512.016 144.047 511.633 138 510.852 132 c 481.723 120.348
 l 478.762 108.41 474.031 96.984 467.688 86.453 c 480.047 57.586 l 472.605
 48.027 464.008 39.43 454.445 31.988 c 436.883 39.492 l 438.473 40.992 440.062
 42.492 441.562 43.992 c 445.867 48.246 449.879 52.789 453.566 57.586 c 
441.207 86.453 l 447.551 96.984 452.281 108.41 455.242 120.348 c 484.371
 132 l 485.902 144.016 485.902 156.172 484.371 168.188 c 455.242 179.84 
l 452.281 191.777 447.551 203.199 441.207 213.734 c 453.566 242.602 l 449.879
 247.398 445.867 251.941 441.562 256.195 c 440.062 257.691 438.473 259.195
 436.883 260.695 c 454.445 268.199 l 464.008 260.758 472.605 252.16 480.047
 242.602 c 467.688 213.734 l 474.031 203.199 478.762 191.777 481.723 179.84
 c 510.852 168.188 l 511.633 162.188 512.016 156.145 512 150.094 c h
512 150.094 m f
0.211765 0.34902 0.447059 rg
300.152 361.941 m 300.172 355.891 299.789 349.848 299.004 343.848 c 269.879
 332.195 l 266.914 320.258 262.184 308.836 255.84 298.301 c 268.199 269.434
 l 260.758 259.875 252.16 251.277 242.602 243.836 c 225.035 251.34 l 226.625
 252.84 228.211 254.344 229.711 255.844 c 234.016 260.094 238.027 264.637
 241.719 269.434 c 229.359 298.301 l 235.703 308.836 240.434 320.258 243.395
 332.195 c 272.523 343.848 l 274.055 355.863 274.055 368.023 272.523 380.035
 c 243.395 391.688 l 240.434 403.625 235.703 415.051 229.359 425.586 c 241.719
 454.449 l 238.027 459.246 234.016 463.789 229.711 468.043 c 228.211 469.543
 226.625 471.043 225.035 472.543 c 242.602 480.047 l 252.16 472.605 260.758
 464.008 268.199 454.449 c 255.84 425.586 l 262.184 415.051 266.914 403.625
 269.879 391.688 c 299.004 380.035 l 299.789 374.035 300.172 367.992 300.152
 361.941 c h
300.152 361.941 m f
1 0.839216 0.482353 rg
406.074 229.535 m 406.074 203.055 l 406.094 202.305 405.977 201.555 405.723
 200.852 c 403.137 202.309 400.215 203.066 397.25 203.055 c 388.422 203.055
 l 388.422 229.535 l 388.422 234.41 392.375 238.363 397.25 238.363 c 402.121
 238.363 406.074 234.41 406.074 229.535 c h
406.074 229.535 m f
370.77 229.535 m 370.77 203.055 l 353.113 203.055 l 353.113 229.535 l 353.113
 234.41 357.066 238.363 361.941 238.363 c 366.816 238.363 370.77 234.41 
370.77 229.535 c h
370.77 229.535 m f
335.461 229.535 m 335.461 203.055 l 326.633 203.055 l 323.664 203.066 320.746
 202.309 318.16 200.852 c 317.906 201.555 317.789 202.305 317.809 203.055
 c 317.809 229.535 l 317.809 234.41 321.758 238.363 326.633 238.363 c 331.512
 238.363 335.461 234.41 335.461 229.535 c h
335.461 229.535 m f
353.113 97.129 m 370.77 97.129 l 370.77 70.652 l 370.77 65.777 366.816 
61.824 361.941 61.824 c 357.066 61.824 353.113 65.777 353.113 70.652 c h
353.113 97.129 m f
326.633 97.129 m 335.461 97.129 l 335.461 70.652 l 335.461 65.777 331.512
 61.824 326.633 61.824 c 321.758 61.824 317.809 65.777 317.809 70.652 c 
317.809 97.129 l 317.789 97.883 317.906 98.629 318.16 99.336 c 320.746 97.879
 323.664 97.117 326.633 97.129 c h
326.633 97.129 m f
406.074 97.129 m 406.074 70.652 l 406.074 65.777 402.121 61.824 397.25 
61.824 c 392.375 61.824 388.422 65.777 388.422 70.652 c 388.422 97.129 l
 397.25 97.129 l 400.215 97.117 403.137 97.879 405.723 99.336 c 405.977 
98.629 406.094 97.883 406.074 97.129 c h
406.074 97.129 m f
308.98 114.785 m 308.965 111.816 309.727 108.895 311.188 106.312 c 310.48
 106.059 309.73 105.938 308.98 105.957 c 282.5 105.957 l 277.625 105.957
 273.672 109.91 273.672 114.785 c 273.672 119.66 277.625 123.613 282.5 123.613
 c 308.98 123.613 l h
308.98 114.785 m f
273.672 185.402 m 273.672 190.277 277.625 194.23 282.5 194.23 c 308.98 
194.23 l 309.73 194.25 310.48 194.129 311.188 193.879 c 309.727 191.293 
308.965 188.371 308.98 185.402 c 308.98 176.574 l 282.5 176.574 l 277.625
 176.574 273.672 180.527 273.672 185.402 c h
273.672 185.402 m f
273.672 150.094 m 273.672 154.969 277.625 158.922 282.5 158.922 c 308.98
 158.922 l 308.98 141.27 l 282.5 141.27 l 277.625 141.27 273.672 145.219
 273.672 150.094 c h
273.672 150.094 m f
450.215 150.094 m 450.215 145.219 446.262 141.27 441.387 141.27 c 414.902
 141.27 l 414.902 158.922 l 441.387 158.922 l 446.262 158.922 450.215 154.969
 450.215 150.094 c h
450.215 150.094 m f
414.902 185.402 m 414.918 188.371 414.156 191.293 412.695 193.879 c 413.402
 194.129 414.152 194.25 414.902 194.23 c 441.387 194.23 l 446.262 194.23
 450.215 190.277 450.215 185.402 c 450.215 180.527 446.262 176.574 441.387
 176.574 c 414.902 176.574 l h
414.902 185.402 m f
450.215 114.785 m 450.215 109.91 446.262 105.957 441.387 105.957 c 414.902
 105.957 l 414.152 105.938 413.402 106.059 412.695 106.312 c 414.156 108.895
 414.918 111.816 414.902 114.785 c 414.902 123.613 l 441.387 123.613 l 446.262
 123.613 450.215 119.66 450.215 114.785 c h
450.215 114.785 m f
194.23 441.383 m 194.23 414.906 l 194.246 414.152 194.129 413.406 193.875
 412.699 c 191.289 414.156 188.371 414.918 185.402 414.906 c 176.574 414.906
 l 176.574 441.383 l 176.574 446.258 180.527 450.211 185.402 450.211 c 190.277
 450.211 194.23 446.258 194.23 441.383 c h
194.23 441.383 m f
158.922 441.383 m 158.922 414.906 l 141.266 414.906 l 141.266 441.383 l
 141.266 446.258 145.219 450.211 150.094 450.211 c 154.969 450.211 158.922
 446.258 158.922 441.383 c h
158.922 441.383 m f
123.613 441.383 m 123.613 414.906 l 114.785 414.906 l 111.82 414.918 108.898
 414.156 106.312 412.699 c 106.062 413.406 105.941 414.152 105.961 414.906
 c 105.961 441.383 l 105.961 446.258 109.914 450.211 114.785 450.211 c 119.66
 450.211 123.613 446.258 123.613 441.383 c h
123.613 441.383 m f
141.266 308.98 m 158.922 308.98 l 158.922 282.5 l 158.922 277.621 154.969
 273.672 150.094 273.672 c 145.219 273.672 141.266 277.621 141.266 282.5
 c h
141.266 308.98 m f
114.785 308.98 m 123.613 308.98 l 123.613 282.5 l 123.613 277.621 119.66
 273.672 114.785 273.672 c 109.914 273.672 105.961 277.621 105.961 282.5
 c 105.961 308.98 l 105.941 309.73 106.062 310.48 106.312 311.188 c 108.898
 309.727 111.82 308.969 114.785 308.98 c h
114.785 308.98 m f
194.23 308.98 m 194.23 282.5 l 194.23 277.621 190.277 273.672 185.402 273.672
 c 180.527 273.672 176.574 277.621 176.574 282.5 c 176.574 308.98 l 185.402
 308.98 l 188.371 308.969 191.289 309.727 193.875 311.188 c 194.129 310.48
 194.246 309.73 194.23 308.98 c h
194.23 308.98 m f
97.133 326.633 m 97.117 323.664 97.879 320.742 99.34 318.156 c 98.633 317.906
 97.883 317.785 97.133 317.805 c 70.648 317.805 l 65.773 317.805 61.824 
321.758 61.824 326.633 c 61.824 331.508 65.773 335.461 70.648 335.461 c 
97.133 335.461 l h
97.133 326.633 m f
61.824 397.25 m 61.824 402.125 65.773 406.078 70.648 406.078 c 97.133 406.078
 l 97.883 406.098 98.633 405.977 99.34 405.723 c 97.879 403.141 97.117 400.219
 97.133 397.25 c 97.133 388.422 l 70.648 388.422 l 65.773 388.422 61.824
 392.375 61.824 397.25 c h
61.824 397.25 m f
61.824 361.941 m 61.824 366.816 65.773 370.766 70.648 370.766 c 97.133 
370.766 l 97.133 353.113 l 70.648 353.113 l 65.773 353.113 61.824 357.066
 61.824 361.941 c h
61.824 361.941 m f
238.363 361.941 m 238.363 357.066 234.41 353.113 229.535 353.113 c 203.055
 353.113 l 203.055 370.766 l 229.535 370.766 l 234.41 370.766 238.363 366.816
 238.363 361.941 c h
238.363 361.941 m f
203.055 397.25 m 203.07 400.219 202.309 403.141 200.848 405.723 c 201.559
 405.977 202.305 406.098 203.055 406.078 c 229.535 406.078 l 234.41 406.078
 238.363 402.125 238.363 397.25 c 238.363 392.375 234.41 388.422 229.535
 388.422 c 203.055 388.422 l h
203.055 397.25 m f
238.363 326.633 m 238.363 321.758 234.41 317.805 229.535 317.805 c 203.055
 317.805 l 202.305 317.785 201.559 317.906 200.848 318.156 c 202.309 320.742
 203.07 323.664 203.055 326.633 c 203.055 335.461 l 229.535 335.461 l 234.41
 335.461 238.363 331.508 238.363 326.633 c h
238.363 326.633 m f
Q Q
showpage
%%Trailer
end restore
%%EOF
