%!PS-Adobe-3.0 EPSF-3.0
%%Creator: cairo 1.14.6 (http://cairographics.org)
%%CreationDate: Wed Apr  3 07:48:55 2019
%%Pages: 1
%%DocumentData: Clean7Bit
%%LanguageLevel: 2
%%BoundingBox: 88 0 424 512
%%EndComments
%%BeginProlog
save
50 dict begin
/q { gsave } bind def
/Q { grestore } bind def
/cm { 6 array astore concat } bind def
/w { setlinewidth } bind def
/J { setlinecap } bind def
/j { setlinejoin } bind def
/M { setmiterlimit } bind def
/d { setdash } bind def
/m { moveto } bind def
/l { lineto } bind def
/c { curveto } bind def
/h { closepath } bind def
/re { exch dup neg 3 1 roll 5 3 roll moveto 0 rlineto
      0 exch rlineto 0 rlineto closepath } bind def
/S { stroke } bind def
/f { fill } bind def
/f* { eofill } bind def
/n { newpath } bind def
/W { clip } bind def
/W* { eoclip } bind def
/BT { } bind def
/ET { } bind def
/pdfmark where { pop globaldict /?pdfmark /exec load put }
    { globaldict begin /?pdfmark /pop load def /pdfmark
    /cleartomark load def end } ifelse
/BDC { mark 3 1 roll /BDC pdfmark } bind def
/EMC { mark /EMC pdfmark } bind def
/cairo_store_point { /cairo_point_y exch def /cairo_point_x exch def } def
/Tj { show currentpoint cairo_store_point } bind def
/TJ {
  {
    dup
    type /stringtype eq
    { show } { -0.001 mul 0 cairo_font_matrix dtransform rmoveto } ifelse
  } forall
  currentpoint cairo_store_point
} bind def
/cairo_selectfont { cairo_font_matrix aload pop pop pop 0 0 6 array astore
    cairo_font exch selectfont cairo_point_x cairo_point_y moveto } bind def
/Tf { pop /cairo_font exch def /cairo_font_matrix where
      { pop cairo_selectfont } if } bind def
/Td { matrix translate cairo_font_matrix matrix concatmatrix dup
      /cairo_font_matrix exch def dup 4 get exch 5 get cairo_store_point
      /cairo_font where { pop cairo_selectfont } if } bind def
/Tm { 2 copy 8 2 roll 6 array astore /cairo_font_matrix exch def
      cairo_store_point /cairo_font where { pop cairo_selectfont } if } bind def
/g { setgray } bind def
/rg { setrgbcolor } bind def
/d1 { setcachedevice } bind def
%%EndProlog
%%BeginSetup
%%EndSetup
%%Page: 1 1
%%BeginPageSetup
%%PageBoundingBox: 88 0 424 512
%%EndPageSetup
q 88 0 336 512 rectclip q
0.4 0.831373 0.945098 rg
423.449 476.691 m 423.449 26.484 l 423.449 11.855 411.59 0 396.965 0 c 
114.484 0 l 99.855 0 88 11.855 88 26.484 c 88 476.691 l 167.449 476.691 
l 172.324 476.691 176.277 472.738 176.277 467.863 c 176.277 459.035 l 176.277
 454.16 180.227 450.207 185.102 450.207 c 326.344 450.207 l 331.219 450.207
 335.172 454.16 335.172 459.035 c 335.172 467.863 l 335.172 472.738 339.125
 476.691 344 476.691 c h
423.449 476.691 m f
0.388235 0.423529 0.466667 rg
423.449 485.516 m 423.449 467.863 l 344 467.863 l 339.125 467.863 335.172
 463.91 335.172 459.035 c 335.172 450.207 l 335.172 445.332 331.219 441.379
 326.344 441.379 c 185.102 441.379 l 180.227 441.379 176.277 445.332 176.277
 450.207 c 176.277 459.035 l 176.277 463.91 172.324 467.863 167.449 467.863
 c 88 467.863 l 88 485.516 l 88 500.145 99.855 512 114.484 512 c 396.965
 512 l 411.59 512 423.449 500.145 423.449 485.516 c h
423.449 485.516 m f
0.956863 0.964706 0.972549 rg
176.277 370.758 m 335.172 370.758 l 364.426 370.758 388.137 347.047 388.137
 317.793 c 388.137 158.898 l 388.137 129.645 364.426 105.93 335.172 105.93
 c 176.277 105.93 l 147.023 105.93 123.309 129.645 123.309 158.898 c 123.309
 317.793 l 123.309 347.047 147.023 370.758 176.277 370.758 c h
176.277 370.758 m f
0.921569 0.52549 0.745098 rg
327.582 189.086 m 327.652 188.77 327.684 188.441 327.668 188.117 c 327.77
 175.754 319.367 164.941 307.367 161.984 c 307.277 161.566 307.16 161.152
 307.012 160.75 c 307.012 160.574 306.926 160.398 306.926 160.219 c 306.66
 159.426 306.395 158.719 306.129 158.016 c 302.254 147.965 292.625 141.312
 281.855 141.242 c 275.434 141.23 269.246 143.66 264.551 148.039 c 258.918
 153.141 255.707 160.391 255.723 167.988 c 255.738 160.391 252.531 153.141
 246.898 148.039 c 242.203 143.66 236.016 141.23 229.594 141.242 c 217.289
 141.348 206.695 149.961 204.082 161.984 c 192.078 164.941 183.68 175.754
 183.781 188.117 c 183.766 188.441 183.793 188.77 183.867 189.086 c 175.609
 191.719 169.465 198.672 167.859 207.188 c 166.258 215.703 169.453 224.414
 176.188 229.871 c 168.227 239.457 169.035 253.566 178.043 262.18 c 177.508
 264.227 177.238 266.332 177.246 268.445 c 177.094 281.875 186.977 293.312
 200.285 295.105 c 198.043 298.047 196.836 301.648 196.844 305.348 c 196.777
 314.484 204.125 321.953 213.262 322.031 c 214.664 322.035 216.059 321.855
 217.414 321.5 c 217.59 322.031 217.766 322.473 217.941 323 c 218.141 323.488
 218.379 323.961 218.648 324.414 c 218.848 324.871 219.086 325.316 219.355
 325.738 c 219.574 326.223 219.875 326.672 220.238 327.062 c 220.48 327.508
 220.777 327.922 221.121 328.297 c 221.809 329.105 222.547 329.871 223.328
 330.594 c 223.602 330.852 223.898 331.086 224.211 331.301 c 224.34 331.438
 224.488 331.559 224.652 331.652 c 224.984 331.918 225.336 332.152 225.711
 332.359 c 226.062 332.625 226.594 332.887 226.945 333.152 c 228.406 333.91
 229.945 334.5 231.535 334.918 c 231.891 335.008 232.242 335.008 232.598
 335.094 c 233.754 335.348 234.941 335.465 236.125 335.449 c 239.973 335.445
 243.73 334.277 246.898 332.094 c 252.457 328.328 255.77 322.035 255.723
 315.32 c 255.68 322.035 258.992 328.328 264.551 332.094 c 267.719 334.277
 271.473 335.445 275.32 335.449 c 276.508 335.465 277.691 335.348 278.852
 335.094 c 279.207 335.008 279.559 335.008 279.91 334.918 c 281.504 334.5
 283.043 333.91 284.504 333.152 c 284.855 332.887 285.387 332.625 285.738
 332.359 c 286.109 332.152 286.465 331.918 286.797 331.652 c 286.961 331.559
 287.109 331.438 287.238 331.301 c 287.551 331.086 287.844 330.852 288.121
 330.594 c 288.902 329.871 289.637 329.105 290.328 328.297 c 290.672 327.922
 290.969 327.508 291.211 327.062 c 291.574 326.672 291.871 326.223 292.094
 325.738 c 292.363 325.316 292.598 324.871 292.801 324.414 c 293.07 323.961
 293.305 323.488 293.508 323 c 293.684 322.473 293.859 322.031 294.035 321.5
 c 295.391 321.855 296.785 322.035 298.184 322.031 c 307.324 321.953 314.672
 314.484 314.605 305.348 c 314.598 303.035 314.117 300.754 313.191 298.637
 c 312.84 297.77 312.395 296.941 311.867 296.164 c 311.684 295.828 311.477
 295.504 311.25 295.195 c 311.16 295.105 l 324.469 293.312 334.352 281.875
 334.203 268.445 c 334.203 266.332 333.938 264.227 333.406 262.18 c 342.414
 253.566 343.223 239.457 335.262 229.871 c 341.996 224.414 345.191 215.703
 343.59 207.188 c 341.984 198.672 335.836 191.719 327.582 189.086 c h
327.582 189.086 m f
0.388235 0.423529 0.466667 rg
423.449 370.758 m 423.449 26.484 l 423.449 11.855 411.59 0 396.965 0 c 
114.484 0 l 99.855 0 88 11.855 88 26.484 c 88 467.863 l 96.828 467.863 l
 96.828 476.691 l 105.656 476.691 l 105.656 44.137 l 105.465 37.301 108 
30.668 112.703 25.703 c 117.406 20.734 123.887 17.84 130.727 17.656 c 380.723
 17.656 l 382.816 17.633 384.898 17.93 386.902 18.539 c 398.27 21.809 406.02
 32.312 405.793 44.137 c 405.793 370.758 l h
423.449 370.758 m f
0.258824 0.282353 0.321569 rg
423.449 467.863 m 423.449 26.484 l 423.449 11.855 411.59 0 396.965 0 c 
379.309 0 l 393.938 0 405.793 11.855 405.793 26.484 c 405.793 467.863 l 
h
423.449 467.863 m f
423.449 485.516 m 423.449 467.863 l 388.137 467.863 l 388.137 485.516 l
 388.137 500.145 376.281 512 361.656 512 c 396.965 512 l 411.59 512 423.449
 500.145 423.449 485.516 c h
423.449 485.516 m f
0.227451 0.678431 0.85098 rg
405.793 467.863 m 405.793 44.137 l 406.02 32.312 398.27 21.809 386.902 
18.539 c 387.727 21.105 388.145 23.785 388.137 26.484 c 388.137 467.863 
l h
405.793 467.863 m f
0.258824 0.282353 0.321569 rg
229.242 467.863 m 220.414 467.863 l 215.539 467.863 211.586 471.812 211.586
 476.691 c 211.586 481.566 215.539 485.516 220.414 485.516 c 229.242 485.516
 l 234.117 485.516 238.07 481.566 238.07 476.691 c 238.07 471.812 234.117
 467.863 229.242 467.863 c h
229.242 467.863 m f
291.035 467.863 m 264.551 467.863 l 259.676 467.863 255.723 471.812 255.723
 476.691 c 255.723 481.566 259.676 485.516 264.551 485.516 c 291.035 485.516
 l 295.91 485.516 299.863 481.566 299.863 476.691 c 299.863 471.812 295.91
 467.863 291.035 467.863 c h
291.035 467.863 m f
0.227451 0.678431 0.85098 rg
308.691 26.484 m 202.758 26.484 l 197.883 26.484 193.93 30.434 193.93 35.309
 c 193.93 40.188 197.883 44.137 202.758 44.137 c 308.691 44.137 l 313.566
 44.137 317.516 40.188 317.516 35.309 c 317.516 30.434 313.566 26.484 308.691
 26.484 c h
308.691 26.484 m f
0.835294 0.435294 0.67451 rg
264.551 332.094 m 264.551 148.039 l 258.918 153.141 255.707 160.391 255.723
 167.988 c 255.738 160.391 252.531 153.141 246.898 148.039 c 246.898 332.094
 l 252.457 328.328 255.77 322.035 255.723 315.32 c 255.68 322.035 258.992
 328.328 264.551 332.094 c h
264.551 332.094 m f
0.705882 0.87451 0.501961 rg
269.762 264.828 m 264.551 264.828 l 264.551 282.484 l 269.762 282.484 l
 275.938 288.75 l 279.402 292.211 285.012 292.211 288.473 288.75 c 291.938
 285.289 291.938 279.676 288.473 276.215 c 282.207 270.035 l 278.922 266.707
 274.438 264.832 269.762 264.828 c h
269.762 264.828 m f
288.473 200.473 m 291.918 197.004 291.918 191.41 288.473 187.938 c 284.992
 184.523 279.422 184.523 275.938 187.938 c 269.762 194.207 l 264.551 194.207
 l 264.551 211.863 l 269.762 211.863 l 274.438 211.859 278.922 209.984 282.207
 206.652 c h
288.473 200.473 m f
308.691 247.172 m 308.691 229.516 l 308.691 224.641 304.738 220.691 299.863
 220.691 c 294.988 220.691 291.035 224.641 291.035 229.516 c 264.551 229.516
 l 264.551 247.172 l 291.035 247.172 l 291.035 252.047 294.988 256 299.863
 256 c 304.738 256 308.691 252.047 308.691 247.172 c h
308.691 247.172 m f
246.898 282.484 m 246.898 264.828 l 241.688 264.828 l 237.012 264.832 232.527
 266.707 229.242 270.035 c 222.973 276.215 l 219.512 279.676 219.512 285.289
 222.973 288.75 c 226.434 292.211 232.047 292.211 235.508 288.75 c 241.688
 282.484 l h
246.898 282.484 m f
220.414 247.172 m 246.898 247.172 l 246.898 229.516 l 220.414 229.516 l
 220.414 224.641 216.461 220.691 211.586 220.691 c 206.711 220.691 202.758
 224.641 202.758 229.516 c 202.758 247.172 l 202.758 252.047 206.711 256
 211.586 256 c 216.461 256 220.414 252.047 220.414 247.172 c h
220.414 247.172 m f
241.688 211.863 m 246.898 211.863 l 246.898 194.207 l 241.688 194.207 l
 235.508 187.938 l 232.027 184.523 226.453 184.523 222.973 187.938 c 219.531
 191.41 219.531 197.004 222.973 200.473 c 229.242 206.652 l 232.527 209.984
 237.012 211.859 241.688 211.863 c h
241.688 211.863 m f
Q Q
showpage
%%Trailer
end restore
%%EOF
