%!PS-Adobe-3.0 EPSF-3.0
%%Creator: cairo 1.14.6 (http://cairographics.org)
%%CreationDate: Wed Apr  3 07:48:55 2019
%%Pages: 1
%%DocumentData: Clean7Bit
%%LanguageLevel: 2
%%BoundingBox: 0 0 512 512
%%EndComments
%%BeginProlog
save
50 dict begin
/q { gsave } bind def
/Q { grestore } bind def
/cm { 6 array astore concat } bind def
/w { setlinewidth } bind def
/J { setlinecap } bind def
/j { setlinejoin } bind def
/M { setmiterlimit } bind def
/d { setdash } bind def
/m { moveto } bind def
/l { lineto } bind def
/c { curveto } bind def
/h { closepath } bind def
/re { exch dup neg 3 1 roll 5 3 roll moveto 0 rlineto
      0 exch rlineto 0 rlineto closepath } bind def
/S { stroke } bind def
/f { fill } bind def
/f* { eofill } bind def
/n { newpath } bind def
/W { clip } bind def
/W* { eoclip } bind def
/BT { } bind def
/ET { } bind def
/pdfmark where { pop globaldict /?pdfmark /exec load put }
    { globaldict begin /?pdfmark /pop load def /pdfmark
    /cleartomark load def end } ifelse
/BDC { mark 3 1 roll /BDC pdfmark } bind def
/EMC { mark /EMC pdfmark } bind def
/cairo_store_point { /cairo_point_y exch def /cairo_point_x exch def } def
/Tj { show currentpoint cairo_store_point } bind def
/TJ {
  {
    dup
    type /stringtype eq
    { show } { -0.001 mul 0 cairo_font_matrix dtransform rmoveto } ifelse
  } forall
  currentpoint cairo_store_point
} bind def
/cairo_selectfont { cairo_font_matrix aload pop pop pop 0 0 6 array astore
    cairo_font exch selectfont cairo_point_x cairo_point_y moveto } bind def
/Tf { pop /cairo_font exch def /cairo_font_matrix where
      { pop cairo_selectfont } if } bind def
/Td { matrix translate cairo_font_matrix matrix concatmatrix dup
      /cairo_font_matrix exch def dup 4 get exch 5 get cairo_store_point
      /cairo_font where { pop cairo_selectfont } if } bind def
/Tm { 2 copy 8 2 roll 6 array astore /cairo_font_matrix exch def
      cairo_store_point /cairo_font where { pop cairo_selectfont } if } bind def
/g { setgray } bind def
/rg { setrgbcolor } bind def
/d1 { setcachedevice } bind def
%%EndProlog
%%BeginSetup
%%EndSetup
%%Page: 1 1
%%BeginPageSetup
%%PageBoundingBox: 0 0 512 512
%%EndPageSetup
q 0 0 512 512 rectclip q
0.4 0.831373 0.945098 rg
88.277 423.723 m 88.277 467.863 l 88.277 492.238 108.035 512 132.414 512
 c 467.863 512 l 479.566 512 490.793 507.352 499.074 499.074 c 507.352 490.793
 512 479.566 512 467.863 c 512 123.586 l 512 99.211 492.238 79.449 467.863
 79.449 c 88.277 79.449 l h
88.277 423.723 m f
0.576471 0.462745 0.380392 rg
17.656 176.551 m 158.898 176.551 l 168.648 176.551 176.551 168.648 176.551
 158.898 c 176.551 141.242 l 176.551 131.492 168.648 123.586 158.898 123.586
 c 17.656 123.586 l 7.906 123.586 0 131.492 0 141.242 c 0 158.898 l 0 168.648
 7.906 176.551 17.656 176.551 c h
17.656 176.551 m f
0.992157 0.803922 0.337255 rg
150.156 0 m 26.395 0 l 18.117 0.043 10.332 3.957 5.359 10.574 c 0.387 17.195
 -1.203 25.758 1.059 33.723 c 26.66 123.586 l 149.891 123.586 l 175.492 
33.723 l 177.754 25.758 176.164 17.195 171.191 10.574 c 166.219 3.957 158.438
 0.043 150.156 0 c h
150.156 0 m f
0.639216 0.52549 0.443137 rg
88.277 423.723 m 107.777 423.723 123.586 407.914 123.586 388.414 c 123.586
 176.551 l 52.965 176.551 l 52.965 388.414 l 52.965 407.914 68.773 423.723
 88.277 423.723 c h
88.277 423.723 m f
0.309804 0.752941 0.909804 rg
512 467.863 m 512 123.586 l 512 99.211 492.238 79.449 467.863 79.449 c 
441.379 79.449 l 465.758 79.449 485.516 99.211 485.516 123.586 c 485.516
 467.863 l 485.516 479.566 480.867 490.793 472.59 499.074 c 464.312 507.352
 453.086 512 441.379 512 c 467.863 512 l 492.238 512 512 492.238 512 467.863
 c h
512 467.863 m f
0.960784 0.72549 0.270588 rg
150.156 0 m 123.676 0 l 131.953 0.043 139.734 3.957 144.707 10.574 c 149.68
 17.195 151.273 25.758 149.008 33.723 c 123.41 123.586 l 149.891 123.586
 l 175.492 33.723 l 177.754 25.758 176.164 17.195 171.191 10.574 c 166.219
 3.957 158.438 0.043 150.156 0 c h
150.156 0 m f
0.509804 0.4 0.329412 rg
176.551 158.898 m 176.551 141.242 l 176.523 131.504 168.637 123.617 158.898
 123.586 c 141.242 123.586 l 150.98 123.617 158.867 131.504 158.898 141.242
 c 158.898 158.898 l 158.867 168.637 150.98 176.523 141.242 176.551 c 158.898
 176.551 l 168.637 176.523 176.523 168.637 176.551 158.898 c h
176.551 158.898 m f
0.576471 0.462745 0.380392 rg
123.586 388.414 m 123.586 176.551 l 105.93 176.551 l 105.93 388.414 l 105.945
 404.516 95.043 418.574 79.449 422.578 c 82.324 423.363 85.293 423.75 88.277
 423.723 c 107.777 423.723 123.586 407.914 123.586 388.414 c h
123.586 388.414 m f
0.956863 0.964706 0.972549 rg
194.207 459.035 m 179.582 459.035 167.723 447.18 167.723 432.551 c 167.723
 414.898 l 167.723 400.27 179.582 388.414 194.207 388.414 c 208.832 388.414
 220.691 400.27 220.691 414.898 c 220.691 432.551 l 220.691 447.18 208.832
 459.035 194.207 459.035 c h
203.035 414.898 m 203.035 410.02 199.082 406.07 194.207 406.07 c 189.332
 406.07 185.379 410.02 185.379 414.898 c 185.379 432.551 l 185.379 437.426
 189.332 441.379 194.207 441.379 c 199.082 441.379 203.035 437.426 203.035
 432.551 c h
203.035 414.898 m f
326.621 459.035 m 311.996 459.035 300.137 447.18 300.137 432.551 c 300.137
 414.898 l 300.137 400.27 311.996 388.414 326.621 388.414 c 341.246 388.414
 353.102 400.27 353.102 414.898 c 353.102 432.551 l 353.102 447.18 341.246
 459.035 326.621 459.035 c h
335.449 414.898 m 335.449 410.02 331.496 406.07 326.621 406.07 c 321.746
 406.07 317.793 410.02 317.793 414.898 c 317.793 432.551 l 317.793 437.426
 321.746 441.379 326.621 441.379 c 331.496 441.379 335.449 437.426 335.449
 432.551 c h
335.449 414.898 m f
397.242 459.035 m 382.617 459.035 370.758 447.18 370.758 432.551 c 370.758
 414.898 l 370.758 400.27 382.617 388.414 397.242 388.414 c 411.867 388.414
 423.723 400.27 423.723 414.898 c 423.723 432.551 l 423.723 447.18 411.867
 459.035 397.242 459.035 c h
406.07 414.898 m 406.07 410.02 402.117 406.07 397.242 406.07 c 392.367 
406.07 388.414 410.02 388.414 414.898 c 388.414 432.551 l 388.414 437.426
 392.367 441.379 397.242 441.379 c 402.117 441.379 406.07 437.426 406.07
 432.551 c h
406.07 414.898 m f
264.828 406.07 m 264.828 450.207 l 264.828 453.777 262.676 456.996 259.379
 458.359 c 256.078 459.727 252.285 458.973 249.758 456.449 c 240.93 447.621
 l 238.406 445.098 237.652 441.301 239.02 438 c 240.383 434.703 243.602 
432.551 247.172 432.551 c 247.172 406.07 l 242.297 406.07 238.344 402.117
 238.344 397.242 c 238.344 392.367 242.297 388.414 247.172 388.414 c 264.828
 388.414 l 269.703 388.414 273.656 392.367 273.656 397.242 c 273.656 402.117
 269.703 406.07 264.828 406.07 c h
264.828 406.07 m f
194.207 370.758 m 179.582 370.758 167.723 358.902 167.723 344.277 c 167.723
 326.621 l 167.723 311.996 179.582 300.137 194.207 300.137 c 208.832 300.137
 220.691 311.996 220.691 326.621 c 220.691 344.277 l 220.691 358.902 208.832
 370.758 194.207 370.758 c h
203.035 326.621 m 203.035 321.746 199.082 317.793 194.207 317.793 c 189.332
 317.793 185.379 321.746 185.379 326.621 c 185.379 344.277 l 185.379 349.152
 189.332 353.102 194.207 353.102 c 199.082 353.102 203.035 349.152 203.035
 344.277 c h
203.035 326.621 m f
397.242 370.758 m 382.617 370.758 370.758 358.902 370.758 344.277 c 370.758
 326.621 l 370.758 311.996 382.617 300.137 397.242 300.137 c 411.867 300.137
 423.723 311.996 423.723 326.621 c 423.723 344.277 l 423.723 358.902 411.867
 370.758 397.242 370.758 c h
406.07 326.621 m 406.07 321.746 402.117 317.793 397.242 317.793 c 392.367
 317.793 388.414 321.746 388.414 326.621 c 388.414 344.277 l 388.414 349.152
 392.367 353.102 397.242 353.102 c 402.117 353.102 406.07 349.152 406.07
 344.277 c h
406.07 326.621 m f
264.828 317.793 m 264.828 361.93 l 264.828 365.5 262.676 368.719 259.379
 370.086 c 256.078 371.449 252.285 370.695 249.758 368.172 c 240.93 359.344
 l 238.406 356.82 237.652 353.023 239.02 349.727 c 240.383 346.426 243.602
 344.277 247.172 344.277 c 247.172 317.793 l 242.297 317.793 238.344 313.84
 238.344 308.965 c 238.344 304.09 242.297 300.137 247.172 300.137 c 264.828
 300.137 l 269.703 300.137 273.656 304.09 273.656 308.965 c 273.656 313.84
 269.703 317.793 264.828 317.793 c h
264.828 317.793 m f
308.965 308.965 m 308.965 304.09 312.918 300.137 317.793 300.137 c 335.449
 300.137 l 340.324 300.137 344.277 304.09 344.277 308.965 c 344.277 313.84
 340.324 317.793 335.449 317.793 c 335.449 361.93 l 335.449 365.5 333.297
 368.719 330 370.086 c 326.699 371.449 322.902 370.695 320.379 368.172 c
 311.551 359.344 l 309.027 356.82 308.273 353.023 309.641 349.727 c 311.004
 346.426 314.223 344.277 317.793 344.277 c 317.793 317.793 l 312.918 317.793
 308.965 313.84 308.965 308.965 c h
308.965 308.965 m f
397.242 194.207 m 382.617 194.207 370.758 182.352 370.758 167.723 c 370.758
 150.07 l 370.758 135.441 382.617 123.586 397.242 123.586 c 411.867 123.586
 423.723 135.441 423.723 150.07 c 423.723 167.723 l 423.723 182.352 411.867
 194.207 397.242 194.207 c h
406.07 150.07 m 406.07 145.195 402.117 141.242 397.242 141.242 c 392.367
 141.242 388.414 145.195 388.414 150.07 c 388.414 167.723 l 388.414 172.598
 392.367 176.551 397.242 176.551 c 402.117 176.551 406.07 172.598 406.07
 167.723 c h
406.07 150.07 m f
264.828 141.242 m 264.828 185.379 l 264.828 188.949 262.676 192.168 259.379
 193.531 c 256.078 194.898 252.285 194.145 249.758 191.621 c 240.93 182.793
 l 238.406 180.27 237.652 176.473 239.02 173.172 c 240.383 169.875 243.602
 167.727 247.172 167.723 c 247.172 141.242 l 242.297 141.242 238.344 137.289
 238.344 132.414 c 238.344 127.539 242.297 123.586 247.172 123.586 c 264.828
 123.586 l 269.703 123.586 273.656 127.539 273.656 132.414 c 273.656 137.289
 269.703 141.242 264.828 141.242 c h
264.828 141.242 m f
335.449 141.242 m 335.449 185.379 l 335.449 188.949 333.297 192.168 330
 193.531 c 326.699 194.898 322.902 194.145 320.379 191.621 c 311.551 182.793
 l 309.027 180.27 308.273 176.473 309.641 173.172 c 311.004 169.875 314.223
 167.727 317.793 167.723 c 317.793 141.242 l 312.918 141.242 308.965 137.289
 308.965 132.414 c 308.965 127.539 312.918 123.586 317.793 123.586 c 335.449
 123.586 l 340.324 123.586 344.277 127.539 344.277 132.414 c 344.277 137.289
 340.324 141.242 335.449 141.242 c h
335.449 141.242 m f
194.207 282.484 m 179.582 282.484 167.723 270.625 167.723 256 c 167.723
 238.344 l 167.723 223.719 179.582 211.863 194.207 211.863 c 208.832 211.863
 220.691 223.719 220.691 238.344 c 220.691 256 l 220.691 270.625 208.832
 282.484 194.207 282.484 c h
203.035 238.344 m 203.035 233.469 199.082 229.516 194.207 229.516 c 189.332
 229.516 185.379 233.469 185.379 238.344 c 185.379 256 l 185.379 260.875
 189.332 264.828 194.207 264.828 c 199.082 264.828 203.035 260.875 203.035
 256 c h
203.035 238.344 m f
326.621 282.484 m 311.996 282.484 300.137 270.625 300.137 256 c 300.137
 238.344 l 300.137 223.719 311.996 211.863 326.621 211.863 c 341.246 211.863
 353.102 223.719 353.102 238.344 c 353.102 256 l 353.102 270.625 341.246
 282.484 326.621 282.484 c h
335.449 238.344 m 335.449 233.469 331.496 229.516 326.621 229.516 c 321.746
 229.516 317.793 233.469 317.793 238.344 c 317.793 256 l 317.793 260.875
 321.746 264.828 326.621 264.828 c 331.496 264.828 335.449 260.875 335.449
 256 c h
335.449 238.344 m f
397.242 282.484 m 382.617 282.484 370.758 270.625 370.758 256 c 370.758
 238.344 l 370.758 223.719 382.617 211.863 397.242 211.863 c 411.867 211.863
 423.723 223.719 423.723 238.344 c 423.723 256 l 423.723 270.625 411.867
 282.484 397.242 282.484 c h
406.07 238.344 m 406.07 233.469 402.117 229.516 397.242 229.516 c 392.367
 229.516 388.414 233.469 388.414 238.344 c 388.414 256 l 388.414 260.875
 392.367 264.828 397.242 264.828 c 402.117 264.828 406.07 260.875 406.07
 256 c h
406.07 238.344 m f
264.828 229.516 m 264.828 273.656 l 264.828 277.227 262.676 280.441 259.379
 281.809 c 256.078 283.176 252.285 282.422 249.758 279.895 c 240.93 271.07
 l 238.406 268.543 237.652 264.746 239.02 261.449 c 240.383 258.152 243.602
 256 247.172 256 c 247.172 229.516 l 242.297 229.516 238.344 225.566 238.344
 220.691 c 238.344 215.812 242.297 211.863 247.172 211.863 c 264.828 211.863
 l 269.703 211.863 273.656 215.812 273.656 220.691 c 273.656 225.566 269.703
 229.516 264.828 229.516 c h
264.828 229.516 m f
0.960784 0.72549 0.270588 rg
70.621 70.621 m 70.621 0 l 52.965 0 l 52.965 70.621 l 52.965 75.496 56.918
 79.449 61.793 79.449 c 66.668 79.449 70.621 75.496 70.621 70.621 c h
70.621 70.621 m f
123.586 70.621 m 123.586 0 l 105.93 0 l 105.93 70.621 l 105.93 75.496 109.883
 79.449 114.758 79.449 c 119.633 79.449 123.586 75.496 123.586 70.621 c 
h
123.586 70.621 m f
Q Q
showpage
%%Trailer
end restore
%%EOF
