%!PS-Adobe-3.0 EPSF-3.0
%%Creator: cairo 1.14.6 (http://cairographics.org)
%%CreationDate: Wed Apr  3 07:48:55 2019
%%Pages: 1
%%DocumentData: Clean7Bit
%%LanguageLevel: 2
%%BoundingBox: 0 0 512 512
%%EndComments
%%BeginProlog
save
50 dict begin
/q { gsave } bind def
/Q { grestore } bind def
/cm { 6 array astore concat } bind def
/w { setlinewidth } bind def
/J { setlinecap } bind def
/j { setlinejoin } bind def
/M { setmiterlimit } bind def
/d { setdash } bind def
/m { moveto } bind def
/l { lineto } bind def
/c { curveto } bind def
/h { closepath } bind def
/re { exch dup neg 3 1 roll 5 3 roll moveto 0 rlineto
      0 exch rlineto 0 rlineto closepath } bind def
/S { stroke } bind def
/f { fill } bind def
/f* { eofill } bind def
/n { newpath } bind def
/W { clip } bind def
/W* { eoclip } bind def
/BT { } bind def
/ET { } bind def
/pdfmark where { pop globaldict /?pdfmark /exec load put }
    { globaldict begin /?pdfmark /pop load def /pdfmark
    /cleartomark load def end } ifelse
/BDC { mark 3 1 roll /BDC pdfmark } bind def
/EMC { mark /EMC pdfmark } bind def
/cairo_store_point { /cairo_point_y exch def /cairo_point_x exch def } def
/Tj { show currentpoint cairo_store_point } bind def
/TJ {
  {
    dup
    type /stringtype eq
    { show } { -0.001 mul 0 cairo_font_matrix dtransform rmoveto } ifelse
  } forall
  currentpoint cairo_store_point
} bind def
/cairo_selectfont { cairo_font_matrix aload pop pop pop 0 0 6 array astore
    cairo_font exch selectfont cairo_point_x cairo_point_y moveto } bind def
/Tf { pop /cairo_font exch def /cairo_font_matrix where
      { pop cairo_selectfont } if } bind def
/Td { matrix translate cairo_font_matrix matrix concatmatrix dup
      /cairo_font_matrix exch def dup 4 get exch 5 get cairo_store_point
      /cairo_font where { pop cairo_selectfont } if } bind def
/Tm { 2 copy 8 2 roll 6 array astore /cairo_font_matrix exch def
      cairo_store_point /cairo_font where { pop cairo_selectfont } if } bind def
/g { setgray } bind def
/rg { setrgbcolor } bind def
/d1 { setcachedevice } bind def
%%EndProlog
%%BeginSetup
%%EndSetup
%%Page: 1 1
%%BeginPageSetup
%%PageBoundingBox: 0 0 512 512
%%EndPageSetup
q 0 0 512 512 rectclip q
0.792157 0.815686 0.843137 rg
361.93 264.828 m 361.93 229.516 l 17.656 229.516 l 7.906 229.516 0 237.422
 0 247.172 c -0.023 251.855 1.855 256.348 5.207 259.621 c 8.48 262.973 12.973
 264.852 17.656 264.828 c h
361.93 264.828 m f
0.639216 0.52549 0.443137 rg
361.93 273.656 m 494.344 273.656 l 504.098 273.656 512 265.75 512 256 c
 512 238.344 l 512 228.594 504.098 220.691 494.344 220.691 c 361.93 220.691
 l 357.055 220.691 353.105 224.641 353.105 229.516 c 353.105 264.828 l 353.105
 269.703 357.055 273.656 361.93 273.656 c h
361.93 273.656 m f
0.792157 0.815686 0.843137 rg
264.828 494.344 m 264.828 317.793 l 264.797 308.055 256.91 300.168 247.172
 300.137 c 61.793 300.137 l 52.055 300.168 44.168 308.055 44.137 317.793
 c 44.137 494.344 l 44.113 498.129 45.324 501.812 47.582 504.848 c 50.926
 509.34 56.195 511.988 61.793 512 c 247.172 512 l 256.91 511.973 264.797
 504.082 264.828 494.344 c h
264.828 494.344 m f
0.662745 0.690196 0.733333 rg
44.137 441.379 220.691 -70.621 re f
264.828 494.344 m 264.828 441.379 l 247.172 441.379 l 247.172 494.344 l
 247.145 504.082 239.258 511.973 229.516 512 c 247.172 512 l 256.91 511.973
 264.797 504.082 264.828 494.344 c h
264.828 494.344 m f
264.828 370.758 m 264.828 317.793 l 264.797 308.055 256.91 300.168 247.172
 300.137 c 229.516 300.137 l 239.258 300.168 247.145 308.055 247.172 317.793
 c 247.172 370.758 l h
264.828 370.758 m f
0.592157 0.623529 0.666667 rg
247.172 441.379 17.656 -70.621 re f
0.576471 0.462745 0.380392 rg
512 256 m 512 238.344 l 511.973 228.605 504.082 220.719 494.344 220.691
 c 467.863 220.691 l 477.602 220.719 485.488 228.605 485.516 238.344 c 485.516
 256 l 485.488 265.738 477.602 273.625 467.863 273.656 c 494.344 273.656
 l 504.082 273.625 511.973 265.738 512 256 c h
512 256 m f
0.992157 0.803922 0.337255 rg
273.656 229.516 m 273.656 197.824 l 242.758 166.93 l 206.652 203.035 l 
233.227 229.516 l 208.242 229.516 l 194.207 215.48 l 180.172 229.516 l 155.188
 229.516 l 181.762 203.035 l 136.828 158.102 l 96.309 198.621 l 127.293 
229.516 l 102.223 229.516 l 83.863 211.066 l 65.5 229.516 l 40.43 229.516
 l 71.414 198.621 l 55.527 182.82 l 52.082 179.352 52.082 173.754 55.527
 170.285 c 59.008 166.871 64.578 166.871 68.062 170.285 c 83.863 186.172
 l 124.383 145.656 l 83.863 105.137 l 26.484 162.516 l 26.484 229.516 l 
17.656 229.516 l 14.555 229.523 11.512 230.344 8.828 231.902 c 8.828 141.242
 l 8.793 108.27 20.355 76.332 41.488 51.023 c 41.668 50.934 41.668 50.758
 41.754 50.582 c 41.844 50.582 41.93 50.492 42.02 50.406 c 57.762 31.812
 78 17.559 100.812 9.004 c 101.512 8.648 102.254 8.383 103.02 8.211 c 118.121
 2.816 134.031 0.039 150.07 0 c 155.617 0.039 161.156 0.395 166.664 1.059
 c 166.754 1.059 l 195.734 4.516 222.922 16.918 244.523 36.547 c 244.836
 36.691 245.133 36.867 245.406 37.074 c 245.492 37.27 245.613 37.449 245.762
 37.605 c 268.289 58.418 283.438 85.996 288.926 116.172 c 289.02 116.457
 289.078 116.754 289.105 117.055 c 290.516 125.039 291.254 133.133 291.312
 141.242 c 291.312 229.516 l h
194.207 190.586 m 230.312 154.484 l 185.379 109.551 l 149.273 145.656 l
 h
136.828 133.207 m 172.934 97.102 l 132.414 56.586 l 96.309 92.691 l h
26.66 137.355 m 71.414 92.691 l 48.992 70.355 l 35.152 90.023 27.387 113.32
 26.66 137.355 c h
102.84 27.102 m 86.719 33.785 72.215 43.836 60.293 56.586 c 83.863 80.242
 l 119.969 44.137 l h
121.82 21.008 m 132.414 31.691 l 146.184 17.832 l 137.977 18.074 129.816
 19.137 121.82 21.008 c h
169.668 19.332 m 144.859 44.137 l 185.379 84.656 l 226.074 43.961 l 209.645
 31.137 190.242 22.664 169.668 19.332 c h
239.141 55.789 m 197.828 97.102 l 242.758 142.035 l 270.566 114.141 l 265.617
 92.184 254.75 72.004 239.141 55.789 c h
273.656 141.242 m 273.656 139.562 273.48 137.977 273.391 136.297 c 255.207
 154.484 l 273.656 172.934 l h
273.656 141.242 m f
0.537255 0.752941 0.32549 rg
88.277 467.863 m 79.449 467.863 l 74.574 467.863 70.621 471.812 70.621 
476.691 c 70.621 481.566 74.574 485.516 79.449 485.516 c 88.277 485.516 
l 93.152 485.516 97.105 481.566 97.105 476.691 c 97.105 471.812 93.152 467.863
 88.277 467.863 c h
88.277 467.863 m f
0.309804 0.752941 0.909804 rg
132.414 467.863 m 123.586 467.863 l 118.711 467.863 114.758 471.812 114.758
 476.691 c 114.758 481.566 118.711 485.516 123.586 485.516 c 132.414 485.516
 l 137.289 485.516 141.242 481.566 141.242 476.691 c 141.242 471.812 137.289
 467.863 132.414 467.863 c h
132.414 467.863 m f
0.705882 0.87451 0.501961 rg
88.277 397.242 m 79.449 397.242 l 74.574 397.242 70.621 401.195 70.621 
406.07 c 70.621 410.945 74.574 414.895 79.449 414.895 c 88.277 414.895 l
 93.152 414.895 97.105 410.945 97.105 406.07 c 97.105 401.195 93.152 397.242
 88.277 397.242 c h
88.277 397.242 m f
0.4 0.831373 0.945098 rg
132.414 397.242 m 123.586 397.242 l 118.711 397.242 114.758 401.195 114.758
 406.07 c 114.758 410.945 118.711 414.895 123.586 414.895 c 132.414 414.895
 l 137.289 414.895 141.242 410.945 141.242 406.07 c 141.242 401.195 137.289
 397.242 132.414 397.242 c h
132.414 397.242 m f
0.537255 0.752941 0.32549 rg
88.277 326.621 m 79.449 326.621 l 74.574 326.621 70.621 330.574 70.621 
335.449 c 70.621 340.324 74.574 344.277 79.449 344.277 c 88.277 344.277 
l 93.152 344.277 97.105 340.324 97.105 335.449 c 97.105 330.574 93.152 326.621
 88.277 326.621 c h
88.277 326.621 m f
0.309804 0.752941 0.909804 rg
132.414 326.621 m 123.586 326.621 l 118.711 326.621 114.758 330.574 114.758
 335.449 c 114.758 340.324 118.711 344.277 123.586 344.277 c 132.414 344.277
 l 137.289 344.277 141.242 340.324 141.242 335.449 c 141.242 330.574 137.289
 326.621 132.414 326.621 c h
132.414 326.621 m f
0.662745 0.690196 0.733333 rg
229.516 467.863 m 203.035 467.863 l 198.16 467.863 194.207 471.812 194.207
 476.691 c 194.207 481.566 198.16 485.516 203.035 485.516 c 229.516 485.516
 l 234.395 485.516 238.344 481.566 238.344 476.691 c 238.344 471.812 234.395
 467.863 229.516 467.863 c h
229.516 467.863 m f
0.388235 0.423529 0.466667 rg
229.516 397.242 m 203.035 397.242 l 198.16 397.242 194.207 401.195 194.207
 406.07 c 194.207 410.945 198.16 414.895 203.035 414.895 c 229.516 414.895
 l 234.395 414.895 238.344 410.945 238.344 406.07 c 238.344 401.195 234.395
 397.242 229.516 397.242 c h
229.516 397.242 m f
0.662745 0.690196 0.733333 rg
229.516 326.621 m 203.035 326.621 l 198.16 326.621 194.207 330.574 194.207
 335.449 c 194.207 340.324 198.16 344.277 203.035 344.277 c 229.516 344.277
 l 234.395 344.277 238.344 340.324 238.344 335.449 c 238.344 330.574 234.395
 326.621 229.516 326.621 c h
229.516 326.621 m f
Q Q
showpage
%%Trailer
end restore
%%EOF
