%!PS-Adobe-3.0 EPSF-3.0
%%Creator: cairo 1.14.6 (http://cairographics.org)
%%CreationDate: Wed Apr  3 07:48:55 2019
%%Pages: 1
%%DocumentData: Clean7Bit
%%LanguageLevel: 2
%%BoundingBox: 0 0 512 512
%%EndComments
%%BeginProlog
save
50 dict begin
/q { gsave } bind def
/Q { grestore } bind def
/cm { 6 array astore concat } bind def
/w { setlinewidth } bind def
/J { setlinecap } bind def
/j { setlinejoin } bind def
/M { setmiterlimit } bind def
/d { setdash } bind def
/m { moveto } bind def
/l { lineto } bind def
/c { curveto } bind def
/h { closepath } bind def
/re { exch dup neg 3 1 roll 5 3 roll moveto 0 rlineto
      0 exch rlineto 0 rlineto closepath } bind def
/S { stroke } bind def
/f { fill } bind def
/f* { eofill } bind def
/n { newpath } bind def
/W { clip } bind def
/W* { eoclip } bind def
/BT { } bind def
/ET { } bind def
/pdfmark where { pop globaldict /?pdfmark /exec load put }
    { globaldict begin /?pdfmark /pop load def /pdfmark
    /cleartomark load def end } ifelse
/BDC { mark 3 1 roll /BDC pdfmark } bind def
/EMC { mark /EMC pdfmark } bind def
/cairo_store_point { /cairo_point_y exch def /cairo_point_x exch def } def
/Tj { show currentpoint cairo_store_point } bind def
/TJ {
  {
    dup
    type /stringtype eq
    { show } { -0.001 mul 0 cairo_font_matrix dtransform rmoveto } ifelse
  } forall
  currentpoint cairo_store_point
} bind def
/cairo_selectfont { cairo_font_matrix aload pop pop pop 0 0 6 array astore
    cairo_font exch selectfont cairo_point_x cairo_point_y moveto } bind def
/Tf { pop /cairo_font exch def /cairo_font_matrix where
      { pop cairo_selectfont } if } bind def
/Td { matrix translate cairo_font_matrix matrix concatmatrix dup
      /cairo_font_matrix exch def dup 4 get exch 5 get cairo_store_point
      /cairo_font where { pop cairo_selectfont } if } bind def
/Tm { 2 copy 8 2 roll 6 array astore /cairo_font_matrix exch def
      cairo_store_point /cairo_font where { pop cairo_selectfont } if } bind def
/g { setgray } bind def
/rg { setrgbcolor } bind def
/d1 { setcachedevice } bind def
%%EndProlog
%%BeginSetup
%%EndSetup
%%Page: 1 1
%%BeginPageSetup
%%PageBoundingBox: 0 0 512 512
%%EndPageSetup
q 0 0 512 512 rectclip q
0.792157 0.815686 0.843137 rg
35.309 52.965 m 88.277 52.965 l 88.277 8.828 l 88.277 3.953 84.324 0 79.449
 0 c 44.137 0 l 39.262 0 35.309 3.953 35.309 8.828 c h
35.309 52.965 m f
335.449 52.965 m 388.414 52.965 l 388.414 8.828 l 388.414 3.953 384.461
 0 379.586 0 c 344.277 0 l 339.402 0 335.449 3.953 335.449 8.828 c h
335.449 52.965 m f
0.894118 0.909804 0.921569 rg
423.723 88.277 m 388.414 44.137 l 35.309 44.137 l 0 88.277 l 8.828 105.93
 l 414.898 105.93 l h
423.723 88.277 m f
105.93 512 m 494.344 512 l 504.094 512 512 504.094 512 494.344 c 512 423.723
 l 512 413.973 504.094 406.07 494.344 406.07 c 105.93 406.07 l 96.18 406.07
 88.277 413.973 88.277 423.723 c 88.277 494.344 l 88.277 504.094 96.18 512
 105.93 512 c h
105.93 512 m f
0.619608 0.823529 0.415686 rg
158.898 459.035 m 158.898 449.285 150.992 441.379 141.242 441.379 c 131.492
 441.379 123.586 449.285 123.586 459.035 c 123.586 468.785 131.492 476.691
 141.242 476.691 c 150.992 476.691 158.898 468.785 158.898 459.035 c h
158.898 459.035 m f
229.516 459.035 m 229.516 449.285 221.613 441.379 211.863 441.379 c 202.113
 441.379 194.207 449.285 194.207 459.035 c 194.207 468.785 202.113 476.691
 211.863 476.691 c 221.613 476.691 229.516 468.785 229.516 459.035 c h
229.516 459.035 m f
0.792157 0.815686 0.843137 rg
17.656 406.07 m 406.07 406.07 l 415.82 406.07 423.723 398.164 423.723 388.414
 c 423.723 317.793 l 423.723 308.043 415.82 300.137 406.07 300.137 c 17.656
 300.137 l 7.906 300.137 0 308.043 0 317.793 c 0 388.414 l 0 398.164 7.906
 406.07 17.656 406.07 c h
17.656 406.07 m f
0.537255 0.752941 0.32549 rg
70.621 353.102 m 70.621 343.352 62.715 335.449 52.965 335.449 c 43.215 
335.449 35.309 343.352 35.309 353.102 c 35.309 362.855 43.215 370.758 52.965
 370.758 c 62.715 370.758 70.621 362.855 70.621 353.102 c h
70.621 353.102 m f
141.242 353.102 m 141.242 343.352 133.336 335.449 123.586 335.449 c 113.836
 335.449 105.93 343.352 105.93 353.102 c 105.93 362.855 113.836 370.758 
123.586 370.758 c 133.336 370.758 141.242 362.855 141.242 353.102 c h
141.242 353.102 m f
0.894118 0.909804 0.921569 rg
105.93 300.137 m 494.344 300.137 l 504.094 300.137 512 292.234 512 282.484
 c 512 211.863 l 512 202.113 504.094 194.207 494.344 194.207 c 105.93 194.207
 l 96.18 194.207 88.277 202.113 88.277 211.863 c 88.277 282.484 l 88.277
 292.234 96.18 300.137 105.93 300.137 c h
105.93 300.137 m f
0.619608 0.823529 0.415686 rg
158.898 247.172 m 158.898 237.422 150.992 229.516 141.242 229.516 c 131.492
 229.516 123.586 237.422 123.586 247.172 c 123.586 256.922 131.492 264.828
 141.242 264.828 c 150.992 264.828 158.898 256.922 158.898 247.172 c h
158.898 247.172 m f
229.516 247.172 m 229.516 237.422 221.613 229.516 211.863 229.516 c 202.113
 229.516 194.207 237.422 194.207 247.172 c 194.207 256.922 202.113 264.828
 211.863 264.828 c 221.613 264.828 229.516 256.922 229.516 247.172 c h
229.516 247.172 m f
0.792157 0.815686 0.843137 rg
17.656 194.207 m 406.07 194.207 l 415.82 194.207 423.723 186.301 423.723
 176.551 c 423.723 88.277 l 0 88.277 l 0 176.551 l 0 186.301 7.906 194.207
 17.656 194.207 c h
17.656 194.207 m f
0.537255 0.752941 0.32549 rg
70.621 141.242 m 70.621 131.492 62.715 123.586 52.965 123.586 c 43.215 
123.586 35.309 131.492 35.309 141.242 c 35.309 150.992 43.215 158.898 52.965
 158.898 c 62.715 158.898 70.621 150.992 70.621 141.242 c h
70.621 141.242 m f
141.242 141.242 m 141.242 131.492 133.336 123.586 123.586 123.586 c 113.836
 123.586 105.93 131.492 105.93 141.242 c 105.93 150.992 113.836 158.898 
123.586 158.898 c 133.336 158.898 141.242 150.992 141.242 141.242 c h
141.242 141.242 m f
0.792157 0.815686 0.843137 rg
512 494.344 m 512 423.723 l 511.973 413.984 504.082 406.098 494.344 406.07
 c 476.691 406.07 l 486.43 406.098 494.316 413.984 494.344 423.723 c 494.344
 494.344 l 494.316 504.082 486.43 511.973 476.691 512 c 494.344 512 l 504.082
 511.973 511.973 504.082 512 494.344 c h
512 494.344 m f
0.717647 0.745098 0.768627 rg
423.723 388.414 m 423.723 317.793 l 423.695 308.055 415.809 300.168 406.07
 300.137 c 388.414 300.137 l 398.152 300.168 406.039 308.055 406.07 317.793
 c 406.07 388.414 l 406.039 398.152 398.152 406.039 388.414 406.07 c 406.07
 406.07 l 415.809 406.039 423.695 398.152 423.723 388.414 c h
423.723 388.414 m f
0.792157 0.815686 0.843137 rg
512 282.484 m 512 211.863 l 511.973 202.125 504.082 194.234 494.344 194.207
 c 476.691 194.207 l 486.43 194.234 494.316 202.125 494.344 211.863 c 494.344
 282.484 l 494.316 292.223 486.43 300.109 476.691 300.137 c 494.344 300.137
 l 504.082 300.109 511.973 292.223 512 282.484 c h
512 282.484 m f
0.717647 0.745098 0.768627 rg
423.723 176.551 m 423.723 88.277 l 406.07 88.277 l 406.07 176.551 l 406.039
 186.289 398.152 194.18 388.414 194.207 c 406.07 194.207 l 415.809 194.18
 423.695 186.289 423.723 176.551 c h
423.723 176.551 m f
0.792157 0.815686 0.843137 rg
423.723 88.277 m 388.414 44.137 l 370.758 44.137 l 406.07 88.277 l h
423.723 88.277 m f
0.717647 0.745098 0.768627 rg
70.621 44.137 m 88.277 44.137 l 88.277 8.828 l 88.277 3.953 84.324 0 79.449
 0 c 61.793 0 l 66.668 0 70.621 3.953 70.621 8.828 c h
70.621 44.137 m f
388.414 44.137 m 388.414 8.828 l 388.414 3.953 384.461 0 379.586 0 c 361.93
 0 l 366.805 0 370.758 3.953 370.758 8.828 c 370.758 44.137 l h
388.414 44.137 m f
0.368627 0.560784 0.666667 rg
467.863 467.863 m 397.242 467.863 l 392.367 467.863 388.414 471.812 388.414
 476.691 c 388.414 481.566 392.367 485.516 397.242 485.516 c 467.863 485.516
 l 472.738 485.516 476.691 481.566 476.691 476.691 c 476.691 471.812 472.738
 467.863 467.863 467.863 c h
467.863 467.863 m f
467.863 432.551 m 397.242 432.551 l 392.367 432.551 388.414 436.504 388.414
 441.379 c 388.414 446.254 392.367 450.207 397.242 450.207 c 467.863 450.207
 l 472.738 450.207 476.691 446.254 476.691 441.379 c 476.691 436.504 472.738
 432.551 467.863 432.551 c h
467.863 432.551 m f
0.270588 0.45098 0.576471 rg
379.586 361.93 m 308.965 361.93 l 304.09 361.93 300.137 365.883 300.137
 370.758 c 300.137 375.633 304.09 379.586 308.965 379.586 c 379.586 379.586
 l 384.461 379.586 388.414 375.633 388.414 370.758 c 388.414 365.883 384.461
 361.93 379.586 361.93 c h
379.586 361.93 m f
379.586 326.621 m 308.965 326.621 l 304.09 326.621 300.137 330.574 300.137
 335.449 c 300.137 340.324 304.09 344.277 308.965 344.277 c 379.586 344.277
 l 384.461 344.277 388.414 340.324 388.414 335.449 c 388.414 330.574 384.461
 326.621 379.586 326.621 c h
379.586 326.621 m f
0.368627 0.560784 0.666667 rg
467.863 256 m 397.242 256 l 392.367 256 388.414 259.953 388.414 264.828
 c 388.414 269.703 392.367 273.656 397.242 273.656 c 467.863 273.656 l 472.738
 273.656 476.691 269.703 476.691 264.828 c 476.691 259.953 472.738 256 467.863
 256 c h
467.863 256 m f
467.863 220.691 m 397.242 220.691 l 392.367 220.691 388.414 224.641 388.414
 229.516 c 388.414 234.395 392.367 238.344 397.242 238.344 c 467.863 238.344
 l 472.738 238.344 476.691 234.395 476.691 229.516 c 476.691 224.641 472.738
 220.691 467.863 220.691 c h
467.863 220.691 m f
0.270588 0.45098 0.576471 rg
379.586 150.07 m 308.965 150.07 l 304.09 150.07 300.137 154.02 300.137 
158.898 c 300.137 163.773 304.09 167.723 308.965 167.723 c 379.586 167.723
 l 384.461 167.723 388.414 163.773 388.414 158.898 c 388.414 154.02 384.461
 150.07 379.586 150.07 c h
379.586 150.07 m f
379.586 114.758 m 308.965 114.758 l 304.09 114.758 300.137 118.711 300.137
 123.586 c 300.137 128.461 304.09 132.414 308.965 132.414 c 379.586 132.414
 l 384.461 132.414 388.414 128.461 388.414 123.586 c 388.414 118.711 384.461
 114.758 379.586 114.758 c h
379.586 114.758 m f
Q Q
showpage
%%Trailer
end restore
%%EOF
