%!PS-Adobe-3.0 EPSF-3.0
%%Creator: cairo 1.14.6 (http://cairographics.org)
%%CreationDate: Wed Apr  3 07:48:56 2019
%%Pages: 1
%%DocumentData: Clean7Bit
%%LanguageLevel: 2
%%BoundingBox: 0 3 511 507
%%EndComments
%%BeginProlog
save
50 dict begin
/q { gsave } bind def
/Q { grestore } bind def
/cm { 6 array astore concat } bind def
/w { setlinewidth } bind def
/J { setlinecap } bind def
/j { setlinejoin } bind def
/M { setmiterlimit } bind def
/d { setdash } bind def
/m { moveto } bind def
/l { lineto } bind def
/c { curveto } bind def
/h { closepath } bind def
/re { exch dup neg 3 1 roll 5 3 roll moveto 0 rlineto
      0 exch rlineto 0 rlineto closepath } bind def
/S { stroke } bind def
/f { fill } bind def
/f* { eofill } bind def
/n { newpath } bind def
/W { clip } bind def
/W* { eoclip } bind def
/BT { } bind def
/ET { } bind def
/pdfmark where { pop globaldict /?pdfmark /exec load put }
    { globaldict begin /?pdfmark /pop load def /pdfmark
    /cleartomark load def end } ifelse
/BDC { mark 3 1 roll /BDC pdfmark } bind def
/EMC { mark /EMC pdfmark } bind def
/cairo_store_point { /cairo_point_y exch def /cairo_point_x exch def } def
/Tj { show currentpoint cairo_store_point } bind def
/TJ {
  {
    dup
    type /stringtype eq
    { show } { -0.001 mul 0 cairo_font_matrix dtransform rmoveto } ifelse
  } forall
  currentpoint cairo_store_point
} bind def
/cairo_selectfont { cairo_font_matrix aload pop pop pop 0 0 6 array astore
    cairo_font exch selectfont cairo_point_x cairo_point_y moveto } bind def
/Tf { pop /cairo_font exch def /cairo_font_matrix where
      { pop cairo_selectfont } if } bind def
/Td { matrix translate cairo_font_matrix matrix concatmatrix dup
      /cairo_font_matrix exch def dup 4 get exch 5 get cairo_store_point
      /cairo_font where { pop cairo_selectfont } if } bind def
/Tm { 2 copy 8 2 roll 6 array astore /cairo_font_matrix exch def
      cairo_store_point /cairo_font where { pop cairo_selectfont } if } bind def
/g { setgray } bind def
/rg { setrgbcolor } bind def
/d1 { setcachedevice } bind def
%%EndProlog
%%BeginSetup
%%EndSetup
%%Page: 1 1
%%BeginPageSetup
%%PageBoundingBox: 0 3 511 507
%%EndPageSetup
q 0 3 511 504 rectclip q
0.662745 0.690196 0.733333 rg
400.293 437.887 m 400.277 420.707 389.977 405.207 374.145 398.539 c 336.156
 474.594 l 342.68 478.457 350.129 480.488 357.707 480.473 c 376.934 480.523
 393.789 467.617 398.754 449.043 c 399.785 445.414 400.301 441.66 400.293
 437.887 c h
400.293 437.887 m f
110.719 437.887 m 110.73 420.707 121.031 405.207 136.863 398.539 c 174.848
 474.594 l 168.328 478.457 160.883 480.488 153.301 480.473 c 134.074 480.523
 117.219 467.617 112.25 449.043 c 111.223 445.414 110.707 441.66 110.719
 437.887 c h
110.719 437.887 m f
0.894118 0.909804 0.921569 rg
374.738 386.785 m 374.738 320.934 321.355 267.551 255.504 267.551 c 189.652
 267.551 136.27 320.934 136.27 386.785 c 136.27 452.637 189.652 506.02 255.504
 506.02 c 321.355 506.02 374.738 452.637 374.738 386.785 c h
374.738 386.785 m f
0.309804 0.752941 0.909804 rg
332.152 395.305 m 332.152 423.523 297.836 446.402 255.504 446.402 c 213.168
 446.402 178.852 423.523 178.852 395.305 c 178.852 367.082 213.168 344.199
 255.504 344.199 c 297.836 344.199 332.152 367.082 332.152 395.305 c h
332.152 395.305 m f
0.792157 0.815686 0.843137 rg
374.738 386.785 m 374.789 357.637 364.086 329.492 344.676 307.75 c 340.488
 302.965 335.902 298.551 330.965 294.547 c 309.711 277.059 283.031 267.516
 255.504 267.551 c 251.238 267.559 246.973 267.785 242.73 268.23 c 303.309
 274.73 349.234 325.859 349.234 386.785 c 349.234 447.711 303.309 498.832
 242.73 505.34 c 246.973 505.785 251.238 506.012 255.504 506.02 c 321.355
 506.02 374.738 452.637 374.738 386.785 c h
374.738 386.785 m f
0.956863 0.964706 0.972549 rg
229.953 378.266 m 225.25 378.266 221.438 382.078 221.438 386.785 c 221.438
 403.82 l 221.438 408.523 225.25 412.336 229.953 412.336 c 234.66 412.336
 238.473 408.523 238.473 403.82 c 238.473 386.785 l 238.473 382.078 234.66
 378.266 229.953 378.266 c h
229.953 378.266 m f
281.055 378.266 m 276.352 378.266 272.539 382.078 272.539 386.785 c 272.539
 403.82 l 272.539 408.523 276.352 412.336 281.055 412.336 c 285.758 412.336
 289.574 408.523 289.574 403.82 c 289.574 386.785 l 289.574 382.078 285.758
 378.266 281.055 378.266 c h
281.055 378.266 m f
0.309804 0.752941 0.909804 rg
429.672 464.289 m 399.609 449.383 l 399.34 449.234 399.055 449.121 398.754
 449.043 c 397.289 454.516 394.742 459.645 391.262 464.121 c 391.445 464.344
 391.68 464.516 391.945 464.629 c 422.008 479.617 l 426.242 481.734 431.387
 480.02 433.504 475.785 c 435.621 471.555 433.906 466.406 429.672 464.289
 c h
429.672 464.289 m f
81.32 464.289 m 111.383 449.383 l 111.652 449.234 111.938 449.121 112.23
 449.043 c 113.703 454.516 116.246 459.645 119.73 464.121 c 119.547 464.344
 119.312 464.516 119.047 464.629 c 88.984 479.617 l 84.75 481.734 79.602
 480.02 77.488 475.785 c 75.371 471.555 77.086 466.406 81.32 464.289 c h
81.32 464.289 m f
0.980392 0.423529 0.317647 rg
510.352 221.711 m 511.215 223.797 511.215 226.137 510.352 228.219 c 509.926
 229.258 509.301 230.203 508.504 230.992 c 482.957 256.543 l 479.613 259.773
 474.301 259.727 471.016 256.441 c 467.73 253.156 467.684 247.844 470.914
 244.5 c 481.934 233.48 l 383.258 233.48 l 378.551 233.48 374.738 229.668
 374.738 224.965 c 374.738 220.258 378.551 216.445 383.258 216.445 c 481.934
 216.445 l 470.922 205.438 l 468.707 203.297 467.816 200.129 468.598 197.152
 c 469.379 194.172 471.703 191.852 474.684 191.07 c 477.656 190.289 480.824
 191.18 482.965 193.395 c 508.516 218.941 l 509.305 219.734 509.93 220.676
 510.352 221.711 c h
510.352 221.711 m f
0.921569 0.52549 0.745098 rg
275.035 43.617 m 264.02 32.602 l 264.02 131.281 l 264.02 135.98 260.207
 139.797 255.504 139.797 c 250.801 139.797 246.988 135.98 246.988 131.281
 c 246.988 32.602 l 235.977 43.617 l 232.633 46.84 227.32 46.797 224.035
 43.512 c 220.754 40.227 220.707 34.914 223.934 31.574 c 249.48 6.023 l 
251.082 4.418 253.25 3.52 255.512 3.52 c 257.773 3.52 259.945 4.418 261.539
 6.023 c 287.094 31.574 l 290.32 34.914 290.273 40.227 286.988 43.512 c 
283.703 46.797 278.391 46.84 275.051 43.617 c h
275.035 43.617 m f
0.619608 0.823529 0.415686 rg
425.414 99.707 m 425.414 104.41 421.602 108.223 416.898 108.223 c 412.195
 108.223 408.383 104.41 408.383 99.707 c 408.383 84.129 l 338.602 153.906
 l 336.465 156.121 333.297 157.012 330.32 156.23 c 327.344 155.453 325.016
 153.129 324.234 150.148 c 323.461 147.172 324.344 144.004 326.559 141.863
 c 396.34 72.086 l 380.762 72.086 l 376.059 72.086 372.246 68.273 372.246
 63.57 c 372.246 58.863 376.059 55.051 380.762 55.051 c 416.898 55.051 l
 421.602 55.051 425.414 58.863 425.414 63.57 c h
425.414 99.707 m f
0.368627 0.611765 0.917647 rg
172.406 153.906 m 102.625 84.129 l 102.625 99.707 l 102.625 104.41 98.812
 108.223 94.109 108.223 c 89.406 108.223 85.594 104.41 85.594 99.707 c 85.594
 63.57 l 85.598 60.129 87.676 57.023 90.855 55.711 c 91.887 55.277 92.992
 55.055 94.109 55.051 c 130.246 55.051 l 134.949 55.051 138.762 58.863 138.762
 63.57 c 138.762 68.273 134.949 72.086 130.246 72.086 c 114.668 72.086 l
 184.449 141.863 l 186.664 144.004 187.551 147.172 186.77 150.148 c 185.992
 153.129 183.664 155.453 180.688 156.23 c 177.711 157.012 174.547 156.121
 172.406 153.906 c h
172.406 153.906 m f
1 0.839216 0.482353 rg
127.754 233.48 m 29.078 233.48 l 40.086 244.492 l 43.316 247.836 43.27 
253.148 39.984 256.434 c 36.699 259.719 31.383 259.766 28.043 256.535 c 
2.496 230.984 l 1.699 230.195 1.07 229.25 0.648 228.211 c -0.215 226.129
 -0.215 223.789 0.648 221.703 c 1.07 220.664 1.699 219.719 2.496 218.926
 c 28.043 193.375 l 30.184 191.164 33.348 190.273 36.328 191.055 c 39.309
 191.836 41.629 194.156 42.41 197.137 c 43.191 200.113 42.301 203.281 40.086
 205.418 c 29.078 216.445 l 127.754 216.445 l 132.453 216.445 136.27 220.258
 136.27 224.965 c 136.27 229.668 132.453 233.48 127.754 233.48 c h
127.754 233.48 m f
0.388235 0.423529 0.466667 rg
255.504 122.762 m 180.371 122.762 119.234 168.609 119.234 224.965 c 119.453
 243.949 126.102 262.297 138.094 277.012 c 139.953 279.461 142.988 280.719
 146.039 280.297 c 149.086 279.875 151.668 277.844 152.797 274.98 c 153.926
 272.121 153.422 268.871 151.48 266.484 c 141.863 254.762 136.5 240.129 
136.27 224.965 c 136.27 178 189.754 139.797 255.504 139.797 c 321.254 139.797
 374.738 178 374.738 224.965 c 374.512 240.129 369.148 254.762 359.531 266.484
 c 356.715 270.188 357.395 275.457 361.047 278.332 c 364.699 281.203 369.984
 280.617 372.918 277.012 c 384.91 262.297 391.559 243.949 391.773 224.965
 c 391.773 168.609 330.641 122.762 255.504 122.762 c h
255.504 122.762 m f
255.504 156.832 m 199.148 156.832 153.301 187.398 153.301 224.965 c 153.496
 236.312 157.574 247.246 164.859 255.949 c 167.77 259.645 173.129 260.285
 176.824 257.371 c 180.523 254.461 181.16 249.102 178.25 245.406 c 173.352
 239.699 170.559 232.48 170.336 224.965 c 170.336 197.711 210.137 173.863
 255.504 173.863 c 300.875 173.863 340.672 197.711 340.672 224.965 c 340.441
 232.48 337.652 239.695 332.762 245.406 c 329.852 249.105 330.492 254.465
 334.191 257.371 c 337.891 260.281 343.25 259.641 346.16 255.941 c 353.438
 247.242 357.516 236.309 357.707 224.965 c 357.707 187.398 311.863 156.832
 255.504 156.832 c h
255.504 156.832 m f
Q Q
showpage
%%Trailer
end restore
%%EOF
