%!PS-Adobe-3.0 EPSF-3.0
%%Creator: cairo 1.14.6 (http://cairographics.org)
%%CreationDate: Wed Apr  3 07:48:56 2019
%%Pages: 1
%%DocumentData: Clean7Bit
%%LanguageLevel: 2
%%BoundingBox: 0 0 512 512
%%EndComments
%%BeginProlog
save
50 dict begin
/q { gsave } bind def
/Q { grestore } bind def
/cm { 6 array astore concat } bind def
/w { setlinewidth } bind def
/J { setlinecap } bind def
/j { setlinejoin } bind def
/M { setmiterlimit } bind def
/d { setdash } bind def
/m { moveto } bind def
/l { lineto } bind def
/c { curveto } bind def
/h { closepath } bind def
/re { exch dup neg 3 1 roll 5 3 roll moveto 0 rlineto
      0 exch rlineto 0 rlineto closepath } bind def
/S { stroke } bind def
/f { fill } bind def
/f* { eofill } bind def
/n { newpath } bind def
/W { clip } bind def
/W* { eoclip } bind def
/BT { } bind def
/ET { } bind def
/pdfmark where { pop globaldict /?pdfmark /exec load put }
    { globaldict begin /?pdfmark /pop load def /pdfmark
    /cleartomark load def end } ifelse
/BDC { mark 3 1 roll /BDC pdfmark } bind def
/EMC { mark /EMC pdfmark } bind def
/cairo_store_point { /cairo_point_y exch def /cairo_point_x exch def } def
/Tj { show currentpoint cairo_store_point } bind def
/TJ {
  {
    dup
    type /stringtype eq
    { show } { -0.001 mul 0 cairo_font_matrix dtransform rmoveto } ifelse
  } forall
  currentpoint cairo_store_point
} bind def
/cairo_selectfont { cairo_font_matrix aload pop pop pop 0 0 6 array astore
    cairo_font exch selectfont cairo_point_x cairo_point_y moveto } bind def
/Tf { pop /cairo_font exch def /cairo_font_matrix where
      { pop cairo_selectfont } if } bind def
/Td { matrix translate cairo_font_matrix matrix concatmatrix dup
      /cairo_font_matrix exch def dup 4 get exch 5 get cairo_store_point
      /cairo_font where { pop cairo_selectfont } if } bind def
/Tm { 2 copy 8 2 roll 6 array astore /cairo_font_matrix exch def
      cairo_store_point /cairo_font where { pop cairo_selectfont } if } bind def
/g { setgray } bind def
/rg { setrgbcolor } bind def
/d1 { setcachedevice } bind def
%%EndProlog
%%BeginSetup
%%EndSetup
%%Page: 1 1
%%BeginPageSetup
%%PageBoundingBox: 0 0 512 512
%%EndPageSetup
q 0 0 512 512 rectclip q
0.792157 0.815686 0.843137 rg
353.102 0 m 323.852 0 300.137 23.715 300.137 52.965 c 300.137 97.102 l 
211.863 97.102 l 211.863 52.965 l 211.863 23.715 188.148 0 158.898 0 c h
353.102 0 m f
0.894118 0.909804 0.921569 rg
512 158.898 m 512 114.758 l 512 100.133 500.145 88.277 485.516 88.277 c
 26.484 88.277 l 11.855 88.277 0 100.133 0 114.758 c 0 158.898 l 256 176.551
 l h
512 158.898 m f
0.309804 0.752941 0.909804 rg
512 485.516 m 512 158.898 l 0 158.898 l 0 485.516 l 0 500.145 11.855 512
 26.484 512 c 485.516 512 l 500.145 512 512 500.145 512 485.516 c h
512 485.516 m f
1 0.839216 0.482353 rg
238.344 476.691 m 273.656 476.691 l 278.531 476.691 282.484 472.738 282.484
 467.863 c 282.484 432.551 l 282.484 427.676 278.531 423.723 273.656 423.723
 c 238.344 423.723 l 233.469 423.723 229.516 427.676 229.516 432.551 c 229.516
 467.863 l 229.516 472.738 233.469 476.691 238.344 476.691 c h
238.344 476.691 m f
167.723 291.309 m 167.777 280.086 160.68 270.078 150.07 266.418 c 144.375
 264.297 138.109 264.297 132.414 266.418 c 121.836 270.121 114.758 280.105
 114.758 291.309 c 114.758 302.516 121.836 312.5 132.414 316.203 c 138.109
 318.324 144.375 318.324 150.07 316.203 c 160.68 312.543 167.777 302.531
 167.723 291.309 c h
167.723 291.309 m f
0.705882 0.87451 0.501961 rg
114.758 229.516 m 167.723 229.516 l 172.598 229.516 176.551 225.566 176.551
 220.691 c 176.551 203.035 l 176.551 198.16 172.598 194.207 167.723 194.207
 c 114.758 194.207 l 109.883 194.207 105.93 198.16 105.93 203.035 c 105.93
 220.691 l 105.93 225.566 109.883 229.516 114.758 229.516 c h
114.758 229.516 m f
1 0.839216 0.482353 rg
397.242 291.309 m 397.297 280.086 390.195 270.078 379.586 266.418 c 373.891
 264.297 367.625 264.297 361.93 266.418 c 351.355 270.121 344.273 280.105
 344.273 291.309 c 344.273 302.516 351.355 312.5 361.93 316.203 c 367.625
 318.324 373.891 318.324 379.586 316.203 c 390.195 312.543 397.297 302.531
 397.242 291.309 c h
397.242 291.309 m f
0.705882 0.87451 0.501961 rg
344.277 229.516 m 397.242 229.516 l 402.117 229.516 406.07 225.566 406.07
 220.691 c 406.07 203.035 l 406.07 198.16 402.117 194.207 397.242 194.207
 c 344.277 194.207 l 339.402 194.207 335.449 198.16 335.449 203.035 c 335.449
 220.691 l 335.449 225.566 339.402 229.516 344.277 229.516 c h
344.277 229.516 m f
282.484 220.691 m 282.52 207.211 272.43 195.855 259.043 194.309 c 245.656
 192.758 233.238 201.512 230.199 214.641 c 227.16 227.773 234.465 241.09
 247.172 245.582 c 252.867 247.703 259.133 247.703 264.828 245.582 c 275.438
 241.922 282.535 231.914 282.484 220.691 c h
282.484 220.691 m f
0.956863 0.964706 0.972549 rg
291.309 353.102 m 291.301 350.484 290.25 347.977 288.398 346.129 c 286.543
 344.277 l 264.828 322.559 l 262.973 320.707 l 261.133 318.844 258.621 317.793
 256 317.793 c 253.379 317.793 250.867 318.844 249.027 320.707 c 247.172
 322.559 l 225.457 344.277 l 223.602 346.129 l 221.738 347.973 220.691 350.484
 220.691 353.102 c 220.691 355.723 221.738 358.234 223.602 360.078 c 249.027
 385.5 l 250.867 387.363 253.379 388.414 256 388.414 c 258.621 388.414 261.133
 387.363 262.973 385.5 c 288.398 360.078 l 290.25 358.23 291.301 355.723
 291.309 353.102 c h
291.309 353.102 m f
0.227451 0.678431 0.85098 rg
512 485.516 m 512 158.898 l 476.691 158.898 l 476.691 485.516 l 476.691
 500.145 464.832 512 450.207 512 c 485.516 512 l 500.145 512 512 500.145
 512 485.516 c h
512 485.516 m f
0.792157 0.815686 0.843137 rg
512 158.898 m 512 114.758 l 512 100.133 500.145 88.277 485.516 88.277 c
 450.207 88.277 l 464.832 88.277 476.691 100.133 476.691 114.758 c 476.691
 158.898 l h
512 158.898 m f
0.662745 0.690196 0.733333 rg
353.102 0 m 335.449 0 l 306.195 0 282.484 23.715 282.484 52.965 c 282.484
 88.277 l 300.137 88.277 l 300.137 52.965 l 300.137 23.715 323.852 0 353.102
 0 c h
353.102 0 m f
282.484 114.758 m 229.516 114.758 l 224.641 114.758 220.691 118.711 220.691
 123.586 c 220.691 128.461 224.641 132.414 229.516 132.414 c 282.484 132.414
 l 287.359 132.414 291.309 128.461 291.309 123.586 c 291.309 118.711 287.359
 114.758 282.484 114.758 c h
282.484 114.758 m f
0.270588 0.45098 0.576471 rg
150.07 266.418 m 150.07 229.516 l 132.414 229.516 l 132.414 266.418 l 138.109
 264.297 144.375 264.297 150.07 266.418 c h
150.07 266.418 m f
223.602 346.129 m 225.457 344.277 l 158.898 344.277 l 154.02 344.277 150.07
 340.324 150.07 335.449 c 150.07 316.203 l 144.375 318.324 138.109 318.324
 132.414 316.203 c 132.414 335.449 l 132.457 350.055 144.289 361.887 158.898
 361.93 c 225.457 361.93 l 223.602 360.078 l 221.738 358.234 220.691 355.723
 220.691 353.102 c 220.691 350.484 221.738 347.973 223.602 346.129 c h
223.602 346.129 m f
264.828 322.559 m 264.828 245.582 l 259.133 247.703 252.867 247.703 247.172
 245.582 c 247.172 322.559 l 249.027 320.707 l 250.867 318.844 253.379 317.793
 256 317.793 c 258.621 317.793 261.133 318.844 262.973 320.707 c h
264.828 322.559 m f
379.586 335.449 m 379.586 316.203 l 373.891 318.324 367.625 318.324 361.93
 316.203 c 361.93 335.449 l 361.93 340.324 357.98 344.277 353.102 344.277
 c 286.543 344.277 l 288.398 346.129 l 290.262 347.973 291.309 350.484 291.309
 353.102 c 291.309 355.723 290.262 358.234 288.398 360.078 c 286.543 361.93
 l 353.102 361.93 l 367.711 361.887 379.543 350.055 379.586 335.449 c h
379.586 335.449 m f
264.828 423.723 m 264.828 383.648 l 262.973 385.5 l 261.133 387.363 258.621
 388.414 256 388.414 c 253.379 388.414 250.867 387.363 249.027 385.5 c 247.172
 383.648 l 247.172 423.723 l h
264.828 423.723 m f
379.586 266.418 m 379.586 229.516 l 361.93 229.516 l 361.93 266.418 l 367.625
 264.297 373.891 264.297 379.586 266.418 c h
379.586 266.418 m f
236.316 203.035 m 176.551 203.035 l 176.551 220.691 l 229.516 220.691 l
 229.504 214.164 231.926 207.867 236.316 203.035 c h
236.316 203.035 m f
335.449 220.691 m 335.449 203.035 l 275.684 203.035 l 280.074 207.867 282.496
 214.164 282.484 220.691 c h
335.449 220.691 m f
0.662745 0.690196 0.733333 rg
370.758 0 m 141.242 0 l 136.367 0 132.414 3.953 132.414 8.828 c 132.414
 13.703 136.367 17.656 141.242 17.656 c 370.758 17.656 l 375.633 17.656 
379.586 13.703 379.586 8.828 c 379.586 3.953 375.633 0 370.758 0 c h
370.758 0 m f
Q Q
showpage
%%Trailer
end restore
%%EOF
