%!PS-Adobe-3.0 EPSF-3.0
%%Creator: cairo 1.14.6 (http://cairographics.org)
%%CreationDate: Wed Apr  3 07:48:56 2019
%%Pages: 1
%%DocumentData: Clean7Bit
%%LanguageLevel: 2
%%BoundingBox: 0 0 511 511
%%EndComments
%%BeginProlog
save
50 dict begin
/q { gsave } bind def
/Q { grestore } bind def
/cm { 6 array astore concat } bind def
/w { setlinewidth } bind def
/J { setlinecap } bind def
/j { setlinejoin } bind def
/M { setmiterlimit } bind def
/d { setdash } bind def
/m { moveto } bind def
/l { lineto } bind def
/c { curveto } bind def
/h { closepath } bind def
/re { exch dup neg 3 1 roll 5 3 roll moveto 0 rlineto
      0 exch rlineto 0 rlineto closepath } bind def
/S { stroke } bind def
/f { fill } bind def
/f* { eofill } bind def
/n { newpath } bind def
/W { clip } bind def
/W* { eoclip } bind def
/BT { } bind def
/ET { } bind def
/pdfmark where { pop globaldict /?pdfmark /exec load put }
    { globaldict begin /?pdfmark /pop load def /pdfmark
    /cleartomark load def end } ifelse
/BDC { mark 3 1 roll /BDC pdfmark } bind def
/EMC { mark /EMC pdfmark } bind def
/cairo_store_point { /cairo_point_y exch def /cairo_point_x exch def } def
/Tj { show currentpoint cairo_store_point } bind def
/TJ {
  {
    dup
    type /stringtype eq
    { show } { -0.001 mul 0 cairo_font_matrix dtransform rmoveto } ifelse
  } forall
  currentpoint cairo_store_point
} bind def
/cairo_selectfont { cairo_font_matrix aload pop pop pop 0 0 6 array astore
    cairo_font exch selectfont cairo_point_x cairo_point_y moveto } bind def
/Tf { pop /cairo_font exch def /cairo_font_matrix where
      { pop cairo_selectfont } if } bind def
/Td { matrix translate cairo_font_matrix matrix concatmatrix dup
      /cairo_font_matrix exch def dup 4 get exch 5 get cairo_store_point
      /cairo_font where { pop cairo_selectfont } if } bind def
/Tm { 2 copy 8 2 roll 6 array astore /cairo_font_matrix exch def
      cairo_store_point /cairo_font where { pop cairo_selectfont } if } bind def
/g { setgray } bind def
/rg { setrgbcolor } bind def
/d1 { setcachedevice } bind def
%%EndProlog
%%BeginSetup
%%EndSetup
%%Page: 1 1
%%BeginPageSetup
%%PageBoundingBox: 0 0 511 511
%%EndPageSetup
q 0 0 511 511 rectclip q
0.980392 0.423529 0.317647 rg
354.539 121.734 m 391.176 85.094 l 467.652 8.617 l 472.516 3.742 479.125
 0.996 486.016 0.996 c 492.902 0.996 499.512 3.742 504.375 8.617 c 514.508
 18.762 514.508 35.195 504.375 45.34 c 452.41 97.309 l 427.898 121.82 l 
391.262 158.453 l h
354.539 121.734 m f
0.705882 0.87451 0.501961 rg
182.879 217.523 m 78.945 217.523 l 64.598 217.523 52.961 229.156 52.961
 243.508 c 52.961 434.051 l 52.961 448.398 64.598 460.035 78.945 460.035
 c 269.488 460.035 l 283.84 460.035 295.473 448.398 295.473 434.051 c 295.473
 330.117 l h
182.879 217.523 m f
0.537255 0.752941 0.32549 rg
195.609 269.488 m 122.254 269.488 l 112.695 269.52 104.957 277.258 104.93
 286.809 c 104.93 390.742 l 104.957 400.297 112.695 408.039 122.254 408.066
 c 226.184 408.066 l 235.738 408.039 243.477 400.297 243.504 390.742 c 243.504
 317.387 l h
195.609 269.488 m f
0.4 0.831373 0.945098 rg
408.066 217.523 m 408.109 171.922 380.664 130.789 338.543 113.32 c 296.426
 95.852 247.926 105.484 215.68 137.73 c 183.434 169.977 173.801 218.473 
191.27 260.594 c 208.738 302.715 249.871 330.156 295.473 330.117 c 357.656
 330.117 408.066 279.707 408.066 217.523 c h
408.066 217.523 m f
0.894118 0.909804 0.921569 rg
391.176 85.094 m 427.895 121.816 l 452.402 97.309 l 415.684 60.586 l h
391.176 85.094 m f
0.619608 0.823529 0.415686 rg
295.473 434.051 m 295.473 330.117 l 285.738 330.121 276.047 328.871 266.629
 326.391 c 269.488 330.117 l 269.488 434.051 l 269.488 448.398 257.855 460.035
 243.504 460.035 c 269.488 460.035 l 283.84 460.035 295.473 448.398 295.473
 434.051 c h
295.473 434.051 m f
0.909804 0.345098 0.254902 rg
380.355 147.535 m 391.266 158.445 l 427.902 121.812 l 416.988 110.898 l
 h
380.355 147.535 m f
504.375 8.617 m 502.504 6.762 500.375 5.184 498.055 3.941 c 503.371 14.012
 501.508 26.367 493.465 34.426 c 441.496 86.395 l 452.41 97.309 l 504.375
 45.34 l 514.508 35.195 514.508 18.762 504.375 8.617 c h
504.375 8.617 m f
0.792157 0.815686 0.843137 rg
416.98 110.906 m 427.898 121.82 l 452.402 97.309 l 441.492 86.395 l h
416.98 110.906 m f
0.619608 0.823529 0.415686 rg
148.234 364.758 m 139.574 364.758 l 134.789 364.758 130.91 368.637 130.91
 373.422 c 130.91 378.203 134.789 382.086 139.574 382.086 c 148.234 382.086
 l 153.016 382.086 156.895 378.203 156.895 373.422 c 156.895 368.637 153.016
 364.758 148.234 364.758 c h
148.234 364.758 m f
148.234 295.473 m 139.574 295.473 l 134.789 295.473 130.91 299.352 130.91
 304.137 c 130.91 308.918 134.789 312.793 139.574 312.793 c 148.234 312.793
 l 153.016 312.793 156.895 308.918 156.895 304.137 c 156.895 299.352 153.016
 295.473 148.234 295.473 c h
148.234 295.473 m f
208.859 364.758 m 200.203 364.758 l 195.418 364.758 191.539 368.637 191.539
 373.422 c 191.539 378.203 195.418 382.086 200.203 382.086 c 208.859 382.086
 l 213.645 382.086 217.523 378.203 217.523 373.422 c 217.523 368.637 213.645
 364.758 208.859 364.758 c h
208.859 364.758 m f
0.956863 0.964706 0.972549 rg
364.094 255.477 m 362.754 258.711 359.602 260.824 356.102 260.828 c 330.117
 260.828 l 325.332 260.828 321.457 256.949 321.457 252.168 c 321.457 247.383
 325.332 243.508 330.117 243.508 c 335.191 243.508 l 304.133 212.445 l 287.34
 229.25 l 284.902 231.688 281.598 233.059 278.152 233.059 c 274.703 233.059
 271.398 231.688 268.961 229.25 c 228.719 189 l 226.473 186.828 225.566 
183.609 226.359 180.578 c 227.152 177.551 229.516 175.188 232.543 174.391
 c 235.574 173.602 238.793 174.504 240.969 176.754 c 278.152 213.938 l 294.941
 197.133 l 297.379 194.695 300.684 193.328 304.133 193.328 c 307.582 193.328
 310.883 194.695 313.32 197.133 c 347.438 231.258 l 347.438 226.188 l 347.438
 221.402 351.316 217.523 356.102 217.523 c 360.883 217.523 364.758 221.402
 364.758 226.188 c 364.758 252.168 l 364.758 253.305 364.531 254.426 364.094
 255.477 c h
364.094 255.477 m f
1 0.839216 0.482353 rg
295.473 96.27 m 228.508 96.27 174.219 150.555 174.219 217.523 c 174.219
 284.488 228.508 338.777 295.473 338.777 c 362.438 338.777 416.727 284.488
 416.727 217.523 c 416.652 150.586 362.41 96.34 295.473 96.27 c h
295.473 321.457 m 286.48 321.445 277.531 320.277 268.84 317.992 c 215.801
 303.953 182.77 251.152 193.352 197.316 c 203.93 143.48 254.488 107.105 
308.891 114.184 c 363.297 121.262 402.867 169.359 399.32 224.109 c 395.777
 278.859 350.34 321.453 295.473 321.457 c h
295.473 321.457 m f
0.980392 0.423529 0.317647 rg
269.488 503.336 m 269.488 460.035 l 252.168 460.035 l 252.168 503.336 l
 252.168 508.117 256.047 512 260.828 512 c 265.613 512 269.488 508.117 269.488
 503.336 c h
269.488 503.336 m f
96.27 503.336 m 96.27 460.035 l 78.945 460.035 l 78.945 503.336 l 78.945
 508.117 82.82 512 87.605 512 c 92.391 512 96.27 508.117 96.27 503.336 c
 h
96.27 503.336 m f
182.879 503.336 m 182.879 460.035 l 165.555 460.035 l 165.555 503.336 l
 165.555 508.117 169.434 512 174.219 512 c 179 512 182.879 508.117 182.879
 503.336 c h
182.879 503.336 m f
226.184 503.336 m 226.184 460.035 l 208.859 460.035 l 208.859 503.336 l
 208.859 508.117 212.738 512 217.523 512 c 222.309 512 226.184 508.117 226.184
 503.336 c h
226.184 503.336 m f
139.574 503.336 m 139.574 460.035 l 122.254 460.035 l 122.254 503.336 l
 122.254 508.117 126.129 512 130.91 512 c 135.695 512 139.574 508.117 139.574
 503.336 c h
139.574 503.336 m f
139.574 217.523 m 139.574 174.219 l 139.574 169.434 135.695 165.559 130.91
 165.559 c 126.129 165.559 122.254 169.434 122.254 174.219 c 122.254 217.523
 l h
139.574 217.523 m f
78.945 217.523 m 96.27 217.523 l 96.27 174.219 l 96.27 169.434 92.391 165.559
 87.605 165.559 c 82.82 165.559 78.945 169.434 78.945 174.219 c h
78.945 217.523 m f
9.656 347.438 m 52.961 347.438 l 52.961 330.117 l 9.656 330.117 l 4.871
 330.117 0.996 333.996 0.996 338.777 c 0.996 343.562 4.871 347.438 9.656
 347.438 c h
9.656 347.438 m f
9.656 304.137 m 52.961 304.137 l 52.961 286.809 l 9.656 286.809 l 4.871
 286.809 0.996 290.688 0.996 295.473 c 0.996 300.254 4.871 304.137 9.656
 304.137 c h
9.656 304.137 m f
9.656 260.828 m 52.961 260.828 l 52.961 243.508 l 9.656 243.508 l 4.871
 243.508 0.996 247.383 0.996 252.168 c 0.996 256.949 4.871 260.828 9.656
 260.828 c h
9.656 260.828 m f
9.656 390.742 m 52.961 390.742 l 52.961 373.422 l 9.656 373.422 l 4.871
 373.422 0.996 377.301 0.996 382.086 c 0.996 386.867 4.871 390.742 9.656
 390.742 c h
9.656 390.742 m f
52.961 434.051 m 52.961 416.727 l 9.656 416.727 l 4.871 416.727 0.996 420.602
 0.996 425.387 c 0.996 430.168 4.871 434.051 9.656 434.051 c h
52.961 434.051 m f
338.777 416.727 m 295.473 416.727 l 295.473 434.051 l 338.777 434.051 l
 343.562 434.051 347.438 430.168 347.438 425.387 c 347.438 420.602 343.562
 416.727 338.777 416.727 c h
338.777 416.727 m f
347.438 382.086 m 347.438 377.301 343.562 373.422 338.777 373.422 c 295.473
 373.422 l 295.473 390.742 l 338.777 390.742 l 343.562 390.742 347.438 386.867
 347.438 382.086 c h
347.438 382.086 m f
Q Q
showpage
%%Trailer
end restore
%%EOF
