%!PS-Adobe-3.0 EPSF-3.0
%%Creator: cairo 1.14.6 (http://cairographics.org)
%%CreationDate: Wed Apr  3 07:48:58 2019
%%Pages: 1
%%DocumentData: Clean7Bit
%%LanguageLevel: 2
%%BoundingBox: 0 0 512 512
%%EndComments
%%BeginProlog
save
50 dict begin
/q { gsave } bind def
/Q { grestore } bind def
/cm { 6 array astore concat } bind def
/w { setlinewidth } bind def
/J { setlinecap } bind def
/j { setlinejoin } bind def
/M { setmiterlimit } bind def
/d { setdash } bind def
/m { moveto } bind def
/l { lineto } bind def
/c { curveto } bind def
/h { closepath } bind def
/re { exch dup neg 3 1 roll 5 3 roll moveto 0 rlineto
      0 exch rlineto 0 rlineto closepath } bind def
/S { stroke } bind def
/f { fill } bind def
/f* { eofill } bind def
/n { newpath } bind def
/W { clip } bind def
/W* { eoclip } bind def
/BT { } bind def
/ET { } bind def
/pdfmark where { pop globaldict /?pdfmark /exec load put }
    { globaldict begin /?pdfmark /pop load def /pdfmark
    /cleartomark load def end } ifelse
/BDC { mark 3 1 roll /BDC pdfmark } bind def
/EMC { mark /EMC pdfmark } bind def
/cairo_store_point { /cairo_point_y exch def /cairo_point_x exch def } def
/Tj { show currentpoint cairo_store_point } bind def
/TJ {
  {
    dup
    type /stringtype eq
    { show } { -0.001 mul 0 cairo_font_matrix dtransform rmoveto } ifelse
  } forall
  currentpoint cairo_store_point
} bind def
/cairo_selectfont { cairo_font_matrix aload pop pop pop 0 0 6 array astore
    cairo_font exch selectfont cairo_point_x cairo_point_y moveto } bind def
/Tf { pop /cairo_font exch def /cairo_font_matrix where
      { pop cairo_selectfont } if } bind def
/Td { matrix translate cairo_font_matrix matrix concatmatrix dup
      /cairo_font_matrix exch def dup 4 get exch 5 get cairo_store_point
      /cairo_font where { pop cairo_selectfont } if } bind def
/Tm { 2 copy 8 2 roll 6 array astore /cairo_font_matrix exch def
      cairo_store_point /cairo_font where { pop cairo_selectfont } if } bind def
/g { setgray } bind def
/rg { setrgbcolor } bind def
/d1 { setcachedevice } bind def
%%EndProlog
%%BeginSetup
%%EndSetup
%%Page: 1 1
%%BeginPageSetup
%%PageBoundingBox: 0 0 512 512
%%EndPageSetup
q 0 0 512 512 rectclip q
0.992157 0.803922 0.337255 rg
455.184 0 m 56.793 0 l 42.832 0.289 31.402 11.18 30.43 25.105 c 0.18 357.945
 l -0.695 365.543 1.664 373.152 6.676 378.926 c 11.684 384.699 18.891 388.105
 26.527 388.312 c 485.445 388.312 l 493.086 388.105 500.293 384.699 505.305
 378.926 c 510.312 373.152 512.668 365.543 511.797 357.945 c 481.543 25.105
 l 480.574 11.18 469.145 0.289 455.184 0 c h
455.184 0 m f
1 0.839216 0.482353 rg
476.617 423.613 m 476.617 388.312 l 35.355 388.312 l 35.355 423.613 l 35.387
 433.352 43.27 441.238 53.004 441.266 c 62.754 441.266 70.656 449.168 70.656
 458.918 c 70.656 485.391 l 70.656 500.016 82.512 511.867 97.133 511.867
 c 255.988 511.867 l 270.609 511.867 282.461 500.016 282.461 485.391 c 282.461
 458.918 l 282.461 449.168 290.367 441.266 300.113 441.266 c 458.973 441.266
 l 468.707 441.238 476.59 433.352 476.617 423.613 c h
476.617 423.613 m f
0.909804 0.345098 0.254902 rg
79.484 317.711 m 79.496 314.742 78.738 311.82 77.277 309.238 c 73.406 302.164
 65.234 298.613 57.418 300.609 c 49.605 302.609 44.141 309.645 44.141 317.711
 c 44.141 325.773 49.605 332.812 57.418 334.812 c 65.234 336.809 73.406 
333.258 77.277 326.184 c 78.738 323.602 79.496 320.68 79.484 317.711 c h
79.484 317.711 m f
123.609 88.254 m 123.625 85.285 122.863 82.363 121.402 79.781 c 117.531
 72.707 109.359 69.152 101.543 71.152 c 93.734 73.148 88.266 80.191 88.266
 88.254 c 88.266 96.32 93.734 103.355 101.543 105.355 c 109.359 107.352 
117.531 103.801 121.402 96.727 c 122.863 94.141 123.625 91.223 123.609 88.254
 c h
123.609 88.254 m f
458.973 300.059 m 458.938 292.027 453.48 285.027 445.695 283.031 c 437.914
 281.039 429.766 284.559 425.875 291.59 c 422.934 296.852 422.934 303.27
 425.875 308.535 c 429.766 315.562 437.914 319.082 445.695 317.086 c 453.48
 315.094 458.938 308.098 458.973 300.059 c h
458.973 300.059 m f
450.145 79.43 m 450.109 71.391 444.656 64.395 436.871 62.402 c 429.09 60.41
 420.938 63.926 417.047 70.953 c 414.109 76.223 414.109 82.633 417.047 87.898
 c 420.938 94.934 429.09 98.445 436.871 96.457 c 444.656 94.461 450.109 
87.461 450.145 79.43 c h
450.145 79.43 m f
0.921569 0.52549 0.745098 rg
326.59 167.68 m 326.59 61.336 l 326.598 56.77 324.789 52.383 321.562 49.156
 c 318.332 45.926 313.949 44.117 309.383 44.125 c 309.293 44.125 l 303.547
 44.145 298.184 47.023 294.992 51.805 c 270.02 89.223 l 266.773 94.145 261.266
 97.098 255.371 97.082 c 251.574 97.082 l 239.906 97.066 230.262 106.168
 229.602 117.816 c 229.512 176.504 l h
326.59 167.68 m f
0.835294 0.435294 0.67451 rg
379.543 143.055 m 379.48 131.664 374.984 120.746 367.012 112.609 c 362.809
 108.148 357.77 104.547 352.184 102.02 c 345.23 98.738 337.633 97.051 329.945
 97.082 c 328.824 97.047 327.699 97.109 326.59 97.258 c 323.738 97.367 320.898
 97.746 318.117 98.402 c 301.945 101.781 288.625 113.203 282.816 128.672
 c 282.816 176.504 l 370.715 176.504 l 377.777 155.328 l 378.949 151.344
 379.543 147.211 379.543 143.055 c h
379.543 143.055 m f
0.945098 0.6 0.807843 rg
403.723 202.984 m 402.148 207.379 399.688 211.406 396.488 214.809 c 391.953
 219.723 386.148 223.297 379.719 225.133 c 379.734 225.754 379.793 226.375
 379.895 226.988 c 380.074 228.539 380.164 230.102 380.16 231.664 c 380.199
 241.387 377.672 250.941 372.832 259.375 c 369.461 265.199 365.102 270.395
 359.949 274.734 c 358.496 275.977 356.961 277.129 355.359 278.176 c 355.27
 278.262 l 346.688 284.23 336.594 287.656 326.148 288.148 c 315.605 298.176
 301.605 303.77 287.055 303.766 c 279.949 303.773 272.914 302.422 266.312
 299.797 c 258.98 305.68 249.855 308.883 240.457 308.883 c 237.121 308.879
 233.805 308.469 230.57 307.652 c 224.016 306.062 217.953 302.879 212.922
 298.383 c 207.207 301.883 200.645 303.746 193.945 303.766 c 187.238 303.812
 180.656 301.945 174.969 298.383 c 168.961 294.676 164.148 289.316 161.113
 282.938 c 159.973 283.086 158.824 283.145 157.676 283.113 c 154.547 283.105
 151.43 282.691 148.406 281.879 c 142.59 280.391 137.242 277.445 132.875
 273.32 c 130.855 271.492 129.074 269.418 127.582 267.141 c 123.586 261.227
 121.465 254.246 121.492 247.109 c 121.477 246.668 121.504 246.223 121.578
 245.785 c 115.703 241.754 111.164 236.07 108.52 229.457 c 106.805 225.254
 105.938 220.758 105.957 216.223 c 105.957 214.746 106.047 213.273 106.223
 211.809 c 106.84 206.758 108.555 201.91 111.254 197.598 c 111.184 196.953
 111.152 196.305 111.168 195.656 c 111.223 174.941 125.023 156.781 144.965
 151.176 c 149.086 149.934 153.371 149.309 157.676 149.324 c 159.77 149.336
 161.863 149.484 163.941 149.766 c 164.105 148.961 164.309 148.164 164.559
 147.383 c 166.461 140.254 170.098 133.703 175.148 128.316 c 179.246 123.809
 184.195 120.148 189.707 117.551 c 195.883 114.711 202.598 113.234 209.391
 113.227 c 219.648 113.215 229.625 116.633 237.719 122.938 c 242.672 126.652
 246.82 131.332 249.898 136.703 c 250.355 136.504 250.797 136.266 251.223
 136 c 260.707 131.168 271.203 128.656 281.844 128.672 c 282.816 128.672
 l 308.352 129.039 331.465 143.848 342.477 166.887 c 349.375 158.988 359.348
 154.453 369.836 154.445 c 372.508 154.422 375.172 154.719 377.777 155.328
 c 392.379 158.609 403.457 170.531 405.664 185.332 c 405.918 187.027 406.035
 188.734 406.02 190.449 c 406.031 194.734 405.254 198.984 403.723 202.984
 c h
403.723 202.984 m f
0.960784 0.72549 0.270588 rg
511.832 357.953 m 481.562 25.062 l 480.566 11.145 469.129 0.281 455.176
 0 c 428.699 0 l 442.652 0.281 454.09 11.145 455.086 25.062 c 485.359 357.953
 l 486.199 365.551 483.828 373.148 478.812 378.914 c 473.805 384.68 466.605
 388.086 458.973 388.312 c 485.445 388.312 l 493.082 388.086 500.277 384.68
 505.293 378.914 c 510.301 373.148 512.676 365.551 511.832 357.953 c h
511.832 357.953 m f
0.992157 0.803922 0.337255 rg
300.113 441.266 m 273.641 441.266 l 263.906 441.297 256.016 449.18 255.988
 458.918 c 255.988 485.391 l 255.988 500.016 244.137 511.867 229.512 511.867
 c 255.988 511.867 l 270.609 511.867 282.461 500.016 282.461 485.391 c 282.461
 458.918 l 282.492 449.18 290.379 441.297 300.113 441.266 c h
300.113 441.266 m f
476.617 423.613 m 476.617 388.312 l 450.145 388.312 l 450.145 423.613 l
 450.113 433.352 442.23 441.238 432.492 441.266 c 458.973 441.266 l 468.707
 441.238 476.59 433.352 476.617 423.613 c h
476.617 423.613 m f
0.980392 0.423529 0.317647 rg
148.406 281.879 m 142.59 280.391 137.242 277.445 132.875 273.32 c 119.902
 303.062 l 118.648 306.527 115.375 308.844 111.695 308.883 c 79.484 308.883
 l 78.73 308.863 77.984 308.984 77.277 309.238 c 80.219 314.504 80.219 320.918
 77.277 326.184 c 77.984 326.434 78.73 326.555 79.484 326.535 c 111.695 
326.535 l 122.504 326.484 132.203 319.891 136.23 309.855 c h
148.406 281.879 m f
189.707 117.551 m 180.266 95.844 l 176.184 85.934 166.539 79.457 155.82
 79.43 c 123.609 79.43 l 122.859 79.41 122.109 79.527 121.402 79.781 c 124.344
 85.043 124.344 91.461 121.402 96.727 c 122.109 96.98 122.859 97.098 123.609
 97.082 c 155.82 97.082 l 159.402 97.113 162.613 99.305 163.941 102.637 
c 175.148 128.316 l 179.246 123.809 184.195 120.148 189.707 117.551 c h
189.707 117.551 m f
105.957 216.223 m 105.957 214.746 106.047 213.273 106.223 211.809 c 61.832
 211.809 l 56.957 211.809 53.004 215.762 53.004 220.633 c 53.004 225.508
 56.957 229.457 61.832 229.457 c 108.52 229.457 l 106.805 225.254 105.938
 220.758 105.957 216.223 c h
105.957 216.223 m f
423.668 300.059 m 423.656 297.09 424.414 294.172 425.875 291.59 c 425.168
 291.336 424.422 291.219 423.668 291.234 c 391.457 291.234 l 387.871 291.203
 384.664 289.008 383.34 285.676 c 372.832 259.375 l 369.461 265.199 365.102
 270.395 359.949 274.734 c 366.922 292.207 l 370.945 302.238 380.648 308.832
 391.457 308.883 c 423.668 308.883 l 424.422 308.902 425.168 308.789 425.875
 308.535 c 424.414 305.949 423.656 303.027 423.668 300.059 c h
423.668 300.059 m f
414.844 79.43 m 414.832 76.461 415.59 73.539 417.047 70.953 c 416.34 70.703
 415.594 70.582 414.844 70.602 c 382.633 70.602 l 371.82 70.652 362.121 
77.25 358.094 87.281 c 352.184 102.02 l 357.77 104.547 362.809 108.148 367.012
 112.609 c 374.512 93.812 l 375.836 90.484 379.047 88.285 382.633 88.254
 c 414.844 88.254 l 415.594 88.273 416.34 88.152 417.047 87.898 c 415.59
 85.316 414.832 82.395 414.844 79.43 c h
414.844 79.43 m f
458.973 194.156 m 458.973 189.281 455.02 185.332 450.145 185.332 c 405.664
 185.332 l 405.918 187.027 406.035 188.734 406.02 190.449 c 406.031 194.734
 405.254 198.984 403.723 202.984 c 450.145 202.984 l 455.02 202.984 458.973
 199.031 458.973 194.156 c h
458.973 194.156 m f
0.960784 0.72549 0.270588 rg
220.684 432.438 m 105.957 432.438 l 101.082 432.438 97.133 436.391 97.133
 441.266 c 97.133 446.137 101.082 450.09 105.957 450.09 c 220.684 450.09
 l 225.562 450.09 229.512 446.137 229.512 441.266 c 229.512 436.391 225.562
 432.438 220.684 432.438 c h
220.684 432.438 m f
0.921569 0.52549 0.745098 rg
280.434 234.488 m 280.434 229.613 276.484 225.664 271.609 225.664 c 254.047
 225.664 l 253.957 216.84 l 254.242 212.074 252.477 207.414 249.105 204.039
 c 245.73 200.668 241.07 198.902 236.305 199.188 c 201.008 199.188 l 180.18
 199.188 161.82 184.539 160.938 167.238 c 160.594 161.262 161.621 155.285
 163.941 149.766 c 161.863 149.484 159.77 149.336 157.676 149.324 c 153.371
 149.309 149.086 149.934 144.965 151.176 c 143.551 156.711 142.988 162.422
 143.289 168.121 c 144.609 194.949 170.473 216.84 201.008 216.84 c 236.219
 216.84 l 236.305 225.664 l 236.047 230.418 237.824 235.059 241.195 238.426
 c 244.562 241.793 249.199 243.57 253.957 243.312 c 271.609 243.312 l 273.949
 243.312 276.195 242.383 277.852 240.73 c 279.504 239.074 280.434 236.828
 280.434 234.488 c h
280.434 234.488 m f
249.898 136.703 m 246.82 131.332 242.672 126.652 237.719 122.938 c 232.754
 125.445 228.074 128.492 223.773 132.027 c 220.062 135.168 219.551 140.707
 222.629 144.469 c 224.113 146.293 226.27 147.441 228.609 147.66 c 230.953
 147.875 233.281 147.137 235.07 145.617 c 239.539 141.918 244.535 138.914
 249.898 136.703 c h
249.898 136.703 m f
342.477 166.887 m 339.977 161.641 336.805 156.746 333.031 152.324 c 331.941
 152.773 330.953 153.434 330.121 154.266 c 324.684 159.602 320.684 166.219
 318.473 173.504 c 317.797 175.738 318.039 178.152 319.148 180.207 c 320.262
 182.262 322.145 183.789 324.387 184.449 c 326.629 185.137 329.059 184.898
 331.129 183.789 c 333.199 182.676 334.742 180.785 335.418 178.535 c 336.734
 174.109 339.168 170.102 342.477 166.887 c h
342.477 166.887 m f
350.949 266.965 m 349.801 266.383 348.531 266.078 347.242 266.082 c 343.801
 266.094 340.672 268.086 339.211 271.203 c 336.184 277.762 331.719 283.551
 326.148 288.148 c 336.594 287.656 346.688 284.23 355.27 278.262 c 355.359
 278.176 l 357.176 273.859 355.215 268.883 350.949 266.965 c h
350.949 266.965 m f
396.488 214.809 m 395.77 210.219 394.559 205.719 392.867 201.395 c 391.559
 198 388.297 195.758 384.664 195.746 c 383.543 195.734 382.434 195.945 381.398
 196.363 c 379.219 197.227 377.473 198.922 376.547 201.074 c 375.617 203.227
 375.586 205.656 376.453 207.836 c 378.645 213.34 379.754 219.211 379.719
 225.133 c 386.148 223.297 391.953 219.723 396.488 214.809 c h
396.488 214.809 m f
127.141 175.27 m 125.68 172.207 122.59 170.25 119.195 170.242 c 118.844
 170.242 l 113.82 177.766 111.152 186.613 111.168 195.656 c 111.152 196.305
 111.184 196.953 111.254 197.598 c 114.055 193.004 118.133 189.324 122.992
 187.012 c 125.109 186.016 126.742 184.215 127.523 182.008 c 128.305 179.801
 128.164 177.375 127.141 175.27 c h
127.141 175.27 m f
140.73 260.348 m 141.414 255.551 138.105 251.098 133.316 250.371 c 129.102
 249.762 125.09 248.195 121.578 245.785 c 121.504 246.223 121.477 246.668
 121.492 247.109 c 121.465 254.246 123.586 261.227 127.582 267.141 c 128.648
 267.461 129.738 267.695 130.844 267.848 c 133.152 268.184 135.5 267.578
 137.359 266.168 c 139.219 264.758 140.434 262.664 140.73 260.348 c h
140.73 260.348 m f
184.594 284.527 m 183.117 281.434 179.988 279.473 176.559 279.496 c 175.281
 279.504 174.02 279.773 172.855 280.289 c 169.191 282.051 165.18 282.953
 161.113 282.938 c 164.148 289.316 168.961 294.676 174.969 298.383 c 176.801
 297.77 178.598 297.062 180.355 296.266 c 184.766 294.191 186.664 288.941
 184.594 284.527 c h
184.594 284.527 m f
235.953 287.176 m 234.441 286.148 232.664 285.598 230.836 285.586 c 227.996
 285.602 225.336 286.98 223.688 289.293 c 220.945 293.207 217.238 296.336
 212.922 298.383 c 217.953 302.879 224.016 306.062 230.57 307.652 c 233.43
 305.266 235.949 302.504 238.07 299.441 c 240.863 295.465 239.914 289.984
 235.953 287.176 c h
235.953 287.176 m f
Q Q
showpage
%%Trailer
end restore
%%EOF
