%!PS-Adobe-3.0 EPSF-3.0
%%Creator: cairo 1.14.6 (http://cairographics.org)
%%CreationDate: Wed Apr  3 07:48:58 2019
%%Pages: 1
%%DocumentData: Clean7Bit
%%LanguageLevel: 2
%%BoundingBox: 0 0 512 512
%%EndComments
%%BeginProlog
save
50 dict begin
/q { gsave } bind def
/Q { grestore } bind def
/cm { 6 array astore concat } bind def
/w { setlinewidth } bind def
/J { setlinecap } bind def
/j { setlinejoin } bind def
/M { setmiterlimit } bind def
/d { setdash } bind def
/m { moveto } bind def
/l { lineto } bind def
/c { curveto } bind def
/h { closepath } bind def
/re { exch dup neg 3 1 roll 5 3 roll moveto 0 rlineto
      0 exch rlineto 0 rlineto closepath } bind def
/S { stroke } bind def
/f { fill } bind def
/f* { eofill } bind def
/n { newpath } bind def
/W { clip } bind def
/W* { eoclip } bind def
/BT { } bind def
/ET { } bind def
/pdfmark where { pop globaldict /?pdfmark /exec load put }
    { globaldict begin /?pdfmark /pop load def /pdfmark
    /cleartomark load def end } ifelse
/BDC { mark 3 1 roll /BDC pdfmark } bind def
/EMC { mark /EMC pdfmark } bind def
/cairo_store_point { /cairo_point_y exch def /cairo_point_x exch def } def
/Tj { show currentpoint cairo_store_point } bind def
/TJ {
  {
    dup
    type /stringtype eq
    { show } { -0.001 mul 0 cairo_font_matrix dtransform rmoveto } ifelse
  } forall
  currentpoint cairo_store_point
} bind def
/cairo_selectfont { cairo_font_matrix aload pop pop pop 0 0 6 array astore
    cairo_font exch selectfont cairo_point_x cairo_point_y moveto } bind def
/Tf { pop /cairo_font exch def /cairo_font_matrix where
      { pop cairo_selectfont } if } bind def
/Td { matrix translate cairo_font_matrix matrix concatmatrix dup
      /cairo_font_matrix exch def dup 4 get exch 5 get cairo_store_point
      /cairo_font where { pop cairo_selectfont } if } bind def
/Tm { 2 copy 8 2 roll 6 array astore /cairo_font_matrix exch def
      cairo_store_point /cairo_font where { pop cairo_selectfont } if } bind def
/g { setgray } bind def
/rg { setrgbcolor } bind def
/d1 { setcachedevice } bind def
%%EndProlog
%%BeginSetup
%%EndSetup
%%Page: 1 1
%%BeginPageSetup
%%PageBoundingBox: 0 0 512 512
%%EndPageSetup
q 0 0 512 512 rectclip q
0.258824 0.282353 0.321569 rg
153.77 331.777 m 151.551 335.703 93.867 469.332 255.574 469.332 c 409.43
 469.332 364.629 348.332 358.059 333.227 c h
153.77 331.777 m f
0.67451 0.572549 0.917647 rg
332.801 153.602 m 419.637 126.883 l 433.957 122.477 443.734 109.246 443.734
 94.258 c 443.734 68.266 l 443.734 63.555 439.914 59.734 435.199 59.734 
c 76.801 59.734 l 72.086 59.734 68.266 63.555 68.266 68.266 c 68.266 94.258
 l 68.266 109.246 78.043 122.477 92.363 126.883 c 179.199 153.602 l h
332.801 153.602 m f
0.639216 0.52549 0.443137 rg
327.508 195.586 m 332.801 153.602 l 332.801 153.602 324.266 110.934 256
 110.934 c 187.734 110.934 179.199 153.602 179.199 153.602 c 184.492 195.586
 l h
327.508 195.586 m f
0.698039 0.584314 0.501961 rg
379.051 297.301 m 377.344 293.887 375.895 290.902 374.785 288.258 c 372.199
 282.336 370.891 275.941 370.945 269.484 c 371.031 263.254 368.812 250.711
 349.695 250.711 c 349.605 236.789 346.703 223.031 341.164 210.262 c 334.25
 197.121 310.527 183.98 301.824 179.457 c 299.812 178.484 298.035 177.086
 296.617 175.359 c 286.773 162.684 272.012 154.773 256 153.602 c 239.988
 154.773 225.227 162.684 215.383 175.359 c 213.965 177.086 212.188 178.484
 210.176 179.457 c 201.473 183.98 177.75 197.121 170.836 210.262 c 165.352
 223.047 162.48 236.797 162.391 250.711 c 143.188 250.711 140.969 263.254
 141.141 269.484 c 141.125 275.941 139.789 282.332 137.215 288.258 c 136.105
 290.902 134.656 293.887 132.949 297.301 c 119.211 323.242 136.703 339.711
 153.77 331.777 c 153.77 331.777 160.77 391.508 188.16 408.32 c 191.895 
410.66 196.801 409.73 199.426 406.188 c 205.055 398.508 219.988 384 256 
384 c 292.012 384 306.945 398.508 312.574 406.188 c 315.199 409.73 320.105
 410.66 323.84 408.32 c 348.672 393.047 356.777 342.613 358.059 333.227 
c 358.145 332.289 358.23 331.777 358.23 331.777 c 375.297 339.711 392.789
 323.242 379.051 297.301 c h
379.051 297.301 m f
0.639216 0.52549 0.443137 rg
358.23 331.777 m 358.145 331.691 l f
358.059 333.227 m 357.719 332.457 357.461 331.945 357.375 331.777 c f
0.584314 0.47451 0.854902 rg
443.734 94.293 m 443.734 68.266 l 443.734 63.555 439.914 59.734 435.199
 59.734 c 409.602 59.734 l 414.312 59.734 418.133 63.555 418.133 68.266 
c 418.133 94.293 l 418.094 109.25 408.348 122.449 394.07 126.891 c 330.238
 146.516 l 331.328 148.785 332.188 151.16 332.801 153.602 c 419.668 126.891
 l 433.949 122.449 443.691 109.25 443.734 94.293 c h
443.734 94.293 m f
0.576471 0.462745 0.380392 rg
332.801 153.602 m 332.188 151.16 331.328 148.785 330.238 146.516 c 324.352
 134.398 306.602 110.934 256 110.934 c 251.781 110.906 247.566 111.105 243.371
 111.531 c 299.777 116.48 307.199 153.602 307.199 153.602 c 303.785 180.48
 l 312.102 184.844 320.035 189.898 327.508 195.586 c h
332.801 153.602 m f
0.203922 0.223529 0.258824 rg
358.059 333.227 m 355.676 350.77 350.762 367.871 343.465 384 c 344.32 421.121
 326.996 465.066 242.773 468.992 c 246.871 469.246 251.137 469.332 255.574
 469.332 c 409.43 469.332 364.629 348.332 358.059 333.227 c h
358.059 333.227 m f
0.639216 0.52549 0.443137 rg
379.051 297.301 m 377.344 293.887 375.895 290.902 374.785 288.258 c 372.199
 282.336 370.891 275.941 370.945 269.484 c 371.031 263.254 368.812 250.711
 349.695 250.711 c 349.605 236.789 346.703 223.031 341.164 210.262 c 337.637
 204.508 332.996 199.516 327.508 195.586 c 320.035 189.898 312.102 184.844
 303.785 180.48 c 303.105 180.137 302.422 179.797 301.824 179.457 c 299.812
 178.484 298.035 177.086 296.617 175.359 c 286.773 162.684 272.012 154.773
 256 153.602 c 251.652 153.609 247.332 154.297 243.199 155.648 c 254.098
 159.555 263.723 166.371 271.02 175.359 c 272.438 177.086 274.211 178.484
 276.223 179.457 c 285.223 184.102 293.816 189.496 301.91 195.586 c 307.395
 199.516 312.039 204.508 315.562 210.262 c 321.102 223.031 324.004 236.789
 324.098 250.711 c 343.211 250.711 345.43 263.254 345.344 269.484 c 345.289
 275.941 346.598 282.336 349.184 288.258 c 350.293 290.902 351.742 293.887
 353.449 297.301 c 367.188 323.242 349.695 339.711 332.629 331.777 c 332.629
 331.777 332.543 332.289 332.457 333.227 c 332.375 333.738 332.289 334.336
 332.203 335.105 c 332.215 335.223 332.184 335.344 332.117 335.445 c 332.109
 335.938 332.023 336.43 331.863 336.895 c 331.777 337.578 331.691 338.262
 331.52 339.031 c 331.348 340.055 331.18 341.164 330.922 342.355 c 329.898
 347.734 328.363 354.73 326.145 362.238 c 325.887 363.348 325.461 364.457
 325.121 365.652 c 323.926 369.492 322.477 373.504 320.852 377.43 c 320.172
 379.137 319.488 380.758 318.633 382.465 c 318.484 382.703 318.371 382.961
 318.293 383.23 c 317.609 384.598 316.93 385.961 316.16 387.328 c 315.363
 388.938 314.48 390.504 313.516 392.02 c 312.574 393.473 311.637 395.008
 310.613 396.375 c 309.59 397.738 308.566 399.105 307.457 400.383 c 309.344
 402.152 311.059 404.094 312.574 406.188 c 315.199 409.73 320.105 410.66
 323.84 408.32 c 332.523 402.203 339.32 393.777 343.465 384 c 350.762 367.871
 355.676 350.77 358.059 333.227 c 358.145 332.289 358.23 331.777 358.23 
331.777 c 375.297 339.711 392.789 323.242 379.051 297.301 c h
379.051 297.301 m f
0.4 0.831373 0.945098 rg
8.535 384 m 3.82 384 0 387.82 0 392.535 c 0 477.867 l 0 496.719 15.281 
512 34.133 512 c 119.465 512 l 124.18 512 128 508.18 128 503.465 c 128 498.754
 124.18 494.934 119.465 494.934 c 34.133 494.934 l 24.707 494.934 17.066
 487.293 17.066 477.867 c 17.066 392.535 l 17.066 387.82 13.246 384 8.535
 384 c h
8.535 384 m f
503.465 384 m 498.754 384 494.934 387.82 494.934 392.535 c 494.934 477.867
 l 494.934 487.293 487.293 494.934 477.867 494.934 c 392.535 494.934 l 387.82
 494.934 384 498.754 384 503.465 c 384 508.18 387.82 512 392.535 512 c 477.867
 512 l 496.719 512 512 496.719 512 477.867 c 512 392.535 l 512 387.82 508.18
 384 503.465 384 c h
503.465 384 m f
119.465 0 m 34.133 0 l 15.281 0 0 15.281 0 34.133 c 0 119.465 l 0 124.18
 3.82 128 8.535 128 c 13.246 128 17.066 124.18 17.066 119.465 c 17.066 34.133
 l 17.066 24.707 24.707 17.066 34.133 17.066 c 119.465 17.066 l 124.18 17.066
 128 13.246 128 8.535 c 128 3.82 124.18 0 119.465 0 c h
119.465 0 m f
477.867 0 m 392.535 0 l 387.82 0 384 3.82 384 8.535 c 384 13.246 387.82
 17.066 392.535 17.066 c 477.867 17.066 l 487.293 17.066 494.934 24.707 
494.934 34.133 c 494.934 119.465 l 494.934 124.18 498.754 128 503.465 128
 c 508.18 128 512 124.18 512 119.465 c 512 34.133 l 512 15.281 496.719 0
 477.867 0 c h
477.867 0 m f
503.465 281.602 m 8.535 281.602 l 3.82 281.602 0 285.422 0 290.133 c 0 
294.848 3.82 298.668 8.535 298.668 c 503.465 298.668 l 508.18 298.668 512
 294.848 512 290.133 c 512 285.422 508.18 281.602 503.465 281.602 c h
503.465 281.602 m f
Q Q
showpage
%%Trailer
end restore
%%EOF
