%!PS-Adobe-3.0 EPSF-3.0
%%Creator: cairo 1.14.6 (http://cairographics.org)
%%CreationDate: Wed Apr  3 07:48:58 2019
%%Pages: 1
%%DocumentData: Clean7Bit
%%LanguageLevel: 2
%%BoundingBox: 79 0 433 512
%%EndComments
%%BeginProlog
save
50 dict begin
/q { gsave } bind def
/Q { grestore } bind def
/cm { 6 array astore concat } bind def
/w { setlinewidth } bind def
/J { setlinecap } bind def
/j { setlinejoin } bind def
/M { setmiterlimit } bind def
/d { setdash } bind def
/m { moveto } bind def
/l { lineto } bind def
/c { curveto } bind def
/h { closepath } bind def
/re { exch dup neg 3 1 roll 5 3 roll moveto 0 rlineto
      0 exch rlineto 0 rlineto closepath } bind def
/S { stroke } bind def
/f { fill } bind def
/f* { eofill } bind def
/n { newpath } bind def
/W { clip } bind def
/W* { eoclip } bind def
/BT { } bind def
/ET { } bind def
/pdfmark where { pop globaldict /?pdfmark /exec load put }
    { globaldict begin /?pdfmark /pop load def /pdfmark
    /cleartomark load def end } ifelse
/BDC { mark 3 1 roll /BDC pdfmark } bind def
/EMC { mark /EMC pdfmark } bind def
/cairo_store_point { /cairo_point_y exch def /cairo_point_x exch def } def
/Tj { show currentpoint cairo_store_point } bind def
/TJ {
  {
    dup
    type /stringtype eq
    { show } { -0.001 mul 0 cairo_font_matrix dtransform rmoveto } ifelse
  } forall
  currentpoint cairo_store_point
} bind def
/cairo_selectfont { cairo_font_matrix aload pop pop pop 0 0 6 array astore
    cairo_font exch selectfont cairo_point_x cairo_point_y moveto } bind def
/Tf { pop /cairo_font exch def /cairo_font_matrix where
      { pop cairo_selectfont } if } bind def
/Td { matrix translate cairo_font_matrix matrix concatmatrix dup
      /cairo_font_matrix exch def dup 4 get exch 5 get cairo_store_point
      /cairo_font where { pop cairo_selectfont } if } bind def
/Tm { 2 copy 8 2 roll 6 array astore /cairo_font_matrix exch def
      cairo_store_point /cairo_font where { pop cairo_selectfont } if } bind def
/g { setgray } bind def
/rg { setrgbcolor } bind def
/d1 { setcachedevice } bind def
%%EndProlog
%%BeginSetup
%%EndSetup
%%Page: 1 1
%%BeginPageSetup
%%PageBoundingBox: 79 0 433 512
%%EndPageSetup
q 79 0 354 512 rectclip q
0.992157 0.803922 0.337255 rg
202.586 35.309 m 308.52 35.309 l 308.52 17.656 l 308.52 7.906 300.613 0
 290.863 0 c 220.242 0 l 210.492 0 202.586 7.906 202.586 17.656 c h
202.586 35.309 m f
0.792157 0.815686 0.843137 rg
193.758 70.621 m 317.344 70.621 l 327.098 70.621 335 62.715 335 52.965 
c 335 43.215 327.098 35.309 317.344 35.309 c 193.758 35.309 l 184.008 35.309
 176.105 43.215 176.105 52.965 c 176.105 62.715 184.008 70.621 193.758 70.621
 c h
193.758 70.621 m f
193.758 105.93 m 317.344 105.93 l 327.098 105.93 335 98.027 335 88.277 
c 335 78.523 327.098 70.621 317.344 70.621 c 193.758 70.621 l 184.008 70.621
 176.105 78.523 176.105 88.277 c 176.105 98.027 184.008 105.93 193.758 105.93
 c h
193.758 105.93 m f
0.619608 0.823529 0.415686 rg
229.07 167.723 m 229.074 164.773 228.566 161.848 227.57 159.074 c 223.16
 146.316 209.863 138.918 196.695 141.895 c 183.531 144.871 174.711 157.273
 176.223 170.688 c 177.734 184.102 189.09 194.23 202.586 194.207 c 205.414
 194.242 208.227 193.762 210.887 192.793 c 216.562 191.012 221.453 187.336
 224.742 182.379 c 224.742 182.289 l 225.914 180.434 226.863 178.449 227.57
 176.375 c 228.566 173.602 229.074 170.672 229.07 167.723 c h
229.07 167.723 m f
282.035 242.758 m 282.023 232.043 274.316 222.887 263.762 221.043 c 262.512
 220.789 261.242 220.672 259.965 220.691 c 258.121 220.703 256.281 220.938
 254.492 221.395 c 248.664 222.875 243.688 226.668 240.723 231.902 c 238.871
 235.219 237.898 238.957 237.898 242.758 c 237.867 248.316 239.949 253.684
 243.723 257.766 c 247.816 262.164 253.52 264.711 259.523 264.828 c 259.965
 264.828 l 261.09 264.832 262.211 264.742 263.32 264.562 c 274.07 262.879
 282 253.637 282.035 242.758 c h
282.035 242.758 m f
229.07 304.551 m 229.086 303.25 228.969 301.945 228.715 300.668 c 227.656
 294.762 224.246 289.539 219.27 286.191 c 215.625 283.793 211.363 282.508
 207 282.484 c 202.984 282.465 199.039 283.566 195.613 285.66 c 195.523 
285.66 l 190.48 288.82 186.871 293.824 185.461 299.609 c 185.461 299.695
 l 185.105 301.289 184.93 302.918 184.934 304.551 c 184.938 306.457 185.176
 308.355 185.637 310.203 c 187.223 315.961 191.035 320.852 196.23 323.797
 c 196.32 323.797 l 199.055 325.348 202.098 326.281 205.234 326.531 c 205.82
 326.605 206.41 326.637 207 326.621 c 212.855 326.621 218.469 324.297 222.605
 320.156 c 226.746 316.02 229.07 310.406 229.07 304.551 c h
229.07 304.551 m f
158.449 247.172 m 158.465 236.434 152.012 226.746 142.094 222.629 c 132.176
 218.512 120.758 220.777 113.164 228.371 c 105.574 235.965 103.305 247.383
 107.422 257.301 c 111.539 267.215 121.23 273.672 131.965 273.656 c 132.734
 273.684 133.504 273.625 134.262 273.48 c 138.613 273.176 142.812 271.746
 146.445 269.328 c 151.457 266.137 155.199 261.301 157.035 255.648 c 157.961
 252.918 158.438 250.055 158.449 247.172 c h
158.449 247.172 m f
335 335.449 m 335.02 334.086 334.898 332.727 334.648 331.387 c 332.695 
318.473 321.582 308.934 308.52 308.965 c 307.363 308.965 306.215 309.055
 305.074 309.23 c 299.199 309.949 293.746 312.66 289.625 316.91 c 282.164
 324.523 279.996 335.867 284.121 345.695 c 288.242 355.523 297.859 361.922
 308.52 361.93 c 308.785 361.945 309.055 361.914 309.312 361.844 c 315.277
 361.719 321.016 359.535 325.555 355.664 c 328.039 353.695 330.082 351.23
 331.559 348.426 c 333.836 344.48 335.023 340.004 335 335.449 c h
335 335.449 m f
264.379 397.242 m 264.41 382.742 252.75 370.922 238.25 370.758 c 237.898
 370.758 l 232.02 370.777 226.309 372.73 221.656 376.32 c 215.168 381.316
 211.379 389.055 211.414 397.242 c 211.391 399.48 211.688 401.707 212.297
 403.863 c 213.727 409.66 217.129 414.777 221.918 418.34 c 225.535 421.07
 229.789 422.836 234.277 423.461 c 235.477 423.637 236.688 423.723 237.898
 423.723 c 242.613 423.742 247.25 422.492 251.316 420.105 c 251.316 420.016
 l 253.422 418.855 255.328 417.363 256.965 415.602 c 261.098 411.344 263.648
 405.801 264.203 399.891 c 264.352 399.016 264.41 398.129 264.379 397.242
 c h
264.379 397.242 m f
131.965 353.102 m 131.98 352.57 131.953 352.039 131.879 351.516 c 131.539
 345.551 129.172 339.883 125.168 335.449 c 123.699 333.699 121.973 332.18
 120.051 330.945 c 115.723 328.109 110.656 326.605 105.484 326.621 c 104.715
 326.59 103.945 326.652 103.188 326.797 c 88.906 328.039 78.203 340.426 
79.047 354.738 c 79.891 369.051 91.969 380.094 106.301 379.652 c 120.633
 379.207 132.008 367.441 131.965 353.102 c h
131.965 353.102 m f
184.934 450.559 m 184.934 450.207 l 184.953 447.941 184.656 445.684 184.051
 443.496 c 180.508 430.238 167.301 421.988 153.832 424.617 c 140.359 427.246
 131.227 439.855 132.93 453.473 c 134.633 467.094 146.59 477.066 160.289
 476.297 c 173.992 475.531 184.762 464.281 184.934 450.559 c h
184.934 450.559 m f
335 167.723 m 334.934 154.844 325.609 143.879 312.91 141.742 c 300.207 
139.609 287.809 146.922 283.535 159.074 c 281.535 164.668 281.535 170.781
 283.535 176.375 c 284.492 179.145 285.895 181.738 287.684 184.055 c 291.316
 188.758 296.461 192.062 302.25 193.414 c 304.297 193.941 306.402 194.211
 308.52 194.207 c 311.977 194.215 315.398 193.527 318.582 192.176 c 324.129
 189.969 328.742 185.914 331.645 180.699 c 333.859 176.734 335.016 172.266
 335 167.723 c h
335 167.723 m f
405.621 247.172 m 405.621 232.547 393.766 220.691 379.137 220.691 c 375.68
 220.68 372.258 221.371 369.074 222.719 c 363.531 224.93 358.914 228.98 
356.012 234.195 c 351.637 242.039 351.535 251.566 355.742 259.504 c 359.953
 267.438 367.895 272.699 376.844 273.48 c 377.598 273.625 378.371 273.684
 379.137 273.656 c 386.168 273.68 392.918 270.895 397.891 265.926 c 402.863
 260.953 405.645 254.203 405.621 247.172 c h
405.621 247.172 m f
432.105 353.102 m 432.152 339.363 421.613 327.898 407.918 326.797 c 407.16
 326.652 406.391 326.59 405.621 326.621 c 400.449 326.605 395.383 328.109
 391.055 330.945 c 383.664 335.906 379.203 344.203 379.137 353.102 c 379.121
 354.465 379.238 355.824 379.492 357.164 c 381.727 370.723 393.957 380.324
 407.66 379.266 c 421.363 378.207 431.977 366.844 432.105 353.102 c h
432.105 353.102 m f
379.137 450.207 m 379.137 435.582 367.281 423.723 352.656 423.723 c 352.387
 423.711 352.121 423.738 351.863 423.812 c 345.895 423.938 340.156 426.117
 335.617 429.992 c 334.879 430.539 334.199 431.16 333.59 431.844 c 329.457
 436.105 326.902 441.648 326.348 447.559 c 326.203 448.434 326.145 449.32
 326.172 450.207 c 326.172 464.832 338.031 476.691 352.656 476.691 c 367.281
 476.691 379.137 464.832 379.137 450.207 c h
379.137 450.207 m f
282.035 485.516 m 282.027 472.297 272.27 461.105 259.172 459.301 c 257.973
 459.125 256.762 459.035 255.551 459.035 c 250.836 459.016 246.203 460.266
 242.133 462.652 c 242.133 462.742 l 239.398 464.281 236.996 466.352 235.074
 468.832 c 231.266 473.43 229.145 479.195 229.07 485.164 c 229.07 485.516
 l 229.07 500.145 240.926 512 255.551 512 c 270.18 512 282.035 500.145 282.035
 485.516 c h
282.035 485.516 m f
0.662745 0.690196 0.733333 rg
335 88.277 m 334.93 78.555 327.066 70.691 317.344 70.621 c 193.758 70.621
 l 186.824 70.637 180.535 74.711 177.691 81.039 c 179.957 79.973 182.43 
79.43 184.934 79.449 c 308.52 79.449 l 318.238 79.52 326.102 87.383 326.172
 97.102 c 326.191 99.605 325.648 102.078 324.586 104.344 c 330.91 101.496
 334.984 95.211 335 88.277 c h
335 88.277 m f
335 52.965 m 334.93 43.246 327.066 35.383 317.344 35.309 c 193.758 35.309
 l 186.824 35.324 180.535 39.398 177.691 45.727 c 179.957 44.66 182.43 44.117
 184.934 44.137 c 308.52 44.137 l 318.238 44.211 326.102 52.074 326.172 
61.793 c 326.191 64.293 325.648 66.77 324.586 69.031 c 330.91 66.188 334.984
 59.902 335 52.965 c h
335 52.965 m f
0.960784 0.72549 0.270588 rg
308.52 35.309 m 308.52 17.656 l 308.488 7.918 300.602 0.027 290.863 0 c
 273.207 0 l 282.945 0.027 290.832 7.918 290.863 17.656 c 290.863 35.309
 l h
308.52 35.309 m f
0.309804 0.752941 0.909804 rg
238.25 370.758 m 238.184 370.277 238.066 369.801 237.898 369.348 c 222.359
 322.648 l 222.18 322.098 221.941 321.562 221.656 321.059 c 217.617 324.648
 212.402 326.629 207 326.621 c 206.41 326.637 205.82 326.605 205.234 326.531
 c 205.301 327.129 205.418 327.723 205.59 328.297 c 221.125 374.996 l 221.656
 376.32 l 226.309 372.73 232.02 370.777 237.898 370.758 c h
238.25 370.758 m f
254.492 221.395 m 254.285 220.848 253.988 220.344 253.609 219.895 c 225.715
 183.348 l 225.438 182.984 225.109 182.656 224.742 182.379 c 221.453 187.336
 216.562 191.012 210.887 192.793 c 211.082 193.273 211.352 193.719 211.68
 194.117 c 239.574 230.664 l 239.91 231.117 240.297 231.531 240.723 231.902
 c 243.688 226.668 248.664 222.875 254.492 221.395 c h
254.492 221.395 m f
282.035 167.723 m 282.031 164.773 282.539 161.848 283.535 159.074 c 283.043
 158.965 282.539 158.906 282.035 158.898 c 229.07 158.898 l 228.566 158.906
 228.062 158.965 227.57 159.074 c 229.57 164.668 229.57 170.781 227.57 176.375
 c 228.062 176.484 228.566 176.543 229.07 176.551 c 282.035 176.551 l 282.539
 176.543 283.043 176.484 283.535 176.375 c 282.539 173.602 282.031 170.672
 282.035 167.723 c h
282.035 167.723 m f
302.25 193.414 m 296.461 192.062 291.316 188.758 287.684 184.055 c 287.289
 184.371 286.961 184.762 286.715 185.203 c 264.555 219.453 l 264.223 219.945
 263.953 220.48 263.762 221.043 c 269.656 222.07 274.883 225.449 278.238
 230.398 c 278.668 229.969 279.055 229.496 279.387 228.988 c 301.543 194.738
 l 301.812 194.312 302.051 193.871 302.25 193.414 c h
302.25 193.414 m f
369.074 222.719 m 368.832 222.273 368.535 221.859 368.191 221.484 c 332.707
 181.672 l 332.375 181.324 332.02 181 331.645 180.699 c 328.742 185.914 
324.129 189.969 318.582 192.176 c 318.824 192.621 319.121 193.039 319.465
 193.414 c 354.949 233.227 l 355.281 233.57 355.637 233.898 356.012 234.195
 c 358.914 228.98 363.531 224.93 369.074 222.719 c h
369.074 222.719 m f
351.863 423.812 m 351.742 423.305 351.594 422.805 351.422 422.312 c 326.262
 357.254 l 326.062 356.707 325.828 356.176 325.555 355.664 c 321.016 359.535
 315.277 361.719 309.312 361.844 c 309.418 362.355 309.566 362.855 309.754
 363.344 c 334.914 428.402 l 335.109 428.949 335.348 429.48 335.617 429.992
 c 340.156 426.117 345.895 423.938 351.863 423.812 c h
351.863 423.812 m f
407.918 326.797 m 407.902 326.293 407.844 325.789 407.738 325.297 c 394.145
 270.742 l 394.051 270.258 393.902 269.781 393.703 269.328 c 389.379 272.168
 384.312 273.672 379.137 273.656 c 378.371 273.684 377.598 273.625 376.844
 273.48 c 376.859 273.984 376.918 274.484 377.02 274.98 c 390.613 329.535
 l 390.707 330.02 390.855 330.492 391.055 330.945 c 395.383 328.109 400.449
 326.605 405.621 326.621 c 406.391 326.59 407.16 326.652 407.918 326.797
 c h
407.918 326.797 m f
382.582 340.125 m 382.145 339.887 381.664 339.738 381.168 339.684 c 336.148
 331.562 l 335.66 331.418 335.152 331.359 334.648 331.387 c 334.898 332.727
 335.02 334.086 335 335.449 c 335.023 340.004 333.836 344.48 331.559 348.426
 c 331.996 348.664 332.477 348.812 332.969 348.867 c 377.992 356.988 l 378.484
 357.09 378.988 357.148 379.492 357.164 c 379.238 355.824 379.121 354.465
 379.137 353.102 c 379.113 348.551 380.301 344.07 382.582 340.125 c h
382.582 340.125 m f
196.23 323.797 m 191.035 320.852 187.223 315.961 185.637 310.203 c 126.492
 334.832 l 126.051 335.008 125.609 335.273 125.168 335.449 c 129.172 339.883
 131.539 345.551 131.879 351.516 c 132.371 351.449 132.848 351.301 133.289
 351.074 c 193.055 326.18 l 194.312 325.695 195.414 324.871 196.23 323.797
 c h
196.23 323.797 m f
134.262 273.48 m 133.504 273.625 132.734 273.684 131.965 273.656 c 126.793
 273.672 121.727 272.168 117.402 269.328 c 117.199 269.781 117.055 270.258
 116.961 270.742 c 103.363 325.297 l 103.262 325.789 103.203 326.293 103.188
 326.797 c 103.945 326.652 104.715 326.59 105.484 326.621 c 110.656 326.605
 115.723 328.109 120.051 330.945 c 120.25 330.492 120.395 330.02 120.492
 329.535 c 134.086 274.98 l 134.188 274.484 134.246 273.984 134.262 273.48
 c h
134.262 273.48 m f
195.523 285.66 m 195.27 285.273 194.941 284.945 194.555 284.691 c 158.273
 256.441 l 157.895 256.125 157.48 255.859 157.035 255.648 c 155.199 261.301
 151.457 266.137 146.445 269.328 c 146.75 269.727 147.105 270.082 147.504
 270.391 c 183.785 298.637 l 184.27 299.074 184.84 299.406 185.461 299.609
 c 186.871 293.824 190.48 288.82 195.523 285.66 c h
195.523 285.66 m f
259.523 264.828 m 253.52 264.711 247.816 262.164 243.723 257.766 c 219.27
 286.191 l 224.246 289.539 227.656 294.762 228.715 300.668 c 230.062 300.211
 231.258 299.383 232.16 298.285 c 257.672 268.625 l 258.598 267.535 259.238
 266.23 259.523 264.828 c h
259.523 264.828 m f
259.172 459.301 m 259.152 458.797 259.094 458.293 258.996 457.797 c 251.758
 421.516 l 251.664 421.031 251.516 420.559 251.316 420.105 c 247.25 422.492
 242.613 423.742 237.898 423.723 c 236.688 423.723 235.477 423.637 234.277
 423.461 c 234.297 423.965 234.355 424.465 234.453 424.961 c 241.691 461.242
 l 241.785 461.727 241.934 462.199 242.133 462.652 c 246.203 460.266 250.836
 459.016 255.551 459.035 c 256.762 459.035 257.973 459.125 259.172 459.301
 c h
259.172 459.301 m f
235.074 468.832 m 234.648 468.59 234.207 468.383 233.75 468.215 c 186.254
 450.914 l 185.828 450.754 185.383 450.637 184.934 450.559 c 184.855 456.531
 182.738 462.293 178.93 466.891 c 179.352 467.133 179.797 467.34 180.254
 467.508 c 227.746 484.812 l 228.176 484.969 228.617 485.09 229.07 485.164
 c 229.145 479.195 231.266 473.43 235.074 468.832 c h
235.074 468.832 m f
221.918 418.34 m 217.129 414.777 213.727 409.66 212.297 403.863 c 210.973
 404.656 l 175.664 428.137 l 175.215 428.41 174.801 428.738 174.426 429.109
 c 179.172 432.68 182.562 437.75 184.051 443.496 c 184.508 443.297 184.949
 443.062 185.375 442.793 c 220.684 419.309 l 221.133 419.035 221.547 418.711
 221.918 418.34 c h
221.918 418.34 m f
333.59 431.844 m 333.234 431.5 332.812 431.23 332.352 431.051 c 265.617
 400.332 l 265.16 400.145 264.688 399.996 264.203 399.891 c 263.648 405.801
 261.098 411.344 256.965 415.602 c 257.32 415.949 257.738 416.219 258.199
 416.398 c 324.938 447.117 l 325.391 447.316 325.863 447.465 326.348 447.559
 c 326.902 441.648 329.457 436.105 333.59 431.844 c h
333.59 431.844 m f
305.074 309.23 m 304.953 308.742 304.773 308.266 304.547 307.816 c 279.387
 257.5 l 279.043 256.746 278.562 256.059 277.973 255.469 c 274.547 260.387
 269.246 263.676 263.32 264.562 c 263.398 264.871 263.52 265.168 263.672
 265.445 c 288.832 315.762 l 289.016 316.195 289.285 316.586 289.625 316.91
 c 293.746 312.66 299.199 309.949 305.074 309.23 c h
305.074 309.23 m f
Q Q
showpage
%%Trailer
end restore
%%EOF
