%!PS-Adobe-3.0 EPSF-3.0
%%Creator: cairo 1.14.6 (http://cairographics.org)
%%CreationDate: Wed Apr  3 07:48:59 2019
%%Pages: 1
%%DocumentData: Clean7Bit
%%LanguageLevel: 2
%%BoundingBox: 52 0 459 511
%%EndComments
%%BeginProlog
save
50 dict begin
/q { gsave } bind def
/Q { grestore } bind def
/cm { 6 array astore concat } bind def
/w { setlinewidth } bind def
/J { setlinecap } bind def
/j { setlinejoin } bind def
/M { setmiterlimit } bind def
/d { setdash } bind def
/m { moveto } bind def
/l { lineto } bind def
/c { curveto } bind def
/h { closepath } bind def
/re { exch dup neg 3 1 roll 5 3 roll moveto 0 rlineto
      0 exch rlineto 0 rlineto closepath } bind def
/S { stroke } bind def
/f { fill } bind def
/f* { eofill } bind def
/n { newpath } bind def
/W { clip } bind def
/W* { eoclip } bind def
/BT { } bind def
/ET { } bind def
/pdfmark where { pop globaldict /?pdfmark /exec load put }
    { globaldict begin /?pdfmark /pop load def /pdfmark
    /cleartomark load def end } ifelse
/BDC { mark 3 1 roll /BDC pdfmark } bind def
/EMC { mark /EMC pdfmark } bind def
/cairo_store_point { /cairo_point_y exch def /cairo_point_x exch def } def
/Tj { show currentpoint cairo_store_point } bind def
/TJ {
  {
    dup
    type /stringtype eq
    { show } { -0.001 mul 0 cairo_font_matrix dtransform rmoveto } ifelse
  } forall
  currentpoint cairo_store_point
} bind def
/cairo_selectfont { cairo_font_matrix aload pop pop pop 0 0 6 array astore
    cairo_font exch selectfont cairo_point_x cairo_point_y moveto } bind def
/Tf { pop /cairo_font exch def /cairo_font_matrix where
      { pop cairo_selectfont } if } bind def
/Td { matrix translate cairo_font_matrix matrix concatmatrix dup
      /cairo_font_matrix exch def dup 4 get exch 5 get cairo_store_point
      /cairo_font where { pop cairo_selectfont } if } bind def
/Tm { 2 copy 8 2 roll 6 array astore /cairo_font_matrix exch def
      cairo_store_point /cairo_font where { pop cairo_selectfont } if } bind def
/g { setgray } bind def
/rg { setrgbcolor } bind def
/d1 { setcachedevice } bind def
%%EndProlog
%%BeginSetup
%%EndSetup
%%Page: 1 1
%%BeginPageSetup
%%PageBoundingBox: 52 0 459 511
%%EndPageSetup
q 52 0 407 511 rectclip q
0.792157 0.815686 0.843137 rg
450.953 262.629 m 446.062 224.078 437.957 186 426.723 148.797 c 420.539
 128.02 412.824 107.73 403.641 88.09 c 386.195 52.852 307.871 8.797 273.156
 8.797 c 255.535 8.797 l 255.535 502.188 l 273.156 502.188 l 483.289 501.84
 463.816 359.723 450.953 262.629 c h
450.953 262.629 m f
0.639216 0.52549 0.443137 rg
273.156 502.188 m 273.156 8.883 l 273.176 6.336 272.094 3.902 270.188 2.215
 c 268.277 0.523 265.73 -0.258 263.199 0.074 c 239.773 4.535 218.609 16.953
 203.289 35.227 c 200.777 38.023 197.723 40.273 194.301 41.836 c 179.324
 49.148 138.531 70.383 126.637 91.703 c 113.422 115.406 114.215 150.824 
114.48 157.52 c 114.551 157.867 114.582 158.223 114.566 158.574 c 108.605
 158.469 102.664 159.273 96.945 160.953 c 84.359 163.578 75.367 174.707 
75.449 187.562 c 75.418 198.086 73.133 208.48 68.75 218.047 c 66.898 222.277
 64.348 227.121 61.438 232.676 c 45.668 260.516 53.688 281.66 69.457 288.973
 c 69.746 289.105 70.039 289.223 70.34 289.328 c 72.434 290.207 74.617 290.859
 76.855 291.266 c 83.676 292.324 90.66 291.379 96.945 288.531 c 97.031 288.531
 97.121 288.445 97.207 288.445 c 93.422 294.699 36.77 505.625 264.172 511
 c 266.535 511.031 268.809 510.117 270.496 508.461 c 272.184 506.809 273.141
 504.551 273.156 502.188 c h
273.156 502.188 m f
0.227451 0.678431 0.85098 rg
378.883 273.117 m 378.883 253.648 363.105 237.871 343.641 237.871 c 324.176
 237.871 308.398 253.648 308.398 273.117 c 308.398 292.578 324.176 308.355
 343.641 308.355 c 363.105 308.355 378.883 292.578 378.883 273.117 c h
378.883 273.117 m f
1 g
273.156 123.336 m 326.02 123.336 l 335.75 123.336 343.641 115.445 343.641
 105.715 c 343.641 95.98 335.75 88.09 326.02 88.09 c 273.156 88.09 l h
273.156 123.336 m f
237.914 264.305 m 237.914 264.305 216.223 229.059 189.457 229.059 c 162.691
 229.059 141 264.305 141 264.305 c 141 264.305 162.691 299.547 189.457 299.547
 c 216.223 299.547 237.914 264.305 237.914 264.305 c h
237.914 264.305 m f
0.4 0.831373 0.945098 rg
457.031 370.031 m 273.156 370.031 l 273.156 502.188 l 411.836 501.922 450.516
 439.984 457.031 370.031 c h
457.031 370.031 m f
0.576471 0.462745 0.380392 rg
70.34 289.328 m 70.469 289.023 70.609 288.73 70.777 288.445 c 69.457 288.973
 l 69.746 289.105 70.039 289.223 70.34 289.328 c h
70.34 289.328 m f
273.156 502.188 m 273.156 8.883 l 273.176 6.336 272.094 3.902 270.188 2.215
 c 268.277 0.523 265.73 -0.258 263.199 0.074 c 257.199 0.922 251.316 2.461
 245.668 4.656 c 246.379 5.953 246.738 7.406 246.723 8.883 c 246.723 502.188
 l 246.703 505.316 245.027 508.199 242.32 509.766 c 249.281 510.383 256.59
 510.824 264.172 511 c 266.535 511.031 268.809 510.117 270.496 508.461 c
 272.184 506.809 273.141 504.551 273.156 502.188 c h
273.156 502.188 m f
0.4 0.831373 0.945098 rg
211.484 264.305 m 211.484 252.137 201.621 242.277 189.457 242.277 c 177.293
 242.277 167.43 252.137 167.43 264.305 c 167.43 276.469 177.293 286.328 
189.457 286.328 c 201.621 286.328 211.484 276.469 211.484 264.305 c h
211.484 264.305 m f
0.258824 0.282353 0.321569 rg
202.672 264.305 m 202.672 257.008 196.754 251.09 189.457 251.09 c 182.156
 251.09 176.238 257.008 176.238 264.305 c 176.238 271.602 182.156 277.52
 189.457 277.52 c 196.754 277.52 202.672 271.602 202.672 264.305 c h
202.672 264.305 m f
0.662745 0.690196 0.733333 rg
450.953 262.629 m 446.062 224.078 437.957 186 426.723 148.797 c 420.539
 128.02 412.824 107.73 403.641 88.09 c 386.195 52.852 307.871 8.797 273.156
 8.797 c 273.156 14.086 l 311.395 26.773 363.379 60.164 377.211 88.09 c 
386.391 107.73 394.105 128.02 400.293 148.797 c 411.523 186 419.629 224.078
 424.52 262.629 c 430.535 298.09 432.574 334.117 430.602 370.031 c 457.031
 370.031 l 459.008 334.117 456.969 298.09 450.953 262.629 c h
450.953 262.629 m f
0.309804 0.752941 0.909804 rg
457.031 370.031 m 430.602 370.031 l 430.602 370.383 430.512 370.734 430.512
 371.086 c 430.34 372.938 430.164 374.785 429.898 376.551 c 429.633 378.312
 429.457 380.164 429.191 382.012 c 427.871 389.414 l 427.52 391.527 426.988
 393.73 426.547 395.758 c 419.863 429.227 399.223 458.262 369.809 475.582
 c 367.957 476.637 366.105 477.695 364.082 478.754 c 362.23 479.719 360.293
 480.691 358.266 481.66 c 356.945 482.277 355.539 482.895 354.125 483.512
 c 352.715 484.125 351.043 484.832 349.457 485.539 c 347.078 486.504 344.523
 487.477 341.965 488.355 c 341.613 488.445 341.352 488.621 341 488.707 c
 338.621 489.504 336.152 490.293 333.684 491.09 c 330.516 492.055 327.34
 492.938 323.992 493.73 c 321.438 494.434 318.707 495.051 315.977 495.582
 c 314.656 495.844 l 311.48 496.551 308.223 497.168 304.965 497.695 c 304.699
 497.695 l 301.262 498.312 297.824 498.84 294.215 499.281 c 290.602 499.723
 286.898 500.16 283.109 500.516 c 280.293 500.777 277.297 501.043 274.305
 501.219 c 273.926 501.297 273.539 501.328 273.156 501.309 c 273.156 502.188
 l 275.887 502.188 278.621 502.188 281.262 502.098 c 283.289 502.098 285.312
 502.012 287.34 501.922 c 288.398 501.922 l 298.004 501.398 l 298.887 501.398
 299.852 501.309 300.734 501.219 c 303.73 501.043 306.727 500.777 309.543
 500.516 c 313.332 500.16 317.035 499.723 320.645 499.281 c 324.258 498.84
 327.691 498.312 331.133 497.695 c 331.395 497.695 l 334.656 497.168 337.914
 496.551 341.086 495.844 c 342.406 495.582 l 345.141 494.965 347.781 494.348
 350.426 493.73 c 353.773 492.938 356.945 492.055 360.117 491.09 c 362.582
 490.293 365.051 489.504 367.43 488.707 c 367.781 488.621 368.047 488.445
 368.398 488.355 c 370.953 487.477 373.512 486.504 375.887 485.539 c 377.477
 484.832 379.059 484.215 380.559 483.512 c 382.055 482.805 383.379 482.277
 384.699 481.66 c 386.723 480.691 388.664 479.719 390.512 478.754 c 392.539
 477.695 394.391 476.637 396.238 475.582 c 425.656 458.262 446.293 429.227
 452.98 395.758 c 453.422 393.641 453.863 391.617 454.305 389.414 c 455.625
 382.012 l 455.887 380.164 456.066 378.402 456.328 376.551 c 456.594 374.699
 456.766 372.938 456.945 371.086 c 456.945 370.734 457.031 370.383 457.031
 370.031 c h
457.031 370.031 m f
0.4 0.831373 0.945098 rg
361.262 273.117 m 361.262 263.383 353.375 255.492 343.641 255.492 c 333.91
 255.492 326.02 263.383 326.02 273.117 c 326.02 282.848 333.91 290.734 343.641
 290.734 c 353.375 290.734 361.262 282.848 361.262 273.117 c h
361.262 273.117 m f
0.576471 0.462745 0.380392 rg
246.723 122.363 m 246.723 104.305 l 235.992 100.758 225.77 95.809 216.328
 89.59 c 214.91 88.598 213.215 88.07 211.484 88.09 c 207.621 88.121 204.223
 90.668 203.113 94.367 c 202 98.066 203.43 102.059 206.637 104.215 c 218.883
 112.477 232.434 118.613 246.723 122.363 c h
246.723 122.363 m f
0.529412 0.415686 0.341176 rg
273.156 117.078 m 273.156 96.902 l 270.82 96.93 268.586 97.84 266.898 99.461
 c 263.844 102.66 259.879 104.844 255.535 105.715 c 252.547 105.637 249.586
 105.16 246.723 104.305 c 246.723 122.363 l 249.621 122.984 252.57 123.309
 255.535 123.336 c 261.895 123.02 268.023 120.844 273.156 117.078 c h
273.156 117.078 m f
0.576471 0.462745 0.380392 rg
246.723 176.199 m 246.723 149.855 l 243.5 152.441 240.984 155.809 239.414
 159.637 c 228.102 162.891 220.305 173.234 220.293 185.008 c 220.293 189.875
 224.234 193.82 229.105 193.82 c 233.973 193.82 237.914 189.875 237.914 
185.008 c 237.914 182.672 238.84 180.434 240.492 178.777 c 242.148 177.125
 244.387 176.199 246.723 176.199 c h
246.723 176.199 m f
0.529412 0.415686 0.341176 rg
273.156 158.574 m 273.156 140.957 l 263.566 140.668 254.191 143.828 246.723
 149.855 c 246.723 176.199 l 251.59 176.199 255.535 172.254 255.535 167.387
 c 255.535 163.777 262.41 158.574 273.156 158.574 c h
273.156 158.574 m f
0.576471 0.462745 0.380392 rg
94.828 263.863 m 90.113 262.699 85.34 265.574 84.172 270.293 c 82.293 277.469
 79.848 284.48 76.855 291.266 c 83.676 292.324 90.66 291.379 96.945 288.531
 c 98.641 283.945 100.082 279.27 101.262 274.523 c 102.426 269.805 99.547
 265.035 94.828 263.863 c h
94.828 263.863 m f
114.566 185.008 m 114.566 158.574 l 108.605 158.469 102.664 159.273 96.945
 160.953 c 96.945 185.008 l 96.945 189.875 100.887 193.82 105.754 193.82
 c 110.625 193.82 114.566 189.875 114.566 185.008 c h
114.566 185.008 m f
0.662745 0.690196 0.733333 rg
317.207 158.574 m 308.398 158.574 l 303.531 158.574 299.586 162.52 299.586
 167.387 c 299.586 172.254 303.531 176.199 308.398 176.199 c 317.207 176.199
 l 322.074 176.199 326.02 172.254 326.02 167.387 c 326.02 162.52 322.074
 158.574 317.207 158.574 c h
317.207 158.574 m f
1 g
308.398 396.465 m 307.676 396.465 306.961 396.555 306.258 396.727 c 301.539
 397.906 298.668 402.688 299.844 407.402 c 304.852 427.395 l 306.898 435.598
 313.305 442 321.508 444.039 c 332.691 446.84 l 337.391 447.984 342.141 
445.117 343.316 440.422 c 344.492 435.723 341.656 430.961 336.973 429.746
 c 325.797 426.957 l 323.898 426.484 322.414 425 321.941 423.094 c 316.945
 403.121 l 315.961 399.203 312.438 396.461 308.398 396.465 c h
308.398 396.465 m f
385.617 396.465 m 370.07 396.465 l 365.207 396.465 361.262 400.406 361.262
 405.27 c 361.262 410.141 365.207 414.082 370.07 414.082 c 385.617 414.082
 l 388.953 414.07 392.008 415.961 393.492 418.957 c 397.43 426.832 l 399.605
 431.184 404.898 432.957 409.254 430.781 c 413.609 428.605 415.375 423.309
 413.199 418.957 c 409.254 411.023 l 404.785 402.07 395.625 396.426 385.617
 396.465 c h
385.617 396.465 m f
317.207 458.137 m 308.398 458.137 l 303.531 458.137 299.586 462.078 299.586
 466.945 c 299.586 471.812 303.531 475.754 308.398 475.754 c 317.207 475.754
 l 322.074 475.754 326.02 471.812 326.02 466.945 c 326.02 462.078 322.074
 458.137 317.207 458.137 c h
317.207 458.137 m f
378.883 440.516 m 370.07 440.516 l 365.207 440.516 361.262 444.461 361.262
 449.328 c 361.262 454.191 365.207 458.137 370.07 458.137 c 378.883 458.137
 l 383.75 458.137 387.695 454.191 387.695 449.328 c 387.695 444.461 383.75
 440.516 378.883 440.516 c h
378.883 440.516 m f
Q Q
showpage
%%Trailer
end restore
%%EOF
