%!PS-Adobe-3.0 EPSF-3.0
%%Creator: cairo 1.14.6 (http://cairographics.org)
%%CreationDate: Wed Apr  3 07:48:59 2019
%%Pages: 1
%%DocumentData: Clean7Bit
%%LanguageLevel: 2
%%BoundingBox: 26 0 486 512
%%EndComments
%%BeginProlog
save
50 dict begin
/q { gsave } bind def
/Q { grestore } bind def
/cm { 6 array astore concat } bind def
/w { setlinewidth } bind def
/J { setlinecap } bind def
/j { setlinejoin } bind def
/M { setmiterlimit } bind def
/d { setdash } bind def
/m { moveto } bind def
/l { lineto } bind def
/c { curveto } bind def
/h { closepath } bind def
/re { exch dup neg 3 1 roll 5 3 roll moveto 0 rlineto
      0 exch rlineto 0 rlineto closepath } bind def
/S { stroke } bind def
/f { fill } bind def
/f* { eofill } bind def
/n { newpath } bind def
/W { clip } bind def
/W* { eoclip } bind def
/BT { } bind def
/ET { } bind def
/pdfmark where { pop globaldict /?pdfmark /exec load put }
    { globaldict begin /?pdfmark /pop load def /pdfmark
    /cleartomark load def end } ifelse
/BDC { mark 3 1 roll /BDC pdfmark } bind def
/EMC { mark /EMC pdfmark } bind def
/cairo_store_point { /cairo_point_y exch def /cairo_point_x exch def } def
/Tj { show currentpoint cairo_store_point } bind def
/TJ {
  {
    dup
    type /stringtype eq
    { show } { -0.001 mul 0 cairo_font_matrix dtransform rmoveto } ifelse
  } forall
  currentpoint cairo_store_point
} bind def
/cairo_selectfont { cairo_font_matrix aload pop pop pop 0 0 6 array astore
    cairo_font exch selectfont cairo_point_x cairo_point_y moveto } bind def
/Tf { pop /cairo_font exch def /cairo_font_matrix where
      { pop cairo_selectfont } if } bind def
/Td { matrix translate cairo_font_matrix matrix concatmatrix dup
      /cairo_font_matrix exch def dup 4 get exch 5 get cairo_store_point
      /cairo_font where { pop cairo_selectfont } if } bind def
/Tm { 2 copy 8 2 roll 6 array astore /cairo_font_matrix exch def
      cairo_store_point /cairo_font where { pop cairo_selectfont } if } bind def
/g { setgray } bind def
/rg { setrgbcolor } bind def
/d1 { setcachedevice } bind def
%%EndProlog
%%BeginSetup
%%EndSetup
%%Page: 1 1
%%BeginPageSetup
%%PageBoundingBox: 26 0 486 512
%%EndPageSetup
q 26 0 460 512 rectclip q
0.85098 0.266667 0.321569 rg
26 459.035 m 26.043 488.27 49.73 511.957 78.965 512 c 432.07 512 l 441.809
 511.973 449.695 504.082 449.723 494.344 c 449.723 397.242 l 26 344.277 
l h
26 459.035 m f
0.956863 0.964706 0.972549 rg
414.414 467.863 m 414.414 406.07 l 78.965 406.07 l 72.945 406.055 66.969
 407.098 61.309 409.16 c 61.309 459.035 l 61.34 468.773 69.227 476.66 78.965
 476.691 c 405.586 476.691 l 410.461 476.691 414.414 472.738 414.414 467.863
 c h
414.414 467.863 m f
0.921569 0.329412 0.388235 rg
485.035 388.414 m 485.035 17.656 l 485.004 7.918 477.117 0.027 467.379 
0 c 78.965 0 l 49.715 0 26 23.715 26 52.965 c 26 459.035 l 25.977 436.594
 40.137 416.59 61.309 409.16 c 449.723 406.07 l 467.379 406.07 l 477.117
 406.039 485.004 398.152 485.035 388.414 c h
485.035 388.414 m f
0.619608 0.823529 0.415686 rg
352.621 273.656 m 352.621 132.414 l 352.625 129.465 352.117 126.539 351.121
 123.762 c 348.539 116.059 342.492 110.016 334.789 107.434 c 332.016 106.434
 329.086 105.926 326.137 105.93 c 184.898 105.93 l 181.949 105.926 179.02
 106.434 176.246 107.434 c 168.543 110.016 162.496 116.059 159.914 123.762
 c 158.918 126.539 158.41 129.465 158.414 132.414 c 158.414 273.656 l 158.41
 276.605 158.918 279.531 159.914 282.305 c 162.496 290.008 168.543 296.055
 176.246 298.637 c 179.02 299.637 181.949 300.145 184.898 300.137 c 326.137
 300.137 l 329.086 300.145 332.016 299.637 334.789 298.637 c 342.492 296.055
 348.539 290.008 351.121 282.305 c 352.117 279.531 352.625 276.605 352.621
 273.656 c h
352.621 273.656 m f
0.537255 0.752941 0.32549 rg
220.207 256 m 290.828 256 l 300.578 256 308.484 248.094 308.484 238.344
 c 308.484 167.723 l 308.484 157.973 300.578 150.07 290.828 150.07 c 220.207
 150.07 l 210.457 150.07 202.551 157.973 202.551 167.723 c 202.551 238.344
 l 202.551 248.094 210.457 256 220.207 256 c h
220.207 256 m f
352.621 273.656 m 352.621 132.414 l 352.625 129.465 352.117 126.539 351.121
 123.762 c 348.539 116.059 342.492 110.016 334.789 107.434 c 332.016 106.434
 329.086 105.926 326.137 105.93 c 308.484 105.93 l 311.434 105.926 314.359
 106.434 317.133 107.434 c 324.836 110.016 330.883 116.059 333.465 123.762
 c 334.461 126.539 334.969 129.465 334.965 132.414 c 334.965 273.656 l 334.969
 276.605 334.461 279.531 333.465 282.305 c 330.883 290.008 324.836 296.055
 317.133 298.637 c 314.359 299.637 311.434 300.145 308.484 300.137 c 326.137
 300.137 l 329.086 300.145 332.016 299.637 334.789 298.637 c 342.492 296.055
 348.539 290.008 351.121 282.305 c 352.117 279.531 352.625 276.605 352.621
 273.656 c h
352.621 273.656 m f
0.8 0.227451 0.294118 rg
449.723 494.344 m 449.723 406.07 l 432.07 406.246 l 432.07 494.344 l 432.039
 504.082 424.152 511.973 414.414 512 c 432.07 512 l 441.809 511.973 449.695
 504.082 449.723 494.344 c h
449.723 494.344 m f
0.85098 0.266667 0.321569 rg
485.035 388.414 m 485.035 17.656 l 485.004 7.918 477.117 0.027 467.379 
0 c 449.723 0 l 459.461 0.027 467.352 7.918 467.379 17.656 c 467.379 388.414
 l 467.352 398.152 459.461 406.039 449.723 406.07 c 467.379 406.07 l 477.117
 406.039 485.004 398.152 485.035 388.414 c h
485.035 388.414 m f
0.388235 0.423529 0.466667 rg
370.277 432.551 m 105.449 432.551 l 100.574 432.551 96.621 436.504 96.621
 441.379 c 96.621 446.254 100.574 450.207 105.449 450.207 c 370.277 450.207
 l 375.152 450.207 379.102 446.254 379.102 441.379 c 379.102 436.504 375.152
 432.551 370.277 432.551 c h
370.277 432.551 m f
1 0.839216 0.482353 rg
264.344 335.449 m 264.344 300.137 l 246.691 300.137 l 246.691 335.449 l
 246.691 340.324 250.641 344.277 255.516 344.277 c 260.395 344.277 264.344
 340.324 264.344 335.449 c h
264.344 335.449 m f
334.965 335.449 m 334.965 300.137 l 334.957 299.633 334.895 299.129 334.789
 298.637 c 332.016 299.637 329.086 300.145 326.137 300.137 c 317.309 300.137
 l 317.309 335.449 l 317.309 340.324 321.262 344.277 326.137 344.277 c 331.012
 344.277 334.965 340.324 334.965 335.449 c h
334.965 335.449 m f
299.656 335.449 m 299.656 300.137 l 282 300.137 l 282 335.449 l 282 340.324
 285.953 344.277 290.828 344.277 c 295.703 344.277 299.656 340.324 299.656
 335.449 c h
299.656 335.449 m f
193.723 335.449 m 193.723 300.137 l 184.898 300.137 l 181.949 300.145 179.02
 299.637 176.246 298.637 c 176.137 299.129 176.078 299.633 176.07 300.137
 c 176.07 335.449 l 176.07 340.324 180.02 344.277 184.898 344.277 c 189.773
 344.277 193.723 340.324 193.723 335.449 c h
193.723 335.449 m f
229.035 335.449 m 229.035 300.137 l 211.379 300.137 l 211.379 335.449 l
 211.379 340.324 215.332 344.277 220.207 344.277 c 225.082 344.277 229.035
 340.324 229.035 335.449 c h
229.035 335.449 m f
184.898 105.93 m 193.723 105.93 l 193.723 70.621 l 193.723 65.746 189.773
 61.793 184.898 61.793 c 180.02 61.793 176.07 65.746 176.07 70.621 c 176.07
 105.93 l 176.078 106.438 176.137 106.938 176.246 107.434 c 179.02 106.434
 181.949 105.926 184.898 105.93 c h
184.898 105.93 m f
211.379 105.93 m 229.035 105.93 l 229.035 70.621 l 229.035 65.746 225.082
 61.793 220.207 61.793 c 215.332 61.793 211.379 65.746 211.379 70.621 c 
h
211.379 105.93 m f
246.691 105.93 m 264.344 105.93 l 264.344 70.621 l 264.344 65.746 260.395
 61.793 255.516 61.793 c 250.641 61.793 246.691 65.746 246.691 70.621 c 
h
246.691 105.93 m f
282 105.93 m 299.656 105.93 l 299.656 70.621 l 299.656 65.746 295.703 61.793
 290.828 61.793 c 285.953 61.793 282 65.746 282 70.621 c h
282 105.93 m f
334.965 105.93 m 334.965 70.621 l 334.965 65.746 331.012 61.793 326.137
 61.793 c 321.262 61.793 317.309 65.746 317.309 70.621 c 317.309 105.93 
l 326.137 105.93 l 329.086 105.926 332.016 106.434 334.789 107.434 c 334.895
 106.938 334.957 106.438 334.965 105.93 c h
334.965 105.93 m f
114.277 238.344 m 114.277 243.219 118.227 247.172 123.102 247.172 c 158.414
 247.172 l 158.414 229.516 l 123.102 229.516 l 118.227 229.516 114.277 233.469
 114.277 238.344 c h
114.277 238.344 m f
114.277 167.723 m 114.277 172.598 118.227 176.551 123.102 176.551 c 158.414
 176.551 l 158.414 158.898 l 123.102 158.898 l 118.227 158.898 114.277 162.848
 114.277 167.723 c h
114.277 167.723 m f
158.414 132.414 m 158.41 129.465 158.918 126.539 159.914 123.762 c 159.422
 123.656 158.918 123.598 158.414 123.586 c 123.102 123.586 l 118.227 123.586
 114.277 127.539 114.277 132.414 c 114.277 137.289 118.227 141.242 123.102
 141.242 c 158.414 141.242 l h
158.414 132.414 m f
114.277 203.035 m 114.277 207.91 118.227 211.863 123.102 211.863 c 158.414
 211.863 l 158.414 194.207 l 123.102 194.207 l 118.227 194.207 114.277 198.16
 114.277 203.035 c h
114.277 203.035 m f
114.277 273.656 m 114.277 278.531 118.227 282.484 123.102 282.484 c 158.414
 282.484 l 158.918 282.473 159.422 282.414 159.914 282.305 c 158.918 279.531
 158.41 276.605 158.414 273.656 c 158.414 264.828 l 123.102 264.828 l 118.227
 264.828 114.277 268.781 114.277 273.656 c h
114.277 273.656 m f
396.758 132.414 m 396.758 127.539 392.805 123.586 387.93 123.586 c 352.621
 123.586 l 352.117 123.598 351.613 123.656 351.121 123.762 c 352.117 126.539
 352.625 129.465 352.621 132.414 c 352.621 141.242 l 387.93 141.242 l 392.805
 141.242 396.758 137.289 396.758 132.414 c h
396.758 132.414 m f
352.621 273.656 m 352.625 276.605 352.117 279.531 351.121 282.305 c 351.613
 282.414 352.117 282.473 352.621 282.484 c 387.93 282.484 l 392.805 282.484
 396.758 278.531 396.758 273.656 c 396.758 268.781 392.805 264.828 387.93
 264.828 c 352.621 264.828 l h
352.621 273.656 m f
396.758 238.344 m 396.758 233.469 392.805 229.516 387.93 229.516 c 352.621
 229.516 l 352.621 247.172 l 387.93 247.172 l 392.805 247.172 396.758 243.219
 396.758 238.344 c h
396.758 238.344 m f
396.758 167.723 m 396.758 162.848 392.805 158.898 387.93 158.898 c 352.621
 158.898 l 352.621 176.551 l 387.93 176.551 l 392.805 176.551 396.758 172.598
 396.758 167.723 c h
396.758 167.723 m f
396.758 203.035 m 396.758 198.16 392.805 194.207 387.93 194.207 c 352.621
 194.207 l 352.621 211.863 l 387.93 211.863 l 392.805 211.863 396.758 207.91
 396.758 203.035 c h
396.758 203.035 m f
Q Q
showpage
%%Trailer
end restore
%%EOF
