%!PS-Adobe-3.0 EPSF-3.0
%%Creator: cairo 1.14.6 (http://cairographics.org)
%%CreationDate: Wed Apr  3 07:49:01 2019
%%Pages: 1
%%DocumentData: Clean7Bit
%%LanguageLevel: 2
%%BoundingBox: 4 0 508 512
%%EndComments
%%BeginProlog
save
50 dict begin
/q { gsave } bind def
/Q { grestore } bind def
/cm { 6 array astore concat } bind def
/w { setlinewidth } bind def
/J { setlinecap } bind def
/j { setlinejoin } bind def
/M { setmiterlimit } bind def
/d { setdash } bind def
/m { moveto } bind def
/l { lineto } bind def
/c { curveto } bind def
/h { closepath } bind def
/re { exch dup neg 3 1 roll 5 3 roll moveto 0 rlineto
      0 exch rlineto 0 rlineto closepath } bind def
/S { stroke } bind def
/f { fill } bind def
/f* { eofill } bind def
/n { newpath } bind def
/W { clip } bind def
/W* { eoclip } bind def
/BT { } bind def
/ET { } bind def
/pdfmark where { pop globaldict /?pdfmark /exec load put }
    { globaldict begin /?pdfmark /pop load def /pdfmark
    /cleartomark load def end } ifelse
/BDC { mark 3 1 roll /BDC pdfmark } bind def
/EMC { mark /EMC pdfmark } bind def
/cairo_store_point { /cairo_point_y exch def /cairo_point_x exch def } def
/Tj { show currentpoint cairo_store_point } bind def
/TJ {
  {
    dup
    type /stringtype eq
    { show } { -0.001 mul 0 cairo_font_matrix dtransform rmoveto } ifelse
  } forall
  currentpoint cairo_store_point
} bind def
/cairo_selectfont { cairo_font_matrix aload pop pop pop 0 0 6 array astore
    cairo_font exch selectfont cairo_point_x cairo_point_y moveto } bind def
/Tf { pop /cairo_font exch def /cairo_font_matrix where
      { pop cairo_selectfont } if } bind def
/Td { matrix translate cairo_font_matrix matrix concatmatrix dup
      /cairo_font_matrix exch def dup 4 get exch 5 get cairo_store_point
      /cairo_font where { pop cairo_selectfont } if } bind def
/Tm { 2 copy 8 2 roll 6 array astore /cairo_font_matrix exch def
      cairo_store_point /cairo_font where { pop cairo_selectfont } if } bind def
/g { setgray } bind def
/rg { setrgbcolor } bind def
/d1 { setcachedevice } bind def
%%EndProlog
%%BeginSetup
%%EndSetup
%%Page: 1 1
%%BeginPageSetup
%%PageBoundingBox: 4 0 508 512
%%EndPageSetup
q 4 0 504 512 rectclip q
0.368627 0.611765 0.917647 rg
57.125 235.703 m 206.812 123.238 l 215.723 116.723 220.98 106.34 220.957
 95.301 c 220.957 8.695 l 220.953 5.535 222.66 2.625 225.422 1.09 c 228.184
 -0.441 231.559 -0.355 234.234 1.316 c 282.223 31.344 l 287.281 34.547 290.355
 40.109 290.383 46.094 c 290.383 95.301 l 290.359 106.34 295.617 116.723
 304.527 123.238 c 454.215 235.703 l h
57.125 235.703 m f
0.290196 0.533333 0.854902 rg
507.324 321.094 m 507.324 251.668 l 507.324 237.289 394.652 225.637 255.668
 225.637 c 116.688 225.637 4.016 237.289 4.016 251.668 c 4.016 321.094 l
 h
507.324 321.094 m f
0.368627 0.611765 0.917647 rg
507.324 321.094 m 507.324 310.852 450.828 302.086 368.48 297.836 c 362.84
 297.574 357.023 297.227 351.125 297.055 c 321.707 295.754 289.516 295.059
 255.668 295.059 c 215.145 295.059 176.789 296.102 142.859 297.836 c 60.512
 302.086 4.016 310.852 4.016 321.094 c 4.016 331.332 60.512 340.094 142.859
 344.344 c 368.48 344.344 l 450.828 340.094 507.324 331.332 507.324 321.094
 c h
507.324 321.094 m f
0.792157 0.815686 0.843137 rg
368.48 485.965 m 368.48 297.836 l 362.84 297.574 357.023 297.227 351.125
 297.055 c 321.707 295.754 289.516 295.059 255.668 295.059 c 215.145 295.059
 176.789 296.102 142.859 297.836 c 142.859 485.965 l 142.836 489.684 144.027
 493.309 146.246 496.293 c 149.531 500.707 154.711 503.312 160.215 503.32
 c 351.125 503.32 l 360.695 503.293 368.449 495.539 368.48 485.965 c h
368.48 485.965 m f
0.662745 0.690196 0.733333 rg
142.859 433.902 225.621 -69.426 re f
0.537255 0.752941 0.32549 rg
186.25 459.934 m 177.57 459.934 l 172.777 459.934 168.895 463.816 168.895
 468.609 c 168.895 473.402 172.777 477.289 177.57 477.289 c 186.25 477.289
 l 191.043 477.289 194.93 473.402 194.93 468.609 c 194.93 463.816 191.043
 459.934 186.25 459.934 c h
186.25 459.934 m f
0.309804 0.752941 0.909804 rg
229.637 459.934 m 220.957 459.934 l 216.164 459.934 212.281 463.816 212.281
 468.609 c 212.281 473.402 216.164 477.289 220.957 477.289 c 229.637 477.289
 l 234.43 477.289 238.312 473.402 238.312 468.609 c 238.312 463.816 234.43
 459.934 229.637 459.934 c h
229.637 459.934 m f
0.705882 0.87451 0.501961 rg
186.25 390.512 m 177.57 390.512 l 172.777 390.512 168.895 394.398 168.895
 399.191 c 168.895 403.984 172.777 407.867 177.57 407.867 c 186.25 407.867
 l 191.043 407.867 194.93 403.984 194.93 399.191 c 194.93 394.398 191.043
 390.512 186.25 390.512 c h
186.25 390.512 m f
0.4 0.831373 0.945098 rg
229.637 390.512 m 220.957 390.512 l 216.164 390.512 212.281 394.398 212.281
 399.191 c 212.281 403.984 216.164 407.867 220.957 407.867 c 229.637 407.867
 l 234.43 407.867 238.312 403.984 238.312 399.191 c 238.312 394.398 234.43
 390.512 229.637 390.512 c h
229.637 390.512 m f
0.537255 0.752941 0.32549 rg
186.25 321.094 m 177.57 321.094 l 172.777 321.094 168.895 324.977 168.895
 329.77 c 168.895 334.562 172.777 338.449 177.57 338.449 c 186.25 338.449
 l 191.043 338.449 194.93 334.562 194.93 329.77 c 194.93 324.977 191.043
 321.094 186.25 321.094 c h
186.25 321.094 m f
0.309804 0.752941 0.909804 rg
229.637 321.094 m 220.957 321.094 l 216.164 321.094 212.281 324.977 212.281
 329.77 c 212.281 334.562 216.164 338.449 220.957 338.449 c 229.637 338.449
 l 234.43 338.449 238.312 334.562 238.312 329.77 c 238.312 324.977 234.43
 321.094 229.637 321.094 c h
229.637 321.094 m f
0.662745 0.690196 0.733333 rg
333.766 459.934 m 307.738 459.934 l 302.945 459.934 299.059 463.816 299.059
 468.609 c 299.059 473.402 302.945 477.289 307.738 477.289 c 333.766 477.289
 l 338.559 477.289 342.445 473.402 342.445 468.609 c 342.445 463.816 338.559
 459.934 333.766 459.934 c h
333.766 459.934 m f
0.388235 0.423529 0.466667 rg
333.766 390.512 m 307.738 390.512 l 302.945 390.512 299.059 394.398 299.059
 399.191 c 299.059 403.984 302.945 407.867 307.738 407.867 c 333.766 407.867
 l 338.559 407.867 342.445 403.984 342.445 399.191 c 342.445 394.398 338.559
 390.512 333.766 390.512 c h
333.766 390.512 m f
0.662745 0.690196 0.733333 rg
333.766 321.094 m 307.738 321.094 l 302.945 321.094 299.059 324.977 299.059
 329.77 c 299.059 334.562 302.945 338.449 307.738 338.449 c 333.766 338.449
 l 338.559 338.449 342.445 334.562 342.445 329.77 c 342.445 324.977 338.559
 321.094 333.766 321.094 c h
333.766 321.094 m f
368.48 485.965 m 368.48 433.902 l 351.125 433.902 l 351.125 485.965 l 351.094
 495.539 343.34 503.293 333.766 503.32 c 351.125 503.32 l 360.695 503.293
 368.449 495.539 368.48 485.965 c h
368.48 485.965 m f
368.48 364.477 m 368.48 297.836 l 362.84 297.574 357.023 297.227 351.125
 297.055 c 351.125 364.477 l h
368.48 364.477 m f
0.592157 0.623529 0.666667 rg
351.125 433.902 17.355 -69.426 re f
0.368627 0.611765 0.917647 rg
93.336 422.68 m 82.117 411.461 l 82.117 503.32 l 82.117 508.113 78.234 
512 73.441 512 c 68.648 512 64.762 508.113 64.762 503.32 c 64.762 411.461
 l 53.543 422.68 l 50.137 425.969 44.723 425.922 41.375 422.574 c 38.031
 419.227 37.98 413.816 41.27 410.41 c 67.305 384.379 l 68.934 382.746 71.145
 381.828 73.449 381.828 c 75.754 381.828 77.965 382.746 79.594 384.379 c
 105.621 410.41 l 108.91 413.816 108.863 419.227 105.516 422.574 c 102.168
 425.922 96.758 425.969 93.352 422.68 c h
93.336 422.68 m f
470.07 422.68 m 466.68 426.07 461.188 426.07 457.797 422.68 c 446.578 411.461
 l 446.578 503.32 l 446.578 508.113 442.691 512 437.898 512 c 433.105 512
 429.223 508.113 429.223 503.32 c 429.223 411.461 l 418.004 422.68 l 414.598
 425.969 409.188 425.922 405.84 422.574 c 402.492 419.227 402.445 413.816
 405.734 410.41 c 431.766 384.379 l 433.391 382.746 435.602 381.828 437.906
 381.828 c 440.215 381.828 442.422 382.746 444.051 384.379 c 470.086 410.41
 l 473.469 413.805 473.461 419.297 470.07 422.68 c h
470.07 422.68 m f
Q Q
showpage
%%Trailer
end restore
%%EOF
