%!PS-Adobe-3.0 EPSF-3.0
%%Creator: cairo 1.14.6 (http://cairographics.org)
%%CreationDate: Wed Apr  3 07:49:03 2019
%%Pages: 1
%%DocumentData: Clean7Bit
%%LanguageLevel: 2
%%BoundingBox: 0 0 512 512
%%EndComments
%%BeginProlog
save
50 dict begin
/q { gsave } bind def
/Q { grestore } bind def
/cm { 6 array astore concat } bind def
/w { setlinewidth } bind def
/J { setlinecap } bind def
/j { setlinejoin } bind def
/M { setmiterlimit } bind def
/d { setdash } bind def
/m { moveto } bind def
/l { lineto } bind def
/c { curveto } bind def
/h { closepath } bind def
/re { exch dup neg 3 1 roll 5 3 roll moveto 0 rlineto
      0 exch rlineto 0 rlineto closepath } bind def
/S { stroke } bind def
/f { fill } bind def
/f* { eofill } bind def
/n { newpath } bind def
/W { clip } bind def
/W* { eoclip } bind def
/BT { } bind def
/ET { } bind def
/pdfmark where { pop globaldict /?pdfmark /exec load put }
    { globaldict begin /?pdfmark /pop load def /pdfmark
    /cleartomark load def end } ifelse
/BDC { mark 3 1 roll /BDC pdfmark } bind def
/EMC { mark /EMC pdfmark } bind def
/cairo_store_point { /cairo_point_y exch def /cairo_point_x exch def } def
/Tj { show currentpoint cairo_store_point } bind def
/TJ {
  {
    dup
    type /stringtype eq
    { show } { -0.001 mul 0 cairo_font_matrix dtransform rmoveto } ifelse
  } forall
  currentpoint cairo_store_point
} bind def
/cairo_selectfont { cairo_font_matrix aload pop pop pop 0 0 6 array astore
    cairo_font exch selectfont cairo_point_x cairo_point_y moveto } bind def
/Tf { pop /cairo_font exch def /cairo_font_matrix where
      { pop cairo_selectfont } if } bind def
/Td { matrix translate cairo_font_matrix matrix concatmatrix dup
      /cairo_font_matrix exch def dup 4 get exch 5 get cairo_store_point
      /cairo_font where { pop cairo_selectfont } if } bind def
/Tm { 2 copy 8 2 roll 6 array astore /cairo_font_matrix exch def
      cairo_store_point /cairo_font where { pop cairo_selectfont } if } bind def
/g { setgray } bind def
/rg { setrgbcolor } bind def
/d1 { setcachedevice } bind def
%%EndProlog
%%BeginSetup
%%EndSetup
%%Page: 1 1
%%BeginPageSetup
%%PageBoundingBox: 0 0 512 512
%%EndPageSetup
q 0 0 512 512 rectclip q
0.894118 0.909804 0.921569 rg
88.277 335.449 m 88.277 26.484 l 88.277 11.855 100.133 0 114.758 0 c 397.242
 0 l 411.867 0 423.723 11.855 423.723 26.484 c 423.723 423.723 l 335.449
 512 l 114.758 512 l 100.133 512 88.277 500.145 88.277 485.516 c h
88.277 335.449 m f
0.792157 0.815686 0.843137 rg
335.449 450.207 m 335.449 512 l 423.723 423.723 l 361.93 423.723 l 347.305
 423.723 335.449 435.582 335.449 450.207 c h
335.449 450.207 m f
0.619608 0.823529 0.415686 rg
185.379 450.207 m 185.379 344.277 l 185.379 339.402 181.426 335.449 176.551
 335.449 c 163.309 335.449 l 160.871 335.449 158.898 333.473 158.898 331.035
 c 158.898 300.137 l 158.895 296.715 156.914 293.598 153.812 292.148 c 150.711
 290.695 147.051 291.168 144.418 293.359 c 108.387 333.398 l 106.801 334.723
 104.801 335.449 102.734 335.449 c 8.828 335.449 l 3.953 335.449 0 339.402
 0 344.277 c 0 450.207 l 0 455.082 3.953 459.035 8.828 459.035 c 176.551
 459.035 l 181.426 459.035 185.379 455.082 185.379 450.207 c h
185.379 450.207 m f
512 211.863 m 512 105.93 l 512 101.055 508.047 97.102 503.172 97.102 c 
409.246 97.102 l 407.184 97.109 405.184 96.391 403.598 95.074 c 397.242 
88.012 l 367.582 54.996 l 364.945 52.801 361.281 52.332 358.18 53.789 c 
355.078 55.246 353.098 58.367 353.102 61.793 c 353.102 92.691 l 353.102 
95.129 351.129 97.102 348.691 97.102 c 335.449 97.102 l 330.574 97.102 326.621
 101.055 326.621 105.93 c 326.621 211.863 l 326.621 216.738 330.574 220.691
 335.449 220.691 c 503.172 220.691 l 508.047 220.691 512 216.738 512 211.863
 c h
512 211.863 m f
0.792157 0.815686 0.843137 rg
335.449 512 m 335.449 485.516 l 308.965 512 l h
335.449 512 m f
397.242 423.723 26.48 -203.031 re f
423.723 97.102 m 423.723 26.484 l 423.723 11.855 411.867 0 397.242 0 c 
370.758 0 l 385.383 0 397.242 11.855 397.242 26.484 c 397.242 88.012 l 403.598
 95.074 l 405.184 96.391 407.184 97.109 409.246 97.102 c h
423.723 97.102 m f
0.662745 0.690196 0.733333 rg
423.723 423.723 m 397.242 423.723 l 335.449 485.516 l 335.449 512 l h
423.723 423.723 m f
0.537255 0.752941 0.32549 rg
185.379 450.207 m 185.379 344.277 l 185.379 339.402 181.426 335.449 176.551
 335.449 c 163.309 335.449 l 160.871 335.449 158.898 333.473 158.898 331.035
 c 158.898 300.137 l 158.902 296.711 156.922 293.59 153.82 292.133 c 150.719
 290.676 147.055 291.148 144.418 293.34 c 140.801 297.402 l 141.082 298.285
 141.23 299.207 141.242 300.137 c 141.242 331.035 l 141.242 333.473 143.219
 335.449 145.656 335.449 c 158.898 335.449 l 163.773 335.449 167.723 339.402
 167.723 344.277 c 167.723 450.207 l 167.723 455.082 163.773 459.035 158.898
 459.035 c 176.551 459.035 l 181.426 459.035 185.379 455.082 185.379 450.207
 c h
185.379 450.207 m f
391.59 97.102 m 409.246 97.102 l 407.184 97.109 405.184 96.391 403.598 
95.074 c 397.242 88.012 l 367.582 54.996 l 365.328 53.125 362.297 52.492
 359.488 53.305 c 356.676 54.121 354.449 56.273 353.543 59.055 c 379.586
 88.012 l 385.941 95.074 l 387.531 96.391 389.527 97.109 391.59 97.102 c
 h
391.59 97.102 m f
512 211.863 m 512 105.93 l 512 101.055 508.047 97.102 503.172 97.102 c 
485.516 97.102 l 490.395 97.102 494.344 101.055 494.344 105.93 c 494.344
 211.863 l 494.344 216.738 490.395 220.691 485.516 220.691 c 503.172 220.691
 l 508.047 220.691 512 216.738 512 211.863 c h
512 211.863 m f
0.662745 0.690196 0.733333 rg
150.07 247.172 m 141.242 247.172 l 136.367 247.172 132.414 251.125 132.414
 256 c 132.414 260.875 136.367 264.828 141.242 264.828 c 150.07 264.828 
l 154.945 264.828 158.898 260.875 158.898 256 c 158.898 251.125 154.945 
247.172 150.07 247.172 c h
150.07 247.172 m f
150.07 211.863 m 141.242 211.863 l 136.367 211.863 132.414 215.812 132.414
 220.691 c 132.414 225.566 136.367 229.516 141.242 229.516 c 150.07 229.516
 l 154.945 229.516 158.898 225.566 158.898 220.691 c 158.898 215.812 154.945
 211.863 150.07 211.863 c h
150.07 211.863 m f
300.137 423.723 m 220.691 423.723 l 215.812 423.723 211.863 427.676 211.863
 432.551 c 211.863 437.426 215.812 441.379 220.691 441.379 c 300.137 441.379
 l 305.012 441.379 308.965 437.426 308.965 432.551 c 308.965 427.676 305.012
 423.723 300.137 423.723 c h
300.137 423.723 m f
317.793 388.414 m 220.691 388.414 l 215.812 388.414 211.863 392.367 211.863
 397.242 c 211.863 402.117 215.812 406.07 220.691 406.07 c 317.793 406.07
 l 322.668 406.07 326.621 402.117 326.621 397.242 c 326.621 392.367 322.668
 388.414 317.793 388.414 c h
317.793 388.414 m f
361.93 353.102 m 220.691 353.102 l 215.812 353.102 211.863 357.055 211.863
 361.93 c 211.863 366.805 215.812 370.758 220.691 370.758 c 361.93 370.758
 l 366.805 370.758 370.758 366.805 370.758 361.93 c 370.758 357.055 366.805
 353.102 361.93 353.102 c h
361.93 353.102 m f
361.93 317.793 m 220.691 317.793 l 215.812 317.793 211.863 321.746 211.863
 326.621 c 211.863 331.496 215.812 335.449 220.691 335.449 c 361.93 335.449
 l 366.805 335.449 370.758 331.496 370.758 326.621 c 370.758 321.746 366.805
 317.793 361.93 317.793 c h
361.93 317.793 m f
361.93 282.484 m 194.207 282.484 l 189.332 282.484 185.379 286.434 185.379
 291.309 c 185.379 296.188 189.332 300.137 194.207 300.137 c 361.93 300.137
 l 366.805 300.137 370.758 296.188 370.758 291.309 c 370.758 286.434 366.805
 282.484 361.93 282.484 c h
361.93 282.484 m f
361.93 247.172 m 185.379 247.172 l 180.504 247.172 176.551 251.125 176.551
 256 c 176.551 260.875 180.504 264.828 185.379 264.828 c 361.93 264.828 
l 366.805 264.828 370.758 260.875 370.758 256 c 370.758 251.125 366.805 
247.172 361.93 247.172 c h
361.93 247.172 m f
282.484 211.863 m 185.379 211.863 l 180.504 211.863 176.551 215.812 176.551
 220.691 c 176.551 225.566 180.504 229.516 185.379 229.516 c 282.484 229.516
 l 287.359 229.516 291.309 225.566 291.309 220.691 c 291.309 215.812 287.359
 211.863 282.484 211.863 c h
282.484 211.863 m f
150.07 176.551 m 141.242 176.551 l 136.367 176.551 132.414 180.504 132.414
 185.379 c 132.414 190.254 136.367 194.207 141.242 194.207 c 150.07 194.207
 l 154.945 194.207 158.898 190.254 158.898 185.379 c 158.898 180.504 154.945
 176.551 150.07 176.551 c h
150.07 176.551 m f
282.484 176.551 m 185.379 176.551 l 180.504 176.551 176.551 180.504 176.551
 185.379 c 176.551 190.254 180.504 194.207 185.379 194.207 c 282.484 194.207
 l 287.359 194.207 291.309 190.254 291.309 185.379 c 291.309 180.504 287.359
 176.551 282.484 176.551 c h
282.484 176.551 m f
150.07 141.242 m 141.242 141.242 l 136.367 141.242 132.414 145.195 132.414
 150.07 c 132.414 154.945 136.367 158.898 141.242 158.898 c 150.07 158.898
 l 154.945 158.898 158.898 154.945 158.898 150.07 c 158.898 145.195 154.945
 141.242 150.07 141.242 c h
150.07 141.242 m f
282.484 141.242 m 185.379 141.242 l 180.504 141.242 176.551 145.195 176.551
 150.07 c 176.551 154.945 180.504 158.898 185.379 158.898 c 282.484 158.898
 l 287.359 158.898 291.309 154.945 291.309 150.07 c 291.309 145.195 287.359
 141.242 282.484 141.242 c h
282.484 141.242 m f
150.07 105.93 m 141.242 105.93 l 136.367 105.93 132.414 109.883 132.414
 114.758 c 132.414 119.633 136.367 123.586 141.242 123.586 c 150.07 123.586
 l 154.945 123.586 158.898 119.633 158.898 114.758 c 158.898 109.883 154.945
 105.93 150.07 105.93 c h
150.07 105.93 m f
282.484 105.93 m 185.379 105.93 l 180.504 105.93 176.551 109.883 176.551
 114.758 c 176.551 119.633 180.504 123.586 185.379 123.586 c 282.484 123.586
 l 287.359 123.586 291.309 119.633 291.309 114.758 c 291.309 109.883 287.359
 105.93 282.484 105.93 c h
282.484 105.93 m f
150.07 70.621 m 141.242 70.621 l 136.367 70.621 132.414 74.574 132.414 
79.449 c 132.414 84.324 136.367 88.277 141.242 88.277 c 150.07 88.277 l 
154.945 88.277 158.898 84.324 158.898 79.449 c 158.898 74.574 154.945 70.621
 150.07 70.621 c h
150.07 70.621 m f
291.309 70.621 m 185.379 70.621 l 180.504 70.621 176.551 74.574 176.551
 79.449 c 176.551 84.324 180.504 88.277 185.379 88.277 c 291.309 88.277 
l 296.188 88.277 300.137 84.324 300.137 79.449 c 300.137 74.574 296.188 
70.621 291.309 70.621 c h
291.309 70.621 m f
150.07 35.309 m 141.242 35.309 l 136.367 35.309 132.414 39.262 132.414 
44.137 c 132.414 49.012 136.367 52.965 141.242 52.965 c 150.07 52.965 l 
154.945 52.965 158.898 49.012 158.898 44.137 c 158.898 39.262 154.945 35.309
 150.07 35.309 c h
150.07 35.309 m f
308.965 35.309 m 185.379 35.309 l 180.504 35.309 176.551 39.262 176.551
 44.137 c 176.551 49.012 180.504 52.965 185.379 52.965 c 308.965 52.965 
l 313.84 52.965 317.793 49.012 317.793 44.137 c 317.793 39.262 313.84 35.309
 308.965 35.309 c h
308.965 35.309 m f
1 g
105.93 406.07 m 35.309 406.07 l 30.434 406.07 26.484 410.02 26.484 414.898
 c 26.484 419.773 30.434 423.723 35.309 423.723 c 105.93 423.723 l 110.805
 423.723 114.758 419.773 114.758 414.898 c 114.758 410.02 110.805 406.07
 105.93 406.07 c h
105.93 406.07 m f
150.07 406.07 m 141.242 406.07 l 136.367 406.07 132.414 410.02 132.414 
414.898 c 132.414 419.773 136.367 423.723 141.242 423.723 c 150.07 423.723
 l 154.945 423.723 158.898 419.773 158.898 414.898 c 158.898 410.02 154.945
 406.07 150.07 406.07 c h
150.07 406.07 m f
88.277 370.758 m 35.309 370.758 l 30.434 370.758 26.484 374.711 26.484 
379.586 c 26.484 384.461 30.434 388.414 35.309 388.414 c 88.277 388.414 
l 93.152 388.414 97.102 384.461 97.102 379.586 c 97.102 374.711 93.152 370.758
 88.277 370.758 c h
88.277 370.758 m f
432.551 167.723 m 361.93 167.723 l 357.055 167.723 353.102 171.676 353.102
 176.551 c 353.102 181.426 357.055 185.379 361.93 185.379 c 432.551 185.379
 l 437.426 185.379 441.379 181.426 441.379 176.551 c 441.379 171.676 437.426
 167.723 432.551 167.723 c h
432.551 167.723 m f
476.691 167.723 m 467.863 167.723 l 462.988 167.723 459.035 171.676 459.035
 176.551 c 459.035 181.426 462.988 185.379 467.863 185.379 c 476.691 185.379
 l 481.566 185.379 485.516 181.426 485.516 176.551 c 485.516 171.676 481.566
 167.723 476.691 167.723 c h
476.691 167.723 m f
414.898 132.414 m 361.93 132.414 l 357.055 132.414 353.102 136.367 353.102
 141.242 c 353.102 146.117 357.055 150.07 361.93 150.07 c 414.898 150.07
 l 419.773 150.07 423.723 146.117 423.723 141.242 c 423.723 136.367 419.773
 132.414 414.898 132.414 c h
414.898 132.414 m f
Q Q
showpage
%%Trailer
end restore
%%EOF
