%!PS-Adobe-3.0 EPSF-3.0
%%Creator: cairo 1.16.0 (https://cairographics.org)
%%CreationDate: Fri Aug  2 09:46:36 2019
%%Pages: 1
%%DocumentData: Clean7Bit
%%LanguageLevel: 2
%%BoundingBox: 0 0 384 384
%%EndComments
%%BeginProlog
50 dict begin
/q { gsave } bind def
/Q { grestore } bind def
/cm { 6 array astore concat } bind def
/w { setlinewidth } bind def
/J { setlinecap } bind def
/j { setlinejoin } bind def
/M { setmiterlimit } bind def
/d { setdash } bind def
/m { moveto } bind def
/l { lineto } bind def
/c { curveto } bind def
/h { closepath } bind def
/re { exch dup neg 3 1 roll 5 3 roll moveto 0 rlineto
      0 exch rlineto 0 rlineto closepath } bind def
/S { stroke } bind def
/f { fill } bind def
/f* { eofill } bind def
/n { newpath } bind def
/W { clip } bind def
/W* { eoclip } bind def
/BT { } bind def
/ET { } bind def
/BDC { mark 3 1 roll /BDC pdfmark } bind def
/EMC { mark /EMC pdfmark } bind def
/cairo_store_point { /cairo_point_y exch def /cairo_point_x exch def } def
/Tj { show currentpoint cairo_store_point } bind def
/TJ {
  {
    dup
    type /stringtype eq
    { show } { -0.001 mul 0 cairo_font_matrix dtransform rmoveto } ifelse
  } forall
  currentpoint cairo_store_point
} bind def
/cairo_selectfont { cairo_font_matrix aload pop pop pop 0 0 6 array astore
    cairo_font exch selectfont cairo_point_x cairo_point_y moveto } bind def
/Tf { pop /cairo_font exch def /cairo_font_matrix where
      { pop cairo_selectfont } if } bind def
/Td { matrix translate cairo_font_matrix matrix concatmatrix dup
      /cairo_font_matrix exch def dup 4 get exch 5 get cairo_store_point
      /cairo_font where { pop cairo_selectfont } if } bind def
/Tm { 2 copy 8 2 roll 6 array astore /cairo_font_matrix exch def
      cairo_store_point /cairo_font where { pop cairo_selectfont } if } bind def
/g { setgray } bind def
/rg { setrgbcolor } bind def
/d1 { setcachedevice } bind def
/cairo_data_source {
  CairoDataIndex CairoData length lt
    { CairoData CairoDataIndex get /CairoDataIndex CairoDataIndex 1 add def }
    { () } ifelse
} def
/cairo_flush_ascii85_file { cairo_ascii85_file status { cairo_ascii85_file flushfile } if } def
/cairo_image { image cairo_flush_ascii85_file } def
/cairo_imagemask { imagemask cairo_flush_ascii85_file } def
%%EndProlog
%%BeginSetup
%%EndSetup
%%Page: 1 1
%%BeginPageSetup
%%PageBoundingBox: 0 0 384 384
%%EndPageSetup
q 0 0 384 384 rectclip
1 0 0 -1 0 384 cm q
0.156863 0.521569 0.933333 rg
384 19.863 m 384 251.586 l 377.379 258.207 l 6.621 258.207 l 0 251.586 
l 0 19.863 l 0 8.891 8.891 0 19.863 0 c 364.137 0 l 375.109 0 384 8.891 
384 19.863 c h
384 19.863 m f
0.733333 0.756863 0.807843 rg
119.172 297.93 145.656 39.727 re f
0.847059 0.866667 0.898039 rg
311.172 357.516 m 264.828 331.035 l 119.172 331.035 l 72.828 357.516 l 
79.449 364.137 l 304.551 364.137 l h
311.172 357.516 m f
0.733333 0.756863 0.807843 rg
72.828 357.516 m 311.172 357.516 l 311.172 377.379 l 311.172 381.035 308.207
 384 304.551 384 c 79.449 384 l 75.793 384 72.828 381.035 72.828 377.379
 c h
72.828 357.516 m f
0.847059 0.866667 0.898039 rg
384 251.586 m 384 284.691 l 384 295.66 375.109 304.551 364.137 304.551 
c 19.863 304.551 l 8.891 304.551 0 295.66 0 284.691 c 0 251.586 l h
384 251.586 m f
1 0.67451 0.278431 rg
205.242 125.793 m 205.242 133.105 199.312 139.035 192 139.035 c 184.688
 139.035 178.758 133.105 178.758 125.793 c 178.758 118.48 184.688 112.551
 192 112.551 c 199.312 112.551 205.242 118.48 205.242 125.793 c h
205.242 125.793 m f
185.379 39.723 m 185.379 50.695 176.488 59.586 165.516 59.586 c 154.547
 59.586 145.656 50.695 145.656 39.723 c 145.656 28.754 154.547 19.863 165.516
 19.863 c 176.488 19.863 185.379 28.754 185.379 39.723 c h
185.379 39.723 m f
0.254902 0.807843 0.952941 rg
304.551 158.898 m 304.551 169.867 295.66 178.758 284.691 178.758 c 273.719
 178.758 264.828 169.867 264.828 158.898 c 264.828 147.926 273.719 139.035
 284.691 139.035 c 295.66 139.035 304.551 147.926 304.551 158.898 c h
304.551 158.898 m f
0.670588 0.870588 0.384314 rg
125.793 172.137 m 125.793 183.109 116.902 192 105.93 192 c 94.961 192 86.07
 183.109 86.07 172.137 c 86.07 161.168 94.961 152.277 105.93 152.277 c 116.902
 152.277 125.793 161.168 125.793 172.137 c h
125.793 172.137 m f
0.545098 0.576471 0.635294 rg
205.242 284.691 m 178.758 284.691 l 175.102 284.691 172.137 281.727 172.137
 278.07 c 172.137 274.414 175.102 271.449 178.758 271.449 c 205.242 271.449
 l 208.898 271.449 211.863 274.414 211.863 278.07 c 211.863 281.727 208.898
 284.691 205.242 284.691 c h
205.242 284.691 m f
1 0.67451 0.278431 rg
192 231.723 m 162.301 231.723 139.035 185.195 139.035 125.793 c 138.457
 99.328 143.941 73.078 155.07 49.059 c 156.75 45.812 160.746 44.543 163.996
 46.227 c 167.242 47.906 168.512 51.902 166.828 55.148 c 156.664 77.285 
151.688 101.445 152.277 125.793 c 152.277 169.637 168.59 218.484 192 218.484
 c 215.41 218.484 231.723 169.637 231.723 125.793 c 231.723 81.949 215.41
 33.102 192 33.102 c 187.773 33.238 183.715 34.789 180.473 37.5 c 177.57
 39.727 173.414 39.18 171.188 36.277 c 168.961 33.375 169.508 29.219 172.41
 26.992 c 177.953 22.484 184.855 19.973 192 19.863 c 221.699 19.863 244.965
 66.391 244.965 125.793 c 244.965 185.195 221.699 231.723 192 231.723 c 
h
192 231.723 m f
0.254902 0.807843 0.952941 rg
250.297 188.141 m 223 186.883 196.277 179.914 171.848 167.676 c 132.719
 149.324 102.434 123.316 94.695 101.469 c 91.91 94.625 92.023 86.949 95.008
 80.191 c 108.062 53.086 165.105 61.871 212.152 83.902 c 246.918 100.191
 275.293 122.926 286.211 143.238 c 287.398 145.328 287.359 147.895 286.113
 149.945 c 284.863 151.996 282.605 153.211 280.203 153.121 c 277.805 153.031
 275.641 151.648 274.555 149.508 c 264.914 131.578 238.848 111.035 206.539
 95.879 c 156.336 72.359 113.75 71.762 106.93 85.949 c 105.516 89.527 105.605
 93.527 107.176 97.039 c 113.691 115.445 141.941 139.008 177.469 155.672
 c 224.473 177.668 266.332 179.539 275.938 167.469 c 278.238 164.691 282.34
 164.266 285.164 166.512 c 287.984 168.762 288.488 172.855 286.293 175.719
 c 279.656 184.055 266.812 188.141 250.297 188.141 c h
250.297 188.141 m f
0.670588 0.870588 0.384314 rg
133.492 188.219 m 127.293 188.301 121.105 187.582 115.086 186.082 c 112.742
 185.527 110.883 183.742 110.234 181.422 c 109.582 179.102 110.246 176.613
 111.961 174.922 c 113.68 173.23 116.18 172.605 118.492 173.289 c 138.066
 178.508 172.629 171.594 206.547 155.684 c 242.078 139.02 270.316 115.457
 276.836 97.051 c 278.406 93.543 278.496 89.555 277.098 85.977 c 270.25 
71.789 227.672 72.383 177.473 95.906 c 131.34 117.516 106.188 145.469 105.973
 160.789 c 105.934 163.156 104.637 165.32 102.57 166.473 c 100.5 167.621
 97.977 167.582 95.949 166.363 c 93.918 165.148 92.691 162.945 92.73 160.578
 c 93.113 137.094 125.66 105.574 171.887 83.91 c 218.926 61.883 275.969 
53.09 289.074 80.215 c 292.051 86.969 292.16 94.641 289.379 101.477 c 281.633
 123.324 251.355 149.324 212.234 167.684 c 187.707 179.949 160.887 186.945
 133.492 188.219 c h
133.492 188.219 m f
Q Q
showpage
%%Trailer
end
%%EOF
