%!PS-Adobe-3.0 EPSF-3.0
%%Creator: cairo 1.16.0 (https://cairographics.org)
%%CreationDate: Fri Aug  2 09:46:36 2019
%%Pages: 1
%%DocumentData: Clean7Bit
%%LanguageLevel: 2
%%BoundingBox: 3 0 381 384
%%EndComments
%%BeginProlog
50 dict begin
/q { gsave } bind def
/Q { grestore } bind def
/cm { 6 array astore concat } bind def
/w { setlinewidth } bind def
/J { setlinecap } bind def
/j { setlinejoin } bind def
/M { setmiterlimit } bind def
/d { setdash } bind def
/m { moveto } bind def
/l { lineto } bind def
/c { curveto } bind def
/h { closepath } bind def
/re { exch dup neg 3 1 roll 5 3 roll moveto 0 rlineto
      0 exch rlineto 0 rlineto closepath } bind def
/S { stroke } bind def
/f { fill } bind def
/f* { eofill } bind def
/n { newpath } bind def
/W { clip } bind def
/W* { eoclip } bind def
/BT { } bind def
/ET { } bind def
/BDC { mark 3 1 roll /BDC pdfmark } bind def
/EMC { mark /EMC pdfmark } bind def
/cairo_store_point { /cairo_point_y exch def /cairo_point_x exch def } def
/Tj { show currentpoint cairo_store_point } bind def
/TJ {
  {
    dup
    type /stringtype eq
    { show } { -0.001 mul 0 cairo_font_matrix dtransform rmoveto } ifelse
  } forall
  currentpoint cairo_store_point
} bind def
/cairo_selectfont { cairo_font_matrix aload pop pop pop 0 0 6 array astore
    cairo_font exch selectfont cairo_point_x cairo_point_y moveto } bind def
/Tf { pop /cairo_font exch def /cairo_font_matrix where
      { pop cairo_selectfont } if } bind def
/Td { matrix translate cairo_font_matrix matrix concatmatrix dup
      /cairo_font_matrix exch def dup 4 get exch 5 get cairo_store_point
      /cairo_font where { pop cairo_selectfont } if } bind def
/Tm { 2 copy 8 2 roll 6 array astore /cairo_font_matrix exch def
      cairo_store_point /cairo_font where { pop cairo_selectfont } if } bind def
/g { setgray } bind def
/rg { setrgbcolor } bind def
/d1 { setcachedevice } bind def
/cairo_data_source {
  CairoDataIndex CairoData length lt
    { CairoData CairoDataIndex get /CairoDataIndex CairoDataIndex 1 add def }
    { () } ifelse
} def
/cairo_flush_ascii85_file { cairo_ascii85_file status { cairo_ascii85_file flushfile } if } def
/cairo_image { image cairo_flush_ascii85_file } def
/cairo_imagemask { imagemask cairo_flush_ascii85_file } def
%%EndProlog
%%BeginSetup
%%EndSetup
%%Page: 1 1
%%BeginPageSetup
%%PageBoundingBox: 3 0 381 384
%%EndPageSetup
q 3 0 378 384 rectclip
1 0 0 -1 0 384 cm q
0.666667 0.698039 0.74902 rg
361.219 351.457 m 341.043 376.672 l 337.34 381.301 331.73 384 325.801 384
 c 58.199 384 l 52.27 384 46.66 381.301 42.957 376.672 c 22.781 351.457 
l 22.781 344.949 l 361.219 344.949 l h
361.219 351.457 m f
296.137 58.578 m 342.672 58.578 l 349.578 58.867 354.957 64.684 354.711
 71.594 c 354.711 305.898 l 250.578 305.898 l 246.98 305.898 244.066 308.812
 244.066 312.406 c 244.066 318.914 l 244.066 322.512 241.152 325.422 237.559
 325.422 c 146.441 325.422 l 142.848 325.422 139.934 322.512 139.934 318.914
 c 139.934 312.406 l 139.934 308.812 137.02 305.898 133.422 305.898 c 29.289
 305.898 l 29.289 71.594 l 29.309 64.414 35.125 58.598 42.305 58.578 c h
296.137 58.578 m f
0.0352941 0.439216 0.870588 rg
296.137 84.609 m 322.168 84.609 l 325.766 84.609 328.68 87.523 328.68 91.117
 c 328.68 266.848 l 328.68 270.441 325.766 273.355 322.168 273.355 c 61.832
 273.355 l 58.234 273.355 55.32 270.441 55.32 266.848 c 55.32 91.117 l 55.32
 87.523 58.234 84.609 61.832 84.609 c h
296.137 84.609 m f
0.807843 0.823529 0.862745 rg
380.746 312.406 m 380.746 338.441 l 380.723 345.621 374.91 351.438 367.73
 351.457 c 16.27 351.457 l 9.09 351.438 3.277 345.621 3.254 338.441 c 3.254
 312.406 l 3.277 305.227 9.09 299.41 16.27 299.391 c 133.422 299.391 l 137.02
 299.391 139.934 302.305 139.934 305.898 c 139.934 312.406 l 139.934 316
 142.848 318.914 146.441 318.914 c 237.559 318.914 l 241.152 318.914 244.066
 316 244.066 312.406 c 244.066 305.898 l 244.066 302.305 246.98 299.391 
250.578 299.391 c 367.73 299.391 l 374.91 299.41 380.723 305.227 380.746
 312.406 c h
380.746 312.406 m f
1 0.67451 0.278431 rg
205.016 104.137 m 205.016 111.324 199.188 117.152 192 117.152 c 184.812
 117.152 178.984 111.324 178.984 104.137 c 178.984 96.945 184.812 91.117
 192 91.117 c 199.188 91.117 205.016 96.945 205.016 104.137 c h
205.016 104.137 m f
185.492 19.527 m 185.492 30.309 176.75 39.051 165.965 39.051 c 155.184 
39.051 146.441 30.309 146.441 19.527 c 146.441 8.742 155.184 0 165.965 0
 c 176.75 0 185.492 8.742 185.492 19.527 c h
185.492 19.527 m f
0.670588 0.870588 0.384314 rg
126.914 149.695 m 126.914 160.477 118.172 169.219 107.391 169.219 c 96.605
 169.219 87.863 160.477 87.863 149.695 c 87.863 138.91 96.605 130.168 107.391
 130.168 c 118.172 130.168 126.914 138.91 126.914 149.695 c h
126.914 149.695 m f
0.254902 0.807843 0.952941 rg
302.645 136.68 m 302.645 147.461 293.902 156.203 283.117 156.203 c 272.336
 156.203 263.594 147.461 263.594 136.68 c 263.594 125.895 272.336 117.152
 283.117 117.152 c 293.902 117.152 302.645 125.895 302.645 136.68 c h
302.645 136.68 m f
0.262745 0.611765 0.972549 rg
35.797 331.934 m 29.289 331.934 l 25.695 331.934 22.781 329.02 22.781 325.422
 c 22.781 321.828 25.695 318.914 29.289 318.914 c 35.797 318.914 l 39.391
 318.914 42.305 321.828 42.305 325.422 c 42.305 329.02 39.391 331.934 35.797
 331.934 c h
35.797 331.934 m f
68.34 331.934 m 61.832 331.934 l 58.234 331.934 55.32 329.02 55.32 325.422
 c 55.32 321.828 58.234 318.914 61.832 318.914 c 68.34 318.914 l 71.934 
318.914 74.848 321.828 74.848 325.422 c 74.848 329.02 71.934 331.934 68.34
 331.934 c h
68.34 331.934 m f
1 0.67451 0.278431 rg
192 208.27 m 162.805 208.27 139.934 162.531 139.934 104.137 c 139.363 78.117
 144.754 52.316 155.695 28.703 c 156.727 26.57 158.836 25.168 161.199 25.039
 c 163.562 24.91 165.812 26.074 167.066 28.082 c 168.324 30.09 168.395 32.617
 167.25 34.691 c 157.262 56.449 152.371 80.199 152.949 104.137 c 152.949
 147.234 168.984 195.254 192 195.254 c 215.016 195.254 231.051 147.234 231.051
 104.137 c 231.051 61.035 215.016 13.016 192 13.016 c 187.848 13.148 183.863
 14.668 180.676 17.332 c 178.832 18.75 176.371 19.074 174.223 18.188 c 172.074
 17.297 170.559 15.332 170.254 13.027 c 169.949 10.719 170.898 8.426 172.742
 7.008 c 178.191 2.578 184.977 0.109 192 0 c 221.195 0 244.066 45.742 244.066
 104.137 c 244.066 162.531 221.195 208.27 192 208.27 c h
192 208.27 m f
0.254902 0.807843 0.952941 rg
249.309 165.426 m 222.477 164.191 196.203 157.336 172.188 145.309 c 133.723
 127.266 103.961 101.703 96.344 80.223 c 93.605 73.496 93.719 65.945 96.656
 59.305 c 109.465 32.668 165.562 41.297 211.812 62.957 c 245.988 78.969 
273.883 101.316 284.617 121.285 c 285.781 123.34 285.742 125.863 284.516
 127.879 c 283.289 129.895 281.066 131.09 278.711 131 c 276.352 130.914 
274.223 129.555 273.152 127.449 c 263.68 109.824 238.055 89.629 206.293 
74.73 c 156.945 51.617 115.07 51.02 108.371 64.969 c 106.984 68.484 107.07
 72.414 108.613 75.871 c 115.023 93.961 142.781 117.125 177.715 133.508 
c 223.926 155.129 265.078 156.973 274.516 145.105 c 276.777 142.375 280.809
 141.957 283.586 144.164 c 286.359 146.375 286.852 150.402 284.695 153.215
 c 278.172 161.41 265.547 165.426 249.309 165.426 c h
249.309 165.426 m f
0.670588 0.870588 0.384314 rg
134.484 165.504 m 128.387 165.586 122.305 164.879 116.391 163.402 c 114.078
 162.867 112.238 161.113 111.594 158.828 c 110.949 156.539 111.602 154.086
 113.293 152.418 c 114.988 150.754 117.453 150.145 119.73 150.828 c 138.977
 155.957 172.957 149.16 206.293 133.52 c 241.223 117.141 268.98 93.977 275.395
 75.883 c 276.934 72.434 277.023 68.512 275.648 64.992 c 268.918 51.051 
227.062 51.633 177.715 74.758 c 132.371 96 107.637 123.473 107.422 138.539
 c 107.367 142.094 104.469 144.945 100.914 144.945 c 100.805 144.945 l 99.074
 144.922 97.422 144.215 96.215 142.973 c 95.008 141.73 94.344 140.062 94.371
 138.332 c 94.75 115.246 126.746 84.254 172.188 62.965 c 218.398 41.309 
274.508 32.668 287.387 59.332 c 290.316 65.969 290.422 73.512 287.688 80.23
 c 280.074 101.707 250.309 127.266 211.852 145.316 c 187.754 157.367 161.398
 164.246 134.484 165.504 c h
134.484 165.504 m f
Q Q
showpage
%%Trailer
end
%%EOF
