%!PS-Adobe-3.0 EPSF-3.0
%%Creator: cairo 1.16.0 (https://cairographics.org)
%%CreationDate: Fri Aug  2 09:46:37 2019
%%Pages: 1
%%DocumentData: Clean7Bit
%%LanguageLevel: 2
%%BoundingBox: 6 0 378 384
%%EndComments
%%BeginProlog
50 dict begin
/q { gsave } bind def
/Q { grestore } bind def
/cm { 6 array astore concat } bind def
/w { setlinewidth } bind def
/J { setlinecap } bind def
/j { setlinejoin } bind def
/M { setmiterlimit } bind def
/d { setdash } bind def
/m { moveto } bind def
/l { lineto } bind def
/c { curveto } bind def
/h { closepath } bind def
/re { exch dup neg 3 1 roll 5 3 roll moveto 0 rlineto
      0 exch rlineto 0 rlineto closepath } bind def
/S { stroke } bind def
/f { fill } bind def
/f* { eofill } bind def
/n { newpath } bind def
/W { clip } bind def
/W* { eoclip } bind def
/BT { } bind def
/ET { } bind def
/BDC { mark 3 1 roll /BDC pdfmark } bind def
/EMC { mark /EMC pdfmark } bind def
/cairo_store_point { /cairo_point_y exch def /cairo_point_x exch def } def
/Tj { show currentpoint cairo_store_point } bind def
/TJ {
  {
    dup
    type /stringtype eq
    { show } { -0.001 mul 0 cairo_font_matrix dtransform rmoveto } ifelse
  } forall
  currentpoint cairo_store_point
} bind def
/cairo_selectfont { cairo_font_matrix aload pop pop pop 0 0 6 array astore
    cairo_font exch selectfont cairo_point_x cairo_point_y moveto } bind def
/Tf { pop /cairo_font exch def /cairo_font_matrix where
      { pop cairo_selectfont } if } bind def
/Td { matrix translate cairo_font_matrix matrix concatmatrix dup
      /cairo_font_matrix exch def dup 4 get exch 5 get cairo_store_point
      /cairo_font where { pop cairo_selectfont } if } bind def
/Tm { 2 copy 8 2 roll 6 array astore /cairo_font_matrix exch def
      cairo_store_point /cairo_font where { pop cairo_selectfont } if } bind def
/g { setgray } bind def
/rg { setrgbcolor } bind def
/d1 { setcachedevice } bind def
/cairo_data_source {
  CairoDataIndex CairoData length lt
    { CairoData CairoDataIndex get /CairoDataIndex CairoDataIndex 1 add def }
    { () } ifelse
} def
/cairo_flush_ascii85_file { cairo_ascii85_file status { cairo_ascii85_file flushfile } if } def
/cairo_image { image cairo_flush_ascii85_file } def
/cairo_imagemask { imagemask cairo_flush_ascii85_file } def
%%EndProlog
%%BeginSetup
%%EndSetup
%%Page: 1 1
%%BeginPageSetup
%%PageBoundingBox: 6 0 378 384
%%EndPageSetup
q 6 0 372 384 rectclip
1 0 0 -1 0 384 cm q
0.0352941 0.439216 0.870588 rg
243.199 140.801 m 243.199 198.398 l 236.801 204.801 l 147.199 204.801 l
 140.801 198.398 l 140.801 140.801 l 140.801 137.266 143.664 134.398 147.199
 134.398 c 236.801 134.398 l 240.336 134.398 243.199 137.266 243.199 140.801
 c h
243.199 140.801 m f
0.733333 0.756863 0.807843 rg
172.801 217.602 38.398 32 re f
0.490196 0.74902 0.160784 rg
44.801 288 m 44.801 298.605 36.203 307.199 25.602 307.199 c 14.996 307.199
 6.398 298.605 6.398 288 c 6.398 277.395 14.996 268.801 25.602 268.801 c
 36.203 268.801 44.801 277.395 44.801 288 c h
44.801 288 m f
377.602 96 m 377.602 106.605 369.004 115.199 358.398 115.199 c 347.797 
115.199 339.199 106.605 339.199 96 c 339.199 85.395 347.797 76.801 358.398
 76.801 c 369.004 76.801 377.602 85.395 377.602 96 c h
377.602 96 m f
0.956863 0.568627 0 rg
166.398 25.602 m 166.398 36.203 157.805 44.801 147.199 44.801 c 136.598
 44.801 128 36.203 128 25.602 c 128 14.996 136.598 6.398 147.199 6.398 c
 157.805 6.398 166.398 14.996 166.398 25.602 c h
166.398 25.602 m f
0.847059 0.866667 0.898039 rg
243.199 198.398 m 243.199 217.602 l 243.199 221.133 240.336 224 236.801
 224 c 147.199 224 l 143.664 224 140.801 221.133 140.801 217.602 c 140.801
 198.398 l h
243.199 198.398 m f
0.262745 0.611765 0.972549 rg
224 134.398 m 224.012 135.848 223.512 137.254 222.594 138.367 c 174.656
 198.398 l 158.336 198.398 l 209.473 134.398 l h
224 134.398 m f
0.847059 0.866667 0.898039 rg
230.398 256 m 153.602 256 l 150.066 256 147.199 253.133 147.199 249.602
 c 147.199 246.066 150.066 243.199 153.602 243.199 c 230.398 243.199 l 233.934
 243.199 236.801 246.066 236.801 249.602 c 236.801 253.133 233.934 256 230.398
 256 c h
230.398 256 m f
0.956863 0.568627 0 rg
192 384 m 161.344 384 132.711 359.039 113.445 315.617 c 104.859 295.977
 98.691 275.371 95.07 254.246 c 91.371 233.707 89.539 212.871 89.602 192
 c 89.539 171.121 91.375 150.277 95.078 129.727 c 98.699 108.605 104.867
 88 113.453 68.363 c 118.141 57.469 123.984 47.109 130.879 37.461 c 132.211
 35.578 134.449 34.559 136.742 34.785 c 139.035 35.016 141.027 36.461 141.961
 38.57 c 142.891 40.676 142.617 43.125 141.242 44.973 c 134.871 53.891 129.48
 63.469 125.16 73.543 c 116.984 92.25 111.113 111.883 107.672 132.008 c 
104.105 151.805 102.34 171.883 102.398 192 c 102.34 212.105 104.105 232.176
 107.668 251.961 c 111.105 272.082 116.973 291.707 125.141 310.414 c 142.266
 349.051 166.637 371.199 192 371.199 c 217.363 371.199 241.734 349.051 258.855
 310.434 c 267.02 291.73 272.887 272.109 276.328 251.992 c 279.895 232.195
 281.656 212.117 281.602 192 c 281.66 171.895 279.895 151.824 276.332 132.039
 c 272.898 111.918 267.031 92.293 258.859 73.586 c 241.734 34.949 217.363
 12.801 192 12.801 c 182.973 12.898 174.152 15.52 166.539 20.371 c 164.594
 21.766 162.031 21.957 159.898 20.867 c 157.766 19.777 156.422 17.586 156.414
 15.191 c 156.406 12.797 157.734 10.598 159.859 9.492 c 169.473 3.383 180.609
 0.094 192 0 c 222.656 0 251.289 24.961 270.555 68.383 c 279.141 88.023 
285.309 108.629 288.93 129.754 c 292.629 150.293 294.461 171.129 294.398
 192 c 294.461 212.879 292.625 233.723 288.922 254.273 c 285.301 275.395
 279.133 296 270.547 315.637 c 251.289 359.07 222.656 384 192 384 c h
192 384 m f
0.0352941 0.439216 0.870588 rg
279.957 320.031 m 234.688 318.699 190.227 307.723 149.535 287.84 c 48.383
 240.488 -12.262 161.352 11.461 107.672 c 19.598 90.844 34.262 78.07 52.051
 72.32 c 97.004 55.438 166.906 64.59 234.453 96.188 c 335.57 143.547 396.242
 222.656 372.523 276.34 c 364.387 293.164 349.73 305.93 331.949 311.68 c
 315.25 317.527 297.645 320.355 279.957 320.031 c h
104.219 76.68 m 88.004 76.363 71.863 78.938 56.551 84.281 c 41.961 88.793
 29.887 99.129 23.176 112.844 c 2.629 159.316 61.746 232.613 154.965 276.242
 c 219.508 306.418 285.605 315.41 327.449 299.711 c 342.035 295.203 354.113
 284.871 360.824 271.156 c 381.371 224.684 322.254 151.391 229.035 107.762
 c 185.496 87.398 141.246 76.68 104.219 76.68 c h
104.219 76.68 m f
0.490196 0.74902 0.160784 rg
16.32 277.566 m 13.664 277.57 11.281 275.93 10.336 273.445 c 1.145 249.301
 8.414 219.047 30.816 188.238 c 49.188 163.844 71.625 142.797 97.141 126.016
 c 97.344 125.84 97.555 125.676 97.777 125.523 c 114.227 114.367 131.539
 104.547 149.555 96.152 c 162.711 89.996 176.211 84.602 189.992 80 c 214
 71.742 238.957 66.562 264.27 64.582 c 297.883 62.215 326.203 67.23 346.188
 79.098 c 348.156 80.266 349.348 82.395 349.32 84.684 c 349.293 86.969 348.043
 89.066 346.051 90.188 c 344.055 91.305 341.613 91.273 339.648 90.105 c 
321.922 79.578 296.168 75.148 265.164 77.352 c 240.922 79.266 217.02 84.242
 194.027 92.16 c 180.727 96.609 167.691 101.816 154.988 107.762 c 137.816
 115.754 121.301 125.09 105.602 135.68 c 105.398 135.867 105.184 136.035
 104.961 136.191 c 80.418 152.211 58.836 172.359 41.172 195.742 c 21.395
 222.957 14.699 248.93 22.305 268.902 c 23.559 272.207 21.902 275.902 18.598
 277.16 c 17.871 277.434 17.098 277.574 16.32 277.566 c h
16.32 277.566 m f
103.898 320 m 81.008 320.887 58.289 315.723 38.035 305.023 c 35.465 303.637
 34.16 300.684 34.863 297.848 c 35.566 295.012 38.102 293.016 41.023 292.992
 c 41.09 292.992 l 42.238 292.992 43.367 293.305 44.359 293.887 c 62.086
 304.414 87.832 308.82 118.84 306.645 c 143.082 304.73 166.98 299.758 189.973
 291.84 c 203.273 287.395 216.309 282.184 229.012 276.238 c 246.184 268.25
 262.699 258.914 278.398 248.32 c 278.598 248.137 278.812 247.973 279.039
 247.828 c 303.582 231.805 325.164 211.656 342.828 188.27 c 362.605 161.055
 369.301 135.086 361.695 115.117 c 360.883 112.98 361.27 110.57 362.715 
108.797 c 364.156 107.023 366.438 106.156 368.695 106.52 c 370.953 106.883
 372.844 108.422 373.656 110.559 c 382.848 134.707 375.578 164.961 353.176
 195.77 c 334.797 220.172 312.348 241.223 286.816 257.996 c 286.613 258.172
 286.402 258.332 286.176 258.477 c 269.727 269.637 252.414 279.461 234.398
 287.859 c 221.258 294.012 207.773 299.402 194.008 304 c 170 312.254 145.043
 317.438 119.73 319.418 c 114.312 319.805 109.035 320 103.898 320 c h
103.898 320 m f
Q Q
showpage
%%Trailer
end
%%EOF
