%!PS-Adobe-3.0 EPSF-3.0
%%Creator: cairo 1.16.0 (https://cairographics.org)
%%CreationDate: Fri Aug  2 09:46:37 2019
%%Pages: 1
%%DocumentData: Clean7Bit
%%LanguageLevel: 2
%%BoundingBox: 0 0 384 384
%%EndComments
%%BeginProlog
50 dict begin
/q { gsave } bind def
/Q { grestore } bind def
/cm { 6 array astore concat } bind def
/w { setlinewidth } bind def
/J { setlinecap } bind def
/j { setlinejoin } bind def
/M { setmiterlimit } bind def
/d { setdash } bind def
/m { moveto } bind def
/l { lineto } bind def
/c { curveto } bind def
/h { closepath } bind def
/re { exch dup neg 3 1 roll 5 3 roll moveto 0 rlineto
      0 exch rlineto 0 rlineto closepath } bind def
/S { stroke } bind def
/f { fill } bind def
/f* { eofill } bind def
/n { newpath } bind def
/W { clip } bind def
/W* { eoclip } bind def
/BT { } bind def
/ET { } bind def
/BDC { mark 3 1 roll /BDC pdfmark } bind def
/EMC { mark /EMC pdfmark } bind def
/cairo_store_point { /cairo_point_y exch def /cairo_point_x exch def } def
/Tj { show currentpoint cairo_store_point } bind def
/TJ {
  {
    dup
    type /stringtype eq
    { show } { -0.001 mul 0 cairo_font_matrix dtransform rmoveto } ifelse
  } forall
  currentpoint cairo_store_point
} bind def
/cairo_selectfont { cairo_font_matrix aload pop pop pop 0 0 6 array astore
    cairo_font exch selectfont cairo_point_x cairo_point_y moveto } bind def
/Tf { pop /cairo_font exch def /cairo_font_matrix where
      { pop cairo_selectfont } if } bind def
/Td { matrix translate cairo_font_matrix matrix concatmatrix dup
      /cairo_font_matrix exch def dup 4 get exch 5 get cairo_store_point
      /cairo_font where { pop cairo_selectfont } if } bind def
/Tm { 2 copy 8 2 roll 6 array astore /cairo_font_matrix exch def
      cairo_store_point /cairo_font where { pop cairo_selectfont } if } bind def
/g { setgray } bind def
/rg { setrgbcolor } bind def
/d1 { setcachedevice } bind def
/cairo_data_source {
  CairoDataIndex CairoData length lt
    { CairoData CairoDataIndex get /CairoDataIndex CairoDataIndex 1 add def }
    { () } ifelse
} def
/cairo_flush_ascii85_file { cairo_ascii85_file status { cairo_ascii85_file flushfile } if } def
/cairo_image { image cairo_flush_ascii85_file } def
/cairo_imagemask { imagemask cairo_flush_ascii85_file } def
%%EndProlog
%%BeginSetup
%%EndSetup
%%Page: 1 1
%%BeginPageSetup
%%PageBoundingBox: 0 0 384 384
%%EndPageSetup
q 0 0 384 384 rectclip
1 0 0 -1 0 384 cm q
0.129412 0.721569 0.917647 rg
203.66 145.656 m 193.793 128.906 l 192.594 126.855 191.957 124.527 191.945
 122.152 c 192 33.102 l 217.027 10.727 l 218.605 8.73 218.898 6.004 217.781
 3.719 c 216.668 1.434 214.34 -0.016 211.797 0 c 92.742 0 l 90.199 -0.016
 87.871 1.434 86.758 3.719 c 85.641 6.004 85.934 8.73 87.512 10.727 c 112.551
 33.102 l 112.551 122.152 l 112.562 124.52 111.949 126.852 110.77 128.906
 c 7.434 304.156 l -2.207 320.523 -2.344 340.805 7.078 357.301 c 16.5 373.797
 34.035 383.984 53.031 384 c 238.344 384 l h
203.66 145.656 m f
0.0352941 0.439216 0.870588 rg
384 165.516 m 384 284.691 l 377.379 291.309 l 152.277 291.309 l 145.656
 284.691 l 145.656 165.516 l 145.656 154.547 154.547 145.656 165.516 145.656
 c 364.137 145.656 l 375.074 145.738 383.918 154.582 384 165.516 c h
384 165.516 m f
0.733333 0.756863 0.807843 rg
218.484 324.414 92.688 39.723 re f
0.847059 0.866667 0.898039 rg
205.242 357.516 m 324.414 357.516 l 331.75 357.516 337.656 363.422 337.656
 370.758 c 337.656 378.094 331.75 384 324.414 384 c 205.242 384 l 197.906
 384 192 378.094 192 370.758 c 192 363.422 197.906 357.516 205.242 357.516
 c h
205.242 357.516 m f
384 284.691 m 384 311.172 l 384 322.141 375.109 331.035 364.137 331.035
 c 165.516 331.035 l 154.547 331.035 145.656 322.141 145.656 311.172 c 145.656
 284.691 l h
384 284.691 m f
0.254902 0.807843 0.952941 rg
99.309 364.137 m 52.965 364.137 l 41.102 364.117 30.152 357.746 24.273 
347.441 c 18.395 337.137 18.477 324.469 24.496 314.246 c 32.191 301.188 
l 34.156 298.301 38.027 297.438 41.031 299.215 c 44.039 300.992 45.148 304.801
 43.562 307.914 c 35.863 320.973 l 32.258 327.109 32.211 334.707 35.742 
340.891 c 39.277 347.07 45.848 350.887 52.965 350.898 c 99.309 350.898 l
 102.969 350.898 105.93 353.859 105.93 357.516 c 105.93 361.172 102.969 
364.137 99.309 364.137 c h
99.309 364.137 m f
53.477 284.691 m 51.102 284.688 48.91 283.41 47.734 281.348 c 46.559 279.285
 46.574 276.75 47.781 274.707 c 51.68 268.086 l 53.582 265.035 57.566 264.062
 60.664 265.887 c 63.758 267.715 64.832 271.672 63.082 274.812 c 59.184 
281.434 l 57.992 283.453 55.82 284.691 53.477 284.691 c h
53.477 284.691 m f
72.828 251.879 m 70.453 251.875 68.262 250.598 67.086 248.535 c 65.91 246.473
 65.926 243.938 67.133 241.895 c 106.859 174.535 l 108.016 172.41 110.238
 171.09 112.656 171.082 c 115.074 171.078 117.305 172.391 118.469 174.508
 c 119.637 176.629 119.555 179.215 118.258 181.254 c 78.535 248.621 l 77.344
 250.641 75.172 251.879 72.828 251.879 c h
72.828 251.879 m f
0.262745 0.611765 0.972549 rg
294.09 145.656 m 269.527 170.219 l 266.918 172.777 262.738 172.777 260.125
 170.219 c 257.547 167.617 257.547 163.418 260.125 160.816 c 275.289 145.656
 l h
294.09 145.656 m f
0.545098 0.576471 0.635294 rg
271.449 311.172 m 258.207 311.172 l 254.551 311.172 251.586 308.207 251.586
 304.551 c 251.586 300.895 254.551 297.93 258.207 297.93 c 271.449 297.93
 l 275.105 297.93 278.07 300.895 278.07 304.551 c 278.07 308.207 275.105
 311.172 271.449 311.172 c h
271.449 311.172 m f
0.262745 0.611765 0.972549 rg
249.668 190.078 m 155.055 284.691 l 145.656 284.691 l 145.656 275.289 l
 240.266 180.68 l 242.859 178.082 247.07 178.082 249.668 180.68 c 252.262
 183.273 252.262 187.484 249.668 190.078 c h
249.668 190.078 m f
382.016 156.977 m 302.633 236.426 l 300.02 238.984 295.84 238.984 293.23
 236.426 c 290.648 233.824 290.648 229.625 293.23 227.023 c 372.68 147.641
 l 376.785 149.566 380.09 152.867 382.016 156.977 c h
382.016 156.977 m f
282.77 256.285 m 254.367 284.691 l 235.562 284.691 l 273.367 246.887 l 
275.047 245.207 277.496 244.551 279.789 245.164 c 282.082 245.781 283.875
 247.57 284.488 249.867 c 285.105 252.16 284.449 254.609 282.77 256.285 
c h
282.77 256.285 m f
Q Q
showpage
%%Trailer
end
%%EOF
