%!PS-Adobe-3.0 EPSF-3.0
%%Creator: cairo 1.16.0 (https://cairographics.org)
%%CreationDate: Fri Aug  2 09:46:37 2019
%%Pages: 1
%%DocumentData: Clean7Bit
%%LanguageLevel: 2
%%BoundingBox: 0 0 384 384
%%EndComments
%%BeginProlog
50 dict begin
/q { gsave } bind def
/Q { grestore } bind def
/cm { 6 array astore concat } bind def
/w { setlinewidth } bind def
/J { setlinecap } bind def
/j { setlinejoin } bind def
/M { setmiterlimit } bind def
/d { setdash } bind def
/m { moveto } bind def
/l { lineto } bind def
/c { curveto } bind def
/h { closepath } bind def
/re { exch dup neg 3 1 roll 5 3 roll moveto 0 rlineto
      0 exch rlineto 0 rlineto closepath } bind def
/S { stroke } bind def
/f { fill } bind def
/f* { eofill } bind def
/n { newpath } bind def
/W { clip } bind def
/W* { eoclip } bind def
/BT { } bind def
/ET { } bind def
/BDC { mark 3 1 roll /BDC pdfmark } bind def
/EMC { mark /EMC pdfmark } bind def
/cairo_store_point { /cairo_point_y exch def /cairo_point_x exch def } def
/Tj { show currentpoint cairo_store_point } bind def
/TJ {
  {
    dup
    type /stringtype eq
    { show } { -0.001 mul 0 cairo_font_matrix dtransform rmoveto } ifelse
  } forall
  currentpoint cairo_store_point
} bind def
/cairo_selectfont { cairo_font_matrix aload pop pop pop 0 0 6 array astore
    cairo_font exch selectfont cairo_point_x cairo_point_y moveto } bind def
/Tf { pop /cairo_font exch def /cairo_font_matrix where
      { pop cairo_selectfont } if } bind def
/Td { matrix translate cairo_font_matrix matrix concatmatrix dup
      /cairo_font_matrix exch def dup 4 get exch 5 get cairo_store_point
      /cairo_font where { pop cairo_selectfont } if } bind def
/Tm { 2 copy 8 2 roll 6 array astore /cairo_font_matrix exch def
      cairo_store_point /cairo_font where { pop cairo_selectfont } if } bind def
/g { setgray } bind def
/rg { setrgbcolor } bind def
/d1 { setcachedevice } bind def
/cairo_data_source {
  CairoDataIndex CairoData length lt
    { CairoData CairoDataIndex get /CairoDataIndex CairoDataIndex 1 add def }
    { () } ifelse
} def
/cairo_flush_ascii85_file { cairo_ascii85_file status { cairo_ascii85_file flushfile } if } def
/cairo_image { image cairo_flush_ascii85_file } def
/cairo_imagemask { imagemask cairo_flush_ascii85_file } def
%%EndProlog
%%BeginSetup
%%EndSetup
%%Page: 1 1
%%BeginPageSetup
%%PageBoundingBox: 0 0 384 384
%%EndPageSetup
q 0 0 384 384 rectclip
1 0 0 -1 0 384 cm q
0.156863 0.521569 0.933333 rg
384 46.344 m 384 251.586 l 377.379 258.207 l 6.621 258.207 l 0 251.586 
l 0 46.344 l 0 35.375 8.891 26.484 19.863 26.484 c 364.137 26.484 l 375.109
 26.484 384 35.375 384 46.344 c h
384 46.344 m f
0.733333 0.756863 0.807843 rg
119.172 297.93 145.656 39.727 re f
0.847059 0.866667 0.898039 rg
311.172 357.516 m 264.828 331.035 l 119.172 331.035 l 72.828 357.516 l 
79.449 364.137 l 304.551 364.137 l h
311.172 357.516 m f
0.733333 0.756863 0.807843 rg
72.828 357.516 m 311.172 357.516 l 311.172 377.379 l 311.172 381.035 308.207
 384 304.551 384 c 79.449 384 l 75.793 384 72.828 381.035 72.828 377.379
 c h
72.828 357.516 m f
0.847059 0.866667 0.898039 rg
384 251.586 m 384 284.691 l 384 295.66 375.109 304.551 364.137 304.551 
c 19.863 304.551 l 8.891 304.551 0 295.66 0 284.691 c 0 251.586 l h
384 251.586 m f
0.129412 0.721569 0.917647 rg
290.895 220.641 m 287.672 238.766 271.773 251.875 253.367 251.586 c 129.168
 251.586 l 109.055 251.512 92.766 235.223 92.691 215.105 c 92.695 208.641
 94.41 202.293 97.656 196.699 c 163.734 82.527 l 164.902 80.516 165.516 
78.23 165.516 75.906 c 165.516 31.965 l 165.516 28.453 164.121 25.086 161.637
 22.602 c 150.383 11.348 l 148.457 9.461 147.871 6.598 148.895 4.105 c 149.918
 1.613 152.348 -0.012 155.043 0 c 229.008 0 l 231.672 0.012 234.066 1.613
 235.09 4.07 c 236.117 6.523 235.574 9.355 233.711 11.254 c 222.391 22.578
 l 219.891 25.062 218.484 28.441 218.484 31.965 c 218.484 75.895 l 218.484
 78.219 219.098 80.5 220.266 82.512 c 286.344 196.699 l 290.547 203.93 292.152
 212.375 290.895 220.641 c h
290.895 220.641 m f
0.545098 0.576471 0.635294 rg
205.242 284.691 m 178.758 284.691 l 175.102 284.691 172.137 281.727 172.137
 278.07 c 172.137 274.414 175.102 271.449 178.758 271.449 c 205.242 271.449
 l 208.898 271.449 211.863 274.414 211.863 278.07 c 211.863 281.727 208.898
 284.691 205.242 284.691 c h
205.242 284.691 m f
0.254902 0.807843 0.952941 rg
169.285 132.414 m 166.922 132.41 164.738 131.145 163.562 129.098 c 162.383
 127.051 162.383 124.527 163.562 122.484 c 179.652 94.676 l 180.781 92.52
 182.996 91.156 185.43 91.125 c 187.859 91.09 190.113 92.395 191.301 94.52
 c 192.484 96.641 192.41 99.246 191.105 101.297 c 175.023 129.102 l 173.84
 131.152 171.652 132.418 169.285 132.414 c h
169.285 132.414 m f
150.129 165.516 m 148.969 165.52 147.824 165.211 146.82 164.625 c 143.66
 162.789 142.582 158.742 144.41 155.578 c 148.242 148.957 l 149.371 146.805
 151.59 145.441 154.02 145.406 c 156.453 145.375 158.707 146.676 159.891
 148.801 c 161.078 150.926 161.004 153.527 159.699 155.578 c 155.863 162.199
 l 154.684 164.25 152.496 165.516 150.129 165.516 c h
150.129 165.516 m f
178.758 231.723 m 129.168 231.723 l 120.023 231.652 112.625 224.254 112.551
 215.105 c 112.555 212.125 113.352 209.195 114.863 206.625 c 129.102 182.07
 l 130.246 179.945 132.457 178.609 134.867 178.586 c 137.281 178.562 139.516
 179.852 140.699 181.957 c 141.887 184.059 141.832 186.637 140.562 188.691
 c 126.324 213.254 l 125.984 213.812 125.801 214.453 125.793 215.105 c 125.789
 216.039 126.191 216.922 126.898 217.531 c 127.492 218.145 128.312 218.492
 129.168 218.484 c 178.758 218.484 l 182.414 218.484 185.379 221.445 185.379
 225.102 c 185.379 228.762 182.414 231.723 178.758 231.723 c h
178.758 231.723 m f
Q Q
showpage
%%Trailer
end
%%EOF
