%!PS-Adobe-3.0 EPSF-3.0
%%Creator: cairo 1.16.0 (https://cairographics.org)
%%CreationDate: Fri Aug  2 09:46:37 2019
%%Pages: 1
%%DocumentData: Clean7Bit
%%LanguageLevel: 2
%%BoundingBox: 0 0 384 384
%%EndComments
%%BeginProlog
50 dict begin
/q { gsave } bind def
/Q { grestore } bind def
/cm { 6 array astore concat } bind def
/w { setlinewidth } bind def
/J { setlinecap } bind def
/j { setlinejoin } bind def
/M { setmiterlimit } bind def
/d { setdash } bind def
/m { moveto } bind def
/l { lineto } bind def
/c { curveto } bind def
/h { closepath } bind def
/re { exch dup neg 3 1 roll 5 3 roll moveto 0 rlineto
      0 exch rlineto 0 rlineto closepath } bind def
/S { stroke } bind def
/f { fill } bind def
/f* { eofill } bind def
/n { newpath } bind def
/W { clip } bind def
/W* { eoclip } bind def
/BT { } bind def
/ET { } bind def
/BDC { mark 3 1 roll /BDC pdfmark } bind def
/EMC { mark /EMC pdfmark } bind def
/cairo_store_point { /cairo_point_y exch def /cairo_point_x exch def } def
/Tj { show currentpoint cairo_store_point } bind def
/TJ {
  {
    dup
    type /stringtype eq
    { show } { -0.001 mul 0 cairo_font_matrix dtransform rmoveto } ifelse
  } forall
  currentpoint cairo_store_point
} bind def
/cairo_selectfont { cairo_font_matrix aload pop pop pop 0 0 6 array astore
    cairo_font exch selectfont cairo_point_x cairo_point_y moveto } bind def
/Tf { pop /cairo_font exch def /cairo_font_matrix where
      { pop cairo_selectfont } if } bind def
/Td { matrix translate cairo_font_matrix matrix concatmatrix dup
      /cairo_font_matrix exch def dup 4 get exch 5 get cairo_store_point
      /cairo_font where { pop cairo_selectfont } if } bind def
/Tm { 2 copy 8 2 roll 6 array astore /cairo_font_matrix exch def
      cairo_store_point /cairo_font where { pop cairo_selectfont } if } bind def
/g { setgray } bind def
/rg { setrgbcolor } bind def
/d1 { setcachedevice } bind def
/cairo_data_source {
  CairoDataIndex CairoData length lt
    { CairoData CairoDataIndex get /CairoDataIndex CairoDataIndex 1 add def }
    { () } ifelse
} def
/cairo_flush_ascii85_file { cairo_ascii85_file status { cairo_ascii85_file flushfile } if } def
/cairo_image { image cairo_flush_ascii85_file } def
/cairo_imagemask { imagemask cairo_flush_ascii85_file } def
%%EndProlog
%%BeginSetup
%%EndSetup
%%Page: 1 1
%%BeginPageSetup
%%PageBoundingBox: 0 0 384 384
%%EndPageSetup
q 0 0 384 384 rectclip
1 0 0 -1 0 384 cm q
0.156863 0.521569 0.933333 rg
384 33.102 m 384 251.586 l 377.379 258.207 l 6.621 258.207 l 0 251.586 
l 0 33.102 l 0 22.133 8.891 13.242 19.863 13.242 c 364.137 13.242 l 375.109
 13.242 384 22.133 384 33.102 c h
384 33.102 m f
0.733333 0.756863 0.807843 rg
119.172 297.93 145.656 39.727 re f
0.847059 0.866667 0.898039 rg
311.172 357.516 m 264.828 331.035 l 119.172 331.035 l 72.828 357.516 l 
79.449 364.137 l 304.551 364.137 l h
311.172 357.516 m f
0.733333 0.756863 0.807843 rg
72.828 357.516 m 311.172 357.516 l 311.172 377.379 l 311.172 381.035 308.207
 384 304.551 384 c 79.449 384 l 75.793 384 72.828 381.035 72.828 377.379
 c h
72.828 357.516 m f
0.847059 0.866667 0.898039 rg
384 251.586 m 384 284.691 l 384 295.66 375.109 304.551 364.137 304.551 
c 19.863 304.551 l 8.891 304.551 0 295.66 0 284.691 c 0 251.586 l h
384 251.586 m f
304.551 13.242 m 304.531 20.547 298.613 26.461 291.309 26.484 c 291.309
 79.449 l 284.691 86.07 l 231.723 86.07 l 225.102 79.449 l 225.102 26.484
 l 221.59 26.5 218.223 25.09 215.77 22.578 c 213.254 20.125 211.844 16.754
 211.863 13.242 c 211.883 5.938 217.801 0.023 225.102 0 c 291.309 0 l 294.824
 -0.02 298.191 1.391 300.645 3.906 c 303.16 6.359 304.57 9.727 304.551 13.242
 c h
304.551 13.242 m f
172.137 13.242 m 172.117 20.547 166.199 26.461 158.898 26.484 c 158.898
 79.449 l 152.277 86.07 l 99.309 86.07 l 92.691 79.449 l 92.691 26.484 l
 89.176 26.5 85.809 25.09 83.355 22.578 c 80.84 20.125 79.43 16.754 79.449
 13.242 c 79.469 5.938 85.387 0.023 92.691 0 c 158.898 0 l 162.41 -0.02 
165.777 1.391 168.23 3.906 c 170.746 6.359 172.156 9.727 172.137 13.242 
c h
172.137 13.242 m f
1 0.67451 0.278431 rg
39.723 225.102 m 344.277 225.102 l 351.59 225.102 357.516 231.031 357.516
 238.344 c 357.516 251.586 l 26.484 251.586 l 26.484 238.344 l 26.484 231.031
 32.41 225.102 39.723 225.102 c h
39.723 225.102 m f
0.572549 0.819608 0.286275 rg
291.309 79.449 m 291.309 165.516 l 291.309 183.801 276.488 198.621 258.207
 198.621 c 239.926 198.621 225.102 183.801 225.102 165.516 c 225.102 79.449
 l h
291.309 79.449 m f
0.94902 0.537255 0.792157 rg
158.898 79.449 m 158.898 165.516 l 158.898 183.801 144.074 198.621 125.793
 198.621 c 107.512 198.621 92.691 183.801 92.691 165.516 c 92.691 79.449
 l h
158.898 79.449 m f
0.956863 0.568627 0 rg
46.344 225.102 m 46.344 52.965 l 46.344 49.309 49.309 46.344 52.965 46.344
 c 56.621 46.344 59.586 49.309 59.586 52.965 c 59.586 225.102 l h
46.344 225.102 m f
324.414 225.102 m 324.414 52.965 l 324.414 49.309 327.379 46.344 331.035
 46.344 c 334.691 46.344 337.656 49.309 337.656 52.965 c 337.656 225.102
 l h
324.414 225.102 m f
0.545098 0.576471 0.635294 rg
205.242 284.691 m 178.758 284.691 l 175.102 284.691 172.137 281.727 172.137
 278.07 c 172.137 274.414 175.102 271.449 178.758 271.449 c 205.242 271.449
 l 208.898 271.449 211.863 274.414 211.863 278.07 c 211.863 281.727 208.898
 284.691 205.242 284.691 c h
205.242 284.691 m f
0.733333 0.756863 0.807843 rg
119.172 33.102 m 119.172 36.762 116.207 39.723 112.551 39.723 c 92.691 
39.723 l 92.691 26.484 l 112.551 26.484 l 116.207 26.484 119.172 29.445 
119.172 33.102 c h
119.172 33.102 m f
158.898 26.484 m 158.898 39.723 l 139.035 39.723 l 135.379 39.723 132.414
 36.762 132.414 33.102 c 132.414 29.445 135.379 26.484 139.035 26.484 c 
h
158.898 26.484 m f
1 0.67451 0.278431 rg
92.691 59.586 m 26.484 59.586 l 22.828 59.586 19.863 56.621 19.863 52.965
 c 19.863 49.309 22.828 46.344 26.484 46.344 c 92.691 46.344 l h
92.691 59.586 m f
0.733333 0.756863 0.807843 rg
291.309 26.484 m 291.309 39.723 l 271.449 39.723 l 267.793 39.723 264.828
 36.762 264.828 33.102 c 264.828 29.445 267.793 26.484 271.449 26.484 c 
h
291.309 26.484 m f
251.586 33.102 m 251.586 36.762 248.621 39.723 244.965 39.723 c 225.102
 39.723 l 225.102 26.484 l 244.965 26.484 l 248.621 26.484 251.586 29.445
 251.586 33.102 c h
251.586 33.102 m f
1 0.67451 0.278431 rg
291.309 46.344 m 357.516 46.344 l 361.172 46.344 364.137 49.309 364.137
 52.965 c 364.137 56.621 361.172 59.586 357.516 59.586 c 291.309 59.586 
l h
291.309 46.344 m f
158.898 46.344 66.203 13.242 re f
Q Q
showpage
%%Trailer
end
%%EOF
