%!PS-Adobe-3.0 EPSF-3.0
%%Creator: cairo 1.16.0 (https://cairographics.org)
%%CreationDate: Fri Aug  2 09:46:37 2019
%%Pages: 1
%%DocumentData: Clean7Bit
%%LanguageLevel: 2
%%BoundingBox: 0 0 384 384
%%EndComments
%%BeginProlog
50 dict begin
/q { gsave } bind def
/Q { grestore } bind def
/cm { 6 array astore concat } bind def
/w { setlinewidth } bind def
/J { setlinecap } bind def
/j { setlinejoin } bind def
/M { setmiterlimit } bind def
/d { setdash } bind def
/m { moveto } bind def
/l { lineto } bind def
/c { curveto } bind def
/h { closepath } bind def
/re { exch dup neg 3 1 roll 5 3 roll moveto 0 rlineto
      0 exch rlineto 0 rlineto closepath } bind def
/S { stroke } bind def
/f { fill } bind def
/f* { eofill } bind def
/n { newpath } bind def
/W { clip } bind def
/W* { eoclip } bind def
/BT { } bind def
/ET { } bind def
/BDC { mark 3 1 roll /BDC pdfmark } bind def
/EMC { mark /EMC pdfmark } bind def
/cairo_store_point { /cairo_point_y exch def /cairo_point_x exch def } def
/Tj { show currentpoint cairo_store_point } bind def
/TJ {
  {
    dup
    type /stringtype eq
    { show } { -0.001 mul 0 cairo_font_matrix dtransform rmoveto } ifelse
  } forall
  currentpoint cairo_store_point
} bind def
/cairo_selectfont { cairo_font_matrix aload pop pop pop 0 0 6 array astore
    cairo_font exch selectfont cairo_point_x cairo_point_y moveto } bind def
/Tf { pop /cairo_font exch def /cairo_font_matrix where
      { pop cairo_selectfont } if } bind def
/Td { matrix translate cairo_font_matrix matrix concatmatrix dup
      /cairo_font_matrix exch def dup 4 get exch 5 get cairo_store_point
      /cairo_font where { pop cairo_selectfont } if } bind def
/Tm { 2 copy 8 2 roll 6 array astore /cairo_font_matrix exch def
      cairo_store_point /cairo_font where { pop cairo_selectfont } if } bind def
/g { setgray } bind def
/rg { setrgbcolor } bind def
/d1 { setcachedevice } bind def
/cairo_data_source {
  CairoDataIndex CairoData length lt
    { CairoData CairoDataIndex get /CairoDataIndex CairoDataIndex 1 add def }
    { () } ifelse
} def
/cairo_flush_ascii85_file { cairo_ascii85_file status { cairo_ascii85_file flushfile } if } def
/cairo_image { image cairo_flush_ascii85_file } def
/cairo_imagemask { imagemask cairo_flush_ascii85_file } def
%%EndProlog
%%BeginSetup
%%EndSetup
%%Page: 1 1
%%BeginPageSetup
%%PageBoundingBox: 0 0 384 384
%%EndPageSetup
q 0 0 384 384 rectclip
1 0 0 -1 0 384 cm q
0.807843 0.823529 0.862745 rg
211.863 244.965 m 255.738 244.965 291.309 280.535 291.309 324.414 c 291.309
 370.758 l 291.289 378.062 285.371 383.977 278.07 384 c 13.242 384 l 5.938
 383.977 0.023 378.062 0 370.758 c 0 324.414 l 0 280.535 35.57 244.965 79.449
 244.965 c h
211.863 244.965 m f
0.0352941 0.439216 0.870588 rg
211.863 244.965 m 178.758 384 l 112.551 384 l 79.449 244.965 l h
211.863 244.965 m f
0.733333 0.756863 0.807843 rg
112.551 384 m 86.07 384 l 47.535 329.91 l 46.484 328.465 46.098 326.641
 46.48 324.895 c 46.859 323.148 47.965 321.648 49.523 320.773 c 56.012 316.668
 l 57.953 315.516 59.141 313.43 59.141 311.172 c 59.141 308.918 57.953 306.828
 56.012 305.676 c 49.855 301.836 l 48.262 300.887 47.152 299.297 46.809 
297.473 c 46.469 295.648 46.926 293.766 48.066 292.305 c 79.449 244.965 
l h
112.551 384 m f
178.758 384 m 205.242 384 l 243.773 329.91 l 244.824 328.465 245.211 326.641
 244.832 324.895 c 244.453 323.148 243.344 321.648 241.789 320.773 c 235.301
 316.668 l 233.359 315.516 232.168 313.43 232.168 311.172 c 232.168 308.918
 233.359 306.828 235.301 305.676 c 241.457 301.836 l 243.051 300.887 244.16
 299.297 244.5 297.473 c 244.844 295.648 244.387 293.766 243.242 292.305
 c 211.863 244.965 l h
178.758 384 m f
0.894118 0.682353 0.501961 rg
201.27 212.723 m 211.598 244.039 l 211.598 244.105 l 206.961 252.91 l 199.414
 262.707 181.738 278.07 145.656 278.07 c 92.691 278.07 79.449 244.965 79.449
 244.965 c 90.043 212.723 l h
201.27 212.723 m f
0.509804 0.384314 0.294118 rg
65.016 103.746 m 58.062 86.27 30.852 0 145.324 0 c 258.934 0 232.98 85.008
 225.766 103.348 c 218.484 119.172 l 72.828 119.172 l h
65.016 103.746 m f
0.941176 0.74902 0.576471 rg
145.656 244.965 m 160.789 244.965 204.879 214.027 211.73 201.004 c 215.426
 192.84 217.566 184.059 218.031 175.109 c 218.344 172.094 220.629 169.656
 223.621 169.152 c 230.5 168.18 235.406 161.977 234.77 155.055 c 235.113
 147.453 237.293 140.047 241.125 133.473 c 250.242 116.258 241.637 104.422
 230.664 105.211 c 227.395 105.414 224.484 103.137 223.898 99.914 c 221.469
 86.512 214.449 57.289 198.262 47.379 c 195.391 45.629 191.664 46.312 189.598
 48.965 c 185.227 54.926 173.676 65.109 145.656 65.109 c 117.637 65.109 
106.082 54.953 101.715 48.934 c 99.648 46.281 95.922 45.598 93.047 47.344
 c 76.859 57.277 69.84 86.48 67.41 99.879 c 66.824 103.105 63.918 105.379
 60.645 105.176 c 49.656 104.422 41.047 116.258 50.184 133.473 c 54.016 
140.047 56.199 147.453 56.539 155.055 c 55.918 161.965 60.82 168.152 67.691
 169.125 c 70.68 169.629 72.969 172.066 73.277 175.086 c 73.746 184.031 
75.883 192.816 79.582 200.977 c 86.434 214.027 130.52 244.965 145.656 244.965
 c h
145.656 244.965 m f
0.94902 0.956863 0.968627 rg
86.07 99.309 m 145.656 99.309 l 145.656 119.172 l 145.656 130.141 136.762
 139.035 125.793 139.035 c 99.309 139.035 l 91.996 139.035 86.07 133.105
 86.07 125.793 c h
86.07 99.309 m f
145.656 99.309 m 205.242 99.309 l 205.242 125.793 l 205.242 133.105 199.312
 139.035 192 139.035 c 165.516 139.035 l 154.547 139.035 145.656 130.141
 145.656 119.172 c h
145.656 99.309 m f
0.160784 0.329412 0.454902 rg
384 291.309 m 384 342.5 342.5 384 291.309 384 c 240.121 384 198.621 342.5
 198.621 291.309 c 198.621 240.121 240.121 198.621 291.309 198.621 c 342.5
 198.621 384 240.121 384 291.309 c h
384 291.309 m f
0.733333 0.756863 0.807843 rg
271.449 317.793 39.723 33.105 re f
0.847059 0.866667 0.898039 rg
337.656 297.93 m 337.656 317.793 l 337.656 321.449 334.691 324.414 331.035
 324.414 c 251.586 324.414 l 247.93 324.414 244.965 321.449 244.965 317.793
 c 244.965 297.93 l h
337.656 297.93 m f
0.0352941 0.439216 0.870588 rg
337.656 251.586 m 337.656 297.93 l 244.965 297.93 l 244.965 251.586 l 244.965
 247.93 247.93 244.965 251.586 244.965 c 331.035 244.965 l 334.691 244.965
 337.656 247.93 337.656 251.586 c h
337.656 251.586 m f
0.384314 0.415686 0.466667 rg
223.781 92.691 m 67.531 92.691 l 63.875 92.691 60.91 95.652 60.91 99.309
 c 60.91 102.969 63.875 105.93 67.531 105.93 c 79.449 105.93 l 79.449 125.793
 l 79.449 136.762 88.34 145.656 99.309 145.656 c 125.793 145.656 l 133.426
 145.633 140.676 142.293 145.656 136.504 c 150.637 142.293 157.883 145.633
 165.516 145.656 c 192 145.656 l 202.969 145.656 211.863 136.762 211.863
 125.793 c 211.863 105.93 l 223.781 105.93 l 227.438 105.93 230.398 102.969
 230.398 99.309 c 230.398 95.652 227.438 92.691 223.781 92.691 c h
125.793 132.414 m 99.309 132.414 l 95.652 132.414 92.691 129.449 92.691
 125.793 c 92.691 105.93 l 139.035 105.93 l 139.035 119.172 l 139.035 126.484
 133.105 132.414 125.793 132.414 c h
198.621 125.793 m 198.621 129.449 195.656 132.414 192 132.414 c 165.516
 132.414 l 158.203 132.414 152.277 126.484 152.277 119.172 c 152.277 105.93
 l 198.621 105.93 l h
198.621 125.793 m f
0.262745 0.611765 0.972549 rg
320.973 244.965 m 278.598 297.93 l 261.648 297.93 l 304.023 244.965 l h
320.973 244.965 m f
0.847059 0.866667 0.898039 rg
324.414 357.516 m 258.207 357.516 l 254.551 357.516 251.586 354.555 251.586
 350.898 c 251.586 347.238 254.551 344.277 258.207 344.277 c 324.414 344.277
 l 328.07 344.277 331.035 347.238 331.035 350.898 c 331.035 354.555 328.07
 357.516 324.414 357.516 c h
324.414 357.516 m f
Q Q
showpage
%%Trailer
end
%%EOF
