%!PS-Adobe-3.0 EPSF-3.0
%%Creator: cairo 1.16.0 (https://cairographics.org)
%%CreationDate: Fri Aug  2 09:46:37 2019
%%Pages: 1
%%DocumentData: Clean7Bit
%%LanguageLevel: 2
%%BoundingBox: 0 0 384 384
%%EndComments
%%BeginProlog
50 dict begin
/q { gsave } bind def
/Q { grestore } bind def
/cm { 6 array astore concat } bind def
/w { setlinewidth } bind def
/J { setlinecap } bind def
/j { setlinejoin } bind def
/M { setmiterlimit } bind def
/d { setdash } bind def
/m { moveto } bind def
/l { lineto } bind def
/c { curveto } bind def
/h { closepath } bind def
/re { exch dup neg 3 1 roll 5 3 roll moveto 0 rlineto
      0 exch rlineto 0 rlineto closepath } bind def
/S { stroke } bind def
/f { fill } bind def
/f* { eofill } bind def
/n { newpath } bind def
/W { clip } bind def
/W* { eoclip } bind def
/BT { } bind def
/ET { } bind def
/BDC { mark 3 1 roll /BDC pdfmark } bind def
/EMC { mark /EMC pdfmark } bind def
/cairo_store_point { /cairo_point_y exch def /cairo_point_x exch def } def
/Tj { show currentpoint cairo_store_point } bind def
/TJ {
  {
    dup
    type /stringtype eq
    { show } { -0.001 mul 0 cairo_font_matrix dtransform rmoveto } ifelse
  } forall
  currentpoint cairo_store_point
} bind def
/cairo_selectfont { cairo_font_matrix aload pop pop pop 0 0 6 array astore
    cairo_font exch selectfont cairo_point_x cairo_point_y moveto } bind def
/Tf { pop /cairo_font exch def /cairo_font_matrix where
      { pop cairo_selectfont } if } bind def
/Td { matrix translate cairo_font_matrix matrix concatmatrix dup
      /cairo_font_matrix exch def dup 4 get exch 5 get cairo_store_point
      /cairo_font where { pop cairo_selectfont } if } bind def
/Tm { 2 copy 8 2 roll 6 array astore /cairo_font_matrix exch def
      cairo_store_point /cairo_font where { pop cairo_selectfont } if } bind def
/g { setgray } bind def
/rg { setrgbcolor } bind def
/d1 { setcachedevice } bind def
/cairo_data_source {
  CairoDataIndex CairoData length lt
    { CairoData CairoDataIndex get /CairoDataIndex CairoDataIndex 1 add def }
    { () } ifelse
} def
/cairo_flush_ascii85_file { cairo_ascii85_file status { cairo_ascii85_file flushfile } if } def
/cairo_image { image cairo_flush_ascii85_file } def
/cairo_imagemask { imagemask cairo_flush_ascii85_file } def
%%EndProlog
%%BeginSetup
%%EndSetup
%%Page: 1 1
%%BeginPageSetup
%%PageBoundingBox: 0 0 384 384
%%EndPageSetup
q 0 0 384 384 rectclip
1 0 0 -1 0 384 cm q
0.509804 0.384314 0.294118 rg
52.965 271.449 m 52.965 92.691 l 52.965 41.5 94.465 0 145.656 0 c 196.848
 0 238.344 41.5 238.344 92.691 c 238.344 271.449 l h
52.965 271.449 m f
0.807843 0.823529 0.862745 rg
205.242 244.965 m 249.137 244.965 291.309 280.52 291.309 324.414 c 291.309
 370.758 l 291.289 378.062 285.371 383.977 278.07 384 c 13.242 384 l 5.938
 383.977 0.023 378.062 0 370.758 c 0 324.414 l 0 280.52 42.172 244.965 86.07
 244.965 c h
205.242 244.965 m f
0.929412 0.458824 0.717647 rg
205.242 244.965 m 178.758 384 l 112.551 384 l 86.07 244.965 l h
205.242 244.965 m f
0.733333 0.756863 0.807843 rg
86.07 384 m 47.535 329.922 l 46.5 328.465 46.129 326.641 46.504 324.895
 c 46.883 323.145 47.977 321.637 49.523 320.738 c 56.031 316.68 l 57.984
 315.535 59.184 313.438 59.184 311.172 c 59.184 308.906 57.984 306.812 56.031
 305.664 c 49.859 301.812 l 48.262 300.875 47.152 299.289 46.816 297.469
 c 46.484 295.648 46.961 293.77 48.125 292.328 c 86.07 244.965 l 112.551
 384 l h
86.07 384 m f
205.242 384 m 243.773 329.922 l 244.809 328.465 245.184 326.641 244.805
 324.895 c 244.426 323.145 243.332 321.637 241.789 320.738 c 235.281 316.68
 l 233.328 315.535 232.129 313.438 232.129 311.172 c 232.129 308.906 233.328
 306.812 235.281 305.664 c 241.449 301.812 l 243.047 300.875 244.16 299.289
 244.492 297.469 c 244.828 295.648 244.348 293.77 243.184 292.328 c 205.242
 244.965 l 178.758 384 l h
205.242 384 m f
0.160784 0.329412 0.454902 rg
384 291.309 m 384 342.5 342.5 384 291.309 384 c 240.121 384 198.621 342.5
 198.621 291.309 c 198.621 240.121 240.121 198.621 291.309 198.621 c 342.5
 198.621 384 240.121 384 291.309 c h
384 291.309 m f
0.733333 0.756863 0.807843 rg
271.449 317.793 39.723 33.105 re f
0.847059 0.866667 0.898039 rg
337.656 297.93 m 337.656 317.793 l 337.656 321.449 334.691 324.414 331.035
 324.414 c 251.586 324.414 l 247.93 324.414 244.965 321.449 244.965 317.793
 c 244.965 297.93 l h
337.656 297.93 m f
0.0352941 0.439216 0.870588 rg
337.656 251.586 m 337.656 297.93 l 244.965 297.93 l 244.965 251.586 l 244.965
 247.93 247.93 244.965 251.586 244.965 c 331.035 244.965 l 334.691 244.965
 337.656 247.93 337.656 251.586 c h
337.656 251.586 m f
0.894118 0.682353 0.501961 rg
192.199 210.141 m 205.242 244.965 l 205.242 244.965 198.621 278.07 145.656
 278.07 c 92.691 278.07 86.07 244.965 86.07 244.965 c 99.113 210.141 l h
192.199 210.141 m f
0.941176 0.74902 0.576471 rg
145.656 244.965 m 180.082 244.965 205.062 188.637 211.152 173.516 c 212.004
 171.406 213.91 169.906 216.16 169.574 c 223.609 168.953 229.215 162.52 
228.812 155.055 c 229.121 147.523 231.16 140.16 234.77 133.539 c 242.449
 117.914 236.625 106.793 227.883 105.336 c 227.027 105.207 226.168 105.129
 225.301 105.102 c 221.691 105.082 218.754 102.188 218.68 98.574 c 218.68
 98.27 l 218.637 91.305 213.848 85.266 207.074 83.633 c 190.246 79.539 159.242
 70.008 145.656 52.965 c 132.07 70.008 101.066 79.539 84.223 83.633 c 77.449
 85.266 72.66 91.305 72.617 98.27 c 72.617 98.574 l 72.543 102.188 69.605
 105.082 65.996 105.102 c 65.129 105.129 64.27 105.207 63.414 105.336 c 
54.672 106.793 48.848 117.914 56.527 133.539 c 60.137 140.16 62.176 147.523
 62.484 155.055 c 62.086 162.52 67.688 168.953 75.137 169.574 c 77.387 169.906
 79.293 171.406 80.145 173.516 c 86.246 188.637 111.262 244.965 145.656 
244.965 c h
145.656 244.965 m f
0.94902 0.956863 0.968627 rg
92.691 105.93 m 145.656 105.93 l 145.656 125.793 l 145.656 136.762 136.762
 145.656 125.793 145.656 c 105.93 145.656 l 98.617 145.656 92.691 139.727
 92.691 132.414 c h
92.691 105.93 m f
145.656 105.93 m 198.621 105.93 l 198.621 132.414 l 198.621 139.727 192.691
 145.656 185.379 145.656 c 165.516 145.656 l 154.547 145.656 145.656 136.762
 145.656 125.793 c h
145.656 105.93 m f
0.262745 0.611765 0.972549 rg
320.973 244.965 m 278.598 297.93 l 261.648 297.93 l 304.023 244.965 l h
320.973 244.965 m f
0.847059 0.866667 0.898039 rg
324.414 357.516 m 258.207 357.516 l 254.551 357.516 251.586 354.555 251.586
 350.898 c 251.586 347.238 254.551 344.277 258.207 344.277 c 324.414 344.277
 l 328.07 344.277 331.035 347.238 331.035 350.898 c 331.035 354.555 328.07
 357.516 324.414 357.516 c h
324.414 357.516 m f
0.384314 0.415686 0.466667 rg
230.004 99.309 m 61.309 99.309 l 57.652 99.309 54.688 102.273 54.688 105.93
 c 54.688 109.586 57.652 112.551 61.309 112.551 c 86.07 112.551 l 86.07 
132.414 l 86.102 143.371 94.977 152.242 105.93 152.277 c 125.793 152.277
 l 133.426 152.262 140.676 148.926 145.656 143.141 c 150.633 148.926 157.883
 152.262 165.516 152.277 c 185.379 152.277 l 196.336 152.242 205.207 143.371
 205.242 132.414 c 205.242 112.551 l 230.004 112.551 l 233.66 112.551 236.625
 109.586 236.625 105.93 c 236.625 102.273 233.66 99.309 230.004 99.309 c
 h
139.035 125.793 m 139.012 133.098 133.098 139.012 125.793 139.035 c 105.93
 139.035 l 102.273 139.035 99.309 136.07 99.309 132.414 c 99.309 112.551
 l 139.035 112.551 l h
192 132.414 m 192 136.07 189.035 139.035 185.379 139.035 c 165.516 139.035
 l 158.215 139.012 152.297 133.098 152.277 125.793 c 152.277 112.551 l 192
 112.551 l h
192 132.414 m f
Q Q
showpage
%%Trailer
end
%%EOF
