%!PS-Adobe-3.0 EPSF-3.0
%%Creator: cairo 1.16.0 (https://cairographics.org)
%%CreationDate: Fri Aug  2 09:46:38 2019
%%Pages: 1
%%DocumentData: Clean7Bit
%%LanguageLevel: 2
%%BoundingBox: 0 0 384 384
%%EndComments
%%BeginProlog
50 dict begin
/q { gsave } bind def
/Q { grestore } bind def
/cm { 6 array astore concat } bind def
/w { setlinewidth } bind def
/J { setlinecap } bind def
/j { setlinejoin } bind def
/M { setmiterlimit } bind def
/d { setdash } bind def
/m { moveto } bind def
/l { lineto } bind def
/c { curveto } bind def
/h { closepath } bind def
/re { exch dup neg 3 1 roll 5 3 roll moveto 0 rlineto
      0 exch rlineto 0 rlineto closepath } bind def
/S { stroke } bind def
/f { fill } bind def
/f* { eofill } bind def
/n { newpath } bind def
/W { clip } bind def
/W* { eoclip } bind def
/BT { } bind def
/ET { } bind def
/BDC { mark 3 1 roll /BDC pdfmark } bind def
/EMC { mark /EMC pdfmark } bind def
/cairo_store_point { /cairo_point_y exch def /cairo_point_x exch def } def
/Tj { show currentpoint cairo_store_point } bind def
/TJ {
  {
    dup
    type /stringtype eq
    { show } { -0.001 mul 0 cairo_font_matrix dtransform rmoveto } ifelse
  } forall
  currentpoint cairo_store_point
} bind def
/cairo_selectfont { cairo_font_matrix aload pop pop pop 0 0 6 array astore
    cairo_font exch selectfont cairo_point_x cairo_point_y moveto } bind def
/Tf { pop /cairo_font exch def /cairo_font_matrix where
      { pop cairo_selectfont } if } bind def
/Td { matrix translate cairo_font_matrix matrix concatmatrix dup
      /cairo_font_matrix exch def dup 4 get exch 5 get cairo_store_point
      /cairo_font where { pop cairo_selectfont } if } bind def
/Tm { 2 copy 8 2 roll 6 array astore /cairo_font_matrix exch def
      cairo_store_point /cairo_font where { pop cairo_selectfont } if } bind def
/g { setgray } bind def
/rg { setrgbcolor } bind def
/d1 { setcachedevice } bind def
/cairo_data_source {
  CairoDataIndex CairoData length lt
    { CairoData CairoDataIndex get /CairoDataIndex CairoDataIndex 1 add def }
    { () } ifelse
} def
/cairo_flush_ascii85_file { cairo_ascii85_file status { cairo_ascii85_file flushfile } if } def
/cairo_image { image cairo_flush_ascii85_file } def
/cairo_imagemask { imagemask cairo_flush_ascii85_file } def
%%EndProlog
%%BeginSetup
%%EndSetup
%%Page: 1 1
%%BeginPageSetup
%%PageBoundingBox: 0 0 384 384
%%EndPageSetup
q 0 0 384 384 rectclip
1 0 0 -1 0 384 cm q
0.509804 0.384314 0.294118 rg
276.48 265.688 m 373.406 337.125 l 382.457 343.789 386.191 355.516 382.664
 366.188 c 379.137 376.855 369.145 384.043 357.906 384 c 350.988 384 344.348
 381.262 339.438 376.387 c 251.055 288.266 l h
276.48 265.688 m f
0.807843 0.823529 0.862745 rg
317.793 158.898 m 317.793 246.652 246.652 317.793 158.898 317.793 c 71.141
 317.793 0 246.652 0 158.898 c 0 71.141 71.141 0 158.898 0 c 246.652 0 317.793
 71.141 317.793 158.898 c h
317.793 158.898 m f
0.156863 0.521569 0.933333 rg
291.309 158.898 m 291.309 232.027 232.027 291.309 158.898 291.309 c 85.766
 291.309 26.484 232.027 26.484 158.898 c 26.484 85.766 85.766 26.484 158.898
 26.484 c 232.027 26.484 291.309 85.766 291.309 158.898 c h
291.309 158.898 m f
0.160784 0.329412 0.454902 rg
115.133 147.773 m 108.445 128.586 115.039 107.281 131.391 95.219 c 147.746
 83.16 170.047 83.16 186.402 95.219 c 202.758 107.281 209.348 128.586 202.66
 147.773 c h
115.133 147.773 m f
0.203922 0.427451 0.580392 rg
231.723 211.863 m 231.723 214.113 231.656 216.297 231.461 218.484 c 228.414
 259.266 197.098 291.309 158.898 291.309 c 120.695 291.309 89.379 259.266
 86.332 218.484 c 86.137 216.297 86.07 214.113 86.07 211.863 c 86.07 209.609
 86.137 207.426 86.332 205.242 c 87.32 191.637 91.617 178.477 98.848 166.906
 c 110.672 148.125 130.262 135.598 152.277 132.746 c 154.461 132.547 156.645
 132.414 158.898 132.414 c 161.148 132.414 163.332 132.547 165.516 132.746
 c 187.531 135.598 207.121 148.125 218.945 166.906 c 226.18 178.477 230.473
 191.637 231.461 205.242 c 231.656 207.426 231.723 209.609 231.723 211.863
 c h
231.723 211.863 m f
0.262745 0.611765 0.972549 rg
158.898 297.93 m 90.246 297.945 31.863 247.852 21.445 179.996 c 11.027 
112.141 51.695 46.84 117.188 26.258 c 119.465 25.469 121.992 25.98 123.785
 27.59 c 125.574 29.203 126.352 31.664 125.805 34.012 c 125.258 36.359 123.477
 38.227 121.16 38.883 c 58.402 58.59 21.414 123.312 36.289 187.387 c 51.164
 251.461 112.883 293.266 177.906 283.305 c 242.926 273.348 289.305 214.988
 284.32 149.398 c 279.336 83.809 224.676 33.125 158.898 33.102 c 155.238
 33.102 152.277 30.141 152.277 26.484 c 152.277 22.828 155.238 19.863 158.898
 19.863 c 235.684 19.863 297.93 82.109 297.93 158.898 c 297.93 235.684 235.684
 297.93 158.898 297.93 c h
158.898 297.93 m f
0.301961 0.541176 0.670588 rg
165.516 132.746 m 165.516 258.207 l 165.516 261.863 162.555 264.828 158.898
 264.828 c 155.238 264.828 152.277 261.863 152.277 258.207 c 152.277 132.746
 l 154.461 132.547 156.645 132.414 158.898 132.414 c 161.148 132.414 163.332
 132.547 165.516 132.746 c h
165.516 132.746 m f
0.160784 0.329412 0.454902 rg
144.332 95.012 m 141.566 95.012 139.094 93.293 138.129 90.703 c 133.902
 80.199 123.867 73.184 112.551 72.828 c 108.895 72.828 105.93 69.863 105.93
 66.207 c 105.93 62.551 108.895 59.586 112.551 59.586 c 129.406 59.906 144.402
 70.363 150.527 86.07 c 151.289 88.102 151.008 90.379 149.77 92.164 c 148.535
 93.949 146.5 95.012 144.332 95.012 c h
144.332 95.012 m f
173.461 95.012 m 171.293 95.012 169.258 93.949 168.023 92.164 c 166.785
 90.379 166.504 88.102 167.266 86.07 c 173.391 70.363 188.387 59.906 205.242
 59.586 c 208.898 59.586 211.863 62.551 211.863 66.207 c 211.863 69.863 
208.898 72.828 205.242 72.828 c 193.914 73.156 183.867 80.18 179.664 90.703
 c 178.699 93.293 176.227 95.012 173.461 95.012 c h
173.461 95.012 m f
218.945 166.906 m 216.598 163.129 213.891 159.582 210.867 156.316 c 211.387
 155.875 211.965 155.52 212.59 155.254 c 224.312 150.82 233.73 141.812 238.676
 130.297 c 239.828 126.82 243.578 124.938 247.051 126.09 c 250.523 127.242
 252.406 130.992 251.254 134.465 c 245.277 149.18 233.637 160.871 218.945
 166.906 c h
218.945 166.906 m f
86.332 205.242 m 86.137 207.426 86.07 209.609 86.07 211.863 c 86.07 214.113
 86.137 216.297 86.332 218.484 c 86.07 218.484 l 70.953 218.766 57.535 208.852
 53.363 194.316 c 52.387 190.742 54.402 187.035 57.93 185.91 c 59.582 185.402
 61.367 185.582 62.887 186.402 c 64.402 187.223 65.527 188.621 66.008 190.277
 c 68.461 199.285 76.738 205.461 86.07 205.242 c h
86.332 205.242 m f
231.461 205.242 m 231.656 207.426 231.723 209.609 231.723 211.863 c 231.723
 214.113 231.656 216.297 231.461 218.484 c 231.723 218.484 l 246.84 218.766
 260.258 208.852 264.43 194.316 c 265.406 190.742 263.391 187.035 259.863
 185.91 c 258.211 185.402 256.426 185.582 254.906 186.402 c 253.391 187.223
 252.266 188.621 251.785 190.277 c 249.332 199.285 241.055 205.461 231.723
 205.242 c h
231.461 205.242 m f
106.926 156.316 m 103.902 159.582 101.195 163.129 98.848 166.906 c 84.156
 160.871 72.516 149.18 66.539 134.465 c 65.793 132.219 66.305 129.746 67.875
 127.977 c 69.449 126.207 71.848 125.414 74.168 125.891 c 76.484 126.371
 78.371 128.047 79.117 130.297 c 84.043 141.824 93.465 150.844 105.203 155.254
 c 105.828 155.52 106.406 155.875 106.926 156.316 c h
106.926 156.316 m f
Q Q
showpage
%%Trailer
end
%%EOF
