%!PS-Adobe-3.0 EPSF-3.0
%%Creator: cairo 1.16.0 (https://cairographics.org)
%%CreationDate: Fri Aug  2 09:46:38 2019
%%Pages: 1
%%DocumentData: Clean7Bit
%%LanguageLevel: 2
%%BoundingBox: 0 0 384 384
%%EndComments
%%BeginProlog
50 dict begin
/q { gsave } bind def
/Q { grestore } bind def
/cm { 6 array astore concat } bind def
/w { setlinewidth } bind def
/J { setlinecap } bind def
/j { setlinejoin } bind def
/M { setmiterlimit } bind def
/d { setdash } bind def
/m { moveto } bind def
/l { lineto } bind def
/c { curveto } bind def
/h { closepath } bind def
/re { exch dup neg 3 1 roll 5 3 roll moveto 0 rlineto
      0 exch rlineto 0 rlineto closepath } bind def
/S { stroke } bind def
/f { fill } bind def
/f* { eofill } bind def
/n { newpath } bind def
/W { clip } bind def
/W* { eoclip } bind def
/BT { } bind def
/ET { } bind def
/BDC { mark 3 1 roll /BDC pdfmark } bind def
/EMC { mark /EMC pdfmark } bind def
/cairo_store_point { /cairo_point_y exch def /cairo_point_x exch def } def
/Tj { show currentpoint cairo_store_point } bind def
/TJ {
  {
    dup
    type /stringtype eq
    { show } { -0.001 mul 0 cairo_font_matrix dtransform rmoveto } ifelse
  } forall
  currentpoint cairo_store_point
} bind def
/cairo_selectfont { cairo_font_matrix aload pop pop pop 0 0 6 array astore
    cairo_font exch selectfont cairo_point_x cairo_point_y moveto } bind def
/Tf { pop /cairo_font exch def /cairo_font_matrix where
      { pop cairo_selectfont } if } bind def
/Td { matrix translate cairo_font_matrix matrix concatmatrix dup
      /cairo_font_matrix exch def dup 4 get exch 5 get cairo_store_point
      /cairo_font where { pop cairo_selectfont } if } bind def
/Tm { 2 copy 8 2 roll 6 array astore /cairo_font_matrix exch def
      cairo_store_point /cairo_font where { pop cairo_selectfont } if } bind def
/g { setgray } bind def
/rg { setrgbcolor } bind def
/d1 { setcachedevice } bind def
/cairo_data_source {
  CairoDataIndex CairoData length lt
    { CairoData CairoDataIndex get /CairoDataIndex CairoDataIndex 1 add def }
    { () } ifelse
} def
/cairo_flush_ascii85_file { cairo_ascii85_file status { cairo_ascii85_file flushfile } if } def
/cairo_image { image cairo_flush_ascii85_file } def
/cairo_imagemask { imagemask cairo_flush_ascii85_file } def
%%EndProlog
%%BeginSetup
%%EndSetup
%%Page: 1 1
%%BeginPageSetup
%%PageBoundingBox: 0 0 384 384
%%EndPageSetup
q 0 0 384 384 rectclip
1 0 0 -1 0 384 cm q
0.156863 0.521569 0.933333 rg
384 19.863 m 384 251.586 l 377.379 258.207 l 6.621 258.207 l 0 251.586 
l 0 19.863 l 0 8.891 8.891 0 19.863 0 c 364.137 0 l 375.109 0 384 8.891 
384 19.863 c h
384 19.863 m f
0.733333 0.756863 0.807843 rg
119.172 297.93 145.656 39.727 re f
0.847059 0.866667 0.898039 rg
311.172 357.516 m 264.828 331.035 l 119.172 331.035 l 72.828 357.516 l 
79.449 364.137 l 304.551 364.137 l h
311.172 357.516 m f
0.733333 0.756863 0.807843 rg
72.828 357.516 m 311.172 357.516 l 311.172 377.379 l 311.172 381.035 308.207
 384 304.551 384 c 79.449 384 l 75.793 384 72.828 381.035 72.828 377.379
 c h
72.828 357.516 m f
0.847059 0.866667 0.898039 rg
384 251.586 m 384 284.691 l 384 295.66 375.109 304.551 364.137 304.551 
c 19.863 304.551 l 8.891 304.551 0 295.66 0 284.691 c 0 251.586 l h
384 251.586 m f
0.545098 0.576471 0.635294 rg
205.242 284.691 m 178.758 284.691 l 175.102 284.691 172.137 281.727 172.137
 278.07 c 172.137 274.414 175.102 271.449 178.758 271.449 c 205.242 271.449
 l 208.898 271.449 211.863 274.414 211.863 278.07 c 211.863 281.727 208.898
 284.691 205.242 284.691 c h
205.242 284.691 m f
1 g
49.656 26.484 m 36.855 26.484 26.484 36.855 26.484 49.656 c 26.484 82.758
 l 26.484 95.555 36.855 105.93 49.656 105.93 c 62.453 105.93 72.828 95.555
 72.828 82.758 c 72.828 49.656 l 72.828 36.855 62.453 26.484 49.656 26.484
 c h
59.586 82.758 m 59.586 88.242 55.141 92.691 49.656 92.691 c 44.172 92.691
 39.723 88.242 39.723 82.758 c 39.723 49.656 l 39.723 44.172 44.172 39.723
 49.656 39.723 c 55.141 39.723 59.586 44.172 59.586 49.656 c h
59.586 82.758 m f
215.172 26.484 m 202.375 26.484 192 36.855 192 49.656 c 192 82.758 l 192
 95.555 202.375 105.93 215.172 105.93 c 227.969 105.93 238.344 95.555 238.344
 82.758 c 238.344 49.656 l 238.344 36.855 227.969 26.484 215.172 26.484 
c h
225.102 82.758 m 225.102 88.242 220.656 92.691 215.172 92.691 c 209.688
 92.691 205.242 88.242 205.242 82.758 c 205.242 49.656 l 205.242 44.172 
209.688 39.723 215.172 39.723 c 220.656 39.723 225.102 44.172 225.102 49.656
 c h
225.102 82.758 m f
274.758 26.484 m 261.961 26.484 251.586 36.855 251.586 49.656 c 251.586
 82.758 l 251.586 95.555 261.961 105.93 274.758 105.93 c 287.555 105.93 
297.93 95.555 297.93 82.758 c 297.93 49.656 l 297.93 36.855 287.555 26.484
 274.758 26.484 c h
284.691 82.758 m 284.691 88.242 280.242 92.691 274.758 92.691 c 269.273
 92.691 264.828 88.242 264.828 82.758 c 264.828 49.656 l 264.828 44.172 
269.273 39.723 274.758 39.723 c 280.242 39.723 284.691 44.172 284.691 49.656
 c h
284.691 82.758 m f
119.172 92.691 m 112.551 92.691 l 112.551 33.102 l 112.551 30.426 110.938
 28.012 108.465 26.988 c 105.992 25.965 103.145 26.531 101.25 28.422 c 88.008
 41.664 l 85.5 44.262 85.535 48.391 88.09 50.945 c 90.645 53.5 94.773 53.535
 97.371 51.027 c 99.309 49.086 l 99.309 92.691 l 92.691 92.691 l 89.031 
92.691 86.07 95.652 86.07 99.309 c 86.07 102.969 89.031 105.93 92.691 105.93
 c 119.172 105.93 l 122.828 105.93 125.793 102.969 125.793 99.309 c 125.793
 95.652 122.828 92.691 119.172 92.691 c h
119.172 92.691 m f
172.137 92.691 m 165.516 92.691 l 165.516 33.102 l 165.516 30.426 163.902
 28.012 161.43 26.988 c 158.957 25.965 156.109 26.531 154.215 28.422 c 140.973
 41.664 l 138.465 44.262 138.5 48.391 141.055 50.945 c 143.609 53.5 147.738
 53.535 150.336 51.027 c 152.277 49.086 l 152.277 92.691 l 145.656 92.691
 l 142 92.691 139.035 95.652 139.035 99.309 c 139.035 102.969 142 105.93
 145.656 105.93 c 172.137 105.93 l 175.793 105.93 178.758 102.969 178.758
 99.309 c 178.758 95.652 175.793 92.691 172.137 92.691 c h
172.137 92.691 m f
344.277 92.691 m 337.656 92.691 l 337.656 33.102 l 337.656 30.426 336.043
 28.012 333.566 26.988 c 331.094 25.965 328.246 26.531 326.355 28.422 c 
313.113 41.664 l 310.602 44.262 310.641 48.391 313.191 50.945 c 315.746 
53.5 319.875 53.535 322.473 51.027 c 324.414 49.086 l 324.414 92.691 l 317.793
 92.691 l 314.137 92.691 311.172 95.652 311.172 99.309 c 311.172 102.969
 314.137 105.93 317.793 105.93 c 344.277 105.93 l 347.934 105.93 350.898
 102.969 350.898 99.309 c 350.898 95.652 347.934 92.691 344.277 92.691 c
 h
344.277 92.691 m f
0.670588 0.870588 0.384314 rg
152.277 218.484 m 150.52 218.48 148.836 217.785 147.594 216.543 c 107.871
 176.82 l 105.285 174.234 105.285 170.043 107.871 167.457 c 147.594 127.734
 l 150.191 125.223 154.32 125.262 156.875 127.812 c 159.43 130.367 159.465
 134.496 156.957 137.094 c 121.914 172.137 l 156.957 207.18 l 158.848 209.074
 159.414 211.922 158.391 214.395 c 157.367 216.867 154.953 218.48 152.277
 218.484 c h
152.277 218.484 m f
231.723 218.484 m 229.047 218.48 226.633 216.867 225.609 214.395 c 224.586
 211.922 225.152 209.074 227.043 207.18 c 262.086 172.137 l 227.043 137.094
 l 224.535 134.496 224.57 130.367 227.125 127.812 c 229.68 125.262 233.809
 125.223 236.406 127.734 c 276.129 167.457 l 278.715 170.043 278.715 174.234
 276.129 176.82 c 236.406 216.543 l 235.164 217.785 233.48 218.48 231.723
 218.484 c h
231.723 218.484 m f
178.758 231.723 m 176.699 231.727 174.758 230.77 173.504 229.137 c 172.25
 227.508 171.824 225.383 172.355 223.395 c 198.84 124.086 l 199.418 121.766
 201.203 119.938 203.508 119.301 c 205.816 118.668 208.285 119.328 209.969
 121.027 c 211.648 122.727 212.285 125.199 211.629 127.5 c 185.148 226.812
 l 184.375 229.707 181.754 231.723 178.758 231.723 c h
178.758 231.723 m f
Q Q
showpage
%%Trailer
end
%%EOF
