%!PS-Adobe-3.0 EPSF-3.0
%%Creator: cairo 1.16.0 (https://cairographics.org)
%%CreationDate: Fri Aug  2 09:46:38 2019
%%Pages: 1
%%DocumentData: Clean7Bit
%%LanguageLevel: 2
%%BoundingBox: 0 0 384 384
%%EndComments
%%BeginProlog
50 dict begin
/q { gsave } bind def
/Q { grestore } bind def
/cm { 6 array astore concat } bind def
/w { setlinewidth } bind def
/J { setlinecap } bind def
/j { setlinejoin } bind def
/M { setmiterlimit } bind def
/d { setdash } bind def
/m { moveto } bind def
/l { lineto } bind def
/c { curveto } bind def
/h { closepath } bind def
/re { exch dup neg 3 1 roll 5 3 roll moveto 0 rlineto
      0 exch rlineto 0 rlineto closepath } bind def
/S { stroke } bind def
/f { fill } bind def
/f* { eofill } bind def
/n { newpath } bind def
/W { clip } bind def
/W* { eoclip } bind def
/BT { } bind def
/ET { } bind def
/BDC { mark 3 1 roll /BDC pdfmark } bind def
/EMC { mark /EMC pdfmark } bind def
/cairo_store_point { /cairo_point_y exch def /cairo_point_x exch def } def
/Tj { show currentpoint cairo_store_point } bind def
/TJ {
  {
    dup
    type /stringtype eq
    { show } { -0.001 mul 0 cairo_font_matrix dtransform rmoveto } ifelse
  } forall
  currentpoint cairo_store_point
} bind def
/cairo_selectfont { cairo_font_matrix aload pop pop pop 0 0 6 array astore
    cairo_font exch selectfont cairo_point_x cairo_point_y moveto } bind def
/Tf { pop /cairo_font exch def /cairo_font_matrix where
      { pop cairo_selectfont } if } bind def
/Td { matrix translate cairo_font_matrix matrix concatmatrix dup
      /cairo_font_matrix exch def dup 4 get exch 5 get cairo_store_point
      /cairo_font where { pop cairo_selectfont } if } bind def
/Tm { 2 copy 8 2 roll 6 array astore /cairo_font_matrix exch def
      cairo_store_point /cairo_font where { pop cairo_selectfont } if } bind def
/g { setgray } bind def
/rg { setrgbcolor } bind def
/d1 { setcachedevice } bind def
/cairo_data_source {
  CairoDataIndex CairoData length lt
    { CairoData CairoDataIndex get /CairoDataIndex CairoDataIndex 1 add def }
    { () } ifelse
} def
/cairo_flush_ascii85_file { cairo_ascii85_file status { cairo_ascii85_file flushfile } if } def
/cairo_image { image cairo_flush_ascii85_file } def
/cairo_imagemask { imagemask cairo_flush_ascii85_file } def
%%EndProlog
%%BeginSetup
%%EndSetup
%%Page: 1 1
%%BeginPageSetup
%%PageBoundingBox: 0 0 384 384
%%EndPageSetup
q 0 0 384 384 rectclip
1 0 0 -1 0 384 cm q
0.156863 0.521569 0.933333 rg
384 19.863 m 384 251.586 l 377.379 258.207 l 6.621 258.207 l 0 251.586 
l 0 19.863 l 0 8.891 8.891 0 19.863 0 c 364.137 0 l 375.109 0 384 8.891 
384 19.863 c h
384 19.863 m f
0.733333 0.756863 0.807843 rg
119.172 297.93 145.656 39.727 re f
0.847059 0.866667 0.898039 rg
311.172 357.516 m 264.828 331.035 l 119.172 331.035 l 72.828 357.516 l 
79.449 364.137 l 304.551 364.137 l h
311.172 357.516 m f
0.733333 0.756863 0.807843 rg
72.828 357.516 m 311.172 357.516 l 311.172 377.379 l 311.172 381.035 308.207
 384 304.551 384 c 79.449 384 l 75.793 384 72.828 381.035 72.828 377.379
 c h
72.828 357.516 m f
0.847059 0.866667 0.898039 rg
384 251.586 m 384 284.691 l 384 295.66 375.109 304.551 364.137 304.551 
c 19.863 304.551 l 8.891 304.551 0 295.66 0 284.691 c 0 251.586 l h
384 251.586 m f
0.545098 0.576471 0.635294 rg
205.242 284.691 m 178.758 284.691 l 175.102 284.691 172.137 281.727 172.137
 278.07 c 172.137 274.414 175.102 271.449 178.758 271.449 c 205.242 271.449
 l 208.898 271.449 211.863 274.414 211.863 278.07 c 211.863 281.727 208.898
 284.691 205.242 284.691 c h
205.242 284.691 m f
1 0.803922 0.329412 rg
350.898 192 m 339.535 191.973 328.332 189.371 318.125 184.387 c 297.363
 174.328 282.566 155.066 278.203 132.414 c 282.566 109.762 297.363 90.496
 318.125 80.441 c 328.332 75.457 339.535 72.852 350.898 72.828 c 354.555
 72.828 357.516 69.863 357.516 66.207 c 357.516 62.551 354.555 59.586 350.898
 59.586 c 337.52 59.617 324.324 62.672 312.297 68.523 c 294.059 77.348 279.57
 92.398 271.449 110.961 c 263.328 92.398 248.84 77.348 230.598 68.523 c 
206.262 56.543 177.738 56.543 153.402 68.523 c 135.16 77.348 120.672 92.398
 112.551 110.961 c 104.43 92.398 89.941 77.348 71.703 68.523 c 59.676 62.672
 46.48 59.617 33.102 59.586 c 29.445 59.586 26.484 62.551 26.484 66.207 
c 26.484 69.863 29.445 72.828 33.102 72.828 c 44.465 72.852 55.668 75.457
 65.875 80.441 c 86.637 90.496 101.434 109.762 105.797 132.414 c 101.434
 155.066 86.637 174.328 65.875 184.387 c 55.668 189.371 44.465 191.973 33.102
 192 c 29.445 192 26.484 194.965 26.484 198.621 c 26.484 202.277 29.445 
205.242 33.102 205.242 c 46.48 205.211 59.676 202.156 71.703 196.305 c 89.941
 187.48 104.43 172.43 112.551 153.863 c 120.672 172.43 135.16 187.48 153.402
 196.305 c 177.734 208.309 206.266 208.309 230.598 196.305 c 248.84 187.48
 263.328 172.43 271.449 153.863 c 279.57 172.43 294.059 187.48 312.297 196.305
 c 324.324 202.156 337.52 205.211 350.898 205.242 c 354.555 205.242 357.516
 202.277 357.516 198.621 c 357.516 194.965 354.555 192 350.898 192 c h
224.773 184.387 m 204.102 194.539 179.898 194.539 159.227 184.387 c 138.465
 174.328 123.668 155.066 119.305 132.414 c 123.668 109.762 138.465 90.496
 159.227 80.441 c 179.887 70.246 204.113 70.246 224.773 80.441 c 245.535
 90.496 260.332 109.762 264.695 132.414 c 260.332 155.066 245.535 174.328
 224.773 184.387 c h
224.773 184.387 m f
0.670588 0.870588 0.384314 rg
152.277 152.277 m 148.621 152.277 145.656 149.312 145.656 145.656 c 145.656
 119.172 l 145.656 115.516 148.621 112.551 152.277 112.551 c 155.934 112.551
 158.898 115.516 158.898 119.172 c 158.898 145.656 l 158.898 149.312 155.934
 152.277 152.277 152.277 c h
152.277 152.277 m f
178.758 172.137 m 175.102 172.137 172.137 169.172 172.137 165.516 c 172.137
 99.309 l 172.137 95.652 175.102 92.691 178.758 92.691 c 182.414 92.691 
185.379 95.652 185.379 99.309 c 185.379 165.516 l 185.379 169.172 182.414
 172.137 178.758 172.137 c h
178.758 172.137 m f
79.449 152.277 m 75.793 152.277 72.828 149.312 72.828 145.656 c 72.828 
119.172 l 72.828 115.516 75.793 112.551 79.449 112.551 c 83.105 112.551 
86.07 115.516 86.07 119.172 c 86.07 145.656 l 86.07 149.312 83.105 152.277
 79.449 152.277 c h
79.449 152.277 m f
52.965 172.137 m 49.309 172.137 46.344 169.172 46.344 165.516 c 46.344 
99.309 l 46.344 95.652 49.309 92.691 52.965 92.691 c 56.621 92.691 59.586
 95.652 59.586 99.309 c 59.586 165.516 l 59.586 169.172 56.621 172.137 52.965
 172.137 c h
52.965 172.137 m f
304.551 152.277 m 300.895 152.277 297.93 149.312 297.93 145.656 c 297.93
 119.172 l 297.93 115.516 300.895 112.551 304.551 112.551 c 308.207 112.551
 311.172 115.516 311.172 119.172 c 311.172 145.656 l 311.172 149.312 308.207
 152.277 304.551 152.277 c h
304.551 152.277 m f
331.035 172.137 m 327.379 172.137 324.414 169.172 324.414 165.516 c 324.414
 99.309 l 324.414 95.652 327.379 92.691 331.035 92.691 c 334.691 92.691 
337.656 95.652 337.656 99.309 c 337.656 165.516 l 337.656 169.172 334.691
 172.137 331.035 172.137 c h
331.035 172.137 m f
231.723 152.277 m 228.066 152.277 225.102 149.312 225.102 145.656 c 225.102
 119.172 l 225.102 115.516 228.066 112.551 231.723 112.551 c 235.379 112.551
 238.344 115.516 238.344 119.172 c 238.344 145.656 l 238.344 149.312 235.379
 152.277 231.723 152.277 c h
231.723 152.277 m f
205.242 172.137 m 201.586 172.137 198.621 169.172 198.621 165.516 c 198.621
 99.309 l 198.621 95.652 201.586 92.691 205.242 92.691 c 208.898 92.691 
211.863 95.652 211.863 99.309 c 211.863 165.516 l 211.863 169.172 208.898
 172.137 205.242 172.137 c h
205.242 172.137 m f
Q Q
showpage
%%Trailer
end
%%EOF
