%!PS-Adobe-3.0 EPSF-3.0
%%Creator: cairo 1.16.0 (https://cairographics.org)
%%CreationDate: Fri Aug  2 09:46:39 2019
%%Pages: 1
%%DocumentData: Clean7Bit
%%LanguageLevel: 2
%%BoundingBox: 0 3 384 381
%%EndComments
%%BeginProlog
50 dict begin
/q { gsave } bind def
/Q { grestore } bind def
/cm { 6 array astore concat } bind def
/w { setlinewidth } bind def
/J { setlinecap } bind def
/j { setlinejoin } bind def
/M { setmiterlimit } bind def
/d { setdash } bind def
/m { moveto } bind def
/l { lineto } bind def
/c { curveto } bind def
/h { closepath } bind def
/re { exch dup neg 3 1 roll 5 3 roll moveto 0 rlineto
      0 exch rlineto 0 rlineto closepath } bind def
/S { stroke } bind def
/f { fill } bind def
/f* { eofill } bind def
/n { newpath } bind def
/W { clip } bind def
/W* { eoclip } bind def
/BT { } bind def
/ET { } bind def
/BDC { mark 3 1 roll /BDC pdfmark } bind def
/EMC { mark /EMC pdfmark } bind def
/cairo_store_point { /cairo_point_y exch def /cairo_point_x exch def } def
/Tj { show currentpoint cairo_store_point } bind def
/TJ {
  {
    dup
    type /stringtype eq
    { show } { -0.001 mul 0 cairo_font_matrix dtransform rmoveto } ifelse
  } forall
  currentpoint cairo_store_point
} bind def
/cairo_selectfont { cairo_font_matrix aload pop pop pop 0 0 6 array astore
    cairo_font exch selectfont cairo_point_x cairo_point_y moveto } bind def
/Tf { pop /cairo_font exch def /cairo_font_matrix where
      { pop cairo_selectfont } if } bind def
/Td { matrix translate cairo_font_matrix matrix concatmatrix dup
      /cairo_font_matrix exch def dup 4 get exch 5 get cairo_store_point
      /cairo_font where { pop cairo_selectfont } if } bind def
/Tm { 2 copy 8 2 roll 6 array astore /cairo_font_matrix exch def
      cairo_store_point /cairo_font where { pop cairo_selectfont } if } bind def
/g { setgray } bind def
/rg { setrgbcolor } bind def
/d1 { setcachedevice } bind def
/cairo_data_source {
  CairoDataIndex CairoData length lt
    { CairoData CairoDataIndex get /CairoDataIndex CairoDataIndex 1 add def }
    { () } ifelse
} def
/cairo_flush_ascii85_file { cairo_ascii85_file status { cairo_ascii85_file flushfile } if } def
/cairo_image { image cairo_flush_ascii85_file } def
/cairo_imagemask { imagemask cairo_flush_ascii85_file } def
%%EndProlog
%%BeginSetup
%%EndSetup
%%Page: 1 1
%%BeginPageSetup
%%PageBoundingBox: 0 3 384 381
%%EndPageSetup
q 0 3 384 378 rectclip
1 0 0 -1 0 384 cm q
0.807843 0.823529 0.862745 rg
364.801 116.672 m 364.801 368 l 364.777 375.059 359.059 380.777 352 380.801
 c 32 380.801 l 24.941 380.777 19.223 375.059 19.199 368 c 19.199 116.672
 l 185.281 11.586 l 189.375 8.961 194.625 8.961 198.719 11.586 c h
364.801 116.672 m f
0.682353 0.709804 0.756863 rg
313.602 380.801 m 313.602 176 l 313.578 168.941 307.859 163.223 300.801
 163.199 c 83.199 163.199 l 76.141 163.223 70.422 168.941 70.398 176 c 70.398
 380.801 l h
313.602 380.801 m f
0.156863 0.521569 0.933333 rg
83.199 112 m 108.801 112 l 112.344 112 115.199 114.855 115.199 118.398 
c 115.199 131.199 l 115.199 134.746 112.344 137.602 108.801 137.602 c 83.199
 137.602 l 79.656 137.602 76.801 134.746 76.801 131.199 c 76.801 118.398
 l 76.801 114.855 79.656 112 83.199 112 c h
83.199 112 m f
147.199 112 m 172.801 112 l 176.344 112 179.199 114.855 179.199 118.398
 c 179.199 131.199 l 179.199 134.746 176.344 137.602 172.801 137.602 c 147.199
 137.602 l 143.656 137.602 140.801 134.746 140.801 131.199 c 140.801 118.398
 l 140.801 114.855 143.656 112 147.199 112 c h
147.199 112 m f
211.199 112 m 236.801 112 l 240.344 112 243.199 114.855 243.199 118.398
 c 243.199 131.199 l 243.199 134.746 240.344 137.602 236.801 137.602 c 211.199
 137.602 l 207.656 137.602 204.801 134.746 204.801 131.199 c 204.801 118.398
 l 204.801 114.855 207.656 112 211.199 112 c h
211.199 112 m f
275.199 112 m 300.801 112 l 304.344 112 307.199 114.855 307.199 118.398
 c 307.199 131.199 l 307.199 134.746 304.344 137.602 300.801 137.602 c 275.199
 137.602 l 271.656 137.602 268.801 134.746 268.801 131.199 c 268.801 118.398
 l 268.801 114.855 271.656 112 275.199 112 c h
275.199 112 m f
0.301961 0.541176 0.670588 rg
192 188.801 m 153.09 188.801 121.602 200.258 121.602 214.398 c 121.602 
329.602 l 121.602 343.742 153.09 355.199 192 355.199 c 230.91 355.199 262.398
 343.742 262.398 329.602 c 262.398 214.398 l 262.398 200.258 230.91 188.801
 192 188.801 c h
192 188.801 m f
0.203922 0.427451 0.580392 rg
262.398 214.398 m 262.398 252.801 l 262.398 266.945 230.91 278.398 192 
278.398 c 153.09 278.398 121.602 266.945 121.602 252.801 c 121.602 214.398
 l 121.602 228.543 153.09 240 192 240 c 230.91 240 262.398 228.543 262.398
 214.398 c h
262.398 214.398 m f
262.398 291.199 m 262.398 329.602 l 262.398 343.742 230.91 355.199 192 
355.199 c 153.09 355.199 121.602 343.742 121.602 329.602 c 121.602 291.199
 l 121.602 305.344 153.09 316.801 192 316.801 c 230.91 316.801 262.398 305.344
 262.398 291.199 c h
262.398 291.199 m f
217.602 220.801 m 166.398 220.801 l 162.867 220.801 160 217.934 160 214.398
 c 160 210.867 162.867 208 166.398 208 c 217.602 208 l 221.133 208 224 210.867
 224 214.398 c 224 217.934 221.133 220.801 217.602 220.801 c h
217.602 220.801 m f
0.156863 0.521569 0.933333 rg
377.602 131.199 m 376.391 131.199 375.203 130.855 374.184 130.207 c 195.328
 16.965 l 193.301 15.668 190.699 15.668 188.672 16.965 c 9.824 130.207 l
 6.836 132.098 2.883 131.211 0.992 128.223 c -0.898 125.238 -0.012 121.281
 2.977 119.391 c 181.824 6.156 l 188.043 2.246 195.957 2.246 202.176 6.156
 c 381.023 119.391 l 383.43 120.914 384.543 123.848 383.75 126.582 c 382.953
 129.32 380.449 131.199 377.602 131.199 c h
377.602 131.199 m f
Q Q
showpage
%%Trailer
end
%%EOF
