%!PS-Adobe-3.0 EPSF-3.0
%%Creator: cairo 1.16.0 (https://cairographics.org)
%%CreationDate: Fri Aug  2 09:46:39 2019
%%Pages: 1
%%DocumentData: Clean7Bit
%%LanguageLevel: 2
%%BoundingBox: 0 0 384 384
%%EndComments
%%BeginProlog
50 dict begin
/q { gsave } bind def
/Q { grestore } bind def
/cm { 6 array astore concat } bind def
/w { setlinewidth } bind def
/J { setlinecap } bind def
/j { setlinejoin } bind def
/M { setmiterlimit } bind def
/d { setdash } bind def
/m { moveto } bind def
/l { lineto } bind def
/c { curveto } bind def
/h { closepath } bind def
/re { exch dup neg 3 1 roll 5 3 roll moveto 0 rlineto
      0 exch rlineto 0 rlineto closepath } bind def
/S { stroke } bind def
/f { fill } bind def
/f* { eofill } bind def
/n { newpath } bind def
/W { clip } bind def
/W* { eoclip } bind def
/BT { } bind def
/ET { } bind def
/BDC { mark 3 1 roll /BDC pdfmark } bind def
/EMC { mark /EMC pdfmark } bind def
/cairo_store_point { /cairo_point_y exch def /cairo_point_x exch def } def
/Tj { show currentpoint cairo_store_point } bind def
/TJ {
  {
    dup
    type /stringtype eq
    { show } { -0.001 mul 0 cairo_font_matrix dtransform rmoveto } ifelse
  } forall
  currentpoint cairo_store_point
} bind def
/cairo_selectfont { cairo_font_matrix aload pop pop pop 0 0 6 array astore
    cairo_font exch selectfont cairo_point_x cairo_point_y moveto } bind def
/Tf { pop /cairo_font exch def /cairo_font_matrix where
      { pop cairo_selectfont } if } bind def
/Td { matrix translate cairo_font_matrix matrix concatmatrix dup
      /cairo_font_matrix exch def dup 4 get exch 5 get cairo_store_point
      /cairo_font where { pop cairo_selectfont } if } bind def
/Tm { 2 copy 8 2 roll 6 array astore /cairo_font_matrix exch def
      cairo_store_point /cairo_font where { pop cairo_selectfont } if } bind def
/g { setgray } bind def
/rg { setrgbcolor } bind def
/d1 { setcachedevice } bind def
/cairo_data_source {
  CairoDataIndex CairoData length lt
    { CairoData CairoDataIndex get /CairoDataIndex CairoDataIndex 1 add def }
    { () } ifelse
} def
/cairo_flush_ascii85_file { cairo_ascii85_file status { cairo_ascii85_file flushfile } if } def
/cairo_image { image cairo_flush_ascii85_file } def
/cairo_imagemask { imagemask cairo_flush_ascii85_file } def
%%EndProlog
%%BeginSetup
%%EndSetup
%%Page: 1 1
%%BeginPageSetup
%%PageBoundingBox: 0 0 384 384
%%EndPageSetup
q 0 0 384 384 rectclip
1 0 0 -1 0 384 cm q
0.666667 0.698039 0.74902 rg
304.551 59.586 m 351.891 59.586 l 358.918 59.883 364.387 65.797 364.137
 72.828 c 364.137 304.551 l 251.586 304.551 l 247.93 304.551 244.965 307.516
 244.965 311.172 c 244.965 317.793 l 244.965 321.449 242 324.414 238.344
 324.414 c 145.656 324.414 l 142 324.414 139.035 321.449 139.035 317.793
 c 139.035 311.172 l 139.035 307.516 136.07 304.551 132.414 304.551 c 19.863
 304.551 l 19.863 72.828 l 19.883 65.523 25.801 59.609 33.102 59.586 c h
304.551 59.586 m f
0.0352941 0.439216 0.870588 rg
304.551 86.07 m 331.035 86.07 l 334.691 86.07 337.656 89.031 337.656 92.691
 c 337.656 264.828 l 337.656 268.484 334.691 271.449 331.035 271.449 c 52.965
 271.449 l 49.309 271.449 46.344 268.484 46.344 264.828 c 46.344 92.691 
l 46.344 89.031 49.309 86.07 52.965 86.07 c h
304.551 86.07 m f
0.666667 0.698039 0.74902 rg
364.137 350.898 m 343.613 376.547 l 339.844 381.254 334.141 384 328.109
 384 c 55.891 384 l 49.859 384 44.156 381.254 40.387 376.547 c 19.863 350.898
 l 19.863 344.277 l 364.137 344.277 l h
364.137 350.898 m f
0.807843 0.823529 0.862745 rg
384 311.172 m 384 337.656 l 383.977 344.961 378.062 350.875 370.758 350.898
 c 13.242 350.898 l 5.938 350.875 0.023 344.961 0 337.656 c 0 311.172 l 
0.023 303.867 5.938 297.953 13.242 297.93 c 132.414 297.93 l 136.07 297.93
 139.035 300.895 139.035 304.551 c 139.035 311.172 l 139.035 314.828 142
 317.793 145.656 317.793 c 238.344 317.793 l 242 317.793 244.965 314.828
 244.965 311.172 c 244.965 304.551 l 244.965 300.895 247.93 297.93 251.586
 297.93 c 370.758 297.93 l 378.062 297.953 383.977 303.867 384 311.172 c
 h
384 311.172 m f
0.847059 0.866667 0.898039 rg
311.172 52.965 m 311.172 225.102 l 311.152 232.406 305.234 238.324 297.93
 238.344 c 86.07 238.344 l 78.766 238.324 72.848 232.406 72.828 225.102 
c 72.828 52.965 l 79.449 46.344 l 304.551 46.344 l h
311.172 52.965 m f
0.0352941 0.439216 0.870588 rg
311.172 13.242 m 311.172 52.965 l 72.828 52.965 l 72.828 13.242 l 72.848
 5.938 78.766 0.023 86.07 0 c 297.93 0 l 305.234 0.023 311.152 5.938 311.172
 13.242 c h
311.172 13.242 m f
0.301961 0.541176 0.670588 rg
185.379 79.449 m 198.621 79.449 l 202.289 79.449 205.242 82.402 205.242
 86.07 c 205.242 99.309 l 205.242 102.977 202.289 105.93 198.621 105.93 
c 185.379 105.93 l 181.711 105.93 178.758 102.977 178.758 99.309 c 178.758
 86.07 l 178.758 82.402 181.711 79.449 185.379 79.449 c h
185.379 79.449 m f
185.379 185.379 m 198.621 185.379 l 202.289 185.379 205.242 188.332 205.242
 192 c 205.242 205.242 l 205.242 208.91 202.289 211.863 198.621 211.863 
c 185.379 211.863 l 181.711 211.863 178.758 208.91 178.758 205.242 c 178.758
 192 l 178.758 188.332 181.711 185.379 185.379 185.379 c h
185.379 185.379 m f
119.172 185.379 m 132.414 185.379 l 136.082 185.379 139.035 188.332 139.035
 192 c 139.035 205.242 l 139.035 208.91 136.082 211.863 132.414 211.863 
c 119.172 211.863 l 115.504 211.863 112.551 208.91 112.551 205.242 c 112.551
 192 l 112.551 188.332 115.504 185.379 119.172 185.379 c h
119.172 185.379 m f
207.16 143.734 m 205.242 145.656 l 196.699 154.195 l 194.098 156.777 189.902
 156.777 187.301 154.195 c 178.758 145.656 l 176.84 143.734 l 174.258 141.133
 174.258 136.938 176.84 134.332 c 185.379 125.793 l 187.301 123.875 l 189.902
 121.293 194.098 121.293 196.699 123.875 c 198.621 125.793 l 207.16 134.332
 l 209.742 136.938 209.742 141.133 207.16 143.734 c h
207.16 143.734 m f
251.586 185.379 m 264.828 185.379 l 268.496 185.379 271.449 188.332 271.449
 192 c 271.449 205.242 l 271.449 208.91 268.496 211.863 264.828 211.863 
c 251.586 211.863 l 247.918 211.863 244.965 208.91 244.965 205.242 c 244.965
 192 l 244.965 188.332 247.918 185.379 251.586 185.379 c h
251.586 185.379 m f
0.262745 0.611765 0.972549 rg
33.102 331.035 m 26.484 331.035 l 22.828 331.035 19.863 328.07 19.863 324.414
 c 19.863 320.758 22.828 317.793 26.484 317.793 c 33.102 317.793 l 36.762
 317.793 39.723 320.758 39.723 324.414 c 39.723 328.07 36.762 331.035 33.102
 331.035 c h
33.102 331.035 m f
66.207 331.035 m 59.586 331.035 l 55.93 331.035 52.965 328.07 52.965 324.414
 c 52.965 320.758 55.93 317.793 59.586 317.793 c 66.207 317.793 l 69.863
 317.793 72.828 320.758 72.828 324.414 c 72.828 328.07 69.863 331.035 66.207
 331.035 c h
66.207 331.035 m f
0.94902 0.537255 0.792157 rg
105.93 33.102 m 99.309 33.102 l 95.652 33.102 92.691 30.141 92.691 26.484
 c 92.691 22.828 95.652 19.863 99.309 19.863 c 105.93 19.863 l 109.586 19.863
 112.551 22.828 112.551 26.484 c 112.551 30.141 109.586 33.102 105.93 33.102
 c h
105.93 33.102 m f
0.670588 0.870588 0.384314 rg
139.035 33.102 m 132.414 33.102 l 128.758 33.102 125.793 30.141 125.793
 26.484 c 125.793 22.828 128.758 19.863 132.414 19.863 c 139.035 19.863 
l 142.691 19.863 145.656 22.828 145.656 26.484 c 145.656 30.141 142.691 
33.102 139.035 33.102 c h
139.035 33.102 m f
0.0156863 0.384314 0.717647 rg
284.691 33.102 m 258.207 33.102 l 254.551 33.102 251.586 30.141 251.586
 26.484 c 251.586 22.828 254.551 19.863 258.207 19.863 c 284.691 19.863 
l 288.348 19.863 291.309 22.828 291.309 26.484 c 291.309 30.141 288.348 
33.102 284.691 33.102 c h
284.691 33.102 m f
0.160784 0.329412 0.454902 rg
198.621 152.277 m 198.621 185.379 l 185.379 185.379 l 185.379 152.277 l
 187.301 154.195 l 189.902 156.777 194.098 156.777 196.699 154.195 c h
198.621 152.277 m f
176.84 143.734 m 178.758 145.656 l 139.035 145.656 l 135.379 145.656 132.414
 148.621 132.414 152.277 c 132.414 185.379 l 119.172 185.379 l 119.172 152.277
 l 119.207 141.32 128.078 132.445 139.035 132.414 c 178.758 132.414 l 176.84
 134.332 l 174.258 136.938 174.258 141.133 176.84 143.734 c h
176.84 143.734 m f
264.828 152.277 m 264.828 185.379 l 251.586 185.379 l 251.586 152.277 l
 251.586 148.621 248.621 145.656 244.965 145.656 c 205.242 145.656 l 207.16
 143.734 l 209.742 141.133 209.742 136.938 207.16 134.332 c 205.242 132.414
 l 244.965 132.414 l 255.922 132.445 264.793 141.32 264.828 152.277 c h
264.828 152.277 m f
198.621 105.93 m 198.621 125.793 l 196.699 123.875 l 194.098 121.293 189.902
 121.293 187.301 123.875 c 185.379 125.793 l 185.379 105.93 l h
198.621 105.93 m f
Q Q
showpage
%%Trailer
end
%%EOF
