%!PS-Adobe-3.0 EPSF-3.0
%%Creator: cairo 1.16.0 (https://cairographics.org)
%%CreationDate: Fri Aug  2 09:46:39 2019
%%Pages: 1
%%DocumentData: Clean7Bit
%%LanguageLevel: 2
%%BoundingBox: 0 0 384 384
%%EndComments
%%BeginProlog
50 dict begin
/q { gsave } bind def
/Q { grestore } bind def
/cm { 6 array astore concat } bind def
/w { setlinewidth } bind def
/J { setlinecap } bind def
/j { setlinejoin } bind def
/M { setmiterlimit } bind def
/d { setdash } bind def
/m { moveto } bind def
/l { lineto } bind def
/c { curveto } bind def
/h { closepath } bind def
/re { exch dup neg 3 1 roll 5 3 roll moveto 0 rlineto
      0 exch rlineto 0 rlineto closepath } bind def
/S { stroke } bind def
/f { fill } bind def
/f* { eofill } bind def
/n { newpath } bind def
/W { clip } bind def
/W* { eoclip } bind def
/BT { } bind def
/ET { } bind def
/BDC { mark 3 1 roll /BDC pdfmark } bind def
/EMC { mark /EMC pdfmark } bind def
/cairo_store_point { /cairo_point_y exch def /cairo_point_x exch def } def
/Tj { show currentpoint cairo_store_point } bind def
/TJ {
  {
    dup
    type /stringtype eq
    { show } { -0.001 mul 0 cairo_font_matrix dtransform rmoveto } ifelse
  } forall
  currentpoint cairo_store_point
} bind def
/cairo_selectfont { cairo_font_matrix aload pop pop pop 0 0 6 array astore
    cairo_font exch selectfont cairo_point_x cairo_point_y moveto } bind def
/Tf { pop /cairo_font exch def /cairo_font_matrix where
      { pop cairo_selectfont } if } bind def
/Td { matrix translate cairo_font_matrix matrix concatmatrix dup
      /cairo_font_matrix exch def dup 4 get exch 5 get cairo_store_point
      /cairo_font where { pop cairo_selectfont } if } bind def
/Tm { 2 copy 8 2 roll 6 array astore /cairo_font_matrix exch def
      cairo_store_point /cairo_font where { pop cairo_selectfont } if } bind def
/g { setgray } bind def
/rg { setrgbcolor } bind def
/d1 { setcachedevice } bind def
/cairo_data_source {
  CairoDataIndex CairoData length lt
    { CairoData CairoDataIndex get /CairoDataIndex CairoDataIndex 1 add def }
    { () } ifelse
} def
/cairo_flush_ascii85_file { cairo_ascii85_file status { cairo_ascii85_file flushfile } if } def
/cairo_image { image cairo_flush_ascii85_file } def
/cairo_imagemask { imagemask cairo_flush_ascii85_file } def
%%EndProlog
%%BeginSetup
%%EndSetup
%%Page: 1 1
%%BeginPageSetup
%%PageBoundingBox: 0 0 384 384
%%EndPageSetup
q 0 0 384 384 rectclip
1 0 0 -1 0 384 cm q
0.156863 0.521569 0.933333 rg
384 19.863 m 384 251.586 l 377.379 258.207 l 6.621 258.207 l 0 251.586 
l 0 19.863 l 0 8.891 8.891 0 19.863 0 c 364.137 0 l 375.109 0 384 8.891 
384 19.863 c h
384 19.863 m f
0.733333 0.756863 0.807843 rg
119.172 297.93 145.656 39.727 re f
0.847059 0.866667 0.898039 rg
311.172 357.516 m 264.828 331.035 l 119.172 331.035 l 72.828 357.516 l 
79.449 364.137 l 304.551 364.137 l h
311.172 357.516 m f
0.733333 0.756863 0.807843 rg
72.828 357.516 m 311.172 357.516 l 311.172 377.379 l 311.172 381.035 308.207
 384 304.551 384 c 79.449 384 l 75.793 384 72.828 381.035 72.828 377.379
 c h
72.828 357.516 m f
0.847059 0.866667 0.898039 rg
384 251.586 m 384 284.691 l 384 295.66 375.109 304.551 364.137 304.551 
c 19.863 304.551 l 8.891 304.551 0 295.66 0 284.691 c 0 251.586 l h
384 251.586 m f
0.988235 0.639216 0.0862745 rg
244.965 79.449 m 244.965 145.656 l 244.379 153.469 237.629 159.367 229.805
 158.898 c 154.195 158.898 l 146.371 159.367 139.621 153.469 139.035 145.656
 c 139.035 79.449 l 139.477 72.348 145.172 66.711 152.277 66.34 c 152.914
 66.262 153.555 66.215 154.195 66.207 c 229.805 66.207 l 230.445 66.215 
231.086 66.262 231.723 66.34 c 238.828 66.711 244.523 72.348 244.965 79.449
 c h
244.965 79.449 m f
0.807843 0.501961 0.0509804 rg
205.242 105.93 m 205.242 113.242 199.312 119.172 192 119.172 c 184.688 
119.172 178.758 113.242 178.758 105.93 c 178.758 98.617 184.688 92.691 192
 92.691 c 199.312 92.691 205.242 98.617 205.242 105.93 c h
205.242 105.93 m f
0.94902 0.956863 0.968627 rg
59.586 158.898 m 324.414 158.898 l 331.75 158.898 337.656 164.801 337.656
 172.137 c 337.656 211.863 l 337.656 219.199 331.75 225.102 324.414 225.102
 c 59.586 225.102 l 52.25 225.102 46.344 219.199 46.344 211.863 c 46.344
 172.137 l 46.344 164.801 52.25 158.898 59.586 158.898 c h
59.586 158.898 m f
0.545098 0.576471 0.635294 rg
205.242 284.691 m 178.758 284.691 l 175.102 284.691 172.137 281.727 172.137
 278.07 c 172.137 274.414 175.102 271.449 178.758 271.449 c 205.242 271.449
 l 208.898 271.449 211.863 274.414 211.863 278.07 c 211.863 281.727 208.898
 284.691 205.242 284.691 c h
205.242 284.691 m f
0.807843 0.501961 0.0509804 rg
192 139.035 m 188.344 139.035 185.379 136.07 185.379 132.414 c 185.379 
112.551 l 185.379 108.895 188.344 105.93 192 105.93 c 195.656 105.93 198.621
 108.895 198.621 112.551 c 198.621 132.414 l 198.621 136.07 195.656 139.035
 192 139.035 c h
192 139.035 m f
0.847059 0.866667 0.898039 rg
231.723 59.586 m 231.723 66.34 l 231.086 66.262 230.445 66.215 229.805 
66.207 c 218.484 66.207 l 218.484 59.586 l 218.484 44.961 206.625 33.102
 192 33.102 c 177.375 33.102 165.516 44.961 165.516 59.586 c 165.516 66.207
 l 154.195 66.207 l 153.555 66.215 152.914 66.262 152.277 66.34 c 152.277
 59.586 l 152.277 37.648 170.062 19.863 192 19.863 c 213.938 19.863 231.723
 37.648 231.723 59.586 c h
231.723 59.586 m f
0.160784 0.329412 0.454902 rg
103.992 180.699 m 101.406 178.113 97.215 178.113 94.629 180.699 c 92.691
 182.637 l 90.75 180.699 l 88.152 178.188 84.023 178.227 81.469 180.777 
c 78.914 183.332 78.879 187.461 81.387 190.059 c 83.328 192 l 81.387 193.941
 l 79.668 195.602 78.977 198.062 79.582 200.379 c 80.188 202.691 81.996 
204.5 84.312 205.105 c 86.625 205.711 89.086 205.023 90.75 203.301 c 92.691
 201.363 l 94.629 203.301 l 97.227 205.812 101.355 205.773 103.91 203.223
 c 106.465 200.668 106.5 196.539 103.992 193.941 c 102.051 192 l 103.992
 190.059 l 106.574 187.477 106.574 183.285 103.992 180.699 c h
103.992 180.699 m f
143.715 180.699 m 141.129 178.113 136.938 178.113 134.355 180.699 c 132.414
 182.637 l 130.473 180.699 l 127.875 178.188 123.746 178.227 121.191 180.777
 c 118.641 183.332 118.602 187.461 121.113 190.059 c 123.051 192 l 121.113
 193.941 l 119.391 195.602 118.699 198.062 119.309 200.379 c 119.914 202.691
 121.719 204.5 124.035 205.105 c 126.352 205.711 128.812 205.023 130.473
 203.301 c 132.414 201.363 l 134.355 203.301 l 136.953 205.812 141.082 205.773
 143.633 203.223 c 146.188 200.668 146.223 196.539 143.715 193.941 c 141.777
 192 l 143.715 190.059 l 146.301 187.477 146.301 183.285 143.715 180.699
 c h
143.715 180.699 m f
183.438 180.699 m 180.855 178.113 176.664 178.113 174.078 180.699 c 172.137
 182.637 l 170.199 180.699 l 167.602 178.188 163.473 178.227 160.918 180.777
 c 158.363 183.332 158.328 187.461 160.836 190.059 c 162.777 192 l 160.836
 193.941 l 159.117 195.602 158.426 198.062 159.031 200.379 c 159.637 202.691
 161.445 204.5 163.758 205.105 c 166.074 205.711 168.535 205.023 170.199
 203.301 c 172.137 201.363 l 174.078 203.301 l 176.676 205.812 180.805 205.773
 183.359 203.223 c 185.914 200.668 185.949 196.539 183.438 193.941 c 181.5
 192 l 183.438 190.059 l 186.023 187.477 186.023 183.285 183.438 180.699
 c h
183.438 180.699 m f
223.164 180.699 m 220.578 178.113 216.387 178.113 213.801 180.699 c 211.863
 182.637 l 209.922 180.699 l 207.324 178.188 203.195 178.227 200.641 180.777
 c 198.086 183.332 198.051 187.461 200.562 190.059 c 202.5 192 l 200.562
 193.941 l 198.84 195.602 198.148 198.062 198.754 200.379 c 199.359 202.691
 201.168 204.5 203.484 205.105 c 205.797 205.711 208.262 205.023 209.922
 203.301 c 211.863 201.363 l 213.801 203.301 l 216.398 205.812 220.527 205.773
 223.082 203.223 c 225.637 200.668 225.672 196.539 223.164 193.941 c 221.223
 192 l 223.164 190.059 l 225.75 187.477 225.75 183.285 223.164 180.699 c
 h
223.164 180.699 m f
262.887 180.699 m 260.301 178.113 256.113 178.113 253.527 180.699 c 251.586
 182.637 l 249.645 180.699 l 247.047 178.188 242.918 178.227 240.367 180.777
 c 237.812 183.332 237.777 187.461 240.285 190.059 c 242.223 192 l 240.285
 193.941 l 238.562 195.602 237.875 198.062 238.48 200.379 c 239.086 202.691
 240.895 204.5 243.207 205.105 c 245.523 205.711 247.984 205.023 249.645
 203.301 c 251.586 201.363 l 253.527 203.301 l 256.125 205.812 260.254 205.773
 262.809 203.223 c 265.359 200.668 265.398 196.539 262.887 193.941 c 260.949
 192 l 262.887 190.059 l 265.473 187.477 265.473 183.285 262.887 180.699
 c h
262.887 180.699 m f
300.672 192 m 302.613 190.059 l 305.121 187.461 305.086 183.332 302.531
 180.777 c 299.977 178.227 295.848 178.188 293.25 180.699 c 291.309 182.637
 l 289.371 180.699 l 286.773 178.188 282.645 178.227 280.09 180.777 c 277.535
 183.332 277.5 187.461 280.008 190.059 c 281.949 192 l 280.008 193.941 l
 278.289 195.602 277.598 198.062 278.203 200.379 c 278.809 202.691 280.617
 204.5 282.934 205.105 c 285.246 205.711 287.707 205.023 289.371 203.301
 c 291.309 201.363 l 293.25 203.301 l 295.848 205.812 299.977 205.773 302.531
 203.223 c 305.086 200.668 305.121 196.539 302.613 193.941 c h
300.672 192 m f
Q Q
showpage
%%Trailer
end
%%EOF
