%!PS-Adobe-3.0 EPSF-3.0
%%Creator: cairo 1.16.0 (https://cairographics.org)
%%CreationDate: Fri Aug  2 09:46:39 2019
%%Pages: 1
%%DocumentData: Clean7Bit
%%LanguageLevel: 2
%%BoundingBox: 66 0 318 384
%%EndComments
%%BeginProlog
50 dict begin
/q { gsave } bind def
/Q { grestore } bind def
/cm { 6 array astore concat } bind def
/w { setlinewidth } bind def
/J { setlinecap } bind def
/j { setlinejoin } bind def
/M { setmiterlimit } bind def
/d { setdash } bind def
/m { moveto } bind def
/l { lineto } bind def
/c { curveto } bind def
/h { closepath } bind def
/re { exch dup neg 3 1 roll 5 3 roll moveto 0 rlineto
      0 exch rlineto 0 rlineto closepath } bind def
/S { stroke } bind def
/f { fill } bind def
/f* { eofill } bind def
/n { newpath } bind def
/W { clip } bind def
/W* { eoclip } bind def
/BT { } bind def
/ET { } bind def
/BDC { mark 3 1 roll /BDC pdfmark } bind def
/EMC { mark /EMC pdfmark } bind def
/cairo_store_point { /cairo_point_y exch def /cairo_point_x exch def } def
/Tj { show currentpoint cairo_store_point } bind def
/TJ {
  {
    dup
    type /stringtype eq
    { show } { -0.001 mul 0 cairo_font_matrix dtransform rmoveto } ifelse
  } forall
  currentpoint cairo_store_point
} bind def
/cairo_selectfont { cairo_font_matrix aload pop pop pop 0 0 6 array astore
    cairo_font exch selectfont cairo_point_x cairo_point_y moveto } bind def
/Tf { pop /cairo_font exch def /cairo_font_matrix where
      { pop cairo_selectfont } if } bind def
/Td { matrix translate cairo_font_matrix matrix concatmatrix dup
      /cairo_font_matrix exch def dup 4 get exch 5 get cairo_store_point
      /cairo_font where { pop cairo_selectfont } if } bind def
/Tm { 2 copy 8 2 roll 6 array astore /cairo_font_matrix exch def
      cairo_store_point /cairo_font where { pop cairo_selectfont } if } bind def
/g { setgray } bind def
/rg { setrgbcolor } bind def
/d1 { setcachedevice } bind def
/cairo_data_source {
  CairoDataIndex CairoData length lt
    { CairoData CairoDataIndex get /CairoDataIndex CairoDataIndex 1 add def }
    { () } ifelse
} def
/cairo_flush_ascii85_file { cairo_ascii85_file status { cairo_ascii85_file flushfile } if } def
/cairo_image { image cairo_flush_ascii85_file } def
/cairo_imagemask { imagemask cairo_flush_ascii85_file } def
%%EndProlog
%%BeginSetup
%%EndSetup
%%Page: 1 1
%%BeginPageSetup
%%PageBoundingBox: 66 0 318 384
%%EndPageSetup
q 66 0 252 384 rectclip
1 0 0 -1 0 384 cm q
0.156863 0.521569 0.933333 rg
317.793 331.035 m 311.172 344.277 l 72.828 344.277 l 66.207 331.035 l 66.207
 52.965 l 72.828 46.344 l 311.172 46.344 l 317.793 52.965 l h
317.793 331.035 m f
0.807843 0.823529 0.862745 rg
66.207 52.965 m 66.207 19.863 l 66.207 8.891 75.098 0 86.07 0 c 297.93 
0 l 308.902 0 317.793 8.891 317.793 19.863 c 317.793 52.965 l h
66.207 52.965 m f
317.793 331.035 m 317.793 364.137 l 317.793 375.109 308.902 384 297.93 
384 c 86.07 384 l 75.098 384 66.207 375.109 66.207 364.137 c 66.207 331.035
 l h
317.793 331.035 m f
1 0.67451 0.278431 rg
205.242 192 m 205.242 199.312 199.312 205.242 192 205.242 c 184.688 205.242
 178.758 199.312 178.758 192 c 178.758 184.688 184.688 178.758 192 178.758
 c 199.312 178.758 205.242 184.688 205.242 192 c h
205.242 192 m f
185.379 105.93 m 185.379 116.902 176.488 125.793 165.516 125.793 c 154.547
 125.793 145.656 116.902 145.656 105.93 c 145.656 94.961 154.547 86.07 165.516
 86.07 c 176.488 86.07 185.379 94.961 185.379 105.93 c h
185.379 105.93 m f
0.254902 0.807843 0.952941 rg
304.551 225.102 m 304.551 236.074 295.66 244.965 284.691 244.965 c 273.719
 244.965 264.828 236.074 264.828 225.102 c 264.828 214.133 273.719 205.242
 284.691 205.242 c 295.66 205.242 304.551 214.133 304.551 225.102 c h
304.551 225.102 m f
0.670588 0.870588 0.384314 rg
125.793 238.344 m 125.793 249.312 116.902 258.207 105.93 258.207 c 94.961
 258.207 86.07 249.312 86.07 238.344 c 86.07 227.375 94.961 218.484 105.93
 218.484 c 111.199 218.484 116.25 220.574 119.977 224.301 c 123.699 228.023
 125.793 233.078 125.793 238.344 c h
125.793 238.344 m f
0.545098 0.576471 0.635294 rg
225.102 33.102 m 218.484 33.102 l 214.828 33.102 211.863 30.141 211.863
 26.484 c 211.863 22.828 214.828 19.863 218.484 19.863 c 225.102 19.863 
l 228.762 19.863 231.723 22.828 231.723 26.484 c 231.723 30.141 228.762 
33.102 225.102 33.102 c h
225.102 33.102 m f
192 33.102 m 158.898 33.102 l 155.238 33.102 152.277 30.141 152.277 26.484
 c 152.277 22.828 155.238 19.863 158.898 19.863 c 192 19.863 l 195.656 19.863
 198.621 22.828 198.621 26.484 c 198.621 30.141 195.656 33.102 192 33.102
 c h
192 33.102 m f
205.242 364.137 m 178.758 364.137 l 175.102 364.137 172.137 361.172 172.137
 357.516 c 172.137 353.859 175.102 350.898 178.758 350.898 c 205.242 350.898
 l 208.898 350.898 211.863 353.859 211.863 357.516 c 211.863 361.172 208.898
 364.137 205.242 364.137 c h
205.242 364.137 m f
1 0.67451 0.278431 rg
192 297.93 m 162.301 297.93 139.035 251.402 139.035 192 c 138.457 165.535
 143.941 139.285 155.07 115.266 c 156.156 113.164 158.285 111.805 160.648
 111.699 c 163.012 111.59 165.25 112.75 166.527 114.742 c 167.801 116.734
 167.918 119.258 166.828 121.355 c 156.664 143.492 151.688 167.652 152.277
 192 c 152.277 235.844 168.59 284.691 192 284.691 c 215.41 284.691 231.723
 235.844 231.723 192 c 231.723 148.156 215.41 99.309 192 99.309 c 187.773
 99.445 183.715 100.996 180.473 103.707 c 177.57 105.934 173.414 105.387
 171.188 102.484 c 168.961 99.582 169.508 95.426 172.41 93.199 c 177.953
 88.691 184.855 86.18 192 86.07 c 221.699 86.07 244.965 132.598 244.965 
192 c 244.965 251.402 221.699 297.93 192 297.93 c h
192 297.93 m f
0.254902 0.807843 0.952941 rg
250.297 254.348 m 223 253.09 196.277 246.121 171.848 233.883 c 132.719 
215.531 102.434 189.523 94.695 167.676 c 91.91 160.832 92.023 153.156 95.008
 146.398 c 108.062 119.293 165.105 128.078 212.152 150.109 c 246.918 166.398
 275.293 189.133 286.211 209.445 c 287.398 211.535 287.359 214.102 286.113
 216.152 c 284.863 218.203 282.605 219.418 280.203 219.328 c 277.805 219.238
 275.641 217.855 274.555 215.715 c 264.914 197.785 238.848 177.242 206.539
 162.086 c 156.336 138.562 113.75 137.969 106.93 152.156 c 105.512 155.734
 105.602 159.734 107.176 163.246 c 113.691 181.652 141.941 205.215 177.469
 221.879 c 224.473 243.875 266.332 245.715 275.938 233.676 c 277.395 231.777
 279.766 230.812 282.133 231.152 c 284.504 231.492 286.508 233.086 287.367
 235.32 c 288.23 237.555 287.82 240.082 286.293 241.926 c 279.656 250.262
 266.812 254.348 250.297 254.348 c h
250.297 254.348 m f
0.670588 0.870588 0.384314 rg
133.492 254.426 m 127.293 254.508 121.105 253.789 115.086 252.289 c 112.742
 251.734 110.883 249.949 110.234 247.629 c 109.582 245.309 110.246 242.816
 111.961 241.129 c 113.68 239.438 116.18 238.812 118.492 239.496 c 138.066
 244.715 172.629 237.801 206.547 221.891 c 242.078 205.227 270.316 181.664
 276.836 163.258 c 278.406 159.75 278.496 155.762 277.098 152.184 c 270.25
 137.996 227.672 138.59 177.473 162.113 c 131.34 183.723 106.188 211.676
 105.973 226.996 c 105.934 229.363 104.637 231.527 102.57 232.676 c 100.5
 233.828 97.977 233.789 95.949 232.57 c 93.918 231.355 92.691 229.152 92.73
 226.785 c 93.113 203.301 125.66 171.781 171.887 150.117 c 218.926 128.09
 275.969 119.297 289.074 146.422 c 292.051 153.176 292.16 160.848 289.379
 167.684 c 281.633 189.531 251.355 215.531 212.234 233.891 c 187.707 246.156
 160.887 253.152 133.492 254.426 c h
133.492 254.426 m f
Q Q
showpage
%%Trailer
end
%%EOF
