%!PS-Adobe-3.0 EPSF-3.0
%%Creator: cairo 1.16.0 (https://cairographics.org)
%%CreationDate: Fri Aug  2 09:46:40 2019
%%Pages: 1
%%DocumentData: Clean7Bit
%%LanguageLevel: 2
%%BoundingBox: 0 0 384 384
%%EndComments
%%BeginProlog
50 dict begin
/q { gsave } bind def
/Q { grestore } bind def
/cm { 6 array astore concat } bind def
/w { setlinewidth } bind def
/J { setlinecap } bind def
/j { setlinejoin } bind def
/M { setmiterlimit } bind def
/d { setdash } bind def
/m { moveto } bind def
/l { lineto } bind def
/c { curveto } bind def
/h { closepath } bind def
/re { exch dup neg 3 1 roll 5 3 roll moveto 0 rlineto
      0 exch rlineto 0 rlineto closepath } bind def
/S { stroke } bind def
/f { fill } bind def
/f* { eofill } bind def
/n { newpath } bind def
/W { clip } bind def
/W* { eoclip } bind def
/BT { } bind def
/ET { } bind def
/BDC { mark 3 1 roll /BDC pdfmark } bind def
/EMC { mark /EMC pdfmark } bind def
/cairo_store_point { /cairo_point_y exch def /cairo_point_x exch def } def
/Tj { show currentpoint cairo_store_point } bind def
/TJ {
  {
    dup
    type /stringtype eq
    { show } { -0.001 mul 0 cairo_font_matrix dtransform rmoveto } ifelse
  } forall
  currentpoint cairo_store_point
} bind def
/cairo_selectfont { cairo_font_matrix aload pop pop pop 0 0 6 array astore
    cairo_font exch selectfont cairo_point_x cairo_point_y moveto } bind def
/Tf { pop /cairo_font exch def /cairo_font_matrix where
      { pop cairo_selectfont } if } bind def
/Td { matrix translate cairo_font_matrix matrix concatmatrix dup
      /cairo_font_matrix exch def dup 4 get exch 5 get cairo_store_point
      /cairo_font where { pop cairo_selectfont } if } bind def
/Tm { 2 copy 8 2 roll 6 array astore /cairo_font_matrix exch def
      cairo_store_point /cairo_font where { pop cairo_selectfont } if } bind def
/g { setgray } bind def
/rg { setrgbcolor } bind def
/d1 { setcachedevice } bind def
/cairo_data_source {
  CairoDataIndex CairoData length lt
    { CairoData CairoDataIndex get /CairoDataIndex CairoDataIndex 1 add def }
    { () } ifelse
} def
/cairo_flush_ascii85_file { cairo_ascii85_file status { cairo_ascii85_file flushfile } if } def
/cairo_image { image cairo_flush_ascii85_file } def
/cairo_imagemask { imagemask cairo_flush_ascii85_file } def
%%EndProlog
%%BeginSetup
%%EndSetup
%%Page: 1 1
%%BeginPageSetup
%%PageBoundingBox: 0 0 384 384
%%EndPageSetup
q 0 0 384 384 rectclip
1 0 0 -1 0 384 cm q
0.807843 0.823529 0.862745 rg
384 52.965 m 384 357.516 l 384 372.145 372.145 384 357.516 384 c 26.484
 384 l 11.855 384 0 372.145 0 357.516 c 0 52.965 l 6.621 46.344 l 377.379
 46.344 l h
384 52.965 m f
0.129412 0.278431 0.368627 rg
327.309 229.023 m 329.348 228.531 330.828 226.762 330.953 224.668 c 331.062
 222.621 331.062 214.344 330.953 212.301 c 330.828 210.203 329.348 208.434
 327.309 207.941 c 303.977 202.109 l 302.156 201.645 300.781 200.152 300.461
 198.305 c 299.422 192.664 297.934 187.121 296.012 181.719 c 295.363 179.953
 295.816 177.977 297.164 176.668 c 314.484 159.977 l 316.012 158.52 316.406
 156.234 315.457 154.348 c 314.508 152.527 310.391 145.391 309.293 143.676
 c 308.141 141.906 305.969 141.102 303.941 141.688 c 280.77 148.309 l 278.973
 148.816 277.047 148.227 275.836 146.801 c 272.09 142.449 268.02 138.383
 263.668 134.633 c 262.246 133.422 261.656 131.496 262.16 129.699 c 268.781
 106.527 l 269.371 104.5 268.562 102.328 266.793 101.176 c 265.078 100.078
 257.941 95.961 256.121 95.012 c 254.234 94.062 251.949 94.457 250.492 95.988
 c 233.805 113.273 l 232.496 114.621 230.516 115.074 228.75 114.426 c 223.359
 112.508 217.828 111.02 212.199 109.977 c 210.352 109.656 208.859 108.277
 208.395 106.461 c 202.559 83.129 l 202.07 81.086 200.301 79.605 198.203
 79.48 c 196.156 79.375 187.883 79.375 185.836 79.48 c 183.738 79.605 181.973
 81.086 181.48 83.129 c 175.648 106.461 l 175.18 108.277 173.691 109.656
 171.84 109.977 c 166.203 111.016 160.656 112.504 155.254 114.426 c 153.492
 115.074 151.512 114.621 150.203 113.273 c 133.512 95.988 l 132.055 94.457
 129.77 94.062 127.887 95.012 c 126.066 95.961 118.926 100.078 117.211 101.176
 c 115.445 102.328 114.637 104.5 115.227 106.527 c 121.848 129.699 l 122.348
 131.496 121.758 133.422 120.336 134.633 c 115.984 138.383 111.918 142.449
 108.168 146.801 c 106.961 148.227 105.035 148.816 103.238 148.309 c 80.062
 141.688 l 78.039 141.102 75.863 141.906 74.715 143.676 c 73.617 145.391
 69.496 152.527 68.551 154.348 c 67.602 156.234 67.996 158.52 69.523 159.977
 c 86.809 176.668 l 88.16 177.977 88.609 179.953 87.961 181.719 c 86.043
 187.121 84.555 192.664 83.512 198.305 c 83.191 200.152 81.816 201.645 79.996
 202.109 c 56.668 207.941 l 54.625 208.434 53.145 210.203 53.02 212.301 
c 52.914 214.344 52.914 222.621 53.02 224.668 c 53.145 226.762 54.625 228.531
 56.668 229.023 c 79.996 234.855 l 81.816 235.324 83.191 236.812 83.512 
238.664 c 84.555 244.289 86.043 249.824 87.961 255.215 c 88.609 256.977 
88.16 258.957 86.809 260.266 c 69.523 276.957 l 67.996 278.414 67.602 280.699
 68.551 282.586 c 69.496 284.406 73.617 291.543 74.715 293.258 c 75.863 
295.027 78.039 295.832 80.062 295.242 c 103.238 288.621 l 105.035 288.121
 106.961 288.711 108.168 290.133 c 111.918 294.484 115.984 298.551 120.336
 302.301 c 121.758 303.512 122.348 305.434 121.848 307.234 c 115.227 330.406
 l 114.637 332.43 115.445 334.605 117.211 335.754 c 118.926 336.855 126.066
 340.973 127.887 341.918 c 129.77 342.871 132.055 342.473 133.512 340.945
 c 150.203 323.66 l 151.512 322.309 153.492 321.859 155.254 322.508 c 160.656
 324.43 166.203 325.914 171.84 326.957 c 173.691 327.277 175.18 328.652 
175.648 330.473 c 181.48 353.805 l 181.973 355.844 183.738 357.324 185.836
 357.449 c 187.883 357.559 196.156 357.559 198.203 357.449 c 200.301 357.324
 202.07 355.844 202.559 353.805 c 208.395 330.473 l 208.859 328.652 210.352
 327.277 212.199 326.957 c 217.828 325.914 223.359 324.426 228.75 322.508
 c 230.516 321.859 232.496 322.309 233.805 323.66 c 250.508 340.965 l 251.965
 342.492 254.25 342.891 256.133 341.938 c 257.957 340.992 265.094 336.875
 266.809 335.773 c 268.574 334.625 269.383 332.453 268.793 330.426 c 262.172
 307.254 l 261.672 305.457 262.262 303.531 263.684 302.32 c 268.035 298.57
 272.102 294.504 275.852 290.152 c 277.059 288.73 278.984 288.141 280.785
 288.641 c 303.957 295.262 l 305.98 295.852 308.156 295.047 309.305 293.277
 c 310.406 291.562 314.523 284.426 315.469 282.605 c 316.418 280.719 316.023
 278.434 314.496 276.977 c 297.211 260.285 l 295.859 258.977 295.41 256.996
 296.059 255.234 c 297.977 249.844 299.465 244.309 300.508 238.684 c 300.828
 236.832 302.203 235.344 304.023 234.875 c h
327.309 229.023 m f
0.156863 0.521569 0.933333 rg
384 26.484 m 384 52.965 l 0 52.965 l 0 26.484 l 0 11.855 11.855 0 26.484
 0 c 357.516 0 l 372.145 0 384 11.855 384 26.484 c h
384 26.484 m f
0.94902 0.537255 0.792157 rg
39.723 33.102 m 33.102 33.102 l 29.445 33.102 26.484 30.141 26.484 26.484
 c 26.484 22.828 29.445 19.863 33.102 19.863 c 39.723 19.863 l 43.379 19.863
 46.344 22.828 46.344 26.484 c 46.344 30.141 43.379 33.102 39.723 33.102
 c h
39.723 33.102 m f
1 0.803922 0.329412 rg
72.828 33.102 m 66.207 33.102 l 62.551 33.102 59.586 30.141 59.586 26.484
 c 59.586 22.828 62.551 19.863 66.207 19.863 c 72.828 19.863 l 76.484 19.863
 79.449 22.828 79.449 26.484 c 79.449 30.141 76.484 33.102 72.828 33.102
 c h
72.828 33.102 m f
0.572549 0.819608 0.286275 rg
105.93 33.102 m 99.309 33.102 l 95.652 33.102 92.691 30.141 92.691 26.484
 c 92.691 22.828 95.652 19.863 99.309 19.863 c 105.93 19.863 l 109.586 19.863
 112.551 22.828 112.551 26.484 c 112.551 30.141 109.586 33.102 105.93 33.102
 c h
105.93 33.102 m f
0.0352941 0.439216 0.870588 rg
350.898 33.102 m 344.277 33.102 l 340.621 33.102 337.656 30.141 337.656
 26.484 c 337.656 22.828 340.621 19.863 344.277 19.863 c 350.898 19.863 
l 354.555 19.863 357.516 22.828 357.516 26.484 c 357.516 30.141 354.555 
33.102 350.898 33.102 c h
350.898 33.102 m f
218.484 33.102 m 165.516 33.102 l 161.859 33.102 158.898 30.141 158.898
 26.484 c 158.898 22.828 161.859 19.863 165.516 19.863 c 218.484 19.863 
l 222.141 19.863 225.102 22.828 225.102 26.484 c 225.102 30.141 222.141 
33.102 218.484 33.102 c h
218.484 33.102 m f
0.94902 0.956863 0.968627 rg
158.48 189.668 m 157.516 187.078 155.039 185.363 152.277 185.363 c 149.512
 185.363 147.039 187.078 146.074 189.668 c 126.211 242.637 l 124.93 246.062
 126.672 249.875 130.098 251.156 c 133.523 252.438 137.336 250.695 138.617
 247.27 c 141.969 238.344 l 162.586 238.344 l 165.934 247.297 l 166.906 
249.879 169.379 251.59 172.137 251.586 c 172.934 251.582 173.723 251.441
 174.469 251.168 c 176.113 250.551 177.449 249.305 178.176 247.707 c 178.902
 246.105 178.961 244.281 178.34 242.637 c h
146.934 225.102 m 152.277 210.855 l 157.617 225.102 l h
146.934 225.102 m f
211.863 185.379 m 198.621 185.379 l 194.965 185.379 192 188.344 192 192
 c 192 244.965 l 192 248.621 194.965 251.586 198.621 251.586 c 202.277 251.586
 205.242 248.621 205.242 244.965 c 205.242 225.102 l 211.863 225.102 l 222.832
 225.102 231.723 216.211 231.723 205.242 c 231.723 194.273 222.832 185.379
 211.863 185.379 c h
211.863 211.863 m 205.242 211.863 l 205.242 198.621 l 211.863 198.621 l
 215.52 198.621 218.484 201.586 218.484 205.242 c 218.484 208.898 215.52
 211.863 211.863 211.863 c h
211.863 211.863 m f
251.586 185.379 m 247.93 185.379 244.965 188.344 244.965 192 c 244.965 
244.965 l 244.965 248.621 247.93 251.586 251.586 251.586 c 255.242 251.586
 258.207 248.621 258.207 244.965 c 258.207 192 l 258.207 188.344 255.242
 185.379 251.586 185.379 c h
251.586 185.379 m f
0.160784 0.329412 0.454902 rg
248.176 168.926 m 246.422 168.926 244.738 168.23 243.496 166.988 c 215.035
 138.59 168.965 138.59 140.504 166.988 c 137.906 169.496 133.777 169.461
 131.223 166.906 c 128.668 164.352 128.633 160.223 131.145 157.625 c 164.773
 124.062 219.227 124.062 252.855 157.625 c 254.75 159.52 255.316 162.367
 254.293 164.84 c 253.266 167.312 250.855 168.926 248.176 168.926 c h
248.176 168.926 m f
192 304.512 m 169.176 304.559 147.273 295.504 131.145 279.352 c 128.633
 276.754 128.668 272.625 131.223 270.074 c 133.777 267.52 137.906 267.484
 140.504 269.992 c 168.965 298.387 215.035 298.387 243.496 269.992 c 246.094
 267.484 250.223 267.52 252.777 270.074 c 255.332 272.625 255.367 276.754
 252.855 279.352 c 236.727 295.504 214.824 304.559 192 304.512 c h
192 304.512 m f
Q Q
showpage
%%Trailer
end
%%EOF
