%!PS-Adobe-3.0 EPSF-3.0
%%Creator: cairo 1.16.0 (https://cairographics.org)
%%CreationDate: Fri Aug  2 09:46:40 2019
%%Pages: 1
%%DocumentData: Clean7Bit
%%LanguageLevel: 2
%%BoundingBox: 26 0 358 384
%%EndComments
%%BeginProlog
50 dict begin
/q { gsave } bind def
/Q { grestore } bind def
/cm { 6 array astore concat } bind def
/w { setlinewidth } bind def
/J { setlinecap } bind def
/j { setlinejoin } bind def
/M { setmiterlimit } bind def
/d { setdash } bind def
/m { moveto } bind def
/l { lineto } bind def
/c { curveto } bind def
/h { closepath } bind def
/re { exch dup neg 3 1 roll 5 3 roll moveto 0 rlineto
      0 exch rlineto 0 rlineto closepath } bind def
/S { stroke } bind def
/f { fill } bind def
/f* { eofill } bind def
/n { newpath } bind def
/W { clip } bind def
/W* { eoclip } bind def
/BT { } bind def
/ET { } bind def
/BDC { mark 3 1 roll /BDC pdfmark } bind def
/EMC { mark /EMC pdfmark } bind def
/cairo_store_point { /cairo_point_y exch def /cairo_point_x exch def } def
/Tj { show currentpoint cairo_store_point } bind def
/TJ {
  {
    dup
    type /stringtype eq
    { show } { -0.001 mul 0 cairo_font_matrix dtransform rmoveto } ifelse
  } forall
  currentpoint cairo_store_point
} bind def
/cairo_selectfont { cairo_font_matrix aload pop pop pop 0 0 6 array astore
    cairo_font exch selectfont cairo_point_x cairo_point_y moveto } bind def
/Tf { pop /cairo_font exch def /cairo_font_matrix where
      { pop cairo_selectfont } if } bind def
/Td { matrix translate cairo_font_matrix matrix concatmatrix dup
      /cairo_font_matrix exch def dup 4 get exch 5 get cairo_store_point
      /cairo_font where { pop cairo_selectfont } if } bind def
/Tm { 2 copy 8 2 roll 6 array astore /cairo_font_matrix exch def
      cairo_store_point /cairo_font where { pop cairo_selectfont } if } bind def
/g { setgray } bind def
/rg { setrgbcolor } bind def
/d1 { setcachedevice } bind def
/cairo_data_source {
  CairoDataIndex CairoData length lt
    { CairoData CairoDataIndex get /CairoDataIndex CairoDataIndex 1 add def }
    { () } ifelse
} def
/cairo_flush_ascii85_file { cairo_ascii85_file status { cairo_ascii85_file flushfile } if } def
/cairo_image { image cairo_flush_ascii85_file } def
/cairo_imagemask { imagemask cairo_flush_ascii85_file } def
%%EndProlog
%%BeginSetup
%%EndSetup
%%Page: 1 1
%%BeginPageSetup
%%PageBoundingBox: 26 0 358 384
%%EndPageSetup
q 26 0 332 384 rectclip
1 0 0 -1 0 384 cm q
0.956863 0.568627 0 rg
79.449 0 m 86.07 13.242 l 86.07 370.758 l 79.449 384 l 39.723 384 l 32.422
 383.977 26.504 378.062 26.484 370.758 c 26.484 13.242 l 26.504 5.938 32.422
 0.023 39.723 0 c h
79.449 0 m f
0.988235 0.639216 0.0862745 rg
357.516 357.516 m 357.434 364.629 354.523 371.418 349.434 376.383 c 344.34
 381.352 337.484 384.09 330.371 384 c 79.449 384.004 l 79.449 -0.004 l 330.371
 0 l 337.484 -0.09 344.34 2.648 349.434 7.617 c 354.523 12.582 357.434 19.371
 357.516 26.484 c h
357.516 357.516 m f
0.733333 0.756863 0.807843 rg
192 211.863 52.965 39.723 re f
0.847059 0.866667 0.898039 rg
324.414 172.137 m 324.414 198.621 l 324.414 209.59 315.52 218.484 304.551
 218.484 c 132.414 218.484 l 121.445 218.484 112.551 209.59 112.551 198.621
 c 112.551 172.137 l h
324.414 172.137 m f
0.156863 0.521569 0.933333 rg
324.414 52.965 m 324.414 172.137 l 112.551 172.137 l 112.551 52.965 l 112.551
 41.996 121.445 33.102 132.414 33.102 c 304.551 33.102 l 315.52 33.102 324.414
 41.996 324.414 52.965 c h
324.414 52.965 m f
0.847059 0.866667 0.898039 rg
172.137 244.965 m 264.828 244.965 l 272.164 244.965 278.07 250.871 278.07
 258.207 c 278.07 265.543 272.164 271.449 264.828 271.449 c 172.137 271.449
 l 164.801 271.449 158.898 265.543 158.898 258.207 c 158.898 250.871 164.801
 244.965 172.137 244.965 c h
172.137 244.965 m f
0.788235 0.447059 0 rg
231.723 324.414 m 152.277 324.414 l 148.621 324.414 145.656 321.449 145.656
 317.793 c 145.656 314.137 148.621 311.172 152.277 311.172 c 231.723 311.172
 l 235.379 311.172 238.344 314.137 238.344 317.793 c 238.344 321.449 235.379
 324.414 231.723 324.414 c h
231.723 324.414 m f
271.449 324.414 m 258.207 324.414 l 254.551 324.414 251.586 321.449 251.586
 317.793 c 251.586 314.137 254.551 311.172 258.207 311.172 c 271.449 311.172
 l 275.105 311.172 278.07 314.137 278.07 317.793 c 278.07 321.449 275.105
 324.414 271.449 324.414 c h
271.449 324.414 m f
244.965 350.898 m 178.758 350.898 l 175.102 350.898 172.137 347.934 172.137
 344.277 c 172.137 340.621 175.102 337.656 178.758 337.656 c 244.965 337.656
 l 248.621 337.656 251.586 340.621 251.586 344.277 c 251.586 347.934 248.621
 350.898 244.965 350.898 c h
244.965 350.898 m f
0.545098 0.576471 0.635294 rg
225.102 198.621 m 211.863 198.621 l 208.207 198.621 205.242 195.656 205.242
 192 c 205.242 188.344 208.207 185.379 211.863 185.379 c 225.102 185.379
 l 228.762 185.379 231.723 188.344 231.723 192 c 231.723 195.656 228.762
 198.621 225.102 198.621 c h
225.102 198.621 m f
1 0.803922 0.329412 rg
245.07 152.277 m 229.711 152.277 209.242 139.922 193.551 124.23 c 172.137
 102.793 156.91 72.422 170.934 58.383 c 184.957 44.34 215.344 59.559 236.797
 80.996 c 258.246 102.434 273.453 132.816 259.41 146.859 c 255.57 150.543
 250.391 152.5 245.07 152.277 c h
185.52 66.129 m 183.633 65.969 181.762 66.547 180.293 67.742 c 175.301 
72.742 181.617 93.562 202.91 114.883 c 224.203 136.199 245.066 142.504 250.051
 137.5 c 255.035 132.492 248.727 111.68 227.434 90.359 c 210.684 73.617 
194.211 66.129 185.52 66.129 c h
185.52 66.129 m f
0.670588 0.870588 0.384314 rg
185.273 152.277 m 179.953 152.496 174.773 150.535 170.934 146.848 c 156.891
 132.805 172.105 102.434 193.551 80.984 c 214.992 59.535 245.375 44.359 
259.41 58.383 c 273.449 72.402 258.238 102.793 236.797 124.242 c 221.133
 139.934 200.605 152.277 185.273 152.277 c h
244.828 66.113 m 236.133 66.113 219.668 73.602 202.91 90.348 c 181.625 
111.637 175.301 132.488 180.293 137.484 c 185.285 142.484 206.117 136.16
 227.434 114.867 c 248.754 93.578 255.043 72.727 250.051 67.73 c 248.582
 66.539 246.711 65.965 244.828 66.129 c h
244.828 66.113 m f
Q Q
showpage
%%Trailer
end
%%EOF
