%!PS-Adobe-3.0 EPSF-3.0
%%Creator: cairo 1.16.0 (https://cairographics.org)
%%CreationDate: Fri Aug  2 09:46:40 2019
%%Pages: 1
%%DocumentData: Clean7Bit
%%LanguageLevel: 2
%%BoundingBox: 0 0 384 384
%%EndComments
%%BeginProlog
50 dict begin
/q { gsave } bind def
/Q { grestore } bind def
/cm { 6 array astore concat } bind def
/w { setlinewidth } bind def
/J { setlinecap } bind def
/j { setlinejoin } bind def
/M { setmiterlimit } bind def
/d { setdash } bind def
/m { moveto } bind def
/l { lineto } bind def
/c { curveto } bind def
/h { closepath } bind def
/re { exch dup neg 3 1 roll 5 3 roll moveto 0 rlineto
      0 exch rlineto 0 rlineto closepath } bind def
/S { stroke } bind def
/f { fill } bind def
/f* { eofill } bind def
/n { newpath } bind def
/W { clip } bind def
/W* { eoclip } bind def
/BT { } bind def
/ET { } bind def
/BDC { mark 3 1 roll /BDC pdfmark } bind def
/EMC { mark /EMC pdfmark } bind def
/cairo_store_point { /cairo_point_y exch def /cairo_point_x exch def } def
/Tj { show currentpoint cairo_store_point } bind def
/TJ {
  {
    dup
    type /stringtype eq
    { show } { -0.001 mul 0 cairo_font_matrix dtransform rmoveto } ifelse
  } forall
  currentpoint cairo_store_point
} bind def
/cairo_selectfont { cairo_font_matrix aload pop pop pop 0 0 6 array astore
    cairo_font exch selectfont cairo_point_x cairo_point_y moveto } bind def
/Tf { pop /cairo_font exch def /cairo_font_matrix where
      { pop cairo_selectfont } if } bind def
/Td { matrix translate cairo_font_matrix matrix concatmatrix dup
      /cairo_font_matrix exch def dup 4 get exch 5 get cairo_store_point
      /cairo_font where { pop cairo_selectfont } if } bind def
/Tm { 2 copy 8 2 roll 6 array astore /cairo_font_matrix exch def
      cairo_store_point /cairo_font where { pop cairo_selectfont } if } bind def
/g { setgray } bind def
/rg { setrgbcolor } bind def
/d1 { setcachedevice } bind def
/cairo_data_source {
  CairoDataIndex CairoData length lt
    { CairoData CairoDataIndex get /CairoDataIndex CairoDataIndex 1 add def }
    { () } ifelse
} def
/cairo_flush_ascii85_file { cairo_ascii85_file status { cairo_ascii85_file flushfile } if } def
/cairo_image { image cairo_flush_ascii85_file } def
/cairo_imagemask { imagemask cairo_flush_ascii85_file } def
%%EndProlog
%%BeginSetup
%%EndSetup
%%Page: 1 1
%%BeginPageSetup
%%PageBoundingBox: 0 0 384 384
%%EndPageSetup
q 0 0 384 384 rectclip
1 0 0 -1 0 384 cm q
0.666667 0.698039 0.74902 rg
304.551 59.586 m 351.891 59.586 l 358.918 59.883 364.387 65.797 364.137
 72.828 c 364.137 304.551 l 251.586 304.551 l 247.93 304.551 244.965 307.516
 244.965 311.172 c 244.965 317.793 l 244.965 321.449 242 324.414 238.344
 324.414 c 145.656 324.414 l 142 324.414 139.035 321.449 139.035 317.793
 c 139.035 311.172 l 139.035 307.516 136.07 304.551 132.414 304.551 c 19.863
 304.551 l 19.863 72.828 l 19.883 65.523 25.801 59.609 33.102 59.586 c h
304.551 59.586 m f
0.156863 0.521569 0.933333 rg
304.551 86.07 m 331.035 86.07 l 334.691 86.07 337.656 89.031 337.656 92.691
 c 337.656 264.828 l 337.656 268.484 334.691 271.449 331.035 271.449 c 52.965
 271.449 l 49.309 271.449 46.344 268.484 46.344 264.828 c 46.344 92.691 
l 46.344 89.031 49.309 86.07 52.965 86.07 c h
304.551 86.07 m f
1 0.764706 0.0235294 rg
105.93 205.242 m 278.07 205.242 l 296.352 205.242 311.172 190.422 311.172
 172.137 c 311.172 153.855 296.352 139.035 278.07 139.035 c 105.93 139.035
 l h
105.93 205.242 m f
0.666667 0.698039 0.74902 rg
364.137 350.898 m 343.613 376.547 l 339.844 381.254 334.141 384 328.109
 384 c 55.891 384 l 49.859 384 44.156 381.254 40.387 376.547 c 19.863 350.898
 l 19.863 344.277 l 364.137 344.277 l h
364.137 350.898 m f
0.807843 0.823529 0.862745 rg
384 311.172 m 384 337.656 l 383.977 344.961 378.062 350.875 370.758 350.898
 c 13.242 350.898 l 5.938 350.875 0.023 344.961 0 337.656 c 0 311.172 l 
0.023 303.867 5.938 297.953 13.242 297.93 c 132.414 297.93 l 136.07 297.93
 139.035 300.895 139.035 304.551 c 139.035 311.172 l 139.035 314.828 142
 317.793 145.656 317.793 c 238.344 317.793 l 242 317.793 244.965 314.828
 244.965 311.172 c 244.965 304.551 l 244.965 300.895 247.93 297.93 251.586
 297.93 c 370.758 297.93 l 378.062 297.953 383.977 303.867 384 311.172 c
 h
384 311.172 m f
0.160784 0.329412 0.454902 rg
125.793 59.586 m 258.207 59.586 l 258.207 105.93 l 258.207 109.586 255.242
 112.551 251.586 112.551 c 132.414 112.551 l 128.758 112.551 125.793 109.586
 125.793 105.93 c h
125.793 59.586 m f
0.968627 0.678431 0 rg
139.035 172.137 m 139.035 190.422 124.215 205.242 105.93 205.242 c 87.648
 205.242 72.828 190.422 72.828 172.137 c 72.828 153.855 87.648 139.035 105.93
 139.035 c 114.711 139.035 123.129 142.523 129.34 148.73 c 135.547 154.938
 139.035 163.359 139.035 172.137 c h
139.035 172.137 m f
0.933333 0.227451 0.282353 rg
165.516 139.035 m 183.801 139.035 198.621 153.855 198.621 172.137 c 198.621
 190.422 183.801 205.242 165.516 205.242 c 205.242 205.242 l 223.523 205.242
 238.344 190.422 238.344 172.137 c 238.344 153.855 223.523 139.035 205.242
 139.035 c h
165.516 139.035 m f
0.858824 0.160784 0.211765 rg
165.516 205.242 m 165.516 238.344 l 165.516 240.789 166.859 243.031 169.016
 244.184 c 171.168 245.336 173.781 245.207 175.812 243.852 c 181.703 239.922
 l 183.93 238.438 186.828 238.438 189.055 239.922 c 194.945 243.852 l 196.977
 245.207 199.59 245.336 201.742 244.184 c 203.898 243.031 205.242 240.789
 205.242 238.344 c 205.242 205.242 l h
165.516 205.242 m f
0.203922 0.427451 0.580392 rg
258.207 66.207 m 300.891 46.816 l 303.281 45.621 304.723 43.109 304.543
 40.441 c 304.359 37.773 302.594 35.477 300.062 34.621 c 196.184 0.621 l
 193.457 -0.207 190.543 -0.207 187.816 0.621 c 83.938 34.621 l 81.406 35.477
 79.641 37.773 79.457 40.441 c 79.277 43.109 80.719 45.621 83.109 46.816
 c 125.793 66.207 l h
258.207 66.207 m f
0.262745 0.611765 0.972549 rg
33.102 331.035 m 26.484 331.035 l 22.828 331.035 19.863 328.07 19.863 324.414
 c 19.863 320.758 22.828 317.793 26.484 317.793 c 33.102 317.793 l 36.762
 317.793 39.723 320.758 39.723 324.414 c 39.723 328.07 36.762 331.035 33.102
 331.035 c h
33.102 331.035 m f
66.207 331.035 m 59.586 331.035 l 55.93 331.035 52.965 328.07 52.965 324.414
 c 52.965 320.758 55.93 317.793 59.586 317.793 c 66.207 317.793 l 69.863
 317.793 72.828 320.758 72.828 324.414 c 72.828 328.07 69.863 331.035 66.207
 331.035 c h
66.207 331.035 m f
1 0.803922 0.329412 rg
112.551 178.758 m 108.895 178.758 105.93 175.793 105.93 172.137 c 102.273
 172.137 99.309 169.172 99.309 165.516 c 99.309 161.859 102.273 158.898 
105.93 158.898 c 113.242 158.898 119.172 164.824 119.172 172.137 c 119.172
 175.793 116.207 178.758 112.551 178.758 c h
112.551 178.758 m f
Q Q
showpage
%%Trailer
end
%%EOF
