%!PS-Adobe-3.0 EPSF-3.0
%%Creator: cairo 1.16.0 (https://cairographics.org)
%%CreationDate: Fri Aug  2 09:46:40 2019
%%Pages: 1
%%DocumentData: Clean7Bit
%%LanguageLevel: 2
%%BoundingBox: 0 0 384 384
%%EndComments
%%BeginProlog
50 dict begin
/q { gsave } bind def
/Q { grestore } bind def
/cm { 6 array astore concat } bind def
/w { setlinewidth } bind def
/J { setlinecap } bind def
/j { setlinejoin } bind def
/M { setmiterlimit } bind def
/d { setdash } bind def
/m { moveto } bind def
/l { lineto } bind def
/c { curveto } bind def
/h { closepath } bind def
/re { exch dup neg 3 1 roll 5 3 roll moveto 0 rlineto
      0 exch rlineto 0 rlineto closepath } bind def
/S { stroke } bind def
/f { fill } bind def
/f* { eofill } bind def
/n { newpath } bind def
/W { clip } bind def
/W* { eoclip } bind def
/BT { } bind def
/ET { } bind def
/BDC { mark 3 1 roll /BDC pdfmark } bind def
/EMC { mark /EMC pdfmark } bind def
/cairo_store_point { /cairo_point_y exch def /cairo_point_x exch def } def
/Tj { show currentpoint cairo_store_point } bind def
/TJ {
  {
    dup
    type /stringtype eq
    { show } { -0.001 mul 0 cairo_font_matrix dtransform rmoveto } ifelse
  } forall
  currentpoint cairo_store_point
} bind def
/cairo_selectfont { cairo_font_matrix aload pop pop pop 0 0 6 array astore
    cairo_font exch selectfont cairo_point_x cairo_point_y moveto } bind def
/Tf { pop /cairo_font exch def /cairo_font_matrix where
      { pop cairo_selectfont } if } bind def
/Td { matrix translate cairo_font_matrix matrix concatmatrix dup
      /cairo_font_matrix exch def dup 4 get exch 5 get cairo_store_point
      /cairo_font where { pop cairo_selectfont } if } bind def
/Tm { 2 copy 8 2 roll 6 array astore /cairo_font_matrix exch def
      cairo_store_point /cairo_font where { pop cairo_selectfont } if } bind def
/g { setgray } bind def
/rg { setrgbcolor } bind def
/d1 { setcachedevice } bind def
/cairo_data_source {
  CairoDataIndex CairoData length lt
    { CairoData CairoDataIndex get /CairoDataIndex CairoDataIndex 1 add def }
    { () } ifelse
} def
/cairo_flush_ascii85_file { cairo_ascii85_file status { cairo_ascii85_file flushfile } if } def
/cairo_image { image cairo_flush_ascii85_file } def
/cairo_imagemask { imagemask cairo_flush_ascii85_file } def
%%EndProlog
%%BeginSetup
%%EndSetup
%%Page: 1 1
%%BeginPageSetup
%%PageBoundingBox: 0 0 384 384
%%EndPageSetup
q 0 0 384 384 rectclip
1 0 0 -1 0 384 cm q
0.156863 0.521569 0.933333 rg
384 46.344 m 384 251.586 l 377.379 258.207 l 6.621 258.207 l 0 251.586 
l 0 46.344 l 0 35.375 8.891 26.484 19.863 26.484 c 364.137 26.484 l 375.109
 26.484 384 35.375 384 46.344 c h
384 46.344 m f
0.733333 0.756863 0.807843 rg
119.172 297.93 145.656 39.727 re f
0.847059 0.866667 0.898039 rg
311.172 357.516 m 264.828 331.035 l 119.172 331.035 l 72.828 357.516 l 
79.449 364.137 l 304.551 364.137 l h
311.172 357.516 m f
0.733333 0.756863 0.807843 rg
72.828 357.516 m 311.172 357.516 l 311.172 377.379 l 311.172 381.035 308.207
 384 304.551 384 c 79.449 384 l 75.793 384 72.828 381.035 72.828 377.379
 c h
72.828 357.516 m f
0.847059 0.866667 0.898039 rg
384 251.586 m 384 284.691 l 384 295.66 375.109 304.551 364.137 304.551 
c 19.863 304.551 l 8.891 304.551 0 295.66 0 284.691 c 0 251.586 l h
384 251.586 m f
0.160784 0.329412 0.454902 rg
301.488 121.078 m 303.137 120.68 304.332 119.25 304.438 117.559 c 304.551
 115.895 304.551 114.234 304.551 112.551 c 304.551 110.871 304.52 109.242
 304.438 107.547 c 304.332 105.852 303.137 104.426 301.488 104.023 c 282.605
 99.309 l 281.133 98.934 280.02 97.727 279.766 96.23 c 278.922 91.668 277.715
 87.176 276.156 82.805 c 275.633 81.379 276 79.777 277.09 78.719 c 291.078
 65.219 l 292.312 64.039 292.633 62.191 291.867 60.664 c 291.098 59.188 
290.289 57.738 289.457 56.281 c 288.621 54.824 287.77 53.414 286.883 52.023
 c 285.945 50.602 284.188 49.953 282.551 50.43 c 263.82 55.793 l 262.371
 56.195 260.82 55.719 259.848 54.574 c 256.812 51.055 253.52 47.762 249.996
 44.723 c 248.852 43.75 248.375 42.199 248.777 40.75 c 254.141 22.02 l 254.621
 20.383 253.973 18.625 252.547 17.691 c 251.156 16.805 249.738 15.957 248.289
 15.113 c 246.84 14.273 245.383 13.473 243.906 12.707 c 242.379 11.938 240.531
 12.258 239.352 13.492 c 225.84 27.461 l 224.781 28.551 223.18 28.918 221.754
 28.395 c 217.383 26.836 212.891 25.629 208.328 24.789 c 206.828 24.531 
205.621 23.422 205.242 21.949 c 200.52 3.066 l 200.121 1.414 198.691 0.219
 197 0.113 c 195.344 0 193.684 0 192 0 c 190.316 0 188.691 0 186.996 0.113
 c 185.301 0.219 183.871 1.414 183.473 3.066 c 178.758 21.949 l 178.383 
23.418 177.176 24.531 175.68 24.789 c 171.117 25.629 166.625 26.836 162.254
 28.395 c 160.828 28.918 159.227 28.551 158.168 27.461 c 144.66 13.473 l
 143.48 12.238 141.633 11.918 140.105 12.684 c 138.629 13.453 137.18 14.262
 135.723 15.094 c 134.27 15.93 132.855 16.785 131.469 17.672 c 130.043 18.605
 129.395 20.363 129.871 22 c 135.234 40.73 l 135.637 42.18 135.164 43.73
 134.016 44.703 c 130.496 47.742 127.203 51.035 124.164 54.555 c 123.191
 55.699 121.641 56.176 120.191 55.773 c 101.461 50.41 l 99.824 49.934 98.066
 50.578 97.133 52.004 c 96.246 53.395 95.398 54.812 94.559 56.262 c 93.715
 57.711 92.914 59.168 92.148 60.645 c 91.379 62.172 91.699 64.02 92.934 
65.199 c 106.926 78.699 l 108.012 79.758 108.379 81.359 107.859 82.785 c
 106.297 87.156 105.094 91.648 104.25 96.211 c 103.992 97.707 102.879 98.914
 101.41 99.289 c 82.527 104.012 l 80.879 104.41 79.68 105.84 79.574 107.535
 c 79.496 109.195 79.461 110.844 79.461 112.539 c 79.461 114.234 79.496 
115.848 79.574 117.543 c 79.68 119.238 80.879 120.664 82.527 121.066 c 101.395
 125.793 l 102.867 126.172 103.98 127.375 104.234 128.871 c 105.078 133.438
 106.285 137.926 107.844 142.297 c 108.367 143.727 108 145.324 106.91 146.383
 c 92.922 159.891 l 91.688 161.07 91.367 162.918 92.133 164.445 c 92.902
 165.922 93.711 167.371 94.543 168.828 c 95.379 170.285 96.23 171.695 97.117
 173.086 c 98.055 174.512 99.812 175.156 101.449 174.68 c 120.18 169.316
 l 121.629 168.914 123.18 169.391 124.152 170.535 c 127.188 174.059 130.48
 177.348 134.004 180.387 c 135.148 181.359 135.625 182.91 135.223 184.359
 c 129.859 203.09 l 129.379 204.727 130.027 206.484 131.453 207.418 c 132.844
 208.309 134.262 209.152 135.711 209.996 c 137.16 210.836 138.617 211.637
 140.094 212.406 c 141.621 213.172 143.469 212.852 144.648 211.617 c 158.148
 197.629 l 159.207 196.539 160.809 196.172 162.234 196.695 c 166.605 198.254
 171.094 199.461 175.66 200.301 c 177.156 200.559 178.363 201.672 178.738
 203.145 c 183.461 222.023 l 183.859 223.676 185.289 224.871 186.98 224.977
 c 188.645 225.059 190.293 225.09 191.988 225.09 c 193.684 225.09 195.297
 225.059 196.992 224.977 c 198.688 224.871 200.113 223.676 200.516 222.023
 c 205.242 203.156 l 205.617 201.684 206.824 200.574 208.32 200.316 c 212.883
 199.473 217.375 198.266 221.746 196.707 c 223.172 196.188 224.773 196.551
 225.832 197.641 c 239.332 211.629 l 240.512 212.867 242.359 213.184 243.887
 212.418 c 245.363 211.648 246.812 210.844 248.27 210.008 c 249.727 209.176
 251.137 208.32 252.527 207.434 c 253.953 206.496 254.598 204.738 254.121
 203.102 c 248.758 184.371 l 248.355 182.926 248.832 181.375 249.977 180.402
 c 253.5 177.363 256.793 174.07 259.828 170.551 c 260.801 169.402 262.352
 168.926 263.801 169.332 c 282.531 174.695 l 284.168 175.172 285.926 174.523
 286.859 173.098 c 287.75 171.707 288.598 170.289 289.438 168.84 c 290.277
 167.391 291.078 165.934 291.848 164.457 c 292.613 162.93 292.293 161.082
 291.059 159.902 c 277.07 146.402 l 275.98 145.344 275.613 143.746 276.137
 142.316 c 277.695 137.945 278.902 133.457 279.742 128.891 c 279.996 127.383
 281.121 126.168 282.605 125.793 c h
301.488 121.078 m f
0.203922 0.427451 0.580392 rg
244.965 112.551 m 244.965 141.805 221.254 165.516 192 165.516 c 162.746
 165.516 139.035 141.805 139.035 112.551 c 139.035 83.301 162.746 59.586
 192 59.586 c 221.254 59.586 244.965 83.301 244.965 112.551 c h
244.965 112.551 m f
0.301961 0.541176 0.670588 rg
211.863 112.551 m 211.863 123.52 202.969 132.414 192 132.414 c 181.031 
132.414 172.137 123.52 172.137 112.551 c 172.137 101.582 181.031 92.691 
192 92.691 c 202.969 92.691 211.863 101.582 211.863 112.551 c h
211.863 112.551 m f
0.545098 0.576471 0.635294 rg
205.242 284.691 m 178.758 284.691 l 175.102 284.691 172.137 281.727 172.137
 278.07 c 172.137 274.414 175.102 271.449 178.758 271.449 c 205.242 271.449
 l 208.898 271.449 211.863 274.414 211.863 278.07 c 211.863 281.727 208.898
 284.691 205.242 284.691 c h
205.242 284.691 m f
0.262745 0.611765 0.972549 rg
26.484 125.793 m 22.828 125.793 19.863 122.828 19.863 119.172 c 19.863 
59.586 l 19.863 52.273 25.789 46.344 33.102 46.344 c 59.586 46.344 l 63.242
 46.344 66.207 49.309 66.207 52.965 c 66.207 56.621 63.242 59.586 59.586
 59.586 c 33.102 59.586 l 33.102 119.172 l 33.102 122.828 30.141 125.793
 26.484 125.793 c h
26.484 125.793 m f
26.484 158.898 m 22.828 158.898 19.863 155.934 19.863 152.277 c 19.863 
145.656 l 19.863 142 22.828 139.035 26.484 139.035 c 30.141 139.035 33.102
 142 33.102 145.656 c 33.102 152.277 l 33.102 155.934 30.141 158.898 26.484
 158.898 c h
26.484 158.898 m f
Q Q
showpage
%%Trailer
end
%%EOF
