%!PS-Adobe-3.0 EPSF-3.0
%%Creator: cairo 1.16.0 (https://cairographics.org)
%%CreationDate: Fri Aug  2 09:46:41 2019
%%Pages: 1
%%DocumentData: Clean7Bit
%%LanguageLevel: 2
%%BoundingBox: 0 0 384 384
%%EndComments
%%BeginProlog
50 dict begin
/q { gsave } bind def
/Q { grestore } bind def
/cm { 6 array astore concat } bind def
/w { setlinewidth } bind def
/J { setlinecap } bind def
/j { setlinejoin } bind def
/M { setmiterlimit } bind def
/d { setdash } bind def
/m { moveto } bind def
/l { lineto } bind def
/c { curveto } bind def
/h { closepath } bind def
/re { exch dup neg 3 1 roll 5 3 roll moveto 0 rlineto
      0 exch rlineto 0 rlineto closepath } bind def
/S { stroke } bind def
/f { fill } bind def
/f* { eofill } bind def
/n { newpath } bind def
/W { clip } bind def
/W* { eoclip } bind def
/BT { } bind def
/ET { } bind def
/BDC { mark 3 1 roll /BDC pdfmark } bind def
/EMC { mark /EMC pdfmark } bind def
/cairo_store_point { /cairo_point_y exch def /cairo_point_x exch def } def
/Tj { show currentpoint cairo_store_point } bind def
/TJ {
  {
    dup
    type /stringtype eq
    { show } { -0.001 mul 0 cairo_font_matrix dtransform rmoveto } ifelse
  } forall
  currentpoint cairo_store_point
} bind def
/cairo_selectfont { cairo_font_matrix aload pop pop pop 0 0 6 array astore
    cairo_font exch selectfont cairo_point_x cairo_point_y moveto } bind def
/Tf { pop /cairo_font exch def /cairo_font_matrix where
      { pop cairo_selectfont } if } bind def
/Td { matrix translate cairo_font_matrix matrix concatmatrix dup
      /cairo_font_matrix exch def dup 4 get exch 5 get cairo_store_point
      /cairo_font where { pop cairo_selectfont } if } bind def
/Tm { 2 copy 8 2 roll 6 array astore /cairo_font_matrix exch def
      cairo_store_point /cairo_font where { pop cairo_selectfont } if } bind def
/g { setgray } bind def
/rg { setrgbcolor } bind def
/d1 { setcachedevice } bind def
/cairo_data_source {
  CairoDataIndex CairoData length lt
    { CairoData CairoDataIndex get /CairoDataIndex CairoDataIndex 1 add def }
    { () } ifelse
} def
/cairo_flush_ascii85_file { cairo_ascii85_file status { cairo_ascii85_file flushfile } if } def
/cairo_image { image cairo_flush_ascii85_file } def
/cairo_imagemask { imagemask cairo_flush_ascii85_file } def
%%EndProlog
%%BeginSetup
%%EndSetup
%%Page: 1 1
%%BeginPageSetup
%%PageBoundingBox: 0 0 384 384
%%EndPageSetup
q 0 0 384 384 rectclip
1 0 0 -1 0 384 cm q
0.509804 0.384314 0.294118 rg
276.48 265.688 m 373.406 337.125 l 382.457 343.789 386.191 355.516 382.664
 366.188 c 379.137 376.855 369.145 384.043 357.906 384 c 350.988 384 344.348
 381.262 339.438 376.387 c 251.055 288.266 l h
276.48 265.688 m f
0.807843 0.823529 0.862745 rg
317.793 158.898 m 317.793 246.652 246.652 317.793 158.898 317.793 c 71.141
 317.793 0 246.652 0 158.898 c 0 71.141 71.141 0 158.898 0 c 246.652 0 317.793
 71.141 317.793 158.898 c h
317.793 158.898 m f
0.156863 0.521569 0.933333 rg
291.309 158.898 m 291.309 232.027 232.027 291.309 158.898 291.309 c 85.766
 291.309 26.484 232.027 26.484 158.898 c 26.484 85.766 85.766 26.484 158.898
 26.484 c 232.027 26.484 291.309 85.766 291.309 158.898 c h
291.309 158.898 m f
0.733333 0.756863 0.807843 rg
139.035 225.102 39.723 39.727 re f
0.847059 0.866667 0.898039 rg
211.863 278.07 m 211.863 280.254 l 178.09 294.992 139.703 294.992 105.93
 280.254 c 105.93 278.07 l 105.93 267.098 114.824 258.207 125.793 258.207
 c 192 258.207 l 202.969 258.207 211.863 267.098 211.863 278.07 c h
211.863 278.07 m f
238.344 205.242 m 238.344 218.484 l 238.324 225.785 232.406 231.703 225.102
 231.723 c 92.691 231.723 l 85.387 231.703 79.469 225.785 79.449 218.484
 c 79.449 205.242 l 86.07 198.621 l 231.723 198.621 l h
238.344 205.242 m f
0.0196078 0.407843 0.756863 rg
238.344 92.691 m 238.344 205.242 l 79.449 205.242 l 79.449 92.691 l 79.469
 85.387 85.387 79.469 92.691 79.449 c 225.102 79.449 l 232.406 79.469 238.324
 85.387 238.344 92.691 c h
238.344 92.691 m f
0.262745 0.611765 0.972549 rg
158.898 297.93 m 90.246 297.945 31.863 247.852 21.445 179.996 c 11.027 
112.141 51.695 46.84 117.188 26.258 c 119.465 25.469 121.992 25.98 123.785
 27.59 c 125.574 29.203 126.352 31.664 125.805 34.012 c 125.258 36.359 123.477
 38.227 121.16 38.883 c 58.402 58.59 21.414 123.312 36.289 187.387 c 51.164
 251.461 112.883 293.266 177.906 283.305 c 242.926 273.348 289.305 214.988
 284.32 149.398 c 279.336 83.809 224.676 33.125 158.898 33.102 c 155.238
 33.102 152.277 30.141 152.277 26.484 c 152.277 22.828 155.238 19.863 158.898
 19.863 c 235.684 19.863 297.93 82.109 297.93 158.898 c 297.93 235.684 235.684
 297.93 158.898 297.93 c h
158.898 297.93 m f
1 0.803922 0.329412 rg
184.055 185.484 m 170.812 185.484 153.602 175.062 139.883 161.359 c 120.926
 142.406 108.27 116.684 120.742 104.191 c 133.215 91.695 158.961 104.375
 177.91 123.332 c 196.859 142.285 209.523 168.008 197.051 180.5 c 193.582
 183.863 188.887 185.668 184.055 185.484 c h
133.652 112.551 m 132.383 112.434 131.113 112.801 130.102 113.578 c 126.707
 116.98 131.387 134.168 149.242 152.023 c 167.098 169.879 184.285 174.535
 187.691 171.164 c 191.094 167.793 186.367 150.566 168.551 132.719 c 154.262
 118.371 140.359 112.551 133.652 112.551 c h
133.652 112.551 m f
0.670588 0.870588 0.384314 rg
133.738 185.484 m 128.906 185.668 124.211 183.863 120.742 180.5 c 108.27
 168.008 120.926 142.285 139.883 123.332 c 158.836 104.375 184.566 91.703
 197.051 104.191 c 209.539 116.676 196.867 142.406 177.91 161.359 c 164.191
 175.062 146.98 185.484 133.738 185.484 c h
184.141 112.551 m 177.453 112.551 163.562 118.398 149.242 132.719 c 131.367
 150.594 126.734 167.762 130.102 171.164 c 133.473 174.566 150.688 169.887
 168.551 152.023 c 186.414 134.16 191.059 116.98 187.691 113.578 c 186.68
 112.801 185.41 112.434 184.141 112.551 c h
184.141 112.551 m f
Q Q
showpage
%%Trailer
end
%%EOF
