%!PS-Adobe-3.0 EPSF-3.0
%%Creator: cairo 1.16.0 (https://cairographics.org)
%%CreationDate: Fri Aug  2 09:46:41 2019
%%Pages: 1
%%DocumentData: Clean7Bit
%%LanguageLevel: 2
%%BoundingBox: 0 0 384 384
%%EndComments
%%BeginProlog
50 dict begin
/q { gsave } bind def
/Q { grestore } bind def
/cm { 6 array astore concat } bind def
/w { setlinewidth } bind def
/J { setlinecap } bind def
/j { setlinejoin } bind def
/M { setmiterlimit } bind def
/d { setdash } bind def
/m { moveto } bind def
/l { lineto } bind def
/c { curveto } bind def
/h { closepath } bind def
/re { exch dup neg 3 1 roll 5 3 roll moveto 0 rlineto
      0 exch rlineto 0 rlineto closepath } bind def
/S { stroke } bind def
/f { fill } bind def
/f* { eofill } bind def
/n { newpath } bind def
/W { clip } bind def
/W* { eoclip } bind def
/BT { } bind def
/ET { } bind def
/BDC { mark 3 1 roll /BDC pdfmark } bind def
/EMC { mark /EMC pdfmark } bind def
/cairo_store_point { /cairo_point_y exch def /cairo_point_x exch def } def
/Tj { show currentpoint cairo_store_point } bind def
/TJ {
  {
    dup
    type /stringtype eq
    { show } { -0.001 mul 0 cairo_font_matrix dtransform rmoveto } ifelse
  } forall
  currentpoint cairo_store_point
} bind def
/cairo_selectfont { cairo_font_matrix aload pop pop pop 0 0 6 array astore
    cairo_font exch selectfont cairo_point_x cairo_point_y moveto } bind def
/Tf { pop /cairo_font exch def /cairo_font_matrix where
      { pop cairo_selectfont } if } bind def
/Td { matrix translate cairo_font_matrix matrix concatmatrix dup
      /cairo_font_matrix exch def dup 4 get exch 5 get cairo_store_point
      /cairo_font where { pop cairo_selectfont } if } bind def
/Tm { 2 copy 8 2 roll 6 array astore /cairo_font_matrix exch def
      cairo_store_point /cairo_font where { pop cairo_selectfont } if } bind def
/g { setgray } bind def
/rg { setrgbcolor } bind def
/d1 { setcachedevice } bind def
/cairo_data_source {
  CairoDataIndex CairoData length lt
    { CairoData CairoDataIndex get /CairoDataIndex CairoDataIndex 1 add def }
    { () } ifelse
} def
/cairo_flush_ascii85_file { cairo_ascii85_file status { cairo_ascii85_file flushfile } if } def
/cairo_image { image cairo_flush_ascii85_file } def
/cairo_imagemask { imagemask cairo_flush_ascii85_file } def
%%EndProlog
%%BeginSetup
%%EndSetup
%%Page: 1 1
%%BeginPageSetup
%%PageBoundingBox: 0 0 384 384
%%EndPageSetup
q 0 0 384 384 rectclip
1 0 0 -1 0 384 cm q
0.572549 0.819608 0.286275 rg
312.43 145.656 m 319.566 133.375 319.594 118.219 312.5 105.914 c 305.402
 93.613 292.27 86.043 278.07 86.07 c 272.062 86.074 266.133 87.43 260.723
 90.043 c 258.723 90.98 256.379 90.82 254.523 89.625 c 252.668 88.426 251.559
 86.359 251.586 84.148 c 251.586 19.863 l 251.586 8.891 242.695 0 231.723
 0 c 163.531 0 l 161.082 0.027 158.855 1.422 157.766 3.617 c 156.676 5.809
 156.91 8.426 158.367 10.395 c 163.035 17.047 165.535 24.977 165.516 33.102
 c 165.508 50.262 154.484 65.473 138.184 70.824 c 121.883 76.176 103.988
 70.457 93.812 56.645 c 83.637 42.832 83.477 24.047 93.418 10.062 c 94.777
 8.086 94.926 5.52 93.797 3.402 c 92.668 1.285 90.453 -0.027 88.055 0 c 
19.863 0 l 8.891 0 0 8.891 0 19.863 c 0 231.723 l 0 242.695 8.891 251.586
 19.863 251.586 c 311.172 251.586 l h
312.43 145.656 m f
0.0352941 0.439216 0.870588 rg
384 165.516 m 384 284.691 l 377.379 291.309 l 152.277 291.309 l 145.656
 284.691 l 145.656 165.516 l 145.656 154.547 154.547 145.656 165.516 145.656
 c 364.137 145.656 l 375.074 145.738 383.918 154.582 384 165.516 c h
384 165.516 m f
0.733333 0.756863 0.807843 rg
218.484 324.414 92.688 39.723 re f
0.847059 0.866667 0.898039 rg
205.242 357.516 m 324.414 357.516 l 331.75 357.516 337.656 363.422 337.656
 370.758 c 337.656 378.094 331.75 384 324.414 384 c 205.242 384 l 197.906
 384 192 378.094 192 370.758 c 192 363.422 197.906 357.516 205.242 357.516
 c h
205.242 357.516 m f
384 284.691 m 384 311.172 l 384 322.141 375.109 331.035 364.137 331.035
 c 165.516 331.035 l 154.547 331.035 145.656 322.141 145.656 311.172 c 145.656
 284.691 l h
384 284.691 m f
0.545098 0.576471 0.635294 rg
271.449 311.172 m 258.207 311.172 l 254.551 311.172 251.586 308.207 251.586
 304.551 c 251.586 300.895 254.551 297.93 258.207 297.93 c 271.449 297.93
 l 275.105 297.93 278.07 300.895 278.07 304.551 c 278.07 308.207 275.105
 311.172 271.449 311.172 c h
271.449 311.172 m f
0.262745 0.611765 0.972549 rg
249.668 190.078 m 155.055 284.691 l 145.656 284.691 l 145.656 275.289 l
 240.266 180.68 l 242.859 178.082 247.07 178.082 249.668 180.68 c 252.262
 183.273 252.262 187.484 249.668 190.078 c h
249.668 190.078 m f
294.09 145.656 m 269.527 170.219 l 266.918 172.777 262.738 172.777 260.125
 170.219 c 257.547 167.617 257.547 163.418 260.125 160.816 c 275.289 145.656
 l h
294.09 145.656 m f
382.016 156.977 m 302.633 236.426 l 300.02 238.984 295.84 238.984 293.23
 236.426 c 290.648 233.824 290.648 229.625 293.23 227.023 c 372.68 147.641
 l 376.785 149.566 380.09 152.867 382.016 156.977 c h
382.016 156.977 m f
282.77 256.285 m 254.367 284.691 l 235.562 284.691 l 273.367 246.887 l 
275.047 245.207 277.496 244.551 279.789 245.164 c 282.082 245.781 283.875
 247.57 284.488 249.867 c 285.105 252.16 284.449 254.609 282.77 256.285 
c h
282.77 256.285 m f
0.670588 0.870588 0.384314 rg
105.93 231.723 m 99.309 231.723 l 95.652 231.723 92.691 228.762 92.691 
225.102 c 92.691 221.445 95.652 218.484 99.309 218.484 c 105.93 218.484 
l 109.586 218.484 112.551 221.445 112.551 225.102 c 112.551 228.762 109.586
 231.723 105.93 231.723 c h
105.93 231.723 m f
72.828 231.723 m 33.102 231.723 l 25.789 231.723 19.863 225.797 19.863 
218.484 c 19.863 132.414 l 19.863 128.758 22.828 125.793 26.484 125.793 
c 30.141 125.793 33.102 128.758 33.102 132.414 c 33.102 218.484 l 72.828
 218.484 l 76.484 218.484 79.449 221.445 79.449 225.102 c 79.449 228.762
 76.484 231.723 72.828 231.723 c h
72.828 231.723 m f
Q Q
showpage
%%Trailer
end
%%EOF
