%!PS-Adobe-3.0 EPSF-3.0
%%Creator: cairo 1.16.0 (https://cairographics.org)
%%CreationDate: Fri Aug  2 09:46:41 2019
%%Pages: 1
%%DocumentData: Clean7Bit
%%LanguageLevel: 2
%%BoundingBox: 0 0 384 384
%%EndComments
%%BeginProlog
50 dict begin
/q { gsave } bind def
/Q { grestore } bind def
/cm { 6 array astore concat } bind def
/w { setlinewidth } bind def
/J { setlinecap } bind def
/j { setlinejoin } bind def
/M { setmiterlimit } bind def
/d { setdash } bind def
/m { moveto } bind def
/l { lineto } bind def
/c { curveto } bind def
/h { closepath } bind def
/re { exch dup neg 3 1 roll 5 3 roll moveto 0 rlineto
      0 exch rlineto 0 rlineto closepath } bind def
/S { stroke } bind def
/f { fill } bind def
/f* { eofill } bind def
/n { newpath } bind def
/W { clip } bind def
/W* { eoclip } bind def
/BT { } bind def
/ET { } bind def
/BDC { mark 3 1 roll /BDC pdfmark } bind def
/EMC { mark /EMC pdfmark } bind def
/cairo_store_point { /cairo_point_y exch def /cairo_point_x exch def } def
/Tj { show currentpoint cairo_store_point } bind def
/TJ {
  {
    dup
    type /stringtype eq
    { show } { -0.001 mul 0 cairo_font_matrix dtransform rmoveto } ifelse
  } forall
  currentpoint cairo_store_point
} bind def
/cairo_selectfont { cairo_font_matrix aload pop pop pop 0 0 6 array astore
    cairo_font exch selectfont cairo_point_x cairo_point_y moveto } bind def
/Tf { pop /cairo_font exch def /cairo_font_matrix where
      { pop cairo_selectfont } if } bind def
/Td { matrix translate cairo_font_matrix matrix concatmatrix dup
      /cairo_font_matrix exch def dup 4 get exch 5 get cairo_store_point
      /cairo_font where { pop cairo_selectfont } if } bind def
/Tm { 2 copy 8 2 roll 6 array astore /cairo_font_matrix exch def
      cairo_store_point /cairo_font where { pop cairo_selectfont } if } bind def
/g { setgray } bind def
/rg { setrgbcolor } bind def
/d1 { setcachedevice } bind def
/cairo_data_source {
  CairoDataIndex CairoData length lt
    { CairoData CairoDataIndex get /CairoDataIndex CairoDataIndex 1 add def }
    { () } ifelse
} def
/cairo_flush_ascii85_file { cairo_ascii85_file status { cairo_ascii85_file flushfile } if } def
/cairo_image { image cairo_flush_ascii85_file } def
/cairo_imagemask { imagemask cairo_flush_ascii85_file } def
%%EndProlog
%%BeginSetup
%%EndSetup
%%Page: 1 1
%%BeginPageSetup
%%PageBoundingBox: 0 0 384 384
%%EndPageSetup
q 0 0 384 384 rectclip
1 0 0 -1 0 384 cm q
0.670588 0.870588 0.384314 rg
38.398 19.199 m 345.602 19.199 l 356.238 19.199 364.801 27.762 364.801 
38.398 c 364.801 345.602 l 364.801 356.238 356.238 364.801 345.602 364.801
 c 38.398 364.801 l 27.762 364.801 19.199 356.238 19.199 345.602 c 19.199
 38.398 l 19.199 27.762 27.762 19.199 38.398 19.199 c h
38.398 19.199 m f
0.545098 0.576471 0.635294 rg
320 76.801 m 320 307.199 l 320 314.293 314.293 320 307.199 320 c 76.801
 320 l 69.707 320 64 314.293 64 307.199 c 64 76.801 l 64 69.707 69.707 64
 76.801 64 c 307.199 64 l 314.293 64 320 69.707 320 76.801 c h
320 76.801 m f
0.733333 0.756863 0.807843 rg
294.398 96 m 294.398 288 l 294.398 291.547 291.547 294.398 288 294.398 
c 96 294.398 l 92.453 294.398 89.602 291.547 89.602 288 c 89.602 96 l 89.602
 92.453 92.453 89.602 96 89.602 c 288 89.602 l 291.547 89.602 294.398 92.453
 294.398 96 c h
294.398 96 m f
0.490196 0.74902 0.160784 rg
44.801 57.602 m 41.266 57.602 38.398 54.734 38.398 51.199 c 38.398 44.801
 l 38.398 41.266 41.266 38.398 44.801 38.398 c 48.336 38.398 51.199 41.266
 51.199 44.801 c 51.199 51.199 l 51.199 54.734 48.336 57.602 44.801 57.602
 c h
44.801 57.602 m f
44.801 345.602 m 41.266 345.602 38.398 342.734 38.398 339.199 c 38.398 
332.801 l 38.398 329.266 41.266 326.398 44.801 326.398 c 48.336 326.398 
51.199 329.266 51.199 332.801 c 51.199 339.199 l 51.199 342.734 48.336 345.602
 44.801 345.602 c h
44.801 345.602 m f
339.199 57.602 m 335.664 57.602 332.801 54.734 332.801 51.199 c 332.801
 44.801 l 332.801 41.266 335.664 38.398 339.199 38.398 c 342.734 38.398 
345.602 41.266 345.602 44.801 c 345.602 51.199 l 345.602 54.734 342.734 
57.602 339.199 57.602 c h
339.199 57.602 m f
339.199 345.602 m 335.664 345.602 332.801 342.734 332.801 339.199 c 332.801
 332.801 l 332.801 329.266 335.664 326.398 339.199 326.398 c 342.734 326.398
 345.602 329.266 345.602 332.801 c 345.602 339.199 l 345.602 342.734 342.734
 345.602 339.199 345.602 c h
339.199 345.602 m f
0.47451 0.509804 0.568627 rg
140.09 172.801 m 145.953 172.812 151.457 175.641 154.879 180.402 c 157.082
 182.895 160.824 183.285 163.492 181.305 c 166.16 179.324 166.867 175.629
 165.121 172.801 c 159.301 164.766 149.984 160.008 140.062 160 c 122.391
 160 108.062 174.328 108.062 192 c 108.062 209.672 122.391 224 140.062 224
 c 149.984 223.992 159.301 219.234 165.121 211.199 c 166.855 208.375 166.141
 204.691 163.477 202.715 c 160.812 200.738 157.082 201.125 154.879 203.602
 c 151.453 208.359 145.953 211.184 140.09 211.199 c 129.484 211.199 120.891
 202.605 120.891 192 c 120.891 181.395 129.484 172.801 140.09 172.801 c 
h
140.09 172.801 m f
198.398 160 m 185.602 160 l 182.066 160 179.199 162.867 179.199 166.398
 c 179.199 217.602 l 179.199 221.133 182.066 224 185.602 224 c 189.133 224
 192 221.133 192 217.602 c 192 198.398 l 198.398 198.398 l 209.004 198.398
 217.602 189.805 217.602 179.199 c 217.602 168.598 209.004 160 198.398 160
 c h
198.398 185.602 m 192 185.602 l 192 172.801 l 198.398 172.801 l 201.934
 172.801 204.801 175.664 204.801 179.199 c 204.801 182.734 201.934 185.602
 198.398 185.602 c h
198.398 185.602 m f
268.801 160 m 265.266 160 262.398 162.867 262.398 166.398 c 262.398 201.602
 l 262.398 206.902 258.102 211.199 252.801 211.199 c 247.5 211.199 243.199
 206.902 243.199 201.602 c 243.199 166.398 l 243.199 162.867 240.336 160
 236.801 160 c 233.266 160 230.398 162.867 230.398 166.398 c 230.398 201.602
 l 230.398 213.973 240.43 224 252.801 224 c 265.172 224 275.199 213.973 
275.199 201.602 c 275.199 166.398 l 275.199 162.867 272.336 160 268.801 
160 c h
268.801 160 m f
0.968627 0.678431 0 rg
345.602 6.398 m 345.602 19.199 l 332.801 19.199 l 332.801 6.398 l 332.801
 2.867 335.664 0 339.199 0 c 342.734 0 345.602 2.867 345.602 6.398 c h
345.602 6.398 m f
313.602 6.398 m 313.602 19.199 l 300.801 19.199 l 300.801 6.398 l 300.801
 2.867 303.664 0 307.199 0 c 310.734 0 313.602 2.867 313.602 6.398 c h
313.602 6.398 m f
217.602 6.398 m 217.602 19.199 l 204.801 19.199 l 204.801 6.398 l 204.801
 2.867 207.664 0 211.199 0 c 214.734 0 217.602 2.867 217.602 6.398 c h
217.602 6.398 m f
57.602 6.398 m 57.602 19.199 l 44.801 19.199 l 44.801 6.398 l 44.801 2.867
 47.664 0 51.199 0 c 54.734 0 57.602 2.867 57.602 6.398 c h
57.602 6.398 m f
185.602 6.398 m 185.602 19.199 l 172.801 19.199 l 172.801 6.398 l 172.801
 2.867 175.664 0 179.199 0 c 182.734 0 185.602 2.867 185.602 6.398 c h
185.602 6.398 m f
89.602 6.398 m 89.602 19.199 l 76.801 19.199 l 76.801 6.398 l 76.801 2.867
 79.664 0 83.199 0 c 86.734 0 89.602 2.867 89.602 6.398 c h
89.602 6.398 m f
153.602 6.398 m 153.602 19.199 l 140.801 19.199 l 140.801 6.398 l 140.801
 2.867 143.664 0 147.199 0 c 150.734 0 153.602 2.867 153.602 6.398 c h
153.602 6.398 m f
121.602 6.398 m 121.602 19.199 l 108.801 19.199 l 108.801 6.398 l 108.801
 2.867 111.664 0 115.199 0 c 118.734 0 121.602 2.867 121.602 6.398 c h
121.602 6.398 m f
249.602 6.398 m 249.602 19.199 l 236.801 19.199 l 236.801 6.398 l 236.801
 2.867 239.664 0 243.199 0 c 246.734 0 249.602 2.867 249.602 6.398 c h
249.602 6.398 m f
281.602 6.398 m 281.602 19.199 l 268.801 19.199 l 268.801 6.398 l 268.801
 2.867 271.664 0 275.199 0 c 278.734 0 281.602 2.867 281.602 6.398 c h
281.602 6.398 m f
108.801 364.801 m 121.602 364.801 l 121.602 377.602 l 121.602 381.133 118.734
 384 115.199 384 c 111.664 384 108.801 381.133 108.801 377.602 c h
108.801 364.801 m f
76.801 364.801 m 89.602 364.801 l 89.602 377.602 l 89.602 381.133 86.734
 384 83.199 384 c 79.664 384 76.801 381.133 76.801 377.602 c h
76.801 364.801 m f
345.602 364.801 m 345.602 377.602 l 345.602 381.133 342.734 384 339.199
 384 c 335.664 384 332.801 381.133 332.801 377.602 c 332.801 364.801 l h
345.602 364.801 m f
236.801 364.801 m 249.602 364.801 l 249.602 377.602 l 249.602 381.133 246.734
 384 243.199 384 c 239.664 384 236.801 381.133 236.801 377.602 c h
236.801 364.801 m f
204.801 364.801 m 217.602 364.801 l 217.602 377.602 l 217.602 381.133 214.734
 384 211.199 384 c 207.664 384 204.801 381.133 204.801 377.602 c h
204.801 364.801 m f
140.801 364.801 m 153.602 364.801 l 153.602 377.602 l 153.602 381.133 150.734
 384 147.199 384 c 143.664 384 140.801 381.133 140.801 377.602 c h
140.801 364.801 m f
300.801 364.801 m 313.602 364.801 l 313.602 377.602 l 313.602 381.133 310.734
 384 307.199 384 c 303.664 384 300.801 381.133 300.801 377.602 c h
300.801 364.801 m f
172.801 364.801 m 185.602 364.801 l 185.602 377.602 l 185.602 381.133 182.734
 384 179.199 384 c 175.664 384 172.801 381.133 172.801 377.602 c h
172.801 364.801 m f
268.801 364.801 m 281.602 364.801 l 281.602 377.602 l 281.602 381.133 278.734
 384 275.199 384 c 271.664 384 268.801 381.133 268.801 377.602 c h
268.801 364.801 m f
44.801 364.801 m 57.602 364.801 l 57.602 377.602 l 57.602 381.133 54.734
 384 51.199 384 c 47.664 384 44.801 381.133 44.801 377.602 c h
44.801 364.801 m f
19.199 44.801 m 19.199 57.602 l 6.398 57.602 l 2.867 57.602 0 54.734 0 
51.199 c 0 47.664 2.867 44.801 6.398 44.801 c h
19.199 44.801 m f
6.398 332.801 m 19.199 332.801 l 19.199 345.602 l 6.398 345.602 l 2.867
 345.602 0 342.734 0 339.199 c 0 335.664 2.867 332.801 6.398 332.801 c h
6.398 332.801 m f
6.398 300.801 m 19.199 300.801 l 19.199 313.602 l 6.398 313.602 l 2.867
 313.602 0 310.734 0 307.199 c 0 303.664 2.867 300.801 6.398 300.801 c h
6.398 300.801 m f
6.398 76.801 m 19.199 76.801 l 19.199 89.602 l 6.398 89.602 l 2.867 89.602
 0 86.734 0 83.199 c 0 79.664 2.867 76.801 6.398 76.801 c h
6.398 76.801 m f
6.398 108.801 m 19.199 108.801 l 19.199 121.602 l 6.398 121.602 l 2.867
 121.602 0 118.734 0 115.199 c 0 111.664 2.867 108.801 6.398 108.801 c h
6.398 108.801 m f
6.398 172.801 m 19.199 172.801 l 19.199 185.602 l 6.398 185.602 l 2.867
 185.602 0 182.734 0 179.199 c 0 175.664 2.867 172.801 6.398 172.801 c h
6.398 172.801 m f
6.398 236.801 m 19.199 236.801 l 19.199 249.602 l 6.398 249.602 l 2.867
 249.602 0 246.734 0 243.199 c 0 239.664 2.867 236.801 6.398 236.801 c h
6.398 236.801 m f
6.398 268.801 m 19.199 268.801 l 19.199 281.602 l 6.398 281.602 l 2.867
 281.602 0 278.734 0 275.199 c 0 271.664 2.867 268.801 6.398 268.801 c h
6.398 268.801 m f
6.398 140.801 m 19.199 140.801 l 19.199 153.602 l 6.398 153.602 l 2.867
 153.602 0 150.734 0 147.199 c 0 143.664 2.867 140.801 6.398 140.801 c h
6.398 140.801 m f
6.398 204.801 m 19.199 204.801 l 19.199 217.602 l 6.398 217.602 l 2.867
 217.602 0 214.734 0 211.199 c 0 207.664 2.867 204.801 6.398 204.801 c h
6.398 204.801 m f
384 275.199 m 384 278.734 381.133 281.602 377.602 281.602 c 364.801 281.602
 l 364.801 268.801 l 377.602 268.801 l 381.133 268.801 384 271.664 384 275.199
 c h
384 275.199 m f
384 147.199 m 384 150.734 381.133 153.602 377.602 153.602 c 364.801 153.602
 l 364.801 140.801 l 377.602 140.801 l 381.133 140.801 384 143.664 384 147.199
 c h
384 147.199 m f
384 115.199 m 384 118.734 381.133 121.602 377.602 121.602 c 364.801 121.602
 l 364.801 108.801 l 377.602 108.801 l 381.133 108.801 384 111.664 384 115.199
 c h
384 115.199 m f
377.602 57.602 m 364.801 57.602 l 364.801 44.801 l 377.602 44.801 l 381.133
 44.801 384 47.664 384 51.199 c 384 54.734 381.133 57.602 377.602 57.602
 c h
377.602 57.602 m f
384 243.199 m 384 246.734 381.133 249.602 377.602 249.602 c 364.801 249.602
 l 364.801 236.801 l 377.602 236.801 l 381.133 236.801 384 239.664 384 243.199
 c h
384 243.199 m f
384 339.199 m 384 342.734 381.133 345.602 377.602 345.602 c 364.801 345.602
 l 364.801 332.801 l 377.602 332.801 l 381.133 332.801 384 335.664 384 339.199
 c h
384 339.199 m f
384 307.199 m 384 310.734 381.133 313.602 377.602 313.602 c 364.801 313.602
 l 364.801 300.801 l 377.602 300.801 l 381.133 300.801 384 303.664 384 307.199
 c h
384 307.199 m f
384 211.199 m 384 214.734 381.133 217.602 377.602 217.602 c 364.801 217.602
 l 364.801 204.801 l 377.602 204.801 l 381.133 204.801 384 207.664 384 211.199
 c h
384 211.199 m f
384 179.199 m 384 182.734 381.133 185.602 377.602 185.602 c 364.801 185.602
 l 364.801 172.801 l 377.602 172.801 l 381.133 172.801 384 175.664 384 179.199
 c h
384 179.199 m f
384 83.199 m 384 86.734 381.133 89.602 377.602 89.602 c 364.801 89.602 
l 364.801 76.801 l 377.602 76.801 l 381.133 76.801 384 79.664 384 83.199
 c h
384 83.199 m f
Q Q
showpage
%%Trailer
end
%%EOF
