%!PS-Adobe-3.0 EPSF-3.0
%%Creator: cairo 1.16.0 (https://cairographics.org)
%%CreationDate: Fri Aug  2 09:46:42 2019
%%Pages: 1
%%DocumentData: Clean7Bit
%%LanguageLevel: 2
%%BoundingBox: 0 0 384 384
%%EndComments
%%BeginProlog
50 dict begin
/q { gsave } bind def
/Q { grestore } bind def
/cm { 6 array astore concat } bind def
/w { setlinewidth } bind def
/J { setlinecap } bind def
/j { setlinejoin } bind def
/M { setmiterlimit } bind def
/d { setdash } bind def
/m { moveto } bind def
/l { lineto } bind def
/c { curveto } bind def
/h { closepath } bind def
/re { exch dup neg 3 1 roll 5 3 roll moveto 0 rlineto
      0 exch rlineto 0 rlineto closepath } bind def
/S { stroke } bind def
/f { fill } bind def
/f* { eofill } bind def
/n { newpath } bind def
/W { clip } bind def
/W* { eoclip } bind def
/BT { } bind def
/ET { } bind def
/BDC { mark 3 1 roll /BDC pdfmark } bind def
/EMC { mark /EMC pdfmark } bind def
/cairo_store_point { /cairo_point_y exch def /cairo_point_x exch def } def
/Tj { show currentpoint cairo_store_point } bind def
/TJ {
  {
    dup
    type /stringtype eq
    { show } { -0.001 mul 0 cairo_font_matrix dtransform rmoveto } ifelse
  } forall
  currentpoint cairo_store_point
} bind def
/cairo_selectfont { cairo_font_matrix aload pop pop pop 0 0 6 array astore
    cairo_font exch selectfont cairo_point_x cairo_point_y moveto } bind def
/Tf { pop /cairo_font exch def /cairo_font_matrix where
      { pop cairo_selectfont } if } bind def
/Td { matrix translate cairo_font_matrix matrix concatmatrix dup
      /cairo_font_matrix exch def dup 4 get exch 5 get cairo_store_point
      /cairo_font where { pop cairo_selectfont } if } bind def
/Tm { 2 copy 8 2 roll 6 array astore /cairo_font_matrix exch def
      cairo_store_point /cairo_font where { pop cairo_selectfont } if } bind def
/g { setgray } bind def
/rg { setrgbcolor } bind def
/d1 { setcachedevice } bind def
/cairo_data_source {
  CairoDataIndex CairoData length lt
    { CairoData CairoDataIndex get /CairoDataIndex CairoDataIndex 1 add def }
    { () } ifelse
} def
/cairo_flush_ascii85_file { cairo_ascii85_file status { cairo_ascii85_file flushfile } if } def
/cairo_image { image cairo_flush_ascii85_file } def
/cairo_imagemask { imagemask cairo_flush_ascii85_file } def
%%EndProlog
%%BeginSetup
%%EndSetup
%%Page: 1 1
%%BeginPageSetup
%%PageBoundingBox: 0 0 384 384
%%EndPageSetup
q 0 0 384 384 rectclip
1 0 0 -1 0 384 cm q
0.160784 0.329412 0.454902 rg
317.859 336.992 m 317.805 337.211 317.781 337.434 317.793 337.656 c 317.793
 348.625 326.688 357.516 337.656 357.516 c 348.625 357.516 357.516 348.625
 357.516 337.656 c 357.516 326.688 348.625 317.793 337.656 317.793 c 337.434
 317.781 337.211 317.805 336.992 317.859 c 66.141 47.008 l 66.195 46.789
 66.219 46.566 66.207 46.344 c 66.207 35.375 57.312 26.484 46.344 26.484
 c 35.375 26.484 26.484 35.375 26.484 46.344 c 26.484 57.312 35.375 66.207
 46.344 66.207 c 46.566 66.219 46.789 66.195 47.008 66.141 c h
317.859 336.992 m f
47.008 317.859 m 46.789 317.805 46.566 317.781 46.344 317.793 c 35.375 
317.793 26.484 326.688 26.484 337.656 c 26.484 348.625 35.375 357.516 46.344
 357.516 c 57.312 357.516 66.207 348.625 66.207 337.656 c 66.219 337.434
 66.195 337.211 66.141 336.992 c 336.992 66.141 l 337.211 66.195 337.434
 66.219 337.656 66.207 c 348.625 66.207 357.516 57.312 357.516 46.344 c 
357.516 35.375 348.625 26.484 337.656 26.484 c 326.688 26.484 317.793 35.375
 317.793 46.344 c 317.781 46.566 317.805 46.789 317.859 47.008 c h
47.008 317.859 m f
0.203922 0.427451 0.580392 rg
384 192 m 384 298.039 298.039 384 192 384 c 85.961 384 0 298.039 0 192 
c 0 85.961 85.961 0 192 0 c 298.039 0 384 85.961 384 192 c h
384 192 m f
0.160784 0.329412 0.454902 rg
357.516 192 m 357.516 283.414 283.414 357.516 192 357.516 c 100.586 357.516
 26.484 283.414 26.484 192 c 26.484 100.586 100.586 26.484 192 26.484 c 
283.414 26.484 357.516 100.586 357.516 192 c h
357.516 192 m f
0.203922 0.427451 0.580392 rg
264.828 192 m 264.828 232.223 232.223 264.828 192 264.828 c 151.777 264.828
 119.172 232.223 119.172 192 c 119.172 151.777 151.777 119.172 192 119.172
 c 232.223 119.172 264.828 151.777 264.828 192 c h
264.828 192 m f
0.301961 0.541176 0.670588 rg
223.781 29.594 m 211.199 121.754 l 198.633 118.312 185.367 118.312 172.801
 121.754 c 160.219 29.594 l 181.203 25.445 202.797 25.445 223.781 29.594
 c h
223.781 29.594 m f
155.918 128.773 m 144.586 135.203 135.203 144.586 128.773 155.918 c 54.688
 99.641 l 66.652 81.914 81.914 66.652 99.641 54.688 c h
155.918 128.773 m f
119.172 192 m 119.148 198.488 120.016 204.949 121.754 211.199 c 29.594 
223.781 l 25.445 202.797 25.445 181.203 29.594 160.219 c 121.754 172.801
 l 120.016 179.051 119.148 185.512 119.172 192 c h
119.172 192 m f
155.918 255.227 m 99.641 329.312 l 81.914 317.348 66.652 302.086 54.688
 284.359 c 128.773 228.082 l 135.203 239.414 144.586 248.797 155.918 255.227
 c h
155.918 255.227 m f
223.781 354.406 m 202.797 358.555 181.203 358.555 160.219 354.406 c 172.801
 262.246 l 185.367 265.688 198.633 265.688 211.199 262.246 c h
223.781 354.406 m f
329.312 284.359 m 317.348 302.086 302.086 317.348 284.359 329.312 c 228.082
 255.227 l 239.414 248.797 248.797 239.414 255.227 228.082 c h
329.312 284.359 m f
357.516 192 m 357.527 202.668 356.484 213.312 354.406 223.781 c 262.246
 211.199 l 265.688 198.633 265.688 185.367 262.246 172.801 c 354.406 160.219
 l 356.484 170.688 357.527 181.332 357.516 192 c h
357.516 192 m f
329.312 99.641 m 255.227 155.918 l 248.797 144.586 239.414 135.203 228.082
 128.773 c 284.359 54.688 l 302.086 66.652 317.348 81.914 329.312 99.641
 c h
329.312 99.641 m f
1 g
225.102 185.379 m 158.898 185.379 l 155.238 185.379 152.277 182.414 152.277
 178.758 c 152.277 175.102 155.238 172.137 158.898 172.137 c 225.102 172.137
 l 228.762 172.137 231.723 175.102 231.723 178.758 c 231.723 182.414 228.762
 185.379 225.102 185.379 c h
225.102 185.379 m f
211.863 211.863 m 172.137 211.863 l 168.48 211.863 165.516 208.898 165.516
 205.242 c 165.516 201.586 168.48 198.621 172.137 198.621 c 211.863 198.621
 l 215.52 198.621 218.484 201.586 218.484 205.242 c 218.484 208.898 215.52
 211.863 211.863 211.863 c h
211.863 211.863 m f
Q Q
showpage
%%Trailer
end
%%EOF
