%!PS-Adobe-3.0 EPSF-3.0
%%Creator: cairo 1.16.0 (https://cairographics.org)
%%CreationDate: Fri Aug  2 09:46:42 2019
%%Pages: 1
%%DocumentData: Clean7Bit
%%LanguageLevel: 2
%%BoundingBox: 3 0 381 384
%%EndComments
%%BeginProlog
50 dict begin
/q { gsave } bind def
/Q { grestore } bind def
/cm { 6 array astore concat } bind def
/w { setlinewidth } bind def
/J { setlinecap } bind def
/j { setlinejoin } bind def
/M { setmiterlimit } bind def
/d { setdash } bind def
/m { moveto } bind def
/l { lineto } bind def
/c { curveto } bind def
/h { closepath } bind def
/re { exch dup neg 3 1 roll 5 3 roll moveto 0 rlineto
      0 exch rlineto 0 rlineto closepath } bind def
/S { stroke } bind def
/f { fill } bind def
/f* { eofill } bind def
/n { newpath } bind def
/W { clip } bind def
/W* { eoclip } bind def
/BT { } bind def
/ET { } bind def
/BDC { mark 3 1 roll /BDC pdfmark } bind def
/EMC { mark /EMC pdfmark } bind def
/cairo_store_point { /cairo_point_y exch def /cairo_point_x exch def } def
/Tj { show currentpoint cairo_store_point } bind def
/TJ {
  {
    dup
    type /stringtype eq
    { show } { -0.001 mul 0 cairo_font_matrix dtransform rmoveto } ifelse
  } forall
  currentpoint cairo_store_point
} bind def
/cairo_selectfont { cairo_font_matrix aload pop pop pop 0 0 6 array astore
    cairo_font exch selectfont cairo_point_x cairo_point_y moveto } bind def
/Tf { pop /cairo_font exch def /cairo_font_matrix where
      { pop cairo_selectfont } if } bind def
/Td { matrix translate cairo_font_matrix matrix concatmatrix dup
      /cairo_font_matrix exch def dup 4 get exch 5 get cairo_store_point
      /cairo_font where { pop cairo_selectfont } if } bind def
/Tm { 2 copy 8 2 roll 6 array astore /cairo_font_matrix exch def
      cairo_store_point /cairo_font where { pop cairo_selectfont } if } bind def
/g { setgray } bind def
/rg { setrgbcolor } bind def
/d1 { setcachedevice } bind def
/cairo_data_source {
  CairoDataIndex CairoData length lt
    { CairoData CairoDataIndex get /CairoDataIndex CairoDataIndex 1 add def }
    { () } ifelse
} def
/cairo_flush_ascii85_file { cairo_ascii85_file status { cairo_ascii85_file flushfile } if } def
/cairo_image { image cairo_flush_ascii85_file } def
/cairo_imagemask { imagemask cairo_flush_ascii85_file } def
%%EndProlog
%%BeginSetup
%%EndSetup
%%Page: 1 1
%%BeginPageSetup
%%PageBoundingBox: 3 0 381 384
%%EndPageSetup
q 3 0 378 384 rectclip
1 0 0 -1 0 384 cm q
0.47451 0.509804 0.568627 rg
35.797 344.949 m 100.883 344.949 l 100.883 370.984 l 100.883 378.172 95.055
 384 87.863 384 c 48.812 384 l 41.625 384 35.797 378.172 35.797 370.984 
c h
35.797 344.949 m f
283.117 344.949 m 348.203 344.949 l 348.203 370.984 l 348.203 378.172 342.375
 384 335.188 384 c 296.137 384 l 288.945 384 283.117 378.172 283.117 370.984
 c h
283.117 344.949 m f
0.545098 0.576471 0.635294 rg
22.781 84.609 m 361.219 84.609 l 372.039 84.609 380.746 93.32 380.746 104.137
 c 380.746 338.441 l 380.746 349.258 372.039 357.965 361.219 357.965 c 22.781
 357.965 l 11.961 357.965 3.254 349.258 3.254 338.441 c 3.254 104.137 l 
3.254 93.32 11.961 84.609 22.781 84.609 c h
22.781 84.609 m f
0.384314 0.415686 0.466667 rg
42.305 123.66 m 211.527 123.66 l 218.738 123.66 224.543 129.465 224.543
 136.68 c 224.543 305.898 l 224.543 313.109 218.738 318.914 211.527 318.914
 c 42.305 318.914 l 35.094 318.914 29.289 313.109 29.289 305.898 c 29.289
 136.68 l 29.289 129.465 35.094 123.66 42.305 123.66 c h
42.305 123.66 m f
341.695 136.68 m 341.695 162.711 l 341.695 166.809 339.766 170.668 336.488
 173.125 c 319.129 186.141 l 316.875 187.832 314.137 188.746 311.32 188.746
 c 293.969 188.746 l 291.152 188.746 288.41 187.832 286.156 186.141 c 268.801
 173.125 l 265.523 170.668 263.594 166.809 263.594 162.711 c 263.594 136.68
 l 263.594 129.488 269.422 123.66 276.609 123.66 c 328.68 123.66 l 335.867
 123.66 341.695 129.488 341.695 136.68 c h
341.695 136.68 m f
1 0.764706 0.0235294 rg
276.609 221.289 m 276.609 228.477 270.781 234.305 263.594 234.305 c 256.402
 234.305 250.578 228.477 250.578 221.289 c 250.578 214.098 256.402 208.27
 263.594 208.27 c 270.781 208.27 276.609 214.098 276.609 221.289 c h
276.609 221.289 m f
354.711 221.289 m 354.711 228.477 348.883 234.305 341.695 234.305 c 334.504
 234.305 328.68 228.477 328.68 221.289 c 328.68 214.098 334.504 208.27 341.695
 208.27 c 348.883 208.27 354.711 214.098 354.711 221.289 c h
354.711 221.289 m f
0.933333 0.227451 0.282353 rg
270.102 266.848 m 335.188 266.848 l 342.398 266.848 348.203 272.652 348.203
 279.863 c 348.203 305.898 l 348.203 313.109 342.398 318.914 335.188 318.914
 c 270.102 318.914 l 262.891 318.914 257.086 313.109 257.086 305.898 c 257.086
 279.863 l 257.086 272.652 262.891 266.848 270.102 266.848 c h
270.102 266.848 m f
0.47451 0.509804 0.568627 rg
192 19.527 m 192 39.051 l 191.75 42.844 188.508 45.738 184.711 45.559 c
 82.137 45.559 l 78.34 45.738 75.098 42.844 74.848 39.051 c 74.848 19.527
 l h
192 19.527 m f
0.733333 0.756863 0.807843 rg
289.629 162.711 m 286.031 162.711 283.117 159.797 283.117 156.203 c 283.117
 149.695 l 283.117 146.102 286.031 143.188 289.629 143.188 c 293.223 143.188
 296.137 146.102 296.137 149.695 c 296.137 156.203 l 296.137 159.797 293.223
 162.711 289.629 162.711 c h
289.629 162.711 m f
315.66 162.711 m 312.066 162.711 309.152 159.797 309.152 156.203 c 309.152
 149.695 l 309.152 146.102 312.066 143.188 315.66 143.188 c 319.254 143.188
 322.168 146.102 322.168 149.695 c 322.168 156.203 l 322.168 159.797 319.254
 162.711 315.66 162.711 c h
315.66 162.711 m f
0.968627 0.678431 0 rg
126.914 318.914 m 72.996 318.914 29.289 275.207 29.289 221.289 c 29.289
 167.371 72.996 123.66 126.914 123.66 c 180.832 123.66 224.543 167.371 224.543
 221.289 c 224.48 275.18 180.809 318.855 126.914 318.914 c h
126.914 136.68 m 80.188 136.68 42.305 174.559 42.305 221.289 c 42.305 268.016
 80.188 305.898 126.914 305.898 c 173.645 305.898 211.527 268.016 211.527
 221.289 c 211.473 174.582 173.621 136.73 126.914 136.68 c h
126.914 136.68 m f
126.914 292.883 m 87.375 292.883 55.32 260.828 55.32 221.289 c 55.32 181.75
 87.375 149.695 126.914 149.695 c 166.457 149.695 198.508 181.75 198.508
 221.289 c 198.461 260.809 166.438 292.836 126.914 292.883 c h
126.914 162.711 m 94.566 162.711 68.34 188.938 68.34 221.289 c 68.34 253.641
 94.566 279.863 126.914 279.863 c 159.266 279.863 185.492 253.641 185.492
 221.289 c 185.457 188.953 159.25 162.746 126.914 162.711 c h
126.914 162.711 m f
126.914 260.34 m 105.348 260.34 87.863 242.855 87.863 221.289 c 87.863 
199.723 105.348 182.238 126.914 182.238 c 148.484 182.238 165.965 199.723
 165.965 221.289 c 165.945 242.848 148.473 260.316 126.914 260.34 c h
126.914 195.254 m 112.539 195.254 100.883 206.91 100.883 221.289 c 100.883
 235.668 112.539 247.32 126.914 247.32 c 141.293 247.32 152.949 235.668 
152.949 221.289 c 152.949 206.91 141.293 195.254 126.914 195.254 c h
126.914 195.254 m f
1 0.764706 0.0235294 rg
33.129 321.582 m 30.488 321.59 28.105 320.004 27.094 317.562 c 26.086 315.121
 26.652 312.312 28.527 310.453 c 216.082 122.898 l 217.73 121.254 220.129
 120.609 222.379 121.211 c 224.633 121.816 226.391 123.574 226.992 125.824
 c 227.594 128.074 226.953 130.473 225.305 132.121 c 37.75 319.676 l 36.527
 320.906 34.863 321.594 33.129 321.582 c h
33.129 321.582 m f
220.703 321.582 m 218.977 321.59 217.316 320.902 216.102 319.676 c 28.527
 132.121 l 25.98 129.574 25.98 125.445 28.527 122.898 c 31.074 120.352 35.203
 120.352 37.75 122.898 c 225.305 310.453 l 227.164 312.316 227.723 315.113
 226.715 317.547 c 225.707 319.977 223.336 321.562 220.703 321.562 c h
220.703 321.582 m f
0.219608 g
289.629 299.391 m 283.117 299.391 l 279.523 299.391 276.609 296.477 276.609
 292.883 c 276.609 289.285 279.523 286.371 283.117 286.371 c 289.629 286.371
 l 293.223 286.371 296.137 289.285 296.137 292.883 c 296.137 296.477 293.223
 299.391 289.629 299.391 c h
289.629 299.391 m f
322.168 299.391 m 315.66 299.391 l 312.066 299.391 309.152 296.477 309.152
 292.883 c 309.152 289.285 312.066 286.371 315.66 286.371 c 322.168 286.371
 l 325.766 286.371 328.68 289.285 328.68 292.883 c 328.68 296.477 325.766
 299.391 322.168 299.391 c h
322.168 299.391 m f
0.384314 0.415686 0.466667 rg
192 6.508 m 192 19.527 l 178.984 19.527 l 178.984 6.508 l 178.984 2.914
 181.898 0 185.492 0 c 189.086 0 192 2.914 192 6.508 c h
192 6.508 m f
139.934 6.508 m 139.934 19.527 l 126.914 19.527 l 126.914 6.508 l 126.914
 2.914 129.828 0 133.422 0 c 137.02 0 139.934 2.914 139.934 6.508 c h
139.934 6.508 m f
113.898 6.508 m 113.898 19.527 l 100.883 19.527 l 100.883 6.508 l 100.883
 2.914 103.797 0 107.391 0 c 110.984 0 113.898 2.914 113.898 6.508 c h
113.898 6.508 m f
87.863 6.508 m 87.863 19.527 l 74.848 19.527 l 74.848 6.508 l 74.848 2.914
 77.762 0 81.355 0 c 84.949 0 87.863 2.914 87.863 6.508 c h
87.863 6.508 m f
165.965 6.508 m 165.965 19.527 l 152.949 19.527 l 152.949 6.508 l 152.949
 2.914 155.863 0 159.457 0 c 163.051 0 165.965 2.914 165.965 6.508 c h
165.965 6.508 m f
296.137 84.609 m 296.137 48.812 l 296.137 36.234 285.938 26.035 273.355
 26.035 c 247.32 26.035 l 234.742 26.035 224.543 36.234 224.543 48.812 c
 224.508 68.57 208.5 84.574 188.746 84.609 c 162.711 84.609 l 142.957 84.574
 126.949 68.57 126.914 48.812 c 126.914 45.559 l 139.934 45.559 l 139.934
 48.812 l 139.934 61.395 150.133 71.594 162.711 71.594 c 188.746 71.594 
l 201.328 71.594 211.527 61.395 211.527 48.812 c 211.562 29.059 227.566 
13.055 247.32 13.016 c 273.355 13.016 l 293.109 13.055 309.117 29.059 309.152
 48.812 c 309.152 84.609 l h
296.137 84.609 m f
Q Q
showpage
%%Trailer
end
%%EOF
