%!PS-Adobe-3.0 EPSF-3.0
%%Creator: cairo 1.16.0 (https://cairographics.org)
%%CreationDate: Fri Aug  2 09:46:42 2019
%%Pages: 1
%%DocumentData: Clean7Bit
%%LanguageLevel: 2
%%BoundingBox: 52 0 332 384
%%EndComments
%%BeginProlog
50 dict begin
/q { gsave } bind def
/Q { grestore } bind def
/cm { 6 array astore concat } bind def
/w { setlinewidth } bind def
/J { setlinecap } bind def
/j { setlinejoin } bind def
/M { setmiterlimit } bind def
/d { setdash } bind def
/m { moveto } bind def
/l { lineto } bind def
/c { curveto } bind def
/h { closepath } bind def
/re { exch dup neg 3 1 roll 5 3 roll moveto 0 rlineto
      0 exch rlineto 0 rlineto closepath } bind def
/S { stroke } bind def
/f { fill } bind def
/f* { eofill } bind def
/n { newpath } bind def
/W { clip } bind def
/W* { eoclip } bind def
/BT { } bind def
/ET { } bind def
/BDC { mark 3 1 roll /BDC pdfmark } bind def
/EMC { mark /EMC pdfmark } bind def
/cairo_store_point { /cairo_point_y exch def /cairo_point_x exch def } def
/Tj { show currentpoint cairo_store_point } bind def
/TJ {
  {
    dup
    type /stringtype eq
    { show } { -0.001 mul 0 cairo_font_matrix dtransform rmoveto } ifelse
  } forall
  currentpoint cairo_store_point
} bind def
/cairo_selectfont { cairo_font_matrix aload pop pop pop 0 0 6 array astore
    cairo_font exch selectfont cairo_point_x cairo_point_y moveto } bind def
/Tf { pop /cairo_font exch def /cairo_font_matrix where
      { pop cairo_selectfont } if } bind def
/Td { matrix translate cairo_font_matrix matrix concatmatrix dup
      /cairo_font_matrix exch def dup 4 get exch 5 get cairo_store_point
      /cairo_font where { pop cairo_selectfont } if } bind def
/Tm { 2 copy 8 2 roll 6 array astore /cairo_font_matrix exch def
      cairo_store_point /cairo_font where { pop cairo_selectfont } if } bind def
/g { setgray } bind def
/rg { setrgbcolor } bind def
/d1 { setcachedevice } bind def
/cairo_data_source {
  CairoDataIndex CairoData length lt
    { CairoData CairoDataIndex get /CairoDataIndex CairoDataIndex 1 add def }
    { () } ifelse
} def
/cairo_flush_ascii85_file { cairo_ascii85_file status { cairo_ascii85_file flushfile } if } def
/cairo_image { image cairo_flush_ascii85_file } def
/cairo_imagemask { imagemask cairo_flush_ascii85_file } def
%%EndProlog
%%BeginSetup
%%EndSetup
%%Page: 1 1
%%BeginPageSetup
%%PageBoundingBox: 52 0 332 384
%%EndPageSetup
q 52 0 280 384 rectclip
1 0 0 -1 0 384 cm q
0.203922 0.427451 0.580392 rg
79.449 0 m 304.551 0 l 319.223 0 331.035 11.812 331.035 26.484 c 331.035
 357.516 l 331.035 372.188 319.223 384 304.551 384 c 79.449 384 l 64.777
 384 52.965 372.188 52.965 357.516 c 52.965 26.484 l 52.965 11.812 64.777
 0 79.449 0 c h
79.449 0 m f
0.160784 0.329412 0.454902 rg
304.551 39.723 m 304.551 47.039 298.625 52.965 291.309 52.965 c 283.996
 52.965 278.07 47.039 278.07 39.723 c 278.07 32.41 283.996 26.484 291.309
 26.484 c 298.625 26.484 304.551 32.41 304.551 39.723 c h
304.551 39.723 m f
105.93 39.723 m 105.93 47.039 100.004 52.965 92.691 52.965 c 85.375 52.965
 79.449 47.039 79.449 39.723 c 79.449 32.41 85.375 26.484 92.691 26.484 
c 100.004 26.484 105.93 32.41 105.93 39.723 c h
105.93 39.723 m f
304.551 344.277 m 304.551 351.59 298.625 357.516 291.309 357.516 c 283.996
 357.516 278.07 351.59 278.07 344.277 c 278.07 336.961 283.996 331.035 291.309
 331.035 c 298.625 331.035 304.551 336.961 304.551 344.277 c h
304.551 344.277 m f
105.93 344.277 m 105.93 351.59 100.004 357.516 92.691 357.516 c 85.375 
357.516 79.449 351.59 79.449 344.277 c 79.449 336.961 85.375 331.035 92.691
 331.035 c 100.004 331.035 105.93 336.961 105.93 344.277 c h
105.93 344.277 m f
0.94902 0.956863 0.968627 rg
172.07 249.73 m 178.645 250.957 185.316 251.574 192 251.586 c 246.648 251.59
 292.332 210.02 297.469 155.613 c 302.605 101.207 265.512 51.82 211.828 
41.594 c 158.145 31.371 105.492 63.66 90.27 116.145 c 75.047 168.633 102.246
 224.086 153.07 244.172 c f
0.847059 0.866667 0.898039 rg
155.652 271.449 m 158.898 271.449 l 169.867 271.449 178.758 280.34 178.758
 291.309 c 178.758 302.281 169.867 311.172 158.898 311.172 c 119.172 311.172
 l 108.203 311.172 99.309 302.281 99.309 291.309 c 99.309 280.34 108.203
 271.449 119.172 271.449 c h
155.652 271.449 m f
0.733333 0.756863 0.807843 rg
191.34 223.715 m 175.887 244.648 151.496 277.453 148.039 280.844 c 144.754
 284.129 139.965 285.41 135.477 284.211 c 130.988 283.008 127.484 279.5 
126.281 275.012 c 125.078 270.523 126.359 265.734 129.645 262.449 c 133.035
 258.996 165.84 234.605 186.777 219.152 c 188.074 218.199 189.875 218.34
 191.012 219.477 c 192.148 220.617 192.289 222.414 191.34 223.715 c h
191.34 223.715 m f
0.807843 0.823529 0.862745 rg
225.102 145.656 m 225.102 163.938 210.281 178.758 192 178.758 c 173.719
 178.758 158.898 163.938 158.898 145.656 c 158.898 127.371 173.719 112.551
 192 112.551 c 210.281 112.551 225.102 127.371 225.102 145.656 c h
225.102 145.656 m f
0.160784 0.329412 0.454902 rg
251.586 350.898 m 132.414 350.898 l 128.758 350.898 125.793 347.934 125.793
 344.277 c 125.793 340.621 128.758 337.656 132.414 337.656 c 251.586 337.656
 l 255.242 337.656 258.207 340.621 258.207 344.277 c 258.207 347.934 255.242
 350.898 251.586 350.898 c h
251.586 350.898 m f
1 g
112.551 152.277 m 108.895 152.277 105.93 149.312 105.93 145.656 c 105.984
 98.145 144.488 59.641 192 59.586 c 195.656 59.586 198.621 62.551 198.621
 66.207 c 198.621 69.863 195.656 72.828 192 72.828 c 151.797 72.875 119.219
 105.453 119.172 145.656 c 119.172 149.312 116.207 152.277 112.551 152.277
 c h
112.551 152.277 m f
Q Q
showpage
%%Trailer
end
%%EOF
