%!PS-Adobe-3.0 EPSF-3.0
%%Creator: cairo 1.16.0 (https://cairographics.org)
%%CreationDate: Fri Aug  2 09:46:42 2019
%%Pages: 1
%%DocumentData: Clean7Bit
%%LanguageLevel: 2
%%BoundingBox: 3 0 381 384
%%EndComments
%%BeginProlog
50 dict begin
/q { gsave } bind def
/Q { grestore } bind def
/cm { 6 array astore concat } bind def
/w { setlinewidth } bind def
/J { setlinecap } bind def
/j { setlinejoin } bind def
/M { setmiterlimit } bind def
/d { setdash } bind def
/m { moveto } bind def
/l { lineto } bind def
/c { curveto } bind def
/h { closepath } bind def
/re { exch dup neg 3 1 roll 5 3 roll moveto 0 rlineto
      0 exch rlineto 0 rlineto closepath } bind def
/S { stroke } bind def
/f { fill } bind def
/f* { eofill } bind def
/n { newpath } bind def
/W { clip } bind def
/W* { eoclip } bind def
/BT { } bind def
/ET { } bind def
/BDC { mark 3 1 roll /BDC pdfmark } bind def
/EMC { mark /EMC pdfmark } bind def
/cairo_store_point { /cairo_point_y exch def /cairo_point_x exch def } def
/Tj { show currentpoint cairo_store_point } bind def
/TJ {
  {
    dup
    type /stringtype eq
    { show } { -0.001 mul 0 cairo_font_matrix dtransform rmoveto } ifelse
  } forall
  currentpoint cairo_store_point
} bind def
/cairo_selectfont { cairo_font_matrix aload pop pop pop 0 0 6 array astore
    cairo_font exch selectfont cairo_point_x cairo_point_y moveto } bind def
/Tf { pop /cairo_font exch def /cairo_font_matrix where
      { pop cairo_selectfont } if } bind def
/Td { matrix translate cairo_font_matrix matrix concatmatrix dup
      /cairo_font_matrix exch def dup 4 get exch 5 get cairo_store_point
      /cairo_font where { pop cairo_selectfont } if } bind def
/Tm { 2 copy 8 2 roll 6 array astore /cairo_font_matrix exch def
      cairo_store_point /cairo_font where { pop cairo_selectfont } if } bind def
/g { setgray } bind def
/rg { setrgbcolor } bind def
/d1 { setcachedevice } bind def
/cairo_data_source {
  CairoDataIndex CairoData length lt
    { CairoData CairoDataIndex get /CairoDataIndex CairoDataIndex 1 add def }
    { () } ifelse
} def
/cairo_flush_ascii85_file { cairo_ascii85_file status { cairo_ascii85_file flushfile } if } def
/cairo_image { image cairo_flush_ascii85_file } def
/cairo_imagemask { imagemask cairo_flush_ascii85_file } def
%%EndProlog
%%BeginSetup
%%EndSetup
%%Page: 1 1
%%BeginPageSetup
%%PageBoundingBox: 3 0 381 384
%%EndPageSetup
q 3 0 378 384 rectclip
1 0 0 -1 0 384 cm q
0.545098 0.576471 0.635294 rg
28.801 128 m 48 128 l 48 204.801 l 28.801 204.801 l 25.266 204.801 22.398
 201.934 22.398 198.398 c 22.398 134.398 l 22.398 130.867 25.266 128 28.801
 128 c h
28.801 128 m f
22.398 236.801 25.602 76.801 re f
0.490196 0.74902 0.160784 rg
361.602 89.602 m 48 89.602 l 48 332.801 l 112 332.801 l 112 345.602 l 112.02
 352.66 117.738 358.379 124.801 358.398 c 252.801 358.398 l 259.859 358.379
 265.578 352.66 265.602 345.602 c 265.602 332.801 l 304 332.801 l 304 345.602
 l 304.02 352.66 309.738 358.379 316.801 358.398 c 368 358.398 l 375.059
 358.379 380.777 352.66 380.801 345.602 c 380.801 108.801 l 380.801 103.707
 378.777 98.824 375.176 95.223 c 371.574 91.621 366.691 89.602 361.602 89.602
 c h
361.602 89.602 m f
1 0.764706 0.0235294 rg
265.602 332.801 m 265.602 345.602 l 265.578 352.66 259.859 358.379 252.801
 358.398 c 124.801 358.398 l 117.738 358.379 112.02 352.66 112 345.602 c
 112 332.801 l h
265.602 332.801 m f
380.801 332.801 m 380.801 345.602 l 380.777 352.66 375.059 358.379 368 
358.398 c 316.801 358.398 l 309.738 358.379 304.02 352.66 304 345.602 c 
304 332.801 l h
380.801 332.801 m f
0.4 0.439216 0.498039 rg
86.398 121.602 m 99.199 121.602 l 102.746 121.602 105.602 124.453 105.602
 128 c 105.602 153.602 l 105.602 157.145 102.746 160 99.199 160 c 86.398
 160 l 82.855 160 80 157.145 80 153.602 c 80 128 l 80 124.453 82.855 121.602
 86.398 121.602 c h
86.398 121.602 m f
86.398 192 m 99.199 192 l 102.746 192 105.602 194.855 105.602 198.398 c
 105.602 224 l 105.602 227.547 102.746 230.398 99.199 230.398 c 86.398 230.398
 l 82.855 230.398 80 227.547 80 224 c 80 198.398 l 80 194.855 82.855 192
 86.398 192 c h
86.398 192 m f
86.398 262.398 m 99.199 262.398 l 102.746 262.398 105.602 265.254 105.602
 268.801 c 105.602 294.398 l 105.602 297.945 102.746 300.801 99.199 300.801
 c 86.398 300.801 l 82.855 300.801 80 297.945 80 294.398 c 80 268.801 l 
80 265.254 82.855 262.398 86.398 262.398 c h
86.398 262.398 m f
144 121.602 m 169.602 121.602 l 173.145 121.602 176 124.453 176 128 c 176
 224 l 176 227.547 173.145 230.398 169.602 230.398 c 144 230.398 l 140.453
 230.398 137.602 227.547 137.602 224 c 137.602 128 l 137.602 124.453 140.453
 121.602 144 121.602 c h
144 121.602 m f
144 262.398 m 188.801 262.398 l 192.344 262.398 195.199 265.254 195.199
 268.801 c 195.199 294.398 l 195.199 297.945 192.344 300.801 188.801 300.801
 c 144 300.801 l 140.453 300.801 137.602 297.945 137.602 294.398 c 137.602
 268.801 l 137.602 265.254 140.453 262.398 144 262.398 c h
144 262.398 m f
0.733333 0.756863 0.807843 rg
355.199 198.398 m 355.199 240.816 320.816 275.199 278.398 275.199 c 235.984
 275.199 201.602 240.816 201.602 198.398 c 201.602 155.984 235.984 121.602
 278.398 121.602 c 320.816 121.602 355.199 155.984 355.199 198.398 c h
355.199 198.398 m f
0.94902 0.956863 0.968627 rg
310.398 198.398 m 310.398 216.074 296.074 230.398 278.398 230.398 c 260.727
 230.398 246.398 216.074 246.398 198.398 c 246.398 180.727 260.727 166.398
 278.398 166.398 c 296.074 166.398 310.398 180.727 310.398 198.398 c h
310.398 198.398 m f
0.807843 0.823529 0.862745 rg
355.199 198.398 m 310.398 198.398 l 310.398 189.91 307.039 181.766 301.055
 175.742 c 332.734 144.062 l 347.156 158.465 355.242 178.02 355.199 198.398
 c h
355.199 198.398 m f
278.398 121.602 m 278.398 166.398 l 269.91 166.398 261.766 169.758 255.742
 175.742 c 224.062 144.062 l 238.465 129.641 258.02 121.559 278.398 121.602
 c h
278.398 121.602 m f
255.742 221.055 m 224.062 252.734 l 209.641 238.336 201.559 218.781 201.602
 198.398 c 246.398 198.398 l 246.398 206.891 249.758 215.035 255.742 221.055
 c h
255.742 221.055 m f
332.734 252.734 m 318.336 267.156 298.781 275.242 278.398 275.199 c 278.398
 230.398 l 286.891 230.398 295.035 227.039 301.055 221.055 c h
332.734 252.734 m f
0.968627 0.678431 0 rg
131.199 332.801 12.801 25.598 re f
156.801 332.801 12.801 25.598 re f
182.398 332.801 12.801 25.598 re f
208 332.801 12.801 25.598 re f
233.602 332.801 12.797 25.598 re f
323.199 332.801 12.801 25.598 re f
348.801 332.801 12.801 25.598 re f
0.807843 0.823529 0.862745 rg
73.602 204.801 m 80 204.801 l 80 217.602 l 73.602 217.602 l 70.066 217.602
 67.199 214.734 67.199 211.199 c 67.199 207.664 70.066 204.801 73.602 204.801
 c h
73.602 204.801 m f
80 134.398 m 80 147.199 l 73.602 147.199 l 70.066 147.199 67.199 144.336
 67.199 140.801 c 67.199 137.266 70.066 134.398 73.602 134.398 c h
80 134.398 m f
73.602 275.199 m 80 275.199 l 80 288 l 73.602 288 l 70.066 288 67.199 285.133
 67.199 281.602 c 67.199 278.066 70.066 275.199 73.602 275.199 c h
73.602 275.199 m f
112 147.199 m 105.602 147.199 l 105.602 134.398 l 112 134.398 l 115.535
 134.398 118.398 137.266 118.398 140.801 c 118.398 144.336 115.535 147.199
 112 147.199 c h
112 147.199 m f
118.398 211.199 m 118.398 214.734 115.535 217.602 112 217.602 c 105.602
 217.602 l 105.602 204.801 l 112 204.801 l 115.535 204.801 118.398 207.664
 118.398 211.199 c h
118.398 211.199 m f
118.398 281.602 m 118.398 285.133 115.535 288 112 288 c 105.602 288 l 105.602
 275.199 l 112 275.199 l 115.535 275.199 118.398 278.066 118.398 281.602
 c h
118.398 281.602 m f
0.4 0.439216 0.498039 rg
355.199 307.199 m 284.801 307.199 l 281.266 307.199 278.398 304.336 278.398
 300.801 c 278.398 297.266 281.266 294.398 284.801 294.398 c 355.199 294.398
 l 358.734 294.398 361.602 297.266 361.602 300.801 c 361.602 304.336 358.734
 307.199 355.199 307.199 c h
355.199 307.199 m f
259.199 307.199 m 220.801 307.199 l 217.266 307.199 214.398 304.336 214.398
 300.801 c 214.398 297.266 217.266 294.398 220.801 294.398 c 259.199 294.398
 l 262.734 294.398 265.602 297.266 265.602 300.801 c 265.602 304.336 262.734
 307.199 259.199 307.199 c h
259.199 307.199 m f
0.94902 0.956863 0.968627 rg
278.398 281.602 m 232.449 281.602 195.199 244.352 195.199 198.398 c 195.199
 152.449 232.449 115.199 278.398 115.199 c 324.352 115.199 361.602 152.449
 361.602 198.398 c 361.547 244.328 324.328 281.547 278.398 281.602 c h
278.398 128 m 239.52 128 208 159.52 208 198.398 c 208 237.281 239.52 268.801
 278.398 268.801 c 317.281 268.801 348.801 237.281 348.801 198.398 c 348.754
 159.539 317.262 128.047 278.398 128 c h
278.398 128 m f
0.733333 0.756863 0.807843 rg
54.398 6.398 m 54.398 377.602 l 54.398 381.133 51.535 384 48 384 c 44.465
 384 41.602 381.133 41.602 377.602 c 41.602 12.801 l 9.602 12.801 l 6.066
 12.801 3.199 9.934 3.199 6.398 c 3.199 2.867 6.066 0 9.602 0 c 48 0 l 51.535
 0 54.398 2.867 54.398 6.398 c h
54.398 6.398 m f
0.47451 0.509804 0.568627 rg
16 307.199 m 41.602 307.199 l 41.602 320 l 16 320 l 12.465 320 9.602 317.133
 9.602 313.602 c 9.602 310.066 12.465 307.199 16 307.199 c h
16 307.199 m f
41.602 230.398 m 41.602 243.199 l 16 243.199 l 12.465 243.199 9.602 240.336
 9.602 236.801 c 9.602 233.266 12.465 230.398 16 230.398 c h
41.602 230.398 m f
Q Q
showpage
%%Trailer
end
%%EOF
