%!PS-Adobe-3.0 EPSF-3.0
%%Creator: cairo 1.16.0 (https://cairographics.org)
%%CreationDate: Fri Aug  2 09:46:42 2019
%%Pages: 1
%%DocumentData: Clean7Bit
%%LanguageLevel: 2
%%BoundingBox: 0 0 384 384
%%EndComments
%%BeginProlog
50 dict begin
/q { gsave } bind def
/Q { grestore } bind def
/cm { 6 array astore concat } bind def
/w { setlinewidth } bind def
/J { setlinecap } bind def
/j { setlinejoin } bind def
/M { setmiterlimit } bind def
/d { setdash } bind def
/m { moveto } bind def
/l { lineto } bind def
/c { curveto } bind def
/h { closepath } bind def
/re { exch dup neg 3 1 roll 5 3 roll moveto 0 rlineto
      0 exch rlineto 0 rlineto closepath } bind def
/S { stroke } bind def
/f { fill } bind def
/f* { eofill } bind def
/n { newpath } bind def
/W { clip } bind def
/W* { eoclip } bind def
/BT { } bind def
/ET { } bind def
/BDC { mark 3 1 roll /BDC pdfmark } bind def
/EMC { mark /EMC pdfmark } bind def
/cairo_store_point { /cairo_point_y exch def /cairo_point_x exch def } def
/Tj { show currentpoint cairo_store_point } bind def
/TJ {
  {
    dup
    type /stringtype eq
    { show } { -0.001 mul 0 cairo_font_matrix dtransform rmoveto } ifelse
  } forall
  currentpoint cairo_store_point
} bind def
/cairo_selectfont { cairo_font_matrix aload pop pop pop 0 0 6 array astore
    cairo_font exch selectfont cairo_point_x cairo_point_y moveto } bind def
/Tf { pop /cairo_font exch def /cairo_font_matrix where
      { pop cairo_selectfont } if } bind def
/Td { matrix translate cairo_font_matrix matrix concatmatrix dup
      /cairo_font_matrix exch def dup 4 get exch 5 get cairo_store_point
      /cairo_font where { pop cairo_selectfont } if } bind def
/Tm { 2 copy 8 2 roll 6 array astore /cairo_font_matrix exch def
      cairo_store_point /cairo_font where { pop cairo_selectfont } if } bind def
/g { setgray } bind def
/rg { setrgbcolor } bind def
/d1 { setcachedevice } bind def
/cairo_data_source {
  CairoDataIndex CairoData length lt
    { CairoData CairoDataIndex get /CairoDataIndex CairoDataIndex 1 add def }
    { () } ifelse
} def
/cairo_flush_ascii85_file { cairo_ascii85_file status { cairo_ascii85_file flushfile } if } def
/cairo_image { image cairo_flush_ascii85_file } def
/cairo_imagemask { imagemask cairo_flush_ascii85_file } def
%%EndProlog
%%BeginSetup
%%EndSetup
%%Page: 1 1
%%BeginPageSetup
%%PageBoundingBox: 0 0 384 384
%%EndPageSetup
q 0 0 384 384 rectclip
1 0 0 -1 0 384 cm q
0.262745 0.611765 0.972549 rg
357.516 19.863 m 357.516 251.586 l 350.898 258.207 l 6.621 258.207 l 0 
251.586 l 0 19.863 l 0 8.891 8.891 0 19.863 0 c 337.656 0 l 348.625 0 357.516
 8.891 357.516 19.863 c h
357.516 19.863 m f
0.733333 0.756863 0.807843 rg
119.172 291.309 119.172 52.969 re f
0.807843 0.823529 0.862745 rg
264.828 357.516 m 258.207 364.137 l 79.449 364.137 l 72.828 357.516 l 119.172
 331.035 l 238.344 331.035 l h
264.828 357.516 m f
357.516 251.586 m 357.516 304.551 l 19.863 304.551 l 8.891 304.551 0 295.66
 0 284.691 c 0 251.586 l h
357.516 251.586 m f
0.733333 0.756863 0.807843 rg
258.207 357.516 m 72.828 357.516 l 72.828 377.379 l 72.828 381.035 75.793
 384 79.449 384 c 258.207 384 l h
258.207 357.516 m f
0.0352941 0.439216 0.870588 rg
384 357.516 m 377.379 364.137 l 244.965 364.137 l 238.344 357.516 l 238.344
 185.379 l 244.965 178.758 l 377.379 178.758 l 384 185.379 l h
384 357.516 m f
0.807843 0.823529 0.862745 rg
384 357.516 m 384 372.48 l 384 378.844 378.844 384 372.48 384 c 249.863
 384 l 243.504 384 238.344 378.844 238.344 372.48 c 238.344 357.516 l h
384 357.516 m f
0.545098 0.576471 0.635294 rg
324.414 370.758 m 324.414 378.07 318.484 384 311.172 384 c 303.859 384 
297.93 378.07 297.93 370.758 c 297.93 363.445 303.859 357.516 311.172 357.516
 c 318.484 357.516 324.414 363.445 324.414 370.758 c h
324.414 370.758 m f
0.807843 0.823529 0.862745 rg
238.344 185.379 m 238.344 170.418 l 238.344 164.055 243.504 158.898 249.863
 158.898 c 372.48 158.898 l 378.844 158.898 384 164.055 384 170.418 c 384
 185.379 l f
0.545098 0.576471 0.635294 rg
185.379 284.691 m 172.137 284.691 l 168.48 284.691 165.516 281.727 165.516
 278.07 c 165.516 274.414 168.48 271.449 172.137 271.449 c 185.379 271.449
 l 189.035 271.449 192 274.414 192 278.07 c 192 281.727 189.035 284.691 
185.379 284.691 c h
185.379 284.691 m f
0.431373 0.729412 1 rg
26.484 99.309 m 22.828 99.309 19.863 96.348 19.863 92.691 c 19.863 33.102
 l 19.863 25.789 25.789 19.863 33.102 19.863 c 59.586 19.863 l 63.242 19.863
 66.207 22.828 66.207 26.484 c 66.207 30.141 63.242 33.102 59.586 33.102
 c 33.102 33.102 l 33.102 92.691 l 33.102 96.348 30.141 99.309 26.484 99.309
 c h
26.484 99.309 m f
26.484 132.414 m 22.828 132.414 19.863 129.449 19.863 125.793 c 19.863 
119.172 l 19.863 115.516 22.828 112.551 26.484 112.551 c 30.141 112.551 
33.102 115.516 33.102 119.172 c 33.102 125.793 l 33.102 129.449 30.141 132.414
 26.484 132.414 c h
26.484 132.414 m f
0.156863 0.521569 0.933333 rg
264.828 244.965 m 261.172 244.965 258.207 242 258.207 238.344 c 258.207
 218.484 l 258.207 211.168 264.137 205.242 271.449 205.242 c 284.691 205.242
 l 288.348 205.242 291.309 208.207 291.309 211.863 c 291.309 215.52 288.348
 218.484 284.691 218.484 c 271.449 218.484 l 271.449 238.344 l 271.449 242
 268.484 244.965 264.828 244.965 c h
264.828 244.965 m f
264.828 278.07 m 261.172 278.07 258.207 275.105 258.207 271.449 c 258.207
 264.828 l 258.207 261.172 261.172 258.207 264.828 258.207 c 268.484 258.207
 271.449 261.172 271.449 264.828 c 271.449 271.449 l 271.449 275.105 268.484
 278.07 264.828 278.07 c h
264.828 278.07 m f
0.670588 0.870588 0.384314 rg
139.035 132.414 m 137.277 132.414 135.594 131.715 134.355 130.473 c 101.25
 97.371 l 98.664 94.785 98.664 90.594 101.25 88.008 c 134.355 54.906 l 136.953
 52.395 141.082 52.434 143.633 54.984 c 146.188 57.539 146.223 61.668 143.715
 64.266 c 115.293 92.691 l 143.715 121.113 l 145.609 123.004 146.176 125.852
 145.148 128.328 c 144.125 130.801 141.711 132.414 139.035 132.414 c h
139.035 132.414 m f
218.484 132.414 m 215.805 132.414 213.391 130.801 212.367 128.328 c 211.344
 125.852 211.91 123.004 213.801 121.113 c 242.223 92.691 l 213.801 64.266
 l 211.293 61.668 211.328 57.539 213.883 54.984 c 216.438 52.434 220.566
 52.395 223.164 54.906 c 256.266 88.008 l 258.852 90.594 258.852 94.785 
256.266 97.371 c 223.164 130.473 l 221.922 131.715 220.238 132.414 218.484
 132.414 c h
218.484 132.414 m f
165.516 132.414 m 164.676 132.418 163.84 132.258 163.062 131.945 c 161.43
 131.293 160.125 130.02 159.43 128.406 c 158.738 126.793 158.715 124.969
 159.367 123.336 c 185.848 57.129 l 187.207 53.734 191.059 52.078 194.457
 53.438 c 197.852 54.793 199.508 58.645 198.152 62.043 c 171.668 128.25 
l 170.664 130.766 168.227 132.414 165.516 132.414 c h
165.516 132.414 m f
1 0.803922 0.329412 rg
205.242 172.137 m 99.309 172.137 l 95.652 172.137 92.691 169.172 92.691
 165.516 c 92.691 161.859 95.652 158.898 99.309 158.898 c 205.242 158.898
 l 208.898 158.898 211.863 161.859 211.863 165.516 c 211.863 169.172 208.898
 172.137 205.242 172.137 c h
205.242 172.137 m f
72.828 172.137 m 59.586 172.137 l 55.93 172.137 52.965 169.172 52.965 165.516
 c 52.965 161.859 55.93 158.898 59.586 158.898 c 72.828 158.898 l 76.484
 158.898 79.449 161.859 79.449 165.516 c 79.449 169.172 76.484 172.137 72.828
 172.137 c h
72.828 172.137 m f
205.242 198.621 m 99.309 198.621 l 95.652 198.621 92.691 195.656 92.691
 192 c 92.691 188.344 95.652 185.379 99.309 185.379 c 205.242 185.379 l 
208.898 185.379 211.863 188.344 211.863 192 c 211.863 195.656 208.898 198.621
 205.242 198.621 c h
205.242 198.621 m f
72.828 198.621 m 59.586 198.621 l 55.93 198.621 52.965 195.656 52.965 192
 c 52.965 188.344 55.93 185.379 59.586 185.379 c 72.828 185.379 l 76.484
 185.379 79.449 188.344 79.449 192 c 79.449 195.656 76.484 198.621 72.828
 198.621 c h
72.828 198.621 m f
205.242 225.102 m 99.309 225.102 l 95.652 225.102 92.691 222.141 92.691
 218.484 c 92.691 214.828 95.652 211.863 99.309 211.863 c 205.242 211.863
 l 208.898 211.863 211.863 214.828 211.863 218.484 c 211.863 222.141 208.898
 225.102 205.242 225.102 c h
205.242 225.102 m f
72.828 225.102 m 59.586 225.102 l 55.93 225.102 52.965 222.141 52.965 218.484
 c 52.965 214.828 55.93 211.863 59.586 211.863 c 72.828 211.863 l 76.484
 211.863 79.449 214.828 79.449 218.484 c 79.449 222.141 76.484 225.102 72.828
 225.102 c h
72.828 225.102 m f
0.643137 0.67451 0.729412 rg
249.863 384 m 236.625 384 l 230.262 383.996 225.105 378.84 225.102 372.48
 c 225.102 357.516 l 238.344 357.516 l 238.344 372.48 l 238.348 378.84 243.504
 383.996 249.863 384 c h
249.863 384 m f
0.733333 0.756863 0.807843 rg
225.102 331.035 13.242 26.48 re f
0.643137 0.67451 0.729412 rg
225.102 304.551 13.242 26.484 re f
0.733333 0.756863 0.807843 rg
225.102 251.586 13.242 52.965 re f
0.156863 0.521569 0.933333 rg
357.516 145.656 m 357.516 158.898 l 249.863 158.898 l 243.504 158.898 238.348
 164.055 238.344 170.418 c 238.344 251.586 l 225.102 251.586 l 225.102 157.176
 l 225.105 150.812 230.262 145.66 236.625 145.656 c h
357.516 145.656 m f
Q Q
showpage
%%Trailer
end
%%EOF
