%!PS-Adobe-3.0 EPSF-3.0
%%Creator: cairo 1.16.0 (https://cairographics.org)
%%CreationDate: Fri Aug  2 09:46:43 2019
%%Pages: 1
%%DocumentData: Clean7Bit
%%LanguageLevel: 2
%%BoundingBox: 0 0 384 384
%%EndComments
%%BeginProlog
50 dict begin
/q { gsave } bind def
/Q { grestore } bind def
/cm { 6 array astore concat } bind def
/w { setlinewidth } bind def
/J { setlinecap } bind def
/j { setlinejoin } bind def
/M { setmiterlimit } bind def
/d { setdash } bind def
/m { moveto } bind def
/l { lineto } bind def
/c { curveto } bind def
/h { closepath } bind def
/re { exch dup neg 3 1 roll 5 3 roll moveto 0 rlineto
      0 exch rlineto 0 rlineto closepath } bind def
/S { stroke } bind def
/f { fill } bind def
/f* { eofill } bind def
/n { newpath } bind def
/W { clip } bind def
/W* { eoclip } bind def
/BT { } bind def
/ET { } bind def
/BDC { mark 3 1 roll /BDC pdfmark } bind def
/EMC { mark /EMC pdfmark } bind def
/cairo_store_point { /cairo_point_y exch def /cairo_point_x exch def } def
/Tj { show currentpoint cairo_store_point } bind def
/TJ {
  {
    dup
    type /stringtype eq
    { show } { -0.001 mul 0 cairo_font_matrix dtransform rmoveto } ifelse
  } forall
  currentpoint cairo_store_point
} bind def
/cairo_selectfont { cairo_font_matrix aload pop pop pop 0 0 6 array astore
    cairo_font exch selectfont cairo_point_x cairo_point_y moveto } bind def
/Tf { pop /cairo_font exch def /cairo_font_matrix where
      { pop cairo_selectfont } if } bind def
/Td { matrix translate cairo_font_matrix matrix concatmatrix dup
      /cairo_font_matrix exch def dup 4 get exch 5 get cairo_store_point
      /cairo_font where { pop cairo_selectfont } if } bind def
/Tm { 2 copy 8 2 roll 6 array astore /cairo_font_matrix exch def
      cairo_store_point /cairo_font where { pop cairo_selectfont } if } bind def
/g { setgray } bind def
/rg { setrgbcolor } bind def
/d1 { setcachedevice } bind def
/cairo_data_source {
  CairoDataIndex CairoData length lt
    { CairoData CairoDataIndex get /CairoDataIndex CairoDataIndex 1 add def }
    { () } ifelse
} def
/cairo_flush_ascii85_file { cairo_ascii85_file status { cairo_ascii85_file flushfile } if } def
/cairo_image { image cairo_flush_ascii85_file } def
/cairo_imagemask { imagemask cairo_flush_ascii85_file } def
%%EndProlog
%%BeginSetup
%%EndSetup
%%Page: 1 1
%%BeginPageSetup
%%PageBoundingBox: 0 0 384 384
%%EndPageSetup
q 0 0 384 384 rectclip
1 0 0 -1 0 384 cm q
0.666667 0.698039 0.74902 rg
19.863 324.414 m 19.863 72.828 l 19.883 65.523 25.801 59.609 33.102 59.586
 c 351.891 59.586 l 358.918 59.883 364.387 65.797 364.137 72.828 c 364.137
 324.414 l h
19.863 324.414 m f
0.156863 0.521569 0.933333 rg
52.965 86.07 m 331.035 86.07 l 334.703 86.07 337.656 89.023 337.656 92.691
 c 337.656 264.828 l 337.656 268.496 334.703 271.449 331.035 271.449 c 52.965
 271.449 l 49.297 271.449 46.344 268.496 46.344 264.828 c 46.344 92.691 
l 46.344 89.023 49.297 86.07 52.965 86.07 c h
52.965 86.07 m f
0.666667 0.698039 0.74902 rg
364.137 350.898 m 343.613 376.547 l 339.844 381.254 334.141 384 328.109
 384 c 55.891 384 l 49.859 384 44.156 381.254 40.387 376.547 c 19.863 350.898
 l 19.863 344.277 l 364.137 344.277 l h
364.137 350.898 m f
0.807843 0.823529 0.862745 rg
384 311.172 m 384 337.656 l 383.977 344.961 378.062 350.875 370.758 350.898
 c 13.242 350.898 l 5.938 350.875 0.023 344.961 0 337.656 c 0 311.172 l 
0.023 303.867 5.938 297.953 13.242 297.93 c 132.414 297.93 l 136.07 297.93
 139.035 300.895 139.035 304.551 c 139.035 311.172 l 139.035 314.828 142
 317.793 145.656 317.793 c 238.344 317.793 l 242 317.793 244.965 314.828
 244.965 311.172 c 244.965 304.551 l 244.965 300.895 247.93 297.93 251.586
 297.93 c 370.758 297.93 l 378.062 297.953 383.977 303.867 384 311.172 c
 h
384 311.172 m f
0.847059 0.866667 0.898039 rg
311.172 52.965 m 311.172 271.449 l 72.828 271.449 l 72.828 52.965 l 86.07
 46.344 l 297.93 46.344 l h
311.172 52.965 m f
0.94902 0.537255 0.792157 rg
245.891 195.84 m 245.945 196.078 245.969 196.324 245.957 196.566 c 246.035
 205.84 239.734 213.949 230.73 216.164 c 228.77 225.184 220.828 231.645 
211.598 231.723 c 206.781 231.734 202.141 229.91 198.621 226.625 c 194.395
 222.801 191.988 217.363 192 211.664 c 192.012 217.363 189.605 222.801 185.379
 226.625 c 181.859 229.91 177.219 231.734 172.402 231.723 c 163.172 231.645
 155.23 225.184 153.27 216.164 c 144.266 213.949 137.965 205.84 138.043 
196.566 c 138.031 196.324 138.055 196.078 138.109 195.84 c 131.914 193.863
 127.305 188.652 126.102 182.266 c 124.898 175.879 127.297 169.344 132.348
 165.254 c 126.375 158.062 126.984 147.48 133.738 141.02 c 133.336 139.484
 133.137 137.906 133.141 136.32 c 133.027 126.25 140.441 117.672 150.422
 116.324 c 148.738 114.121 147.832 111.418 147.84 108.645 c 147.789 101.789
 153.301 96.191 160.156 96.133 c 161.203 96.129 162.25 96.262 163.266 96.531
 c 165.383 89.574 172.266 85.215 179.457 86.277 c 186.648 87.336 191.98 
93.496 192 100.766 c 191.996 93.484 197.332 87.301 204.535 86.238 c 211.742
 85.176 218.637 89.555 220.734 96.531 c 221.75 96.262 222.797 96.129 223.844
 96.133 c 230.699 96.191 236.211 101.789 236.16 108.645 c 236.168 111.418
 235.262 114.121 233.578 116.324 c 243.559 117.672 250.973 126.25 250.859
 136.32 c 250.863 137.906 250.664 139.484 250.262 141.02 c 257.016 147.48
 257.625 158.062 251.652 165.254 c 256.703 169.344 259.102 175.879 257.898
 182.266 c 256.695 188.652 252.086 193.863 245.891 195.84 c h
245.891 195.84 m f
0.0352941 0.439216 0.870588 rg
311.172 13.242 m 311.172 52.965 l 72.828 52.965 l 72.828 13.242 l 72.848
 5.938 78.766 0.023 86.07 0 c 297.93 0 l 305.234 0.023 311.152 5.938 311.172
 13.242 c h
311.172 13.242 m f
0.929412 0.458824 0.717647 rg
198.621 88.52 m 198.621 226.625 l 194.395 222.801 191.988 217.363 192 211.664
 c 192.012 217.363 189.605 222.801 185.379 226.625 c 185.379 88.52 l 189.52
 91.215 192.012 95.824 192 100.766 c 191.988 95.824 194.48 91.215 198.621
 88.52 c h
198.621 88.52 m f
0.670588 0.870588 0.384314 rg
211.863 182.637 m 209.375 180.164 206.012 178.77 202.5 178.758 c 181.5 
178.758 l 177.988 178.77 174.625 180.164 172.137 182.637 c 167.457 187.32
 l 165.734 188.98 165.047 191.441 165.652 193.758 c 166.258 196.074 168.066
 197.879 170.379 198.484 c 172.695 199.094 175.156 198.402 176.82 196.68
 c 181.5 192 l 202.5 192 l 207.18 196.68 l 209.777 199.191 213.91 199.152
 216.461 196.602 c 219.016 194.047 219.051 189.918 216.543 187.32 c h
211.863 182.637 m f
172.137 135.156 m 174.625 137.629 177.988 139.023 181.5 139.035 c 202.5
 139.035 l 206.012 139.023 209.375 137.629 211.863 135.156 c 216.543 130.473
 l 219.051 127.875 219.016 123.746 216.461 121.191 c 213.91 118.641 209.777
 118.602 207.18 121.113 c 202.5 125.793 l 181.5 125.793 l 176.82 121.113
 l 174.223 118.602 170.09 118.641 167.539 121.191 c 164.984 123.746 164.949
 127.875 167.457 130.473 c h
172.137 135.156 m f
225.102 145.656 m 221.445 145.656 218.484 148.621 218.484 152.277 c 165.516
 152.277 l 165.516 148.621 162.555 145.656 158.898 145.656 c 155.238 145.656
 152.277 148.621 152.277 152.277 c 152.277 165.516 l 152.277 169.172 155.238
 172.137 158.898 172.137 c 162.555 172.137 165.516 169.172 165.516 165.516
 c 218.484 165.516 l 218.484 169.172 221.445 172.137 225.102 172.137 c 228.762
 172.137 231.723 169.172 231.723 165.516 c 231.723 152.277 l 231.723 148.621
 228.762 145.656 225.102 145.656 c h
225.102 145.656 m f
0.262745 0.611765 0.972549 rg
33.102 331.035 m 26.484 331.035 l 22.828 331.035 19.863 328.07 19.863 324.414
 c 19.863 320.758 22.828 317.793 26.484 317.793 c 33.102 317.793 l 36.762
 317.793 39.723 320.758 39.723 324.414 c 39.723 328.07 36.762 331.035 33.102
 331.035 c h
33.102 331.035 m f
66.207 331.035 m 59.586 331.035 l 55.93 331.035 52.965 328.07 52.965 324.414
 c 52.965 320.758 55.93 317.793 59.586 317.793 c 66.207 317.793 l 69.863
 317.793 72.828 320.758 72.828 324.414 c 72.828 328.07 69.863 331.035 66.207
 331.035 c h
66.207 331.035 m f
0.94902 0.537255 0.792157 rg
105.93 33.102 m 99.309 33.102 l 95.652 33.102 92.691 30.141 92.691 26.484
 c 92.691 22.828 95.652 19.863 99.309 19.863 c 105.93 19.863 l 109.586 19.863
 112.551 22.828 112.551 26.484 c 112.551 30.141 109.586 33.102 105.93 33.102
 c h
105.93 33.102 m f
0.670588 0.870588 0.384314 rg
139.035 33.102 m 132.414 33.102 l 128.758 33.102 125.793 30.141 125.793
 26.484 c 125.793 22.828 128.758 19.863 132.414 19.863 c 139.035 19.863 
l 142.691 19.863 145.656 22.828 145.656 26.484 c 145.656 30.141 142.691 
33.102 139.035 33.102 c h
139.035 33.102 m f
0.0156863 0.384314 0.717647 rg
284.691 33.102 m 258.207 33.102 l 254.551 33.102 251.586 30.141 251.586
 26.484 c 251.586 22.828 254.551 19.863 258.207 19.863 c 284.691 19.863 
l 288.348 19.863 291.309 22.828 291.309 26.484 c 291.309 30.141 288.348 
33.102 284.691 33.102 c h
284.691 33.102 m f
Q Q
showpage
%%Trailer
end
%%EOF
