%!PS-Adobe-3.0 EPSF-3.0
%%Creator: cairo 1.16.0 (https://cairographics.org)
%%CreationDate: Fri Aug  2 09:46:43 2019
%%Pages: 1
%%DocumentData: Clean7Bit
%%LanguageLevel: 2
%%BoundingBox: 0 0 384 384
%%EndComments
%%BeginProlog
50 dict begin
/q { gsave } bind def
/Q { grestore } bind def
/cm { 6 array astore concat } bind def
/w { setlinewidth } bind def
/J { setlinecap } bind def
/j { setlinejoin } bind def
/M { setmiterlimit } bind def
/d { setdash } bind def
/m { moveto } bind def
/l { lineto } bind def
/c { curveto } bind def
/h { closepath } bind def
/re { exch dup neg 3 1 roll 5 3 roll moveto 0 rlineto
      0 exch rlineto 0 rlineto closepath } bind def
/S { stroke } bind def
/f { fill } bind def
/f* { eofill } bind def
/n { newpath } bind def
/W { clip } bind def
/W* { eoclip } bind def
/BT { } bind def
/ET { } bind def
/BDC { mark 3 1 roll /BDC pdfmark } bind def
/EMC { mark /EMC pdfmark } bind def
/cairo_store_point { /cairo_point_y exch def /cairo_point_x exch def } def
/Tj { show currentpoint cairo_store_point } bind def
/TJ {
  {
    dup
    type /stringtype eq
    { show } { -0.001 mul 0 cairo_font_matrix dtransform rmoveto } ifelse
  } forall
  currentpoint cairo_store_point
} bind def
/cairo_selectfont { cairo_font_matrix aload pop pop pop 0 0 6 array astore
    cairo_font exch selectfont cairo_point_x cairo_point_y moveto } bind def
/Tf { pop /cairo_font exch def /cairo_font_matrix where
      { pop cairo_selectfont } if } bind def
/Td { matrix translate cairo_font_matrix matrix concatmatrix dup
      /cairo_font_matrix exch def dup 4 get exch 5 get cairo_store_point
      /cairo_font where { pop cairo_selectfont } if } bind def
/Tm { 2 copy 8 2 roll 6 array astore /cairo_font_matrix exch def
      cairo_store_point /cairo_font where { pop cairo_selectfont } if } bind def
/g { setgray } bind def
/rg { setrgbcolor } bind def
/d1 { setcachedevice } bind def
/cairo_data_source {
  CairoDataIndex CairoData length lt
    { CairoData CairoDataIndex get /CairoDataIndex CairoDataIndex 1 add def }
    { () } ifelse
} def
/cairo_flush_ascii85_file { cairo_ascii85_file status { cairo_ascii85_file flushfile } if } def
/cairo_image { image cairo_flush_ascii85_file } def
/cairo_imagemask { imagemask cairo_flush_ascii85_file } def
%%EndProlog
%%BeginSetup
%%EndSetup
%%Page: 1 1
%%BeginPageSetup
%%PageBoundingBox: 0 0 384 384
%%EndPageSetup
q 0 0 384 384 rectclip
1 0 0 -1 0 384 cm q
0.509804 0.384314 0.294118 rg
276.48 265.688 m 373.406 337.125 l 382.457 343.789 386.191 355.516 382.664
 366.188 c 379.137 376.855 369.145 384.043 357.906 384 c 350.988 384 344.348
 381.262 339.438 376.387 c 251.055 288.266 l h
276.48 265.688 m f
0.807843 0.823529 0.862745 rg
317.793 158.898 m 317.793 246.652 246.652 317.793 158.898 317.793 c 71.141
 317.793 0 246.652 0 158.898 c 0 71.141 71.141 0 158.898 0 c 246.652 0 317.793
 71.141 317.793 158.898 c h
317.793 158.898 m f
0.156863 0.521569 0.933333 rg
291.309 158.898 m 291.309 232.027 232.027 291.309 158.898 291.309 c 85.766
 291.309 26.484 232.027 26.484 158.898 c 26.484 85.766 85.766 26.484 158.898
 26.484 c 232.027 26.484 291.309 85.766 291.309 158.898 c h
291.309 158.898 m f
0.94902 0.956863 0.968627 rg
59.586 244.965 m 84.703 273.5 120.883 289.855 158.898 289.855 c 196.91 
289.855 233.09 273.5 258.207 244.965 c 258.074 245.098 l 258.207 244.965
 l 258.207 71.371 l 233.09 42.836 196.91 26.484 158.898 26.484 c 120.883
 26.484 84.703 42.836 59.586 71.371 c 59.586 244.965 l 59.719 245.098 l 
h
59.586 244.965 m f
0.262745 0.611765 0.972549 rg
158.898 297.93 m 90.246 297.945 31.863 247.852 21.445 179.996 c 11.027 
112.141 51.695 46.84 117.188 26.258 c 119.465 25.469 121.992 25.98 123.785
 27.59 c 125.574 29.203 126.352 31.664 125.805 34.012 c 125.258 36.359 123.477
 38.227 121.16 38.883 c 58.402 58.59 21.414 123.312 36.289 187.387 c 51.164
 251.461 112.883 293.266 177.906 283.305 c 242.926 273.348 289.305 214.988
 284.32 149.398 c 279.336 83.809 224.676 33.125 158.898 33.102 c 155.238
 33.102 152.277 30.141 152.277 26.484 c 152.277 22.828 155.238 19.863 158.898
 19.863 c 235.684 19.863 297.93 82.109 297.93 158.898 c 297.93 235.684 235.684
 297.93 158.898 297.93 c h
158.898 297.93 m f
1 0.764706 0.0235294 rg
105.93 86.07 m 86.07 86.07 l 82.414 86.07 79.449 83.105 79.449 79.449 c
 79.449 75.793 82.414 72.828 86.07 72.828 c 105.93 72.828 l 109.586 72.828
 112.551 75.793 112.551 79.449 c 112.551 83.105 109.586 86.07 105.93 86.07
 c h
105.93 86.07 m f
0.490196 0.74902 0.160784 rg
158.898 86.07 m 132.414 86.07 l 128.758 86.07 125.793 83.105 125.793 79.449
 c 125.793 75.793 128.758 72.828 132.414 72.828 c 158.898 72.828 l 162.555
 72.828 165.516 75.793 165.516 79.449 c 165.516 83.105 162.555 86.07 158.898
 86.07 c h
158.898 86.07 m f
0.533333 0.415686 0.870588 rg
205.242 86.07 m 185.379 86.07 l 181.723 86.07 178.758 83.105 178.758 79.449
 c 178.758 75.793 181.723 72.828 185.379 72.828 c 205.242 72.828 l 208.898
 72.828 211.863 75.793 211.863 79.449 c 211.863 83.105 208.898 86.07 205.242
 86.07 c h
205.242 86.07 m f
1 0.764706 0.0235294 rg
105.93 218.484 m 86.07 218.484 l 82.414 218.484 79.449 215.52 79.449 211.863
 c 79.449 208.207 82.414 205.242 86.07 205.242 c 105.93 205.242 l 109.586
 205.242 112.551 208.207 112.551 211.863 c 112.551 215.52 109.586 218.484
 105.93 218.484 c h
105.93 218.484 m f
0.490196 0.74902 0.160784 rg
225.102 218.484 m 132.414 218.484 l 128.758 218.484 125.793 215.52 125.793
 211.863 c 125.793 208.207 128.758 205.242 132.414 205.242 c 225.102 205.242
 l 228.762 205.242 231.723 208.207 231.723 211.863 c 231.723 215.52 228.762
 218.484 225.102 218.484 c h
225.102 218.484 m f
1 0.764706 0.0235294 rg
105.93 192 m 86.07 192 l 82.414 192 79.449 189.035 79.449 185.379 c 79.449
 181.723 82.414 178.758 86.07 178.758 c 105.93 178.758 l 109.586 178.758
 112.551 181.723 112.551 185.379 c 112.551 189.035 109.586 192 105.93 192
 c h
105.93 192 m f
0.490196 0.74902 0.160784 rg
152.277 192 m 132.414 192 l 128.758 192 125.793 189.035 125.793 185.379
 c 125.793 181.723 128.758 178.758 132.414 178.758 c 152.277 178.758 l 155.934
 178.758 158.898 181.723 158.898 185.379 c 158.898 189.035 155.934 192 152.277
 192 c h
152.277 192 m f
0.533333 0.415686 0.870588 rg
205.242 192 m 178.758 192 l 175.102 192 172.137 189.035 172.137 185.379
 c 172.137 181.723 175.102 178.758 178.758 178.758 c 205.242 178.758 l 208.898
 178.758 211.863 181.723 211.863 185.379 c 211.863 189.035 208.898 192 205.242
 192 c h
205.242 192 m f
0.129412 0.721569 0.917647 rg
105.93 112.551 m 86.07 112.551 l 82.414 112.551 79.449 109.586 79.449 105.93
 c 79.449 102.273 82.414 99.309 86.07 99.309 c 105.93 99.309 l 109.586 99.309
 112.551 102.273 112.551 105.93 c 112.551 109.586 109.586 112.551 105.93
 112.551 c h
105.93 112.551 m f
0.533333 0.415686 0.870588 rg
231.723 112.551 m 205.242 112.551 l 201.586 112.551 198.621 109.586 198.621
 105.93 c 198.621 102.273 201.586 99.309 205.242 99.309 c 231.723 99.309
 l 235.379 99.309 238.344 102.273 238.344 105.93 c 238.344 109.586 235.379
 112.551 231.723 112.551 c h
231.723 112.551 m f
205.242 165.516 m 172.137 165.516 l 168.48 165.516 165.516 162.555 165.516
 158.898 c 165.516 155.238 168.48 152.277 172.137 152.277 c 205.242 152.277
 l 208.898 152.277 211.863 155.238 211.863 158.898 c 211.863 162.555 208.898
 165.516 205.242 165.516 c h
205.242 165.516 m f
1 0.764706 0.0235294 rg
145.656 112.551 m 132.414 112.551 l 128.758 112.551 125.793 109.586 125.793
 105.93 c 125.793 102.273 128.758 99.309 132.414 99.309 c 145.656 99.309
 l 149.312 99.309 152.277 102.273 152.277 105.93 c 152.277 109.586 149.312
 112.551 145.656 112.551 c h
145.656 112.551 m f
0.490196 0.74902 0.160784 rg
178.758 112.551 m 172.137 112.551 l 168.48 112.551 165.516 109.586 165.516
 105.93 c 165.516 102.273 168.48 99.309 172.137 99.309 c 178.758 99.309 
l 182.414 99.309 185.379 102.273 185.379 105.93 c 185.379 109.586 182.414
 112.551 178.758 112.551 c h
178.758 112.551 m f
0.129412 0.721569 0.917647 rg
105.93 244.965 m 86.07 244.965 l 82.414 244.965 79.449 242 79.449 238.344
 c 79.449 234.688 82.414 231.723 86.07 231.723 c 105.93 231.723 l 109.586
 231.723 112.551 234.688 112.551 238.344 c 112.551 242 109.586 244.965 105.93
 244.965 c h
105.93 244.965 m f
0.490196 0.74902 0.160784 rg
172.137 244.965 m 165.516 244.965 l 161.859 244.965 158.898 242 158.898
 238.344 c 158.898 234.688 161.859 231.723 165.516 231.723 c 172.137 231.723
 l 175.793 231.723 178.758 234.688 178.758 238.344 c 178.758 242 175.793
 244.965 172.137 244.965 c h
172.137 244.965 m f
0.533333 0.415686 0.870588 rg
205.242 244.965 m 198.621 244.965 l 194.965 244.965 192 242 192 238.344
 c 192 234.688 194.965 231.723 198.621 231.723 c 205.242 231.723 l 208.898
 231.723 211.863 234.688 211.863 238.344 c 211.863 242 208.898 244.965 205.242
 244.965 c h
205.242 244.965 m f
1 0.764706 0.0235294 rg
139.035 244.965 m 132.414 244.965 l 128.758 244.965 125.793 242 125.793
 238.344 c 125.793 234.688 128.758 231.723 132.414 231.723 c 139.035 231.723
 l 142.691 231.723 145.656 234.688 145.656 238.344 c 145.656 242 142.691
 244.965 139.035 244.965 c h
139.035 244.965 m f
0.129412 0.721569 0.917647 rg
105.93 139.035 m 86.07 139.035 l 82.414 139.035 79.449 136.07 79.449 132.414
 c 79.449 128.758 82.414 125.793 86.07 125.793 c 105.93 125.793 l 109.586
 125.793 112.551 128.758 112.551 132.414 c 112.551 136.07 109.586 139.035
 105.93 139.035 c h
105.93 139.035 m f
1 0.764706 0.0235294 rg
145.656 139.035 m 132.414 139.035 l 128.758 139.035 125.793 136.07 125.793
 132.414 c 125.793 128.758 128.758 125.793 132.414 125.793 c 145.656 125.793
 l 149.312 125.793 152.277 128.758 152.277 132.414 c 152.277 136.07 149.312
 139.035 145.656 139.035 c h
145.656 139.035 m f
105.93 165.516 m 86.07 165.516 l 82.414 165.516 79.449 162.555 79.449 158.898
 c 79.449 155.238 82.414 152.277 86.07 152.277 c 105.93 152.277 l 109.586
 152.277 112.551 155.238 112.551 158.898 c 112.551 162.555 109.586 165.516
 105.93 165.516 c h
105.93 165.516 m f
0.490196 0.74902 0.160784 rg
145.656 165.516 m 132.414 165.516 l 128.758 165.516 125.793 162.555 125.793
 158.898 c 125.793 155.238 128.758 152.277 132.414 152.277 c 145.656 152.277
 l 149.312 152.277 152.277 155.238 152.277 158.898 c 152.277 162.555 149.312
 165.516 145.656 165.516 c h
145.656 165.516 m f
178.758 139.035 m 172.137 139.035 l 168.48 139.035 165.516 136.07 165.516
 132.414 c 165.516 128.758 168.48 125.793 172.137 125.793 c 178.758 125.793
 l 182.414 125.793 185.379 128.758 185.379 132.414 c 185.379 136.07 182.414
 139.035 178.758 139.035 c h
178.758 139.035 m f
0.533333 0.415686 0.870588 rg
218.484 139.035 m 205.242 139.035 l 201.586 139.035 198.621 136.07 198.621
 132.414 c 198.621 128.758 201.586 125.793 205.242 125.793 c 218.484 125.793
 l 222.141 125.793 225.102 128.758 225.102 132.414 c 225.102 136.07 222.141
 139.035 218.484 139.035 c h
218.484 139.035 m f
Q Q
showpage
%%Trailer
end
%%EOF
