%!PS-Adobe-3.0 EPSF-3.0
%%Creator: cairo 1.16.0 (https://cairographics.org)
%%CreationDate: Fri Aug  2 09:46:43 2019
%%Pages: 1
%%DocumentData: Clean7Bit
%%LanguageLevel: 2
%%BoundingBox: 23 0 361 384
%%EndComments
%%BeginProlog
50 dict begin
/q { gsave } bind def
/Q { grestore } bind def
/cm { 6 array astore concat } bind def
/w { setlinewidth } bind def
/J { setlinecap } bind def
/j { setlinejoin } bind def
/M { setmiterlimit } bind def
/d { setdash } bind def
/m { moveto } bind def
/l { lineto } bind def
/c { curveto } bind def
/h { closepath } bind def
/re { exch dup neg 3 1 roll 5 3 roll moveto 0 rlineto
      0 exch rlineto 0 rlineto closepath } bind def
/S { stroke } bind def
/f { fill } bind def
/f* { eofill } bind def
/n { newpath } bind def
/W { clip } bind def
/W* { eoclip } bind def
/BT { } bind def
/ET { } bind def
/BDC { mark 3 1 roll /BDC pdfmark } bind def
/EMC { mark /EMC pdfmark } bind def
/cairo_store_point { /cairo_point_y exch def /cairo_point_x exch def } def
/Tj { show currentpoint cairo_store_point } bind def
/TJ {
  {
    dup
    type /stringtype eq
    { show } { -0.001 mul 0 cairo_font_matrix dtransform rmoveto } ifelse
  } forall
  currentpoint cairo_store_point
} bind def
/cairo_selectfont { cairo_font_matrix aload pop pop pop 0 0 6 array astore
    cairo_font exch selectfont cairo_point_x cairo_point_y moveto } bind def
/Tf { pop /cairo_font exch def /cairo_font_matrix where
      { pop cairo_selectfont } if } bind def
/Td { matrix translate cairo_font_matrix matrix concatmatrix dup
      /cairo_font_matrix exch def dup 4 get exch 5 get cairo_store_point
      /cairo_font where { pop cairo_selectfont } if } bind def
/Tm { 2 copy 8 2 roll 6 array astore /cairo_font_matrix exch def
      cairo_store_point /cairo_font where { pop cairo_selectfont } if } bind def
/g { setgray } bind def
/rg { setrgbcolor } bind def
/d1 { setcachedevice } bind def
/cairo_data_source {
  CairoDataIndex CairoData length lt
    { CairoData CairoDataIndex get /CairoDataIndex CairoDataIndex 1 add def }
    { () } ifelse
} def
/cairo_flush_ascii85_file { cairo_ascii85_file status { cairo_ascii85_file flushfile } if } def
/cairo_image { image cairo_flush_ascii85_file } def
/cairo_imagemask { imagemask cairo_flush_ascii85_file } def
%%EndProlog
%%BeginSetup
%%EndSetup
%%Page: 1 1
%%BeginPageSetup
%%PageBoundingBox: 23 0 361 384
%%EndPageSetup
q 23 0 338 384 rectclip
1 0 0 -1 0 384 cm q
0.203922 0.427451 0.580392 rg
354.207 60.379 m 354.254 64.102 352.133 67.512 348.777 69.121 c 340.965
 72.629 l 281.379 99.309 l 96 99.309 l 28.602 69.121 l 25.078 67.371 22.953
 63.676 23.215 59.75 c 23.477 55.828 26.07 52.445 29.793 51.18 c 182.531
 0.926 l 186.539 -0.332 190.84 -0.332 194.848 0.926 c 340.965 48.992 l 347.586
 51.18 l 351.566 52.473 354.246 56.195 354.207 60.379 c h
354.207 60.379 m f
0.160784 0.329412 0.454902 rg
281.379 99.309 m 281.379 152.277 l 96 152.277 l 96 99.309 l 96 87.395 137.492
 72.828 188.691 72.828 c 239.887 72.828 281.379 87.395 281.379 99.309 c 
h
281.379 99.309 m f
0.0352941 0.439216 0.870588 rg
307.863 165.516 m 307.863 284.691 l 301.242 291.309 l 76.137 291.309 l 
69.516 284.691 l 69.516 165.516 l 69.516 154.547 78.41 145.656 89.379 145.656
 c 288 145.656 l 298.934 145.738 307.777 154.582 307.863 165.516 c h
307.863 165.516 m f
0.733333 0.756863 0.807843 rg
142.344 324.414 92.691 39.723 re f
0.847059 0.866667 0.898039 rg
129.102 357.516 m 248.277 357.516 l 255.613 357.516 261.516 363.422 261.516
 370.758 c 261.516 378.094 255.613 384 248.277 384 c 129.102 384 l 121.77
 384 115.863 378.094 115.863 370.758 c 115.863 363.422 121.77 357.516 129.102
 357.516 c h
129.102 357.516 m f
307.863 284.691 m 307.863 311.172 l 307.863 322.141 298.969 331.035 288
 331.035 c 89.379 331.035 l 78.41 331.035 69.516 322.141 69.516 311.172 
c 69.516 284.691 l h
307.863 284.691 m f
0.968627 0.678431 0 rg
360.828 132.414 m 360.832 138.406 356.812 143.66 351.023 145.215 c 345.234
 146.77 339.121 144.242 336.121 139.055 c 333.121 133.863 333.984 127.305
 338.223 123.066 c 342.457 118.828 349.016 117.961 354.207 120.961 c 358.293
 123.328 360.816 127.691 360.828 132.414 c h
360.828 132.414 m f
0.545098 0.576471 0.635294 rg
195.309 311.172 m 182.07 311.172 l 178.414 311.172 175.449 308.207 175.449
 304.551 c 175.449 300.895 178.414 297.93 182.07 297.93 c 195.309 297.93
 l 198.969 297.93 201.93 300.895 201.93 304.551 c 201.93 308.207 198.969
 311.172 195.309 311.172 c h
195.309 311.172 m f
1 0.803922 0.329412 rg
216.145 258.207 m 210.926 258.07 205.781 256.945 200.977 254.898 c 188.73
 249.539 177.652 241.828 168.371 232.207 c 158.738 222.922 151.02 211.832
 145.656 199.574 c 140.664 187.094 141.305 176.832 147.469 170.668 c 153.633
 164.504 163.895 163.863 176.375 168.855 c 188.621 174.215 199.699 181.922
 208.98 191.543 c 228.949 211.512 243.051 239.875 229.855 253.055 c 226.172
 256.559 221.227 258.418 216.145 258.207 c h
161.293 178.758 m 159.707 178.609 158.121 179.066 156.855 180.035 c 155.293
 181.598 154.652 186.359 157.969 194.656 c 162.688 205.227 169.398 214.789
 177.73 222.824 c 185.77 231.156 195.332 237.863 205.902 242.582 c 214.207
 245.891 218.953 245.23 220.523 243.695 c 224.879 239.324 218.781 220.039
 199.648 200.906 c 191.609 192.57 182.047 185.863 171.477 181.141 c 168.258
 179.727 164.805 178.918 161.293 178.758 c h
161.293 178.758 m f
0.670588 0.870588 0.384314 rg
161.234 258.207 m 156.145 258.43 151.188 256.57 147.496 253.062 c 134.301
 239.867 148.402 211.52 168.371 191.551 c 177.648 181.918 188.727 174.195
 200.977 168.828 c 213.473 163.824 223.727 164.492 229.883 170.641 c 236.039
 176.793 236.691 187.066 231.699 199.547 c 226.34 211.797 218.629 222.871
 209.008 232.156 c 199.73 241.797 188.652 249.523 176.402 254.898 c 171.598
 256.945 166.453 258.07 161.234 258.207 c h
216.086 178.758 m 212.574 178.922 209.121 179.73 205.902 181.148 c 195.332
 185.867 185.77 192.578 177.73 200.91 c 158.598 220.047 152.5 239.312 156.855
 243.699 c 158.426 245.262 163.188 245.898 171.477 242.59 c 182.047 237.867
 191.609 231.16 199.648 222.824 c 207.98 214.789 214.691 205.223 219.41 
194.648 c 222.719 186.352 222.059 181.594 220.523 180.031 c 219.258 179.062
 217.672 178.609 216.086 178.758 c h
216.086 178.758 m f
1 0.803922 0.329412 rg
354.207 60.379 m 354.207 120.961 l 350.113 118.578 345.059 118.578 340.965
 120.961 c 340.965 48.992 l 347.586 51.18 l 351.566 52.473 354.246 56.195
 354.207 60.379 c h
354.207 60.379 m f
Q Q
showpage
%%Trailer
end
%%EOF
