%!PS-Adobe-3.0 EPSF-3.0
%%Creator: cairo 1.16.0 (https://cairographics.org)
%%CreationDate: Fri Aug  2 09:46:43 2019
%%Pages: 1
%%DocumentData: Clean7Bit
%%LanguageLevel: 2
%%BoundingBox: 0 0 384 384
%%EndComments
%%BeginProlog
50 dict begin
/q { gsave } bind def
/Q { grestore } bind def
/cm { 6 array astore concat } bind def
/w { setlinewidth } bind def
/J { setlinecap } bind def
/j { setlinejoin } bind def
/M { setmiterlimit } bind def
/d { setdash } bind def
/m { moveto } bind def
/l { lineto } bind def
/c { curveto } bind def
/h { closepath } bind def
/re { exch dup neg 3 1 roll 5 3 roll moveto 0 rlineto
      0 exch rlineto 0 rlineto closepath } bind def
/S { stroke } bind def
/f { fill } bind def
/f* { eofill } bind def
/n { newpath } bind def
/W { clip } bind def
/W* { eoclip } bind def
/BT { } bind def
/ET { } bind def
/BDC { mark 3 1 roll /BDC pdfmark } bind def
/EMC { mark /EMC pdfmark } bind def
/cairo_store_point { /cairo_point_y exch def /cairo_point_x exch def } def
/Tj { show currentpoint cairo_store_point } bind def
/TJ {
  {
    dup
    type /stringtype eq
    { show } { -0.001 mul 0 cairo_font_matrix dtransform rmoveto } ifelse
  } forall
  currentpoint cairo_store_point
} bind def
/cairo_selectfont { cairo_font_matrix aload pop pop pop 0 0 6 array astore
    cairo_font exch selectfont cairo_point_x cairo_point_y moveto } bind def
/Tf { pop /cairo_font exch def /cairo_font_matrix where
      { pop cairo_selectfont } if } bind def
/Td { matrix translate cairo_font_matrix matrix concatmatrix dup
      /cairo_font_matrix exch def dup 4 get exch 5 get cairo_store_point
      /cairo_font where { pop cairo_selectfont } if } bind def
/Tm { 2 copy 8 2 roll 6 array astore /cairo_font_matrix exch def
      cairo_store_point /cairo_font where { pop cairo_selectfont } if } bind def
/g { setgray } bind def
/rg { setrgbcolor } bind def
/d1 { setcachedevice } bind def
/cairo_data_source {
  CairoDataIndex CairoData length lt
    { CairoData CairoDataIndex get /CairoDataIndex CairoDataIndex 1 add def }
    { () } ifelse
} def
/cairo_flush_ascii85_file { cairo_ascii85_file status { cairo_ascii85_file flushfile } if } def
/cairo_image { image cairo_flush_ascii85_file } def
/cairo_imagemask { imagemask cairo_flush_ascii85_file } def
%%EndProlog
%%BeginSetup
%%EndSetup
%%Page: 1 1
%%BeginPageSetup
%%PageBoundingBox: 0 0 384 384
%%EndPageSetup
q 0 0 384 384 rectclip
1 0 0 -1 0 384 cm q
0.160784 0.329412 0.454902 rg
86.07 344.277 m 297.93 344.277 l 297.93 377.379 l 297.93 381.035 294.969
 384 291.309 384 c 92.691 384 l 89.031 384 86.07 381.035 86.07 377.379 c
 h
86.07 344.277 m f
86.07 192 211.859 39.723 re f
86.07 271.449 211.859 39.723 re f
0.807843 0.823529 0.862745 rg
66.207 185.379 m 29.641 185.379 0 155.738 0 119.172 c 0 82.605 29.641 52.965
 66.207 52.965 c 68.391 52.965 70.578 53.098 72.695 53.297 c 83.676 26.652
 107.266 7.27 135.535 1.668 c 163.805 -3.938 193.004 4.98 213.32 25.422 
c 229.605 13.883 250.23 10.305 269.453 15.691 c 288.676 21.074 304.441 34.844
 312.363 53.164 c 314.152 53.031 315.938 52.965 317.793 52.965 c 354.359
 52.965 384 82.605 384 119.172 c 384 155.738 354.359 185.379 317.793 185.379
 c h
66.207 185.379 m f
0.203922 0.427451 0.580392 rg
72.828 145.656 m 311.172 145.656 l 314.84 145.656 317.793 148.609 317.793
 152.277 c 317.793 192 l 317.793 195.668 314.84 198.621 311.172 198.621 
c 72.828 198.621 l 69.16 198.621 66.207 195.668 66.207 192 c 66.207 152.277
 l 66.207 148.609 69.16 145.656 72.828 145.656 c h
72.828 145.656 m f
72.828 225.102 m 311.172 225.102 l 314.84 225.102 317.793 228.055 317.793
 231.723 c 317.793 271.449 l 317.793 275.117 314.84 278.07 311.172 278.07
 c 72.828 278.07 l 69.16 278.07 66.207 275.117 66.207 271.449 c 66.207 231.723
 l 66.207 228.055 69.16 225.102 72.828 225.102 c h
72.828 225.102 m f
72.828 304.551 m 311.172 304.551 l 314.84 304.551 317.793 307.504 317.793
 311.172 c 317.793 350.898 l 317.793 354.562 314.84 357.516 311.172 357.516
 c 72.828 357.516 l 69.16 357.516 66.207 354.562 66.207 350.898 c 66.207
 311.172 l 66.207 307.504 69.16 304.551 72.828 304.551 c h
72.828 304.551 m f
0.254902 0.807843 0.952941 rg
99.309 178.758 m 92.691 178.758 l 89.031 178.758 86.07 175.793 86.07 172.137
 c 86.07 168.48 89.031 165.516 92.691 165.516 c 99.309 165.516 l 102.969
 165.516 105.93 168.48 105.93 172.137 c 105.93 175.793 102.969 178.758 99.309
 178.758 c h
99.309 178.758 m f
1 0.764706 0.0235294 rg
132.414 178.758 m 125.793 178.758 l 122.137 178.758 119.172 175.793 119.172
 172.137 c 119.172 168.48 122.137 165.516 125.793 165.516 c 132.414 165.516
 l 136.07 165.516 139.035 168.48 139.035 172.137 c 139.035 175.793 136.07
 178.758 132.414 178.758 c h
132.414 178.758 m f
0.301961 0.541176 0.670588 rg
291.309 178.758 m 251.586 178.758 l 247.93 178.758 244.965 175.793 244.965
 172.137 c 244.965 168.48 247.93 165.516 251.586 165.516 c 291.309 165.516
 l 294.969 165.516 297.93 168.48 297.93 172.137 c 297.93 175.793 294.969
 178.758 291.309 178.758 c h
291.309 178.758 m f
0.254902 0.807843 0.952941 rg
99.309 258.207 m 92.691 258.207 l 89.031 258.207 86.07 255.242 86.07 251.586
 c 86.07 247.93 89.031 244.965 92.691 244.965 c 99.309 244.965 l 102.969
 244.965 105.93 247.93 105.93 251.586 c 105.93 255.242 102.969 258.207 99.309
 258.207 c h
99.309 258.207 m f
1 0.764706 0.0235294 rg
132.414 258.207 m 125.793 258.207 l 122.137 258.207 119.172 255.242 119.172
 251.586 c 119.172 247.93 122.137 244.965 125.793 244.965 c 132.414 244.965
 l 136.07 244.965 139.035 247.93 139.035 251.586 c 139.035 255.242 136.07
 258.207 132.414 258.207 c h
132.414 258.207 m f
0.301961 0.541176 0.670588 rg
291.309 258.207 m 251.586 258.207 l 247.93 258.207 244.965 255.242 244.965
 251.586 c 244.965 247.93 247.93 244.965 251.586 244.965 c 291.309 244.965
 l 294.969 244.965 297.93 247.93 297.93 251.586 c 297.93 255.242 294.969
 258.207 291.309 258.207 c h
291.309 258.207 m f
0.254902 0.807843 0.952941 rg
99.309 337.656 m 92.691 337.656 l 89.031 337.656 86.07 334.691 86.07 331.035
 c 86.07 327.379 89.031 324.414 92.691 324.414 c 99.309 324.414 l 102.969
 324.414 105.93 327.379 105.93 331.035 c 105.93 334.691 102.969 337.656 
99.309 337.656 c h
99.309 337.656 m f
1 0.764706 0.0235294 rg
132.414 337.656 m 125.793 337.656 l 122.137 337.656 119.172 334.691 119.172
 331.035 c 119.172 327.379 122.137 324.414 125.793 324.414 c 132.414 324.414
 l 136.07 324.414 139.035 327.379 139.035 331.035 c 139.035 334.691 136.07
 337.656 132.414 337.656 c h
132.414 337.656 m f
0.301961 0.541176 0.670588 rg
291.309 337.656 m 251.586 337.656 l 247.93 337.656 244.965 334.691 244.965
 331.035 c 244.965 327.379 247.93 324.414 251.586 324.414 c 291.309 324.414
 l 294.969 324.414 297.93 327.379 297.93 331.035 c 297.93 334.691 294.969
 337.656 291.309 337.656 c h
291.309 337.656 m f
0.94902 0.956863 0.968627 rg
26.484 125.793 m 22.828 125.793 19.863 122.828 19.863 119.172 c 19.891 
93.59 40.625 72.855 66.207 72.828 c 69.863 72.828 72.828 75.793 72.828 79.449
 c 72.828 83.105 69.863 86.07 66.207 86.07 c 47.934 86.09 33.125 100.898
 33.102 119.172 c 33.102 122.828 30.141 125.793 26.484 125.793 c h
26.484 125.793 m f
97.191 69.961 m 96.332 69.965 95.477 69.797 94.684 69.465 c 91.316 68.078
 89.699 64.23 91.066 60.855 c 101.211 35.996 125.426 19.781 152.277 19.863
 c 155.934 19.863 158.898 22.828 158.898 26.484 c 158.898 30.141 155.934
 33.102 152.277 33.102 c 130.809 33.023 111.441 45.984 103.324 65.855 c 
102.301 68.34 99.879 69.965 97.191 69.961 c h
97.191 69.961 m f
0.490196 0.74902 0.160784 rg
125.793 112.551 m 125.793 79.449 l 125.793 76.77 124.18 74.355 121.707 
73.332 c 119.23 72.309 116.387 72.875 114.492 74.766 c 107.871 81.387 l 
105.977 83.281 105.41 86.129 106.438 88.602 c 107.461 91.074 109.875 92.688
 112.551 92.691 c 112.551 112.551 l 108.895 112.551 105.93 115.516 105.93
 119.172 c 105.93 122.828 108.895 125.793 112.551 125.793 c 125.793 125.793
 l 129.449 125.793 132.414 122.828 132.414 119.172 c 132.414 115.516 129.449
 112.551 125.793 112.551 c h
125.793 112.551 m f
271.449 112.551 m 271.449 79.449 l 271.449 76.77 269.836 74.355 267.359
 73.332 c 264.887 72.309 262.039 72.875 260.148 74.766 c 253.527 81.387 
l 251.633 83.281 251.066 86.129 252.09 88.602 c 253.117 91.074 255.531 92.688
 258.207 92.691 c 258.207 112.551 l 254.551 112.551 251.586 115.516 251.586
 119.172 c 251.586 122.828 254.551 125.793 258.207 125.793 c 271.449 125.793
 l 275.105 125.793 278.07 122.828 278.07 119.172 c 278.07 115.516 275.105
 112.551 271.449 112.551 c h
271.449 112.551 m f
165.516 72.828 m 154.547 72.828 145.656 81.719 145.656 92.691 c 145.656
 105.93 l 145.656 116.902 154.547 125.793 165.516 125.793 c 176.488 125.793
 185.379 116.902 185.379 105.93 c 185.379 92.691 l 185.379 81.719 176.488
 72.828 165.516 72.828 c h
172.137 105.93 m 172.137 109.586 169.172 112.551 165.516 112.551 c 161.859
 112.551 158.898 109.586 158.898 105.93 c 158.898 92.691 l 158.898 89.031
 161.859 86.07 165.516 86.07 c 169.172 86.07 172.137 89.031 172.137 92.691
 c h
172.137 105.93 m f
218.484 72.828 m 207.512 72.828 198.621 81.719 198.621 92.691 c 198.621
 105.93 l 198.621 116.902 207.512 125.793 218.484 125.793 c 229.453 125.793
 238.344 116.902 238.344 105.93 c 238.344 92.691 l 238.344 81.719 229.453
 72.828 218.484 72.828 c h
225.102 105.93 m 225.102 109.586 222.141 112.551 218.484 112.551 c 214.828
 112.551 211.863 109.586 211.863 105.93 c 211.863 92.691 l 211.863 89.031
 214.828 86.07 218.484 86.07 c 222.141 86.07 225.102 89.031 225.102 92.691
 c h
225.102 105.93 m f
Q Q
showpage
%%Trailer
end
%%EOF
