%!PS-Adobe-3.0 EPSF-3.0
%%Creator: cairo 1.16.0 (https://cairographics.org)
%%CreationDate: Fri Aug  2 09:46:43 2019
%%Pages: 1
%%DocumentData: Clean7Bit
%%LanguageLevel: 2
%%BoundingBox: 19 0 365 384
%%EndComments
%%BeginProlog
50 dict begin
/q { gsave } bind def
/Q { grestore } bind def
/cm { 6 array astore concat } bind def
/w { setlinewidth } bind def
/J { setlinecap } bind def
/j { setlinejoin } bind def
/M { setmiterlimit } bind def
/d { setdash } bind def
/m { moveto } bind def
/l { lineto } bind def
/c { curveto } bind def
/h { closepath } bind def
/re { exch dup neg 3 1 roll 5 3 roll moveto 0 rlineto
      0 exch rlineto 0 rlineto closepath } bind def
/S { stroke } bind def
/f { fill } bind def
/f* { eofill } bind def
/n { newpath } bind def
/W { clip } bind def
/W* { eoclip } bind def
/BT { } bind def
/ET { } bind def
/BDC { mark 3 1 roll /BDC pdfmark } bind def
/EMC { mark /EMC pdfmark } bind def
/cairo_store_point { /cairo_point_y exch def /cairo_point_x exch def } def
/Tj { show currentpoint cairo_store_point } bind def
/TJ {
  {
    dup
    type /stringtype eq
    { show } { -0.001 mul 0 cairo_font_matrix dtransform rmoveto } ifelse
  } forall
  currentpoint cairo_store_point
} bind def
/cairo_selectfont { cairo_font_matrix aload pop pop pop 0 0 6 array astore
    cairo_font exch selectfont cairo_point_x cairo_point_y moveto } bind def
/Tf { pop /cairo_font exch def /cairo_font_matrix where
      { pop cairo_selectfont } if } bind def
/Td { matrix translate cairo_font_matrix matrix concatmatrix dup
      /cairo_font_matrix exch def dup 4 get exch 5 get cairo_store_point
      /cairo_font where { pop cairo_selectfont } if } bind def
/Tm { 2 copy 8 2 roll 6 array astore /cairo_font_matrix exch def
      cairo_store_point /cairo_font where { pop cairo_selectfont } if } bind def
/g { setgray } bind def
/rg { setrgbcolor } bind def
/d1 { setcachedevice } bind def
/cairo_data_source {
  CairoDataIndex CairoData length lt
    { CairoData CairoDataIndex get /CairoDataIndex CairoDataIndex 1 add def }
    { () } ifelse
} def
/cairo_flush_ascii85_file { cairo_ascii85_file status { cairo_ascii85_file flushfile } if } def
/cairo_image { image cairo_flush_ascii85_file } def
/cairo_imagemask { imagemask cairo_flush_ascii85_file } def
%%EndProlog
%%BeginSetup
%%EndSetup
%%Page: 1 1
%%BeginPageSetup
%%PageBoundingBox: 19 0 365 384
%%EndPageSetup
q 19 0 346 384 rectclip
1 0 0 -1 0 384 cm q
0.807843 0.823529 0.862745 rg
59.586 211.863 m 59.586 19.863 l 59.586 8.891 68.48 0 79.449 0 c 299.055
 0 l 302.574 -0.004 305.953 1.395 308.438 3.887 c 360.25 55.699 l 362.742
 58.188 364.141 61.562 364.137 65.082 c 364.137 364.137 l 364.137 375.109
 355.246 384 344.277 384 c 79.449 384 l 68.48 384 59.586 375.109 59.586 
364.137 c h
59.586 211.863 m f
0.156863 0.521569 0.933333 rg
26.484 211.863 m 198.621 211.863 l 202.289 211.863 205.242 214.816 205.242
 218.484 c 205.242 337.656 l 205.242 341.324 202.289 344.277 198.621 344.277
 c 26.484 344.277 l 22.816 344.277 19.863 341.324 19.863 337.656 c 19.863
 218.484 l 19.863 214.816 22.816 211.863 26.484 211.863 c h
26.484 211.863 m f
0.545098 0.576471 0.635294 rg
362.945 59.586 m 330.238 59.586 l 323.422 59.602 316.879 56.902 312.059
 52.078 c 307.238 47.258 304.535 40.715 304.551 33.898 c 304.551 1.191 l
 306.004 1.855 307.328 2.773 308.457 3.906 c 360.23 55.68 l 361.363 56.809
 362.281 58.133 362.945 59.586 c h
362.945 59.586 m f
0.670588 0.870588 0.384314 rg
66.207 258.207 m 66.207 238.344 l 66.207 235.668 64.594 233.254 62.121 
232.23 c 59.645 231.203 56.801 231.77 54.906 233.664 c 48.285 240.285 l 
46.391 242.18 45.824 245.023 46.852 247.5 c 47.875 249.973 50.289 251.586
 52.965 251.586 c 52.965 258.207 l 49.309 258.207 46.344 261.172 46.344 
264.828 c 46.344 268.484 49.309 271.449 52.965 271.449 c 66.207 271.449 
l 69.863 271.449 72.828 268.484 72.828 264.828 c 72.828 261.172 69.863 258.207
 66.207 258.207 c h
66.207 258.207 m f
66.207 311.172 m 66.207 291.309 l 66.207 288.633 64.594 286.219 62.121 
285.195 c 59.645 284.172 56.801 284.738 54.906 286.629 c 48.285 293.25 l
 46.391 295.145 45.824 297.992 46.852 300.465 c 47.875 302.938 50.289 304.551
 52.965 304.551 c 52.965 311.172 l 49.309 311.172 46.344 314.137 46.344 
317.793 c 46.344 321.449 49.309 324.414 52.965 324.414 c 66.207 324.414 
l 69.863 324.414 72.828 321.449 72.828 317.793 c 72.828 314.137 69.863 311.172
 66.207 311.172 c h
66.207 311.172 m f
112.551 311.172 m 112.551 291.309 l 112.551 288.633 110.938 286.219 108.465
 285.195 c 105.992 284.172 103.145 284.738 101.25 286.629 c 94.629 293.25
 l 92.738 295.145 92.172 297.992 93.195 300.465 c 94.219 302.938 96.633 
304.551 99.309 304.551 c 99.309 311.172 l 95.652 311.172 92.691 314.137 
92.691 317.793 c 92.691 321.449 95.652 324.414 99.309 324.414 c 112.551 
324.414 l 116.207 324.414 119.172 321.449 119.172 317.793 c 119.172 314.137
 116.207 311.172 112.551 311.172 c h
112.551 311.172 m f
105.93 231.723 m 94.961 231.723 86.07 240.617 86.07 251.586 c 86.07 262.555
 94.961 271.449 105.93 271.449 c 116.902 271.449 125.793 262.555 125.793
 251.586 c 125.793 240.617 116.902 231.723 105.93 231.723 c h
105.93 258.207 m 102.273 258.207 99.309 255.242 99.309 251.586 c 99.309
 247.93 102.273 244.965 105.93 244.965 c 109.586 244.965 112.551 247.93 
112.551 251.586 c 112.551 255.242 109.586 258.207 105.93 258.207 c h
105.93 258.207 m f
158.898 284.691 m 147.926 284.691 139.035 293.582 139.035 304.551 c 139.035
 315.52 147.926 324.414 158.898 324.414 c 169.867 324.414 178.758 315.52
 178.758 304.551 c 178.758 293.582 169.867 284.691 158.898 284.691 c h
158.898 311.172 m 155.238 311.172 152.277 308.207 152.277 304.551 c 152.277
 300.895 155.238 297.93 158.898 297.93 c 162.555 297.93 165.516 300.895 
165.516 304.551 c 165.516 308.207 162.555 311.172 158.898 311.172 c h
158.898 311.172 m f
158.898 271.449 m 169.867 271.449 178.758 262.555 178.758 251.586 c 178.758
 240.617 169.867 231.723 158.898 231.723 c 147.926 231.723 139.035 240.617
 139.035 251.586 c 139.035 262.555 147.926 271.449 158.898 271.449 c h
158.898 244.965 m 162.555 244.965 165.516 247.93 165.516 251.586 c 165.516
 255.242 162.555 258.207 158.898 258.207 c 155.238 258.207 152.277 255.242
 152.277 251.586 c 152.277 247.93 155.238 244.965 158.898 244.965 c h
158.898 244.965 m f
0.47451 0.509804 0.568627 rg
258.207 52.965 m 99.309 52.965 l 95.652 52.965 92.691 50 92.691 46.344 
c 92.691 42.688 95.652 39.723 99.309 39.723 c 258.207 39.723 l 261.863 39.723
 264.828 42.688 264.828 46.344 c 264.828 50 261.863 52.965 258.207 52.965
 c h
258.207 52.965 m f
258.207 86.07 m 99.309 86.07 l 95.652 86.07 92.691 83.105 92.691 79.449
 c 92.691 75.793 95.652 72.828 99.309 72.828 c 258.207 72.828 l 261.863 
72.828 264.828 75.793 264.828 79.449 c 264.828 83.105 261.863 86.07 258.207
 86.07 c h
258.207 86.07 m f
324.414 119.172 m 99.309 119.172 l 95.652 119.172 92.691 116.207 92.691
 112.551 c 92.691 108.895 95.652 105.93 99.309 105.93 c 324.414 105.93 l
 328.07 105.93 331.035 108.895 331.035 112.551 c 331.035 116.207 328.07 
119.172 324.414 119.172 c h
324.414 119.172 m f
324.684 152.277 m 99.309 152.277 l 95.652 152.277 92.691 149.312 92.691
 145.656 c 92.691 142 95.652 139.035 99.309 139.035 c 324.684 139.035 l 
328.34 139.035 331.305 142 331.305 145.656 c 331.305 149.312 328.34 152.277
 324.684 152.277 c h
324.684 152.277 m f
324.684 185.379 m 99.309 185.379 l 95.652 185.379 92.691 182.414 92.691
 178.758 c 92.691 175.102 95.652 172.137 99.309 172.137 c 324.684 172.137
 l 328.34 172.137 331.305 175.102 331.305 178.758 c 331.305 182.414 328.34
 185.379 324.684 185.379 c h
324.684 185.379 m f
324.684 218.484 m 238.344 218.484 l 234.688 218.484 231.723 215.52 231.723
 211.863 c 231.723 208.207 234.688 205.242 238.344 205.242 c 324.684 205.242
 l 328.34 205.242 331.305 208.207 331.305 211.863 c 331.305 215.52 328.34
 218.484 324.684 218.484 c h
324.684 218.484 m f
324.684 251.586 m 238.344 251.586 l 234.688 251.586 231.723 248.621 231.723
 244.965 c 231.723 241.309 234.688 238.344 238.344 238.344 c 324.684 238.344
 l 328.34 238.344 331.305 241.309 331.305 244.965 c 331.305 248.621 328.34
 251.586 324.684 251.586 c h
324.684 251.586 m f
324.684 284.691 m 238.344 284.691 l 234.688 284.691 231.723 281.727 231.723
 278.07 c 231.723 274.414 234.688 271.449 238.344 271.449 c 324.684 271.449
 l 328.34 271.449 331.305 274.414 331.305 278.07 c 331.305 281.727 328.34
 284.691 324.684 284.691 c h
324.684 284.691 m f
324.684 317.793 m 238.344 317.793 l 234.688 317.793 231.723 314.828 231.723
 311.172 c 231.723 307.516 234.688 304.551 238.344 304.551 c 324.684 304.551
 l 328.34 304.551 331.305 307.516 331.305 311.172 c 331.305 314.828 328.34
 317.793 324.684 317.793 c h
324.684 317.793 m f
324.684 350.898 m 238.344 350.898 l 234.688 350.898 231.723 347.934 231.723
 344.277 c 231.723 340.621 234.688 337.656 238.344 337.656 c 324.684 337.656
 l 328.34 337.656 331.305 340.621 331.305 344.277 c 331.305 347.934 328.34
 350.898 324.684 350.898 c h
324.684 350.898 m f
Q Q
showpage
%%Trailer
end
%%EOF
