%!PS-Adobe-3.0 EPSF-3.0
%%Creator: cairo 1.16.0 (https://cairographics.org)
%%CreationDate: Fri Aug  2 09:46:44 2019
%%Pages: 1
%%DocumentData: Clean7Bit
%%LanguageLevel: 2
%%BoundingBox: 0 0 384 384
%%EndComments
%%BeginProlog
50 dict begin
/q { gsave } bind def
/Q { grestore } bind def
/cm { 6 array astore concat } bind def
/w { setlinewidth } bind def
/J { setlinecap } bind def
/j { setlinejoin } bind def
/M { setmiterlimit } bind def
/d { setdash } bind def
/m { moveto } bind def
/l { lineto } bind def
/c { curveto } bind def
/h { closepath } bind def
/re { exch dup neg 3 1 roll 5 3 roll moveto 0 rlineto
      0 exch rlineto 0 rlineto closepath } bind def
/S { stroke } bind def
/f { fill } bind def
/f* { eofill } bind def
/n { newpath } bind def
/W { clip } bind def
/W* { eoclip } bind def
/BT { } bind def
/ET { } bind def
/BDC { mark 3 1 roll /BDC pdfmark } bind def
/EMC { mark /EMC pdfmark } bind def
/cairo_store_point { /cairo_point_y exch def /cairo_point_x exch def } def
/Tj { show currentpoint cairo_store_point } bind def
/TJ {
  {
    dup
    type /stringtype eq
    { show } { -0.001 mul 0 cairo_font_matrix dtransform rmoveto } ifelse
  } forall
  currentpoint cairo_store_point
} bind def
/cairo_selectfont { cairo_font_matrix aload pop pop pop 0 0 6 array astore
    cairo_font exch selectfont cairo_point_x cairo_point_y moveto } bind def
/Tf { pop /cairo_font exch def /cairo_font_matrix where
      { pop cairo_selectfont } if } bind def
/Td { matrix translate cairo_font_matrix matrix concatmatrix dup
      /cairo_font_matrix exch def dup 4 get exch 5 get cairo_store_point
      /cairo_font where { pop cairo_selectfont } if } bind def
/Tm { 2 copy 8 2 roll 6 array astore /cairo_font_matrix exch def
      cairo_store_point /cairo_font where { pop cairo_selectfont } if } bind def
/g { setgray } bind def
/rg { setrgbcolor } bind def
/d1 { setcachedevice } bind def
/cairo_data_source {
  CairoDataIndex CairoData length lt
    { CairoData CairoDataIndex get /CairoDataIndex CairoDataIndex 1 add def }
    { () } ifelse
} def
/cairo_flush_ascii85_file { cairo_ascii85_file status { cairo_ascii85_file flushfile } if } def
/cairo_image { image cairo_flush_ascii85_file } def
/cairo_imagemask { imagemask cairo_flush_ascii85_file } def
%%EndProlog
%%BeginSetup
%%EndSetup
%%Page: 1 1
%%BeginPageSetup
%%PageBoundingBox: 0 0 384 384
%%EndPageSetup
q 0 0 384 384 rectclip
1 0 0 -1 0 384 cm q
0.490196 0.74902 0.160784 rg
185.379 39.723 m 317.793 39.723 l 325.098 39.746 331.012 45.66 331.035 
52.965 c 331.035 132.414 l 331.012 139.719 325.098 145.633 317.793 145.656
 c 304.551 145.656 l 300.895 145.656 297.93 148.621 297.93 152.277 c 297.93
 165.582 l 297.895 168.043 296.496 170.281 294.301 171.395 c 292.105 172.504
 289.477 172.309 287.469 170.879 c 255.027 148.066 l 252.793 146.492 250.129
 145.652 247.395 145.656 c 185.379 145.656 l 178.074 145.633 172.16 139.719
 172.137 132.414 c 172.137 52.965 l 172.137 45.652 178.066 39.723 185.379
 39.723 c h
185.379 39.723 m f
0.733333 0.756863 0.807843 rg
66.207 324.414 39.723 39.723 re f
0.156863 0.521569 0.933333 rg
172.137 185.379 m 172.137 297.93 l 165.516 304.551 l 6.621 304.551 l 0 
297.93 l 0 185.379 l 0.023 178.074 5.938 172.16 13.242 172.137 c 158.898
 172.137 l 166.199 172.16 172.117 178.074 172.137 185.379 c h
172.137 185.379 m f
0.807843 0.823529 0.862745 rg
52.965 357.516 m 119.172 357.516 l 126.508 357.516 132.414 363.422 132.414
 370.758 c 132.414 378.094 126.508 384 119.172 384 c 52.965 384 l 45.629
 384 39.723 378.094 39.723 370.758 c 39.723 363.422 45.629 357.516 52.965
 357.516 c h
52.965 357.516 m f
172.137 297.93 m 172.137 317.793 l 172.117 325.098 166.199 331.012 158.898
 331.035 c 13.242 331.035 l 5.938 331.012 0.023 325.098 0 317.793 c 0 297.93
 l h
172.137 297.93 m f
0.733333 0.756863 0.807843 rg
278.07 324.414 39.723 39.723 re f
0.156863 0.521569 0.933333 rg
384 185.379 m 384 297.93 l 377.379 304.551 l 218.484 304.551 l 211.863 
297.93 l 211.863 185.379 l 211.883 178.074 217.801 172.16 225.102 172.137
 c 370.758 172.137 l 378.062 172.16 383.977 178.074 384 185.379 c h
384 185.379 m f
0.807843 0.823529 0.862745 rg
264.828 357.516 m 331.035 357.516 l 338.371 357.516 344.277 363.422 344.277
 370.758 c 344.277 378.094 338.371 384 331.035 384 c 264.828 384 l 257.492
 384 251.586 378.094 251.586 370.758 c 251.586 363.422 257.492 357.516 264.828
 357.516 c h
264.828 357.516 m f
384 297.93 m 384 317.793 l 383.977 325.098 378.062 331.012 370.758 331.035
 c 225.102 331.035 l 217.801 331.012 211.883 325.098 211.863 317.793 c 211.863
 297.93 l h
384 297.93 m f
0.572549 0.819608 0.286275 rg
211.863 13.242 m 211.863 92.691 l 211.84 99.992 205.926 105.91 198.621 
105.93 c 136.605 105.93 l 133.879 105.93 131.215 106.773 128.984 108.34 
c 96.543 131.156 l 94.539 132.582 91.906 132.781 89.711 131.668 c 87.516
 130.559 86.117 128.32 86.082 125.859 c 86.082 112.551 l 86.082 108.895 
83.117 105.93 79.461 105.93 c 66.207 105.93 l 58.902 105.91 52.988 99.992
 52.965 92.691 c 52.965 13.242 l 52.988 5.938 58.902 0.023 66.207 0 c 198.621
 0 l 205.926 0.023 211.84 5.938 211.863 13.242 c h
211.863 13.242 m f
0.262745 0.611765 0.972549 rg
26.484 225.102 m 22.828 225.102 19.863 222.141 19.863 218.484 c 19.863 
205.242 l 19.863 197.93 25.789 192 33.102 192 c 66.207 192 l 69.863 192 
72.828 194.965 72.828 198.621 c 72.828 202.277 69.863 205.242 66.207 205.242
 c 33.102 205.242 l 33.102 218.484 l 33.102 222.141 30.141 225.102 26.484
 225.102 c h
26.484 225.102 m f
26.484 258.207 m 22.828 258.207 19.863 255.242 19.863 251.586 c 19.863 
244.965 l 19.863 241.309 22.828 238.344 26.484 238.344 c 30.141 238.344 
33.102 241.309 33.102 244.965 c 33.102 251.586 l 33.102 255.242 30.141 258.207
 26.484 258.207 c h
26.484 258.207 m f
238.344 225.102 m 234.688 225.102 231.723 222.141 231.723 218.484 c 231.723
 205.242 l 231.723 197.93 237.652 192 244.965 192 c 278.07 192 l 281.727
 192 284.691 194.965 284.691 198.621 c 284.691 202.277 281.727 205.242 278.07
 205.242 c 244.965 205.242 l 244.965 218.484 l 244.965 222.141 242 225.102
 238.344 225.102 c h
238.344 225.102 m f
238.344 258.207 m 234.688 258.207 231.723 255.242 231.723 251.586 c 231.723
 244.965 l 231.723 241.309 234.688 238.344 238.344 238.344 c 242 238.344
 244.965 241.309 244.965 244.965 c 244.965 251.586 l 244.965 255.242 242
 258.207 238.344 258.207 c h
238.344 258.207 m f
1 g
178.758 46.344 m 86.07 46.344 l 82.414 46.344 79.449 43.379 79.449 39.723
 c 79.449 36.066 82.414 33.102 86.07 33.102 c 178.758 33.102 l 182.414 33.102
 185.379 36.066 185.379 39.723 c 185.379 43.379 182.414 46.344 178.758 46.344
 c h
178.758 46.344 m f
139.035 72.828 m 86.07 72.828 l 82.414 72.828 79.449 69.863 79.449 66.207
 c 79.449 62.551 82.414 59.586 86.07 59.586 c 139.035 59.586 l 142.691 59.586
 145.656 62.551 145.656 66.207 c 145.656 69.863 142.691 72.828 139.035 72.828
 c h
139.035 72.828 m f
297.93 86.07 m 238.344 86.07 l 234.688 86.07 231.723 83.105 231.723 79.449
 c 231.723 75.793 234.688 72.828 238.344 72.828 c 297.93 72.828 l 301.586
 72.828 304.551 75.793 304.551 79.449 c 304.551 83.105 301.586 86.07 297.93
 86.07 c h
297.93 86.07 m f
258.207 112.551 m 238.344 112.551 l 234.688 112.551 231.723 109.586 231.723
 105.93 c 231.723 102.273 234.688 99.309 238.344 99.309 c 258.207 99.309
 l 261.863 99.309 264.828 102.273 264.828 105.93 c 264.828 109.586 261.863
 112.551 258.207 112.551 c h
258.207 112.551 m f
Q Q
showpage
%%Trailer
end
%%EOF
