%!PS-Adobe-3.0 EPSF-3.0
%%Creator: cairo 1.16.0 (https://cairographics.org)
%%CreationDate: Fri Aug  2 09:46:44 2019
%%Pages: 1
%%DocumentData: Clean7Bit
%%LanguageLevel: 2
%%BoundingBox: 0 6 384 378
%%EndComments
%%BeginProlog
50 dict begin
/q { gsave } bind def
/Q { grestore } bind def
/cm { 6 array astore concat } bind def
/w { setlinewidth } bind def
/J { setlinecap } bind def
/j { setlinejoin } bind def
/M { setmiterlimit } bind def
/d { setdash } bind def
/m { moveto } bind def
/l { lineto } bind def
/c { curveto } bind def
/h { closepath } bind def
/re { exch dup neg 3 1 roll 5 3 roll moveto 0 rlineto
      0 exch rlineto 0 rlineto closepath } bind def
/S { stroke } bind def
/f { fill } bind def
/f* { eofill } bind def
/n { newpath } bind def
/W { clip } bind def
/W* { eoclip } bind def
/BT { } bind def
/ET { } bind def
/BDC { mark 3 1 roll /BDC pdfmark } bind def
/EMC { mark /EMC pdfmark } bind def
/cairo_store_point { /cairo_point_y exch def /cairo_point_x exch def } def
/Tj { show currentpoint cairo_store_point } bind def
/TJ {
  {
    dup
    type /stringtype eq
    { show } { -0.001 mul 0 cairo_font_matrix dtransform rmoveto } ifelse
  } forall
  currentpoint cairo_store_point
} bind def
/cairo_selectfont { cairo_font_matrix aload pop pop pop 0 0 6 array astore
    cairo_font exch selectfont cairo_point_x cairo_point_y moveto } bind def
/Tf { pop /cairo_font exch def /cairo_font_matrix where
      { pop cairo_selectfont } if } bind def
/Td { matrix translate cairo_font_matrix matrix concatmatrix dup
      /cairo_font_matrix exch def dup 4 get exch 5 get cairo_store_point
      /cairo_font where { pop cairo_selectfont } if } bind def
/Tm { 2 copy 8 2 roll 6 array astore /cairo_font_matrix exch def
      cairo_store_point /cairo_font where { pop cairo_selectfont } if } bind def
/g { setgray } bind def
/rg { setrgbcolor } bind def
/d1 { setcachedevice } bind def
/cairo_data_source {
  CairoDataIndex CairoData length lt
    { CairoData CairoDataIndex get /CairoDataIndex CairoDataIndex 1 add def }
    { () } ifelse
} def
/cairo_flush_ascii85_file { cairo_ascii85_file status { cairo_ascii85_file flushfile } if } def
/cairo_image { image cairo_flush_ascii85_file } def
/cairo_imagemask { imagemask cairo_flush_ascii85_file } def
%%EndProlog
%%BeginSetup
%%EndSetup
%%Page: 1 1
%%BeginPageSetup
%%PageBoundingBox: 0 6 384 378
%%EndPageSetup
q 0 6 384 372 rectclip
1 0 0 -1 0 384 cm q
0.807843 0.823529 0.862745 rg
224 332.801 m 224 345.602 l 224 363.273 209.672 377.602 192 377.602 c 174.328
 377.602 160 363.273 160 345.602 c 160 332.801 l h
224 332.801 m f
0.733333 0.756863 0.807843 rg
249.602 332.801 m 249.547 339.848 243.848 345.547 236.801 345.602 c 147.199
 345.602 l 140.141 345.578 134.422 339.859 134.398 332.801 c 134.453 325.754
 140.152 320.051 147.199 320 c 147.199 313.602 l 236.801 313.602 l 236.801
 320 l 243.859 320.02 249.578 325.738 249.602 332.801 c h
249.602 332.801 m f
1 0.764706 0.0235294 rg
312.895 114.758 m 317.121 153.102 302.867 191.172 274.496 217.312 c 254.625
 235.527 243.281 261.223 243.199 288.18 c 243.199 307.199 l 140.801 307.199
 l 140.801 288.18 l 140.789 261.312 129.512 235.68 109.715 217.516 c 69.945
 180.949 59.07 122.527 83.02 74.102 c 106.969 25.672 160 -1.148 213.199 
8.262 c 266.398 17.672 307.012 61.055 312.895 114.758 c h
312.895 114.758 m f
0.807843 0.823529 0.862745 rg
134.398 294.398 m 249.602 294.398 l 256.691 294.398 262.398 300.109 262.398
 307.199 c 262.398 314.293 256.691 320 249.602 320 c 134.398 320 l 127.309
 320 121.602 314.293 121.602 307.199 c 121.602 300.109 127.309 294.398 134.398
 294.398 c h
134.398 294.398 m f
0.0352941 0.439216 0.870588 rg
262.398 70.398 m 262.398 166.398 l 259.477 172.043 l 128 172.801 l 121.602
 166.398 l 121.602 70.398 l 121.621 63.34 127.34 57.621 134.398 57.602 c
 249.602 57.602 l 256.66 57.621 262.379 63.34 262.398 70.398 c h
262.398 70.398 m f
0.807843 0.823529 0.862745 rg
172.801 185.602 38.398 38.398 re f
0.94902 0.956863 0.968627 rg
262.398 166.398 m 262.398 179.199 l 262.379 186.262 256.66 191.98 249.602
 192 c 134.398 192 l 127.34 191.98 121.621 186.262 121.602 179.199 c 121.602
 166.398 l h
262.398 166.398 m f
166.398 217.602 m 217.602 217.602 l 224.691 217.602 230.398 223.309 230.398
 230.398 c 230.398 237.492 224.691 243.199 217.602 243.199 c 166.398 243.199
 l 159.309 243.199 153.602 237.492 153.602 230.398 c 153.602 223.309 159.309
 217.602 166.398 217.602 c h
166.398 217.602 m f
1 0.803922 0.329412 rg
214.117 147.199 m 202.426 147.199 187.207 138.949 175.117 128.07 c 161.844
 116.141 153.602 102.355 153.602 92.109 c 153.434 87.824 155.156 83.684 
158.305 80.773 c 169.395 70.805 192.133 80.832 208.863 95.902 c 222.156 
107.859 230.398 121.645 230.398 131.891 c 230.566 136.176 228.848 140.32
 225.695 143.227 c 222.477 145.965 218.34 147.383 214.117 147.199 c h
169.797 89.602 m 168.77 89.5 167.734 89.754 166.867 90.316 c 166.508 90.855
 166.344 91.496 166.398 92.141 c 166.398 97.402 171.809 107.922 183.68 118.609
 c 200.273 133.535 214.625 135.973 217.133 133.746 c 217.496 133.199 217.664
 132.547 217.602 131.891 c 217.602 126.629 212.191 116.109 200.32 105.422
 c 187.117 93.543 175.32 89.602 169.797 89.602 c h
169.797 89.602 m f
0.670588 0.870588 0.384314 rg
169.883 147.199 m 165.656 147.375 161.52 145.949 158.305 143.199 c 155.16
 140.297 153.441 136.168 153.602 131.891 c 153.602 121.652 161.844 107.859
 175.117 95.902 c 191.871 80.824 214.637 70.809 225.676 80.773 c 228.832
 83.68 230.559 87.82 230.398 92.109 c 230.398 102.348 222.156 116.141 208.883
 128.098 c 196.793 138.977 181.574 147.199 169.883 147.199 c h
214.203 89.602 m 208.672 89.602 196.883 93.574 183.68 105.453 c 171.809
 116.141 166.398 126.664 166.398 131.922 c 166.344 132.566 166.508 133.211
 166.867 133.746 c 169.352 135.973 183.73 133.535 200.32 118.609 c 212.191
 107.922 217.602 97.402 217.602 92.141 c 217.656 91.496 217.492 90.855 217.133
 90.316 c 216.266 89.754 215.23 89.5 214.203 89.602 c h
214.203 89.602 m f
0.968627 0.678431 0 rg
377.602 134.398 m 339.199 134.398 l 335.664 134.398 332.801 131.535 332.801
 128 c 332.801 124.465 335.664 121.602 339.199 121.602 c 377.602 121.602
 l 381.133 121.602 384 124.465 384 128 c 384 131.535 381.133 134.398 377.602
 134.398 c h
377.602 134.398 m f
334.117 96.078 m 330.906 96.082 328.188 93.703 327.766 90.516 c 327.344
 87.328 329.352 84.324 332.453 83.496 c 369.531 73.496 l 371.738 72.902 
374.098 73.527 375.719 75.141 c 377.34 76.758 377.977 79.113 377.391 81.324
 c 376.801 83.535 375.078 85.266 372.871 85.863 c 335.797 95.859 l 335.246
 96.004 334.684 96.078 334.117 96.078 c h
334.117 96.078 m f
319.25 60.402 m 316.359 60.398 313.828 58.453 313.082 55.66 c 312.332 52.867
 313.551 49.918 316.051 48.469 c 349.246 29.164 l 351.227 27.953 353.707
 27.906 355.73 29.047 c 357.75 30.184 359 32.328 358.988 34.648 c 358.98
 36.969 357.719 39.102 355.688 40.223 c 322.465 59.52 l 321.488 60.094 320.383
 60.398 319.25 60.402 c h
319.25 60.402 m f
371.199 182.719 m 370.633 182.719 370.07 182.648 369.523 182.504 c 332.449
 172.504 l 329.035 171.582 327.012 168.066 327.938 164.652 c 328.859 161.238
 332.375 159.219 335.789 160.141 c 372.863 170.137 l 375.969 170.969 377.977
 173.973 377.555 177.16 c 377.133 180.344 374.414 182.727 371.199 182.719
 c h
371.199 182.719 m f
352.434 227.707 m 351.312 227.703 350.207 227.402 349.234 226.836 c 316.039
 207.531 l 313.176 205.676 312.273 201.898 313.988 198.945 c 315.703 195.996
 319.434 194.91 322.465 196.48 c 355.66 215.789 l 358.156 217.242 359.367
 220.188 358.621 222.977 c 357.871 225.766 355.348 227.707 352.461 227.719
 c h
352.434 227.707 m f
44.801 134.398 m 6.398 134.398 l 2.867 134.398 0 131.535 0 128 c 0 124.465
 2.867 121.602 6.398 121.602 c 44.801 121.602 l 48.336 121.602 51.199 124.465
 51.199 128 c 51.199 131.535 48.336 134.398 44.801 134.398 c h
44.801 134.398 m f
49.883 96.078 m 49.316 96.078 48.754 96.004 48.203 95.859 c 11.129 85.863
 l 8.922 85.266 7.199 83.535 6.609 81.324 c 6.023 79.113 6.66 76.758 8.281
 75.141 c 9.902 73.527 12.262 72.902 14.469 73.496 c 51.547 83.496 l 54.648
 84.324 56.656 87.328 56.234 90.516 c 55.812 93.703 53.094 96.082 49.883
 96.078 c h
49.883 96.078 m f
64.75 60.402 m 63.625 60.398 62.52 60.098 61.547 59.531 c 28.34 40.223 
l 26.309 39.102 25.043 36.969 25.035 34.648 c 25.027 32.328 26.273 30.184
 28.297 29.047 c 30.32 27.906 32.797 27.953 34.777 29.164 c 67.973 48.469
 l 70.477 49.918 71.695 52.867 70.945 55.66 c 70.195 58.453 67.668 60.398
 64.773 60.402 c h
64.75 60.402 m f
12.801 182.719 m 9.586 182.727 6.867 180.344 6.445 177.16 c 6.023 173.973
 8.031 170.969 11.137 170.137 c 48.211 160.141 l 51.625 159.219 55.141 161.238
 56.062 164.652 c 56.988 168.066 54.965 171.582 51.551 172.504 c 14.469 
182.504 l 13.926 182.645 13.363 182.719 12.801 182.719 c h
12.801 182.719 m f
31.566 227.707 m 28.676 227.695 26.152 225.754 25.406 222.965 c 24.656 
220.176 25.871 217.23 28.363 215.777 c 61.535 196.48 l 64.59 194.703 68.512
 195.738 70.289 198.793 c 72.066 201.848 71.031 205.77 67.973 207.547 c 
34.777 226.836 l 33.801 227.402 32.695 227.703 31.566 227.707 c h
31.566 227.707 m f
Q Q
showpage
%%Trailer
end
%%EOF
