%!PS-Adobe-3.0 EPSF-3.0
%%Creator: cairo 1.16.0 (https://cairographics.org)
%%CreationDate: Fri Aug  2 09:46:45 2019
%%Pages: 1
%%DocumentData: Clean7Bit
%%LanguageLevel: 2
%%BoundingBox: 0 0 384 384
%%EndComments
%%BeginProlog
50 dict begin
/q { gsave } bind def
/Q { grestore } bind def
/cm { 6 array astore concat } bind def
/w { setlinewidth } bind def
/J { setlinecap } bind def
/j { setlinejoin } bind def
/M { setmiterlimit } bind def
/d { setdash } bind def
/m { moveto } bind def
/l { lineto } bind def
/c { curveto } bind def
/h { closepath } bind def
/re { exch dup neg 3 1 roll 5 3 roll moveto 0 rlineto
      0 exch rlineto 0 rlineto closepath } bind def
/S { stroke } bind def
/f { fill } bind def
/f* { eofill } bind def
/n { newpath } bind def
/W { clip } bind def
/W* { eoclip } bind def
/BT { } bind def
/ET { } bind def
/BDC { mark 3 1 roll /BDC pdfmark } bind def
/EMC { mark /EMC pdfmark } bind def
/cairo_store_point { /cairo_point_y exch def /cairo_point_x exch def } def
/Tj { show currentpoint cairo_store_point } bind def
/TJ {
  {
    dup
    type /stringtype eq
    { show } { -0.001 mul 0 cairo_font_matrix dtransform rmoveto } ifelse
  } forall
  currentpoint cairo_store_point
} bind def
/cairo_selectfont { cairo_font_matrix aload pop pop pop 0 0 6 array astore
    cairo_font exch selectfont cairo_point_x cairo_point_y moveto } bind def
/Tf { pop /cairo_font exch def /cairo_font_matrix where
      { pop cairo_selectfont } if } bind def
/Td { matrix translate cairo_font_matrix matrix concatmatrix dup
      /cairo_font_matrix exch def dup 4 get exch 5 get cairo_store_point
      /cairo_font where { pop cairo_selectfont } if } bind def
/Tm { 2 copy 8 2 roll 6 array astore /cairo_font_matrix exch def
      cairo_store_point /cairo_font where { pop cairo_selectfont } if } bind def
/g { setgray } bind def
/rg { setrgbcolor } bind def
/d1 { setcachedevice } bind def
/cairo_data_source {
  CairoDataIndex CairoData length lt
    { CairoData CairoDataIndex get /CairoDataIndex CairoDataIndex 1 add def }
    { () } ifelse
} def
/cairo_flush_ascii85_file { cairo_ascii85_file status { cairo_ascii85_file flushfile } if } def
/cairo_image { image cairo_flush_ascii85_file } def
/cairo_imagemask { imagemask cairo_flush_ascii85_file } def
%%EndProlog
%%BeginSetup
%%EndSetup
%%Page: 1 1
%%BeginPageSetup
%%PageBoundingBox: 0 0 384 384
%%EndPageSetup
q 0 0 384 384 rectclip
1 0 0 -1 0 384 cm q
0.807843 0.823529 0.862745 rg
145.656 364.137 m 145.656 375.109 154.547 384 165.516 384 c 364.137 384
 l 375.109 384 384 375.109 384 364.137 c 384 137.91 l 384 134.379 382.594
 131 380.094 128.508 c 328.32 76.734 l 325.828 74.234 322.445 72.828 318.918
 72.828 c 145.656 72.828 l h
145.656 364.137 m f
0.160784 0.329412 0.454902 rg
222.086 121.086 m 223.738 120.688 224.938 119.254 225.043 117.559 c 225.125
 115.902 225.125 109.203 225.043 107.547 c 224.938 105.848 223.738 104.418
 222.086 104.02 c 203.203 99.309 l 201.73 98.934 200.613 97.73 200.355 96.23
 c 199.512 91.664 198.309 87.172 196.746 82.797 c 196.227 81.371 196.59 
79.773 197.68 78.715 c 211.676 65.199 l 212.914 64.023 213.234 62.176 212.465
 60.652 c 211.695 59.176 208.367 53.371 207.48 52.004 c 206.547 50.578 204.785
 49.93 203.148 50.41 c 184.406 55.773 l 182.957 56.172 181.41 55.699 180.434
 54.555 c 177.398 51.023 174.098 47.723 170.562 44.691 c 169.418 43.715 
168.945 42.164 169.344 40.719 c 174.707 21.973 l 175.188 20.336 174.539 
18.578 173.109 17.645 c 171.723 16.758 165.941 13.426 164.504 12.66 c 162.977
 11.891 161.129 12.211 159.949 13.445 c 146.402 27.422 l 145.344 28.512 
143.746 28.879 142.316 28.355 c 137.945 26.797 133.453 25.59 128.887 24.75
 c 127.383 24.496 126.168 23.379 125.793 21.902 c 121.074 3.02 l 120.672
 1.367 119.242 0.164 117.543 0.059 c 115.887 -0.02 109.188 -0.02 107.535
 0.059 c 105.836 0.164 104.406 1.367 104.004 3.02 c 99.309 21.902 l 98.934
 23.375 97.73 24.488 96.23 24.75 c 91.664 25.59 87.172 26.797 82.797 28.355
 c 81.371 28.879 79.773 28.512 78.715 27.422 c 65.188 13.426 l 64.008 12.191
 62.16 11.871 60.633 12.641 c 59.164 13.406 53.383 16.738 52.023 17.625 
c 50.598 18.559 49.949 20.316 50.43 21.953 c 55.793 40.699 l 56.191 42.145
 55.719 43.695 54.574 44.668 c 51.035 47.707 47.73 51.004 44.691 54.543 
c 43.715 55.684 42.164 56.16 40.719 55.758 c 21.973 50.398 l 20.336 49.914
 18.578 50.562 17.645 51.992 c 16.758 53.383 13.426 59.164 12.66 60.641 
c 11.891 62.164 12.211 64.012 13.445 65.188 c 27.441 78.699 l 28.531 79.758
 28.898 81.359 28.375 82.785 c 26.816 87.16 25.609 91.652 24.77 96.219 c
 24.508 97.715 23.395 98.922 21.922 99.297 c 3.039 104.02 l 1.387 104.418
 0.188 105.848 0.078 107.547 c 0 109.203 0 115.902 0.078 117.559 c 0.188
 119.254 1.387 120.688 3.039 121.086 c 21.902 125.793 l 23.375 126.168 24.488
 127.375 24.75 128.871 c 25.586 133.453 26.793 137.957 28.355 142.344 c 
28.879 143.77 28.512 145.371 27.422 146.43 c 13.426 159.918 l 12.191 161.094
 11.871 162.941 12.641 164.465 c 13.406 165.941 16.738 171.746 17.625 173.109
 c 18.559 174.539 20.316 175.188 21.953 174.707 c 40.699 169.344 l 42.145
 168.945 43.695 169.418 44.668 170.562 c 47.707 174.09 51.008 177.383 54.543
 180.414 c 55.684 181.391 56.16 182.938 55.758 184.387 c 50.398 203.129 
l 49.914 204.766 50.562 206.527 51.992 207.461 c 53.383 208.348 59.164 211.676
 60.598 212.445 c 62.125 213.215 63.977 212.895 65.152 211.656 c 78.668 
197.66 l 79.727 196.57 81.324 196.207 82.754 196.727 c 87.125 198.285 91.617
 199.492 96.184 200.336 c 97.684 200.594 98.891 201.711 99.266 203.184 c
 103.984 222.066 l 104.387 223.719 105.816 224.918 107.512 225.023 c 109.168
 225.102 115.867 225.102 117.523 225.023 c 119.223 224.918 120.652 223.719
 121.051 222.066 c 125.793 203.203 l 126.168 201.73 127.375 200.613 128.871
 200.355 c 133.438 199.512 137.93 198.309 142.305 196.746 c 143.73 196.227
 145.332 196.59 146.391 197.68 c 159.902 211.676 l 161.082 212.914 162.934
 213.234 164.457 212.465 c 165.926 211.695 171.742 208.367 173.066 207.48
 c 174.492 206.547 175.141 204.785 174.66 203.148 c 169.297 184.406 l 168.898
 182.957 169.371 181.41 170.516 180.434 c 174.043 177.402 177.336 174.109
 180.367 170.582 c 181.344 169.438 182.891 168.965 184.34 169.363 c 203.082
 174.727 l 204.719 175.207 206.48 174.559 207.414 173.133 c 208.301 171.742
 211.629 165.961 212.398 164.484 c 213.168 162.961 212.848 161.113 211.609
 159.938 c 197.613 146.422 l 196.523 145.363 196.16 143.766 196.68 142.34
 c 198.242 137.965 199.449 133.473 200.289 128.906 c 200.547 127.406 201.664
 126.199 203.137 125.828 c h
222.086 121.086 m f
0.156863 0.521569 0.933333 rg
119.172 251.586 m 251.586 251.586 l 255.254 251.586 258.207 254.539 258.207
 258.207 c 258.207 337.656 l 258.207 341.324 255.254 344.277 251.586 344.277
 c 119.172 344.277 l 115.504 344.277 112.551 341.324 112.551 337.656 c 112.551
 258.207 l 112.551 254.539 115.504 251.586 119.172 251.586 c h
119.172 251.586 m f
0.203922 0.427451 0.580392 rg
165.516 112.551 m 165.516 141.805 141.805 165.516 112.551 165.516 c 83.301
 165.516 59.586 141.805 59.586 112.551 c 59.586 83.301 83.301 59.586 112.551
 59.586 c 141.805 59.586 165.516 83.301 165.516 112.551 c h
165.516 112.551 m f
0.301961 0.541176 0.670588 rg
132.414 112.551 m 132.414 123.52 123.52 132.414 112.551 132.414 c 101.582
 132.414 92.691 123.52 92.691 112.551 c 92.691 101.582 101.582 92.691 112.551
 92.691 c 123.52 92.691 132.414 101.582 132.414 112.551 c h
132.414 112.551 m f
0.545098 0.576471 0.635294 rg
382.809 132.414 m 350.102 132.414 l 343.285 132.43 336.742 129.727 331.922
 124.906 c 327.098 120.086 324.398 113.543 324.414 106.727 c 324.414 74.02
 l 325.867 74.684 327.191 75.602 328.32 76.734 c 380.094 128.508 l 381.227
 129.637 382.145 130.961 382.809 132.414 c h
382.809 132.414 m f
0.47451 0.509804 0.568627 rg
357.516 317.793 m 291.309 317.793 l 287.652 317.793 284.691 314.828 284.691
 311.172 c 284.691 307.516 287.652 304.551 291.309 304.551 c 357.516 304.551
 l 361.172 304.551 364.137 307.516 364.137 311.172 c 364.137 314.828 361.172
 317.793 357.516 317.793 c h
357.516 317.793 m f
357.516 350.898 m 291.309 350.898 l 287.652 350.898 284.691 347.934 284.691
 344.277 c 284.691 340.621 287.652 337.656 291.309 337.656 c 357.516 337.656
 l 361.172 337.656 364.137 340.621 364.137 344.277 c 364.137 347.934 361.172
 350.898 357.516 350.898 c h
357.516 350.898 m f
357.516 284.691 m 291.309 284.691 l 287.652 284.691 284.691 281.727 284.691
 278.07 c 284.691 274.414 287.652 271.449 291.309 271.449 c 357.516 271.449
 l 361.172 271.449 364.137 274.414 364.137 278.07 c 364.137 281.727 361.172
 284.691 357.516 284.691 c h
357.516 284.691 m f
357.516 251.586 m 291.309 251.586 l 287.652 251.586 284.691 248.621 284.691
 244.965 c 284.691 241.309 287.652 238.344 291.309 238.344 c 357.516 238.344
 l 361.172 238.344 364.137 241.309 364.137 244.965 c 364.137 248.621 361.172
 251.586 357.516 251.586 c h
357.516 251.586 m f
357.516 218.484 m 205.242 218.484 l 201.586 218.484 198.621 215.52 198.621
 211.863 c 198.621 208.207 201.586 205.242 205.242 205.242 c 357.516 205.242
 l 361.172 205.242 364.137 208.207 364.137 211.863 c 364.137 215.52 361.172
 218.484 357.516 218.484 c h
357.516 218.484 m f
357.516 185.379 m 238.344 185.379 l 234.688 185.379 231.723 182.414 231.723
 178.758 c 231.723 175.102 234.688 172.137 238.344 172.137 c 357.516 172.137
 l 361.172 172.137 364.137 175.102 364.137 178.758 c 364.137 182.414 361.172
 185.379 357.516 185.379 c h
357.516 185.379 m f
311.172 152.277 m 238.344 152.277 l 234.688 152.277 231.723 149.312 231.723
 145.656 c 231.723 142 234.688 139.035 238.344 139.035 c 311.172 139.035
 l 314.828 139.035 317.793 142 317.793 145.656 c 317.793 149.312 314.828
 152.277 311.172 152.277 c h
311.172 152.277 m f
Q Q
showpage
%%Trailer
end
%%EOF
