%!PS-Adobe-3.0 EPSF-3.0
%%Creator: cairo 1.16.0 (https://cairographics.org)
%%CreationDate: Fri Aug  2 09:46:45 2019
%%Pages: 1
%%DocumentData: Clean7Bit
%%LanguageLevel: 2
%%BoundingBox: 0 0 384 384
%%EndComments
%%BeginProlog
50 dict begin
/q { gsave } bind def
/Q { grestore } bind def
/cm { 6 array astore concat } bind def
/w { setlinewidth } bind def
/J { setlinecap } bind def
/j { setlinejoin } bind def
/M { setmiterlimit } bind def
/d { setdash } bind def
/m { moveto } bind def
/l { lineto } bind def
/c { curveto } bind def
/h { closepath } bind def
/re { exch dup neg 3 1 roll 5 3 roll moveto 0 rlineto
      0 exch rlineto 0 rlineto closepath } bind def
/S { stroke } bind def
/f { fill } bind def
/f* { eofill } bind def
/n { newpath } bind def
/W { clip } bind def
/W* { eoclip } bind def
/BT { } bind def
/ET { } bind def
/BDC { mark 3 1 roll /BDC pdfmark } bind def
/EMC { mark /EMC pdfmark } bind def
/cairo_store_point { /cairo_point_y exch def /cairo_point_x exch def } def
/Tj { show currentpoint cairo_store_point } bind def
/TJ {
  {
    dup
    type /stringtype eq
    { show } { -0.001 mul 0 cairo_font_matrix dtransform rmoveto } ifelse
  } forall
  currentpoint cairo_store_point
} bind def
/cairo_selectfont { cairo_font_matrix aload pop pop pop 0 0 6 array astore
    cairo_font exch selectfont cairo_point_x cairo_point_y moveto } bind def
/Tf { pop /cairo_font exch def /cairo_font_matrix where
      { pop cairo_selectfont } if } bind def
/Td { matrix translate cairo_font_matrix matrix concatmatrix dup
      /cairo_font_matrix exch def dup 4 get exch 5 get cairo_store_point
      /cairo_font where { pop cairo_selectfont } if } bind def
/Tm { 2 copy 8 2 roll 6 array astore /cairo_font_matrix exch def
      cairo_store_point /cairo_font where { pop cairo_selectfont } if } bind def
/g { setgray } bind def
/rg { setrgbcolor } bind def
/d1 { setcachedevice } bind def
/cairo_data_source {
  CairoDataIndex CairoData length lt
    { CairoData CairoDataIndex get /CairoDataIndex CairoDataIndex 1 add def }
    { () } ifelse
} def
/cairo_flush_ascii85_file { cairo_ascii85_file status { cairo_ascii85_file flushfile } if } def
/cairo_image { image cairo_flush_ascii85_file } def
/cairo_imagemask { imagemask cairo_flush_ascii85_file } def
%%EndProlog
%%BeginSetup
%%EndSetup
%%Page: 1 1
%%BeginPageSetup
%%PageBoundingBox: 0 0 384 384
%%EndPageSetup
q 0 0 384 384 rectclip
1 0 0 -1 0 384 cm q
0.160784 0.329412 0.454902 rg
26.484 218.484 m 13.242 218.484 l 5.938 218.461 0.023 212.547 0 205.242
 c 0 13.242 l 0.023 5.938 5.938 0.023 13.242 0 c 370.758 0 l 378.062 0.023
 383.977 5.938 384 13.242 c 384 205.242 l 383.977 212.547 378.062 218.461
 370.758 218.484 c h
26.484 218.484 m f
0.203922 0.427451 0.580392 rg
331.035 92.691 m 350.898 92.691 l 354.562 92.691 357.516 95.641 357.516
 99.309 c 357.516 119.172 l 357.516 122.84 354.562 125.793 350.898 125.793
 c 331.035 125.793 l 327.367 125.793 324.414 122.84 324.414 119.172 c 324.414
 99.309 l 324.414 95.641 327.367 92.691 331.035 92.691 c h
331.035 92.691 m f
271.449 92.691 m 291.309 92.691 l 294.977 92.691 297.93 95.641 297.93 99.309
 c 297.93 119.172 l 297.93 122.84 294.977 125.793 291.309 125.793 c 271.449
 125.793 l 267.781 125.793 264.828 122.84 264.828 119.172 c 264.828 99.309
 l 264.828 95.641 267.781 92.691 271.449 92.691 c h
271.449 92.691 m f
271.449 33.102 m 350.898 33.102 l 354.562 33.102 357.516 36.055 357.516
 39.723 c 357.516 59.586 l 357.516 63.254 354.562 66.207 350.898 66.207 
c 271.449 66.207 l 267.781 66.207 264.828 63.254 264.828 59.586 c 264.828
 39.723 l 264.828 36.055 267.781 33.102 271.449 33.102 c h
271.449 33.102 m f
211.863 92.691 m 231.723 92.691 l 235.391 92.691 238.344 95.641 238.344
 99.309 c 238.344 119.172 l 238.344 122.84 235.391 125.793 231.723 125.793
 c 211.863 125.793 l 208.195 125.793 205.242 122.84 205.242 119.172 c 205.242
 99.309 l 205.242 95.641 208.195 92.691 211.863 92.691 c h
211.863 92.691 m f
211.863 33.102 m 231.723 33.102 l 235.391 33.102 238.344 36.055 238.344
 39.723 c 238.344 59.586 l 238.344 63.254 235.391 66.207 231.723 66.207 
c 211.863 66.207 l 208.195 66.207 205.242 63.254 205.242 59.586 c 205.242
 39.723 l 205.242 36.055 208.195 33.102 211.863 33.102 c h
211.863 33.102 m f
152.277 92.691 m 172.137 92.691 l 175.805 92.691 178.758 95.641 178.758
 99.309 c 178.758 119.172 l 178.758 122.84 175.805 125.793 172.137 125.793
 c 152.277 125.793 l 148.609 125.793 145.656 122.84 145.656 119.172 c 145.656
 99.309 l 145.656 95.641 148.609 92.691 152.277 92.691 c h
152.277 92.691 m f
152.277 33.102 m 172.137 33.102 l 175.805 33.102 178.758 36.055 178.758
 39.723 c 178.758 59.586 l 178.758 63.254 175.805 66.207 172.137 66.207 
c 152.277 66.207 l 148.609 66.207 145.656 63.254 145.656 59.586 c 145.656
 39.723 l 145.656 36.055 148.609 33.102 152.277 33.102 c h
152.277 33.102 m f
92.691 92.691 m 112.551 92.691 l 116.219 92.691 119.172 95.641 119.172 
99.309 c 119.172 119.172 l 119.172 122.84 116.219 125.793 112.551 125.793
 c 92.691 125.793 l 89.023 125.793 86.07 122.84 86.07 119.172 c 86.07 99.309
 l 86.07 95.641 89.023 92.691 92.691 92.691 c h
92.691 92.691 m f
92.691 33.102 m 112.551 33.102 l 116.219 33.102 119.172 36.055 119.172 
39.723 c 119.172 59.586 l 119.172 63.254 116.219 66.207 112.551 66.207 c
 92.691 66.207 l 89.023 66.207 86.07 63.254 86.07 59.586 c 86.07 39.723 
l 86.07 36.055 89.023 33.102 92.691 33.102 c h
92.691 33.102 m f
33.102 92.691 m 52.965 92.691 l 56.633 92.691 59.586 95.641 59.586 99.309
 c 59.586 119.172 l 59.586 122.84 56.633 125.793 52.965 125.793 c 33.102
 125.793 l 29.438 125.793 26.484 122.84 26.484 119.172 c 26.484 99.309 l
 26.484 95.641 29.438 92.691 33.102 92.691 c h
33.102 92.691 m f
33.102 33.102 m 52.965 33.102 l 56.633 33.102 59.586 36.055 59.586 39.723
 c 59.586 59.586 l 59.586 63.254 56.633 66.207 52.965 66.207 c 33.102 66.207
 l 29.438 66.207 26.484 63.254 26.484 59.586 c 26.484 39.723 l 26.484 36.055
 29.438 33.102 33.102 33.102 c h
33.102 33.102 m f
0.941176 0.74902 0.576471 rg
158.898 258.207 m 158.898 317.793 l 158.898 330.59 151.527 342.242 139.961
 347.719 c 135.348 349.891 132.402 354.535 132.414 359.637 c 132.414 377.379
 l 132.414 381.035 129.449 384 125.793 384 c 59.586 384 l 55.93 384 52.965
 381.035 52.965 377.379 c 52.965 359.637 l 52.977 354.535 50.031 349.891
 45.418 347.719 c 43.41 346.762 41.504 345.609 39.723 344.277 c 31.387 338.023
 26.484 328.211 26.484 317.793 c 26.484 186.109 l 26.355 179.84 30.457 174.27
 36.48 172.535 c 37.543 172.277 38.633 172.145 39.723 172.137 c 47.016 172.191
 52.91 178.09 52.965 185.379 c 52.965 172.867 l 52.836 166.598 56.941 161.031
 62.961 159.293 c 64.023 159.035 65.113 158.902 66.207 158.898 c 73.496 
158.949 79.395 164.848 79.449 172.137 c 79.449 165.516 l 79.504 158.227 
85.398 152.328 92.691 152.277 c 93.781 152.281 94.871 152.414 95.934 152.672
 c 101.957 154.41 106.059 159.98 105.93 166.246 c 105.93 172.867 l 105.773
 165.824 110.988 159.809 117.98 158.961 c 118.375 158.91 118.773 158.887
 119.172 158.898 c 126.465 158.949 132.359 164.848 132.414 172.137 c 132.414
 244.965 l 145.656 244.965 l 152.961 244.988 158.875 250.902 158.898 258.207
 c h
158.898 258.207 m f
225.102 258.207 m 225.102 317.793 l 225.102 330.59 232.473 342.242 244.039
 347.719 c 248.652 349.891 251.598 354.535 251.586 359.637 c 251.586 377.379
 l 251.586 381.035 254.551 384 258.207 384 c 324.414 384 l 328.07 384 331.035
 381.035 331.035 377.379 c 331.035 359.637 l 331.023 354.535 333.969 349.891
 338.582 347.719 c 340.59 346.762 342.496 345.609 344.277 344.277 c 352.613
 338.023 357.516 328.211 357.516 317.793 c 357.516 186.109 l 357.645 179.84
 353.543 174.27 347.52 172.535 c 346.457 172.277 345.367 172.145 344.277
 172.137 c 336.984 172.191 331.09 178.09 331.035 185.379 c 331.035 172.867
 l 331.164 166.598 327.059 161.031 321.039 159.293 c 319.977 159.035 318.887
 158.902 317.793 158.898 c 310.504 158.949 304.605 164.848 304.551 172.137
 c 304.551 165.516 l 304.496 158.227 298.602 152.328 291.309 152.277 c 290.219
 152.281 289.129 152.414 288.066 152.672 c 282.043 154.41 277.941 159.98
 278.07 166.246 c 278.07 172.867 l 278.227 165.824 273.012 159.809 266.02
 158.961 c 265.625 158.91 265.227 158.887 264.828 158.898 c 257.535 158.949
 251.641 164.848 251.586 172.137 c 251.586 244.965 l 238.344 244.965 l 231.039
 244.988 225.125 250.902 225.102 258.207 c h
225.102 258.207 m f
0.203922 0.427451 0.580392 rg
165.516 152.277 m 218.484 152.277 l 222.152 152.277 225.102 155.23 225.102
 158.898 c 225.102 178.758 l 225.102 182.426 222.152 185.379 218.484 185.379
 c 165.516 185.379 l 161.848 185.379 158.898 182.426 158.898 178.758 c 158.898
 158.898 l 158.898 155.23 161.848 152.277 165.516 152.277 c h
165.516 152.277 m f
0.894118 0.682353 0.501961 rg
119.172 158.898 m 119.172 244.965 l 119.172 248.621 116.207 251.586 112.551
 251.586 c 108.895 251.586 105.93 248.621 105.93 244.965 c 105.93 172.867
 l 105.773 165.824 110.988 159.809 117.98 158.961 c 118.375 158.91 118.773
 158.887 119.172 158.898 c h
119.172 158.898 m f
92.691 152.277 m 92.691 244.965 l 92.691 248.621 89.727 251.586 86.07 251.586
 c 82.414 251.586 79.449 248.621 79.449 244.965 c 79.449 165.516 l 79.504
 158.227 85.398 152.328 92.691 152.277 c h
92.691 152.277 m f
66.207 158.898 m 66.207 258.207 l 66.207 261.863 63.242 264.828 59.586 
264.828 c 55.93 264.828 52.965 261.863 52.965 258.207 c 52.965 172.867 l
 52.836 166.598 56.941 161.031 62.961 159.293 c 64.023 159.035 65.113 158.902
 66.207 158.898 c h
66.207 158.898 m f
39.723 172.137 m 39.723 344.277 l 31.387 338.023 26.484 328.211 26.484 
317.793 c 26.484 186.109 l 26.355 179.84 30.457 174.27 36.48 172.535 c 37.543
 172.277 38.633 172.145 39.723 172.137 c h
39.723 172.137 m f
145.656 244.965 m 145.656 297.93 l 145.656 301.586 142.691 304.551 139.035
 304.551 c 135.379 304.551 132.414 301.586 132.414 297.93 c 132.414 244.965
 l h
145.656 244.965 m f
264.828 158.898 m 264.828 244.965 l 264.828 248.621 267.793 251.586 271.449
 251.586 c 275.105 251.586 278.07 248.621 278.07 244.965 c 278.07 172.867
 l 278.227 165.824 273.012 159.809 266.02 158.961 c 265.625 158.91 265.227
 158.887 264.828 158.898 c h
264.828 158.898 m f
291.309 152.277 m 291.309 244.965 l 291.309 248.621 294.273 251.586 297.93
 251.586 c 301.586 251.586 304.551 248.621 304.551 244.965 c 304.551 165.516
 l 304.496 158.227 298.602 152.328 291.309 152.277 c h
291.309 152.277 m f
317.793 158.898 m 317.793 258.207 l 317.793 261.863 320.758 264.828 324.414
 264.828 c 328.07 264.828 331.035 261.863 331.035 258.207 c 331.035 172.867
 l 331.164 166.598 327.059 161.031 321.039 159.293 c 319.977 159.035 318.887
 158.902 317.793 158.898 c h
317.793 158.898 m f
344.277 172.137 m 344.277 344.277 l 352.613 338.023 357.516 328.211 357.516
 317.793 c 357.516 186.109 l 357.645 179.84 353.543 174.27 347.52 172.535
 c 346.457 172.277 345.367 172.145 344.277 172.137 c h
344.277 172.137 m f
238.344 244.965 m 238.344 297.93 l 238.344 301.586 241.309 304.551 244.965
 304.551 c 248.621 304.551 251.586 301.586 251.586 297.93 c 251.586 244.965
 l h
238.344 244.965 m f
Q Q
showpage
%%Trailer
end
%%EOF
