%!PS-Adobe-3.0 EPSF-3.0
%%Creator: cairo 1.16.0 (https://cairographics.org)
%%CreationDate: Fri Aug  2 09:46:45 2019
%%Pages: 1
%%DocumentData: Clean7Bit
%%LanguageLevel: 2
%%BoundingBox: 0 0 384 384
%%EndComments
%%BeginProlog
50 dict begin
/q { gsave } bind def
/Q { grestore } bind def
/cm { 6 array astore concat } bind def
/w { setlinewidth } bind def
/J { setlinecap } bind def
/j { setlinejoin } bind def
/M { setmiterlimit } bind def
/d { setdash } bind def
/m { moveto } bind def
/l { lineto } bind def
/c { curveto } bind def
/h { closepath } bind def
/re { exch dup neg 3 1 roll 5 3 roll moveto 0 rlineto
      0 exch rlineto 0 rlineto closepath } bind def
/S { stroke } bind def
/f { fill } bind def
/f* { eofill } bind def
/n { newpath } bind def
/W { clip } bind def
/W* { eoclip } bind def
/BT { } bind def
/ET { } bind def
/BDC { mark 3 1 roll /BDC pdfmark } bind def
/EMC { mark /EMC pdfmark } bind def
/cairo_store_point { /cairo_point_y exch def /cairo_point_x exch def } def
/Tj { show currentpoint cairo_store_point } bind def
/TJ {
  {
    dup
    type /stringtype eq
    { show } { -0.001 mul 0 cairo_font_matrix dtransform rmoveto } ifelse
  } forall
  currentpoint cairo_store_point
} bind def
/cairo_selectfont { cairo_font_matrix aload pop pop pop 0 0 6 array astore
    cairo_font exch selectfont cairo_point_x cairo_point_y moveto } bind def
/Tf { pop /cairo_font exch def /cairo_font_matrix where
      { pop cairo_selectfont } if } bind def
/Td { matrix translate cairo_font_matrix matrix concatmatrix dup
      /cairo_font_matrix exch def dup 4 get exch 5 get cairo_store_point
      /cairo_font where { pop cairo_selectfont } if } bind def
/Tm { 2 copy 8 2 roll 6 array astore /cairo_font_matrix exch def
      cairo_store_point /cairo_font where { pop cairo_selectfont } if } bind def
/g { setgray } bind def
/rg { setrgbcolor } bind def
/d1 { setcachedevice } bind def
/cairo_data_source {
  CairoDataIndex CairoData length lt
    { CairoData CairoDataIndex get /CairoDataIndex CairoDataIndex 1 add def }
    { () } ifelse
} def
/cairo_flush_ascii85_file { cairo_ascii85_file status { cairo_ascii85_file flushfile } if } def
/cairo_image { image cairo_flush_ascii85_file } def
/cairo_imagemask { imagemask cairo_flush_ascii85_file } def
%%EndProlog
%%BeginSetup
%%EndSetup
%%Page: 1 1
%%BeginPageSetup
%%PageBoundingBox: 0 0 384 384
%%EndPageSetup
q 0 0 384 384 rectclip
1 0 0 -1 0 384 cm q
1 0.764706 0.0235294 rg
384 185.379 m 384.008 212.219 367.75 236.387 342.887 246.488 c 338.203 
248.484 333.285 249.887 328.254 250.66 c 319.883 278.703 294.094 297.926
 264.828 297.93 c 252.562 297.934 240.539 294.492 230.137 288 c 230.137 
288.066 230.137 288.066 230.07 288 c 226.215 285.621 222.621 282.848 219.344
 279.723 c 194.641 304.094 157.719 311.246 125.703 297.863 c 93.688 284.484
 72.84 253.184 72.828 218.484 c 72.828 218.152 l 70.645 218.352 68.457 218.484
 66.207 218.484 c 63.957 218.484 61.77 218.352 59.586 218.152 c 24.484 214.629
 -1.691 184.195 0.074 148.961 c 1.84 113.727 30.926 86.066 66.207 86.07 
c 68.062 86.07 69.848 86.203 71.637 86.332 c 82.113 62.082 105.996 46.367
 132.414 46.344 c 134.383 46.332 136.348 46.422 138.305 46.609 c 138.371
 46.609 l 139.762 46.742 141.219 46.941 142.609 47.207 c 143.078 47.262 
143.543 47.352 144 47.469 c 148.008 48.105 151.938 49.172 155.719 50.648
 c 157.023 46.57 158.711 42.625 160.75 38.863 c 174.617 12.527 203.125 -2.711
 232.727 0.398 c 262.328 3.504 287.055 24.324 295.148 52.965 c 295.148 53.23
 l 296.168 56.648 296.875 60.148 297.27 63.691 c 297.402 64.617 297.535 
65.543 297.602 66.539 c 297.602 66.867 297.668 67.133 297.668 67.465 c 297.73
 67.465 l 320.535 72.105 339.23 88.363 346.992 110.301 c 349.074 115.984
 350.32 121.938 350.699 127.977 c 351.027 128.238 351.383 128.457 351.758
 128.641 c 371.742 140.559 383.988 162.109 384 185.379 c h
384 185.379 m f
331.035 340.965 m 331.035 353.762 320.66 364.137 307.863 364.137 c 295.062
 364.137 284.691 353.762 284.691 340.965 c 284.691 328.168 295.062 317.793
 307.863 317.793 c 320.66 317.793 331.035 328.168 331.035 340.965 c h
331.035 340.965 m f
384 367.449 m 384 376.59 376.59 384 367.449 384 c 358.309 384 350.898 376.59
 350.898 367.449 c 350.898 358.309 358.309 350.898 367.449 350.898 c 376.59
 350.898 384 358.309 384 367.449 c h
384 367.449 m f
0.156863 0.521569 0.933333 rg
139.035 92.691 m 258.207 92.691 l 265.52 92.691 271.449 98.617 271.449 
105.93 c 271.449 205.242 l 125.793 205.242 l 125.793 105.93 l 125.793 98.617
 131.723 92.691 139.035 92.691 c h
139.035 92.691 m f
0.94902 0.956863 0.968627 rg
112.551 205.242 m 284.691 205.242 l 288.359 205.242 291.309 208.195 291.309
 211.863 c 291.309 225.102 l 291.309 228.77 288.359 231.723 284.691 231.723
 c 112.551 231.723 l 108.883 231.723 105.93 228.77 105.93 225.102 c 105.93
 211.863 l 105.93 208.195 108.883 205.242 112.551 205.242 c h
112.551 205.242 m f
0.968627 0.678431 0 rg
248.539 267.012 m 243.52 274.91 237.312 281.988 230.137 288 c 230.137 288.066
 230.137 288.066 230.07 288 c 226.215 285.621 222.621 282.848 219.344 279.723
 c 226.449 274.176 232.562 267.461 237.418 259.863 c 239.395 256.797 243.48
 255.906 246.555 257.875 c 248.039 258.816 249.086 260.312 249.461 262.027
 c 249.832 263.746 249.504 265.543 248.539 267.012 c h
248.539 267.012 m f
74.945 199.812 m 73.543 205.824 72.832 211.977 72.828 218.152 c 70.645 
218.352 68.457 218.484 66.207 218.484 c 63.957 218.484 61.77 218.352 59.586
 218.152 c 59.602 210.953 60.422 203.781 62.035 196.766 c 62.445 195.051
 63.52 193.57 65.023 192.652 c 66.527 191.73 68.336 191.449 70.047 191.867
 c 71.762 192.254 73.246 193.312 74.168 194.809 c 75.09 196.305 75.371 198.109
 74.945 199.812 c h
74.945 199.812 m f
344.211 232.785 m 344.203 237.383 343.758 241.973 342.887 246.488 c 338.203
 248.484 333.285 249.887 328.254 250.66 c 330.051 244.871 330.965 238.844
 330.969 232.785 c 330.969 229.125 333.934 226.164 337.59 226.164 c 341.246
 226.164 344.211 229.125 344.211 232.785 c h
344.211 232.785 m f
97.789 84.746 m 96.922 87.492 94.379 89.367 91.496 89.379 c 90.824 89.367
 90.152 89.254 89.512 89.047 c 83.723 87.25 77.695 86.336 71.637 86.332 
c 73.602 81.793 76.066 77.484 78.984 73.488 c 83.906 73.957 88.766 74.93
 93.484 76.402 c 95.164 76.934 96.562 78.113 97.371 79.68 c 98.176 81.246
 98.328 83.066 97.789 84.746 c h
97.789 84.746 m f
311.172 72.828 m 311.16 77.668 310.719 82.5 309.848 87.262 c 309.273 90.395
 306.547 92.68 303.359 92.691 c 302.957 92.711 302.555 92.668 302.168 92.559
 c 300.438 92.25 298.902 91.27 297.895 89.828 c 296.891 88.387 296.496 86.605
 296.805 84.879 c 297.543 80.902 297.922 76.871 297.93 72.828 c 297.93 71.062
 297.863 69.273 297.73 67.465 c 302.328 68.395 306.812 69.816 311.105 71.703
 c 311.16 72.074 311.184 72.453 311.172 72.828 c h
311.172 72.828 m f
177.434 56.938 m 176.176 58.594 174.219 59.574 172.137 59.586 c 170.707
 59.574 169.316 59.109 168.164 58.262 c 164.402 55.141 160.211 52.578 155.719
 50.648 c 157.023 46.57 158.711 42.625 160.75 38.863 c 166.219 41.145 171.379
 44.105 176.109 47.668 c 177.516 48.723 178.445 50.289 178.691 52.027 c 
178.941 53.766 178.488 55.531 177.434 56.938 c h
177.434 56.938 m f
350.699 127.977 m 345.305 123.918 339.258 120.809 332.82 118.773 c 330.379
 118.23 328.453 116.355 327.84 113.93 c 327.23 111.504 328.039 108.938 329.934
 107.301 c 331.828 105.668 334.48 105.238 336.793 106.195 c 340.297 107.289
 343.707 108.66 346.992 110.301 c 349.074 115.984 350.32 121.938 350.699
 127.977 c h
350.699 127.977 m f
1 0.803922 0.329412 rg
221.5 185.379 m 209.406 185.379 193.66 176.844 181.156 165.59 c 167.426
 153.25 158.898 138.988 158.898 128.387 c 158.727 123.957 160.504 119.672
 163.762 116.664 c 175.23 106.348 198.758 116.723 216.066 132.316 c 229.816
 144.684 238.344 158.941 238.344 169.543 c 238.52 173.977 236.738 178.262
 233.48 181.27 c 230.148 184.102 225.871 185.57 221.5 185.379 c h
175.652 125.793 m 174.59 125.691 173.52 125.953 172.621 126.535 c 172.25
 127.09 172.082 127.758 172.137 128.422 c 172.137 133.863 177.73 144.75 
190.016 155.805 c 207.18 171.25 222.031 173.773 224.621 171.461 c 224.996
 170.898 225.168 170.219 225.102 169.543 c 225.102 164.102 219.508 153.215
 207.227 142.16 c 193.57 129.871 181.367 125.793 175.652 125.793 c h
175.652 125.793 m f
0.670588 0.870588 0.384314 rg
175.738 185.379 m 171.367 185.562 167.09 184.082 163.762 181.242 c 160.512
 178.238 158.734 173.965 158.898 169.543 c 158.898 158.949 167.426 144.684
 181.156 132.316 c 198.48 116.715 222.031 106.363 233.457 116.664 c 236.723
 119.668 238.512 123.953 238.344 128.387 c 238.344 138.98 229.816 153.25
 216.086 165.617 c 203.578 176.871 187.836 185.379 175.738 185.379 c h
221.586 125.793 m 215.867 125.793 203.672 129.906 190.016 142.191 c 177.73
 153.25 172.137 164.133 172.137 169.574 c 172.082 170.242 172.25 170.906
 172.621 171.461 c 175.184 173.773 190.066 171.242 207.227 155.805 c 219.508
 144.75 225.102 133.863 225.102 128.422 c 225.16 127.758 224.992 127.09 
224.621 126.535 c 223.723 125.953 222.652 125.691 221.586 125.793 c h
221.586 125.793 m f
Q Q
showpage
%%Trailer
end
%%EOF
