%!PS-Adobe-3.0 EPSF-3.0
%%Creator: cairo 1.16.0 (https://cairographics.org)
%%CreationDate: Fri Aug  2 09:46:45 2019
%%Pages: 1
%%DocumentData: Clean7Bit
%%LanguageLevel: 2
%%BoundingBox: 0 0 384 384
%%EndComments
%%BeginProlog
50 dict begin
/q { gsave } bind def
/Q { grestore } bind def
/cm { 6 array astore concat } bind def
/w { setlinewidth } bind def
/J { setlinecap } bind def
/j { setlinejoin } bind def
/M { setmiterlimit } bind def
/d { setdash } bind def
/m { moveto } bind def
/l { lineto } bind def
/c { curveto } bind def
/h { closepath } bind def
/re { exch dup neg 3 1 roll 5 3 roll moveto 0 rlineto
      0 exch rlineto 0 rlineto closepath } bind def
/S { stroke } bind def
/f { fill } bind def
/f* { eofill } bind def
/n { newpath } bind def
/W { clip } bind def
/W* { eoclip } bind def
/BT { } bind def
/ET { } bind def
/BDC { mark 3 1 roll /BDC pdfmark } bind def
/EMC { mark /EMC pdfmark } bind def
/cairo_store_point { /cairo_point_y exch def /cairo_point_x exch def } def
/Tj { show currentpoint cairo_store_point } bind def
/TJ {
  {
    dup
    type /stringtype eq
    { show } { -0.001 mul 0 cairo_font_matrix dtransform rmoveto } ifelse
  } forall
  currentpoint cairo_store_point
} bind def
/cairo_selectfont { cairo_font_matrix aload pop pop pop 0 0 6 array astore
    cairo_font exch selectfont cairo_point_x cairo_point_y moveto } bind def
/Tf { pop /cairo_font exch def /cairo_font_matrix where
      { pop cairo_selectfont } if } bind def
/Td { matrix translate cairo_font_matrix matrix concatmatrix dup
      /cairo_font_matrix exch def dup 4 get exch 5 get cairo_store_point
      /cairo_font where { pop cairo_selectfont } if } bind def
/Tm { 2 copy 8 2 roll 6 array astore /cairo_font_matrix exch def
      cairo_store_point /cairo_font where { pop cairo_selectfont } if } bind def
/g { setgray } bind def
/rg { setrgbcolor } bind def
/d1 { setcachedevice } bind def
/cairo_data_source {
  CairoDataIndex CairoData length lt
    { CairoData CairoDataIndex get /CairoDataIndex CairoDataIndex 1 add def }
    { () } ifelse
} def
/cairo_flush_ascii85_file { cairo_ascii85_file status { cairo_ascii85_file flushfile } if } def
/cairo_image { image cairo_flush_ascii85_file } def
/cairo_imagemask { imagemask cairo_flush_ascii85_file } def
%%EndProlog
%%BeginSetup
%%EndSetup
%%Page: 1 1
%%BeginPageSetup
%%PageBoundingBox: 0 0 384 384
%%EndPageSetup
q 0 0 384 384 rectclip
1 0 0 -1 0 384 cm q
0.156863 0.521569 0.933333 rg
384 19.863 m 384 251.586 l 377.379 258.207 l 6.621 258.207 l 0 251.586 
l 0 19.863 l 0 8.891 8.891 0 19.863 0 c 364.137 0 l 375.109 0 384 8.891 
384 19.863 c h
384 19.863 m f
0.733333 0.756863 0.807843 rg
119.172 297.93 145.656 39.727 re f
0.847059 0.866667 0.898039 rg
311.172 357.516 m 264.828 331.035 l 119.172 331.035 l 72.828 357.516 l 
79.449 364.137 l 304.551 364.137 l h
311.172 357.516 m f
0.733333 0.756863 0.807843 rg
72.828 357.516 m 311.172 357.516 l 311.172 377.379 l 311.172 381.035 308.207
 384 304.551 384 c 79.449 384 l 75.793 384 72.828 381.035 72.828 377.379
 c h
72.828 357.516 m f
0.847059 0.866667 0.898039 rg
384 251.586 m 384 284.691 l 384 295.66 375.109 304.551 364.137 304.551 
c 19.863 304.551 l 8.891 304.551 0 295.66 0 284.691 c 0 251.586 l h
384 251.586 m f
0.545098 0.576471 0.635294 rg
205.242 284.691 m 178.758 284.691 l 175.102 284.691 172.137 281.727 172.137
 278.07 c 172.137 274.414 175.102 271.449 178.758 271.449 c 205.242 271.449
 l 208.898 271.449 211.863 274.414 211.863 278.07 c 211.863 281.727 208.898
 284.691 205.242 284.691 c h
205.242 284.691 m f
0.94902 0.956863 0.968627 rg
66.207 39.723 m 26.484 39.723 l 22.828 39.723 19.863 36.762 19.863 33.102
 c 19.863 29.445 22.828 26.484 26.484 26.484 c 66.207 26.484 l 69.863 26.484
 72.828 29.445 72.828 33.102 c 72.828 36.762 69.863 39.723 66.207 39.723
 c h
66.207 39.723 m f
0.94902 0.537255 0.792157 rg
291.309 39.723 m 198.621 39.723 l 194.965 39.723 192 36.762 192 33.102 
c 192 29.445 194.965 26.484 198.621 26.484 c 291.309 26.484 l 294.969 26.484
 297.93 29.445 297.93 33.102 c 297.93 36.762 294.969 39.723 291.309 39.723
 c h
291.309 39.723 m f
1 0.803922 0.329412 rg
119.172 39.723 m 92.691 39.723 l 89.031 39.723 86.07 36.762 86.07 33.102
 c 86.07 29.445 89.031 26.484 92.691 26.484 c 119.172 26.484 l 122.828 26.484
 125.793 29.445 125.793 33.102 c 125.793 36.762 122.828 39.723 119.172 39.723
 c h
119.172 39.723 m f
0.670588 0.870588 0.384314 rg
172.137 39.723 m 145.656 39.723 l 142 39.723 139.035 36.762 139.035 33.102
 c 139.035 29.445 142 26.484 145.656 26.484 c 172.137 26.484 l 175.793 26.484
 178.758 29.445 178.758 33.102 c 178.758 36.762 175.793 39.723 172.137 39.723
 c h
172.137 39.723 m f
0.94902 0.956863 0.968627 rg
66.207 145.656 m 26.484 145.656 l 22.828 145.656 19.863 142.691 19.863 
139.035 c 19.863 135.379 22.828 132.414 26.484 132.414 c 66.207 132.414 
l 69.863 132.414 72.828 135.379 72.828 139.035 c 72.828 142.691 69.863 145.656
 66.207 145.656 c h
66.207 145.656 m f
0.94902 0.537255 0.792157 rg
291.309 145.656 m 198.621 145.656 l 194.965 145.656 192 142.691 192 139.035
 c 192 135.379 194.965 132.414 198.621 132.414 c 291.309 132.414 l 294.969
 132.414 297.93 135.379 297.93 139.035 c 297.93 142.691 294.969 145.656 
291.309 145.656 c h
291.309 145.656 m f
1 0.803922 0.329412 rg
119.172 145.656 m 92.691 145.656 l 89.031 145.656 86.07 142.691 86.07 139.035
 c 86.07 135.379 89.031 132.414 92.691 132.414 c 119.172 132.414 l 122.828
 132.414 125.793 135.379 125.793 139.035 c 125.793 142.691 122.828 145.656
 119.172 145.656 c h
119.172 145.656 m f
0.670588 0.870588 0.384314 rg
172.137 145.656 m 145.656 145.656 l 142 145.656 139.035 142.691 139.035
 139.035 c 139.035 135.379 142 132.414 145.656 132.414 c 172.137 132.414
 l 175.793 132.414 178.758 135.379 178.758 139.035 c 178.758 142.691 175.793
 145.656 172.137 145.656 c h
172.137 145.656 m f
0.94902 0.956863 0.968627 rg
66.207 66.207 m 26.484 66.207 l 22.828 66.207 19.863 63.242 19.863 59.586
 c 19.863 55.93 22.828 52.965 26.484 52.965 c 66.207 52.965 l 69.863 52.965
 72.828 55.93 72.828 59.586 c 72.828 63.242 69.863 66.207 66.207 66.207 
c h
66.207 66.207 m f
0.94902 0.537255 0.792157 rg
211.863 66.207 m 172.137 66.207 l 168.48 66.207 165.516 63.242 165.516 
59.586 c 165.516 55.93 168.48 52.965 172.137 52.965 c 211.863 52.965 l 215.52
 52.965 218.484 55.93 218.484 59.586 c 218.484 63.242 215.52 66.207 211.863
 66.207 c h
211.863 66.207 m f
0.670588 0.870588 0.384314 rg
172.137 119.172 m 132.414 119.172 l 128.758 119.172 125.793 116.207 125.793
 112.551 c 125.793 108.895 128.758 105.93 132.414 105.93 c 172.137 105.93
 l 175.793 105.93 178.758 108.895 178.758 112.551 c 178.758 116.207 175.793
 119.172 172.137 119.172 c h
172.137 119.172 m f
1 0.803922 0.329412 rg
105.93 66.207 m 92.691 66.207 l 89.031 66.207 86.07 63.242 86.07 59.586
 c 86.07 55.93 89.031 52.965 92.691 52.965 c 105.93 52.965 l 109.586 52.965
 112.551 55.93 112.551 59.586 c 112.551 63.242 109.586 66.207 105.93 66.207
 c h
105.93 66.207 m f
0.670588 0.870588 0.384314 rg
145.656 66.207 m 132.414 66.207 l 128.758 66.207 125.793 63.242 125.793
 59.586 c 125.793 55.93 128.758 52.965 132.414 52.965 c 145.656 52.965 l
 149.312 52.965 152.277 55.93 152.277 59.586 c 152.277 63.242 149.312 66.207
 145.656 66.207 c h
145.656 66.207 m f
0.94902 0.956863 0.968627 rg
66.207 172.137 m 26.484 172.137 l 22.828 172.137 19.863 169.172 19.863 
165.516 c 19.863 161.859 22.828 158.898 26.484 158.898 c 66.207 158.898 
l 69.863 158.898 72.828 161.859 72.828 165.516 c 72.828 169.172 69.863 172.137
 66.207 172.137 c h
66.207 172.137 m f
0.94902 0.537255 0.792157 rg
264.828 172.137 m 172.137 172.137 l 168.48 172.137 165.516 169.172 165.516
 165.516 c 165.516 161.859 168.48 158.898 172.137 158.898 c 264.828 158.898
 l 268.484 158.898 271.449 161.859 271.449 165.516 c 271.449 169.172 268.484
 172.137 264.828 172.137 c h
264.828 172.137 m f
1 0.803922 0.329412 rg
105.93 172.137 m 92.691 172.137 l 89.031 172.137 86.07 169.172 86.07 165.516
 c 86.07 161.859 89.031 158.898 92.691 158.898 c 105.93 158.898 l 109.586
 158.898 112.551 161.859 112.551 165.516 c 112.551 169.172 109.586 172.137
 105.93 172.137 c h
105.93 172.137 m f
0.670588 0.870588 0.384314 rg
145.656 172.137 m 132.414 172.137 l 128.758 172.137 125.793 169.172 125.793
 165.516 c 125.793 161.859 128.758 158.898 132.414 158.898 c 145.656 158.898
 l 149.312 158.898 152.277 161.859 152.277 165.516 c 152.277 169.172 149.312
 172.137 145.656 172.137 c h
145.656 172.137 m f
0.94902 0.956863 0.968627 rg
66.207 92.691 m 26.484 92.691 l 22.828 92.691 19.863 89.727 19.863 86.07
 c 19.863 82.414 22.828 79.449 26.484 79.449 c 66.207 79.449 l 69.863 79.449
 72.828 82.414 72.828 86.07 c 72.828 89.727 69.863 92.691 66.207 92.691 
c h
66.207 92.691 m f
1 0.803922 0.329412 rg
105.93 92.691 m 92.691 92.691 l 89.031 92.691 86.07 89.727 86.07 86.07 
c 86.07 82.414 89.031 79.449 92.691 79.449 c 105.93 79.449 l 109.586 79.449
 112.551 82.414 112.551 86.07 c 112.551 89.727 109.586 92.691 105.93 92.691
 c h
105.93 92.691 m f
0.94902 0.956863 0.968627 rg
66.207 119.172 m 26.484 119.172 l 22.828 119.172 19.863 116.207 19.863 
112.551 c 19.863 108.895 22.828 105.93 26.484 105.93 c 66.207 105.93 l 69.863
 105.93 72.828 108.895 72.828 112.551 c 72.828 116.207 69.863 119.172 66.207
 119.172 c h
66.207 119.172 m f
1 0.803922 0.329412 rg
105.93 119.172 m 92.691 119.172 l 89.031 119.172 86.07 116.207 86.07 112.551
 c 86.07 108.895 89.031 105.93 92.691 105.93 c 105.93 105.93 l 109.586 105.93
 112.551 108.895 112.551 112.551 c 112.551 116.207 109.586 119.172 105.93
 119.172 c h
105.93 119.172 m f
0.670588 0.870588 0.384314 rg
172.137 218.484 m 132.414 218.484 l 128.758 218.484 125.793 215.52 125.793
 211.863 c 125.793 208.207 128.758 205.242 132.414 205.242 c 172.137 205.242
 l 175.793 205.242 178.758 208.207 178.758 211.863 c 178.758 215.52 175.793
 218.484 172.137 218.484 c h
172.137 218.484 m f
0.94902 0.956863 0.968627 rg
66.207 218.484 m 26.484 218.484 l 22.828 218.484 19.863 215.52 19.863 211.863
 c 19.863 208.207 22.828 205.242 26.484 205.242 c 66.207 205.242 l 69.863
 205.242 72.828 208.207 72.828 211.863 c 72.828 215.52 69.863 218.484 66.207
 218.484 c h
66.207 218.484 m f
1 0.803922 0.329412 rg
105.93 218.484 m 92.691 218.484 l 89.031 218.484 86.07 215.52 86.07 211.863
 c 86.07 208.207 89.031 205.242 92.691 205.242 c 105.93 205.242 l 109.586
 205.242 112.551 208.207 112.551 211.863 c 112.551 215.52 109.586 218.484
 105.93 218.484 c h
105.93 218.484 m f
0.670588 0.870588 0.384314 rg
145.656 92.691 m 132.414 92.691 l 128.758 92.691 125.793 89.727 125.793
 86.07 c 125.793 82.414 128.758 79.449 132.414 79.449 c 145.656 79.449 l
 149.312 79.449 152.277 82.414 152.277 86.07 c 152.277 89.727 149.312 92.691
 145.656 92.691 c h
145.656 92.691 m f
0.94902 0.537255 0.792157 rg
185.379 92.691 m 172.137 92.691 l 168.48 92.691 165.516 89.727 165.516 
86.07 c 165.516 82.414 168.48 79.449 172.137 79.449 c 185.379 79.449 l 189.035
 79.449 192 82.414 192 86.07 c 192 89.727 189.035 92.691 185.379 92.691 
c h
185.379 92.691 m f
0.94902 0.956863 0.968627 rg
225.102 92.691 m 211.863 92.691 l 208.207 92.691 205.242 89.727 205.242
 86.07 c 205.242 82.414 208.207 79.449 211.863 79.449 c 225.102 79.449 l
 228.762 79.449 231.723 82.414 231.723 86.07 c 231.723 89.727 228.762 92.691
 225.102 92.691 c h
225.102 92.691 m f
1 0.803922 0.329412 rg
264.828 92.691 m 251.586 92.691 l 247.93 92.691 244.965 89.727 244.965 
86.07 c 244.965 82.414 247.93 79.449 251.586 79.449 c 264.828 79.449 l 268.484
 79.449 271.449 82.414 271.449 86.07 c 271.449 89.727 268.484 92.691 264.828
 92.691 c h
264.828 92.691 m f
0.94902 0.956863 0.968627 rg
331.035 145.656 m 317.793 145.656 l 314.137 145.656 311.172 142.691 311.172
 139.035 c 311.172 135.379 314.137 132.414 317.793 132.414 c 331.035 132.414
 l 334.691 132.414 337.656 135.379 337.656 139.035 c 337.656 142.691 334.691
 145.656 331.035 145.656 c h
331.035 145.656 m f
Q Q
showpage
%%Trailer
end
%%EOF
