%!PS-Adobe-3.0 EPSF-3.0
%%Creator: cairo 1.16.0 (https://cairographics.org)
%%CreationDate: Fri Aug  2 09:46:46 2019
%%Pages: 1
%%DocumentData: Clean7Bit
%%LanguageLevel: 2
%%BoundingBox: 0 0 384 384
%%EndComments
%%BeginProlog
50 dict begin
/q { gsave } bind def
/Q { grestore } bind def
/cm { 6 array astore concat } bind def
/w { setlinewidth } bind def
/J { setlinecap } bind def
/j { setlinejoin } bind def
/M { setmiterlimit } bind def
/d { setdash } bind def
/m { moveto } bind def
/l { lineto } bind def
/c { curveto } bind def
/h { closepath } bind def
/re { exch dup neg 3 1 roll 5 3 roll moveto 0 rlineto
      0 exch rlineto 0 rlineto closepath } bind def
/S { stroke } bind def
/f { fill } bind def
/f* { eofill } bind def
/n { newpath } bind def
/W { clip } bind def
/W* { eoclip } bind def
/BT { } bind def
/ET { } bind def
/BDC { mark 3 1 roll /BDC pdfmark } bind def
/EMC { mark /EMC pdfmark } bind def
/cairo_store_point { /cairo_point_y exch def /cairo_point_x exch def } def
/Tj { show currentpoint cairo_store_point } bind def
/TJ {
  {
    dup
    type /stringtype eq
    { show } { -0.001 mul 0 cairo_font_matrix dtransform rmoveto } ifelse
  } forall
  currentpoint cairo_store_point
} bind def
/cairo_selectfont { cairo_font_matrix aload pop pop pop 0 0 6 array astore
    cairo_font exch selectfont cairo_point_x cairo_point_y moveto } bind def
/Tf { pop /cairo_font exch def /cairo_font_matrix where
      { pop cairo_selectfont } if } bind def
/Td { matrix translate cairo_font_matrix matrix concatmatrix dup
      /cairo_font_matrix exch def dup 4 get exch 5 get cairo_store_point
      /cairo_font where { pop cairo_selectfont } if } bind def
/Tm { 2 copy 8 2 roll 6 array astore /cairo_font_matrix exch def
      cairo_store_point /cairo_font where { pop cairo_selectfont } if } bind def
/g { setgray } bind def
/rg { setrgbcolor } bind def
/d1 { setcachedevice } bind def
/cairo_data_source {
  CairoDataIndex CairoData length lt
    { CairoData CairoDataIndex get /CairoDataIndex CairoDataIndex 1 add def }
    { () } ifelse
} def
/cairo_flush_ascii85_file { cairo_ascii85_file status { cairo_ascii85_file flushfile } if } def
/cairo_image { image cairo_flush_ascii85_file } def
/cairo_imagemask { imagemask cairo_flush_ascii85_file } def
%%EndProlog
%%BeginSetup
%%EndSetup
%%Page: 1 1
%%BeginPageSetup
%%PageBoundingBox: 0 0 384 384
%%EndPageSetup
q 0 0 384 384 rectclip
1 0 0 -1 0 384 cm q
0.807843 0.823529 0.862745 rg
384 52.965 m 384 357.516 l 384 372.145 372.145 384 357.516 384 c 26.484
 384 l 11.855 384 0 372.145 0 357.516 c 0 52.965 l 6.621 46.344 l 377.379
 46.344 l h
384 52.965 m f
0.156863 0.521569 0.933333 rg
384 26.484 m 384 52.965 l 0 52.965 l 0 26.484 l 0 11.855 11.855 0 26.484
 0 c 357.516 0 l 372.145 0 384 11.855 384 26.484 c h
384 26.484 m f
0.94902 0.537255 0.792157 rg
39.723 33.102 m 33.102 33.102 l 29.445 33.102 26.484 30.141 26.484 26.484
 c 26.484 22.828 29.445 19.863 33.102 19.863 c 39.723 19.863 l 43.379 19.863
 46.344 22.828 46.344 26.484 c 46.344 30.141 43.379 33.102 39.723 33.102
 c h
39.723 33.102 m f
1 0.803922 0.329412 rg
72.828 33.102 m 66.207 33.102 l 62.551 33.102 59.586 30.141 59.586 26.484
 c 59.586 22.828 62.551 19.863 66.207 19.863 c 72.828 19.863 l 76.484 19.863
 79.449 22.828 79.449 26.484 c 79.449 30.141 76.484 33.102 72.828 33.102
 c h
72.828 33.102 m f
0.572549 0.819608 0.286275 rg
105.93 33.102 m 99.309 33.102 l 95.652 33.102 92.691 30.141 92.691 26.484
 c 92.691 22.828 95.652 19.863 99.309 19.863 c 105.93 19.863 l 109.586 19.863
 112.551 22.828 112.551 26.484 c 112.551 30.141 109.586 33.102 105.93 33.102
 c h
105.93 33.102 m f
0.0352941 0.439216 0.870588 rg
350.898 33.102 m 344.277 33.102 l 340.621 33.102 337.656 30.141 337.656
 26.484 c 337.656 22.828 340.621 19.863 344.277 19.863 c 350.898 19.863 
l 354.555 19.863 357.516 22.828 357.516 26.484 c 357.516 30.141 354.555 
33.102 350.898 33.102 c h
350.898 33.102 m f
218.484 33.102 m 165.516 33.102 l 161.859 33.102 158.898 30.141 158.898
 26.484 c 158.898 22.828 161.859 19.863 165.516 19.863 c 218.484 19.863 
l 222.141 19.863 225.102 22.828 225.102 26.484 c 225.102 30.141 222.141 
33.102 218.484 33.102 c h
218.484 33.102 m f
0.156863 0.521569 0.933333 rg
192 99.309 m 188.789 99.309 186.043 97 185.484 93.836 c 184.93 90.672 186.727
 87.566 189.742 86.469 c 192.762 85.371 196.133 86.598 197.738 89.379 c 
199.621 92.422 203.582 93.418 206.684 91.629 c 209.781 89.84 210.895 85.91
 209.199 82.758 c 204.383 74.41 194.266 70.73 185.207 74.027 c 176.148 77.324
 170.766 86.645 172.438 96.141 c 174.113 105.633 182.359 112.551 192 112.551
 c 195.211 112.555 197.957 114.863 198.516 118.027 c 199.07 121.191 197.273
 124.297 194.258 125.395 c 191.238 126.492 187.867 125.266 186.262 122.484
 c 184.379 119.438 180.418 118.441 177.316 120.234 c 174.219 122.023 173.105
 125.953 174.801 129.102 c 179.617 137.449 189.734 141.133 198.793 137.836
 c 207.852 134.539 213.234 125.215 211.562 115.723 c 209.887 106.23 201.641
 99.309 192 99.309 c h
192 99.309 m f
244.965 99.309 m 241.754 99.309 239.008 97 238.449 93.836 c 237.895 90.672
 239.691 87.566 242.711 86.469 c 245.727 85.371 249.098 86.598 250.707 89.379
 c 252.59 92.422 256.551 93.418 259.648 91.629 c 262.746 89.84 263.863 85.91
 262.168 82.758 c 257.348 74.41 247.23 70.73 238.172 74.027 c 229.113 77.324
 223.73 86.645 225.406 96.141 c 227.078 105.633 235.328 112.551 244.965 
112.551 c 248.176 112.555 250.926 114.863 251.48 118.027 c 252.035 121.191
 250.242 124.297 247.223 125.395 c 244.203 126.492 240.832 125.266 239.227
 122.484 c 237.344 119.438 233.383 118.441 230.285 120.234 c 227.184 122.023
 226.07 125.953 227.766 129.102 c 232.586 137.449 242.703 141.133 251.758
 137.836 c 260.816 134.539 266.199 125.215 264.527 115.723 c 262.852 106.23
 254.605 99.309 244.965 99.309 c h
244.965 99.309 m f
135.723 86.07 m 140.445 86.066 144.512 89.391 145.457 94.016 c 146.188 
97.598 149.688 99.914 153.273 99.18 c 156.859 98.449 159.172 94.949 158.441
 91.367 c 156.086 79.684 145.254 71.691 133.395 72.887 c 121.539 74.086 
112.523 84.082 112.551 96 c 112.551 115.863 l 112.523 127.781 121.539 137.777
 133.395 138.973 c 145.254 140.172 156.086 132.18 158.441 120.496 c 159.172
 116.91 156.859 113.414 153.273 112.68 c 149.688 111.949 146.188 114.262
 145.457 117.848 c 144.441 122.848 139.801 126.266 134.727 125.754 c 129.648
 125.238 125.789 120.965 125.793 115.863 c 125.793 96 l 125.793 90.516 130.238
 86.07 135.723 86.07 c h
135.723 86.07 m f
0.533333 0.415686 0.870588 rg
132.414 185.379 m 112.551 185.379 l 108.895 185.379 105.93 188.344 105.93
 192 c 105.93 244.965 l 105.93 248.621 108.895 251.586 112.551 251.586 c
 116.207 251.586 119.172 248.621 119.172 244.965 c 119.172 225.102 l 132.414
 225.102 l 143.383 225.102 152.277 216.211 152.277 205.242 c 152.277 194.273
 143.383 185.379 132.414 185.379 c h
132.414 211.863 m 119.172 211.863 l 119.172 198.621 l 132.414 198.621 l
 136.07 198.621 139.035 201.586 139.035 205.242 c 139.035 208.898 136.07
 211.863 132.414 211.863 c h
132.414 211.863 m f
251.586 185.379 m 231.723 185.379 l 228.066 185.379 225.102 188.344 225.102
 192 c 225.102 244.965 l 225.102 248.621 228.066 251.586 231.723 251.586
 c 235.379 251.586 238.344 248.621 238.344 244.965 c 238.344 225.102 l 251.586
 225.102 l 262.555 225.102 271.449 216.211 271.449 205.242 c 271.449 194.273
 262.555 185.379 251.586 185.379 c h
251.586 211.863 m 238.344 211.863 l 238.344 198.621 l 251.586 198.621 l
 255.242 198.621 258.207 201.586 258.207 205.242 c 258.207 208.898 255.242
 211.863 251.586 211.863 c h
251.586 211.863 m f
205.242 185.379 m 201.586 185.379 198.621 188.344 198.621 192 c 198.621
 211.863 l 178.758 211.863 l 178.758 192 l 178.758 188.344 175.793 185.379
 172.137 185.379 c 168.48 185.379 165.516 188.344 165.516 192 c 165.516 
244.965 l 165.516 248.621 168.48 251.586 172.137 251.586 c 175.793 251.586
 178.758 248.621 178.758 244.965 c 178.758 225.102 l 198.621 225.102 l 198.621
 244.965 l 198.621 248.621 201.586 251.586 205.242 251.586 c 208.898 251.586
 211.863 248.621 211.863 244.965 c 211.863 192 l 211.863 188.344 208.898
 185.379 205.242 185.379 c h
205.242 185.379 m f
0.988235 0.639216 0.0862745 rg
218.484 324.414 m 215.27 324.41 212.523 322.102 211.969 318.938 c 211.414
 315.773 213.207 312.668 216.227 311.57 c 219.246 310.473 222.617 311.699
 224.223 314.484 c 226.105 317.527 230.066 318.523 233.164 316.73 c 236.266
 314.941 237.379 311.012 235.684 307.863 c 230.863 299.516 220.746 295.832
 211.688 299.129 c 202.633 302.426 197.246 311.75 198.922 321.242 c 200.598
 330.734 208.844 337.656 218.484 337.656 c 221.695 337.66 224.441 339.965
 224.996 343.129 c 225.555 346.293 223.758 349.398 220.738 350.496 c 217.719
 351.594 214.348 350.367 212.742 347.586 c 210.859 344.543 206.898 343.547
 203.801 345.336 c 200.703 347.125 199.586 351.055 201.281 354.207 c 206.102
 362.555 216.219 366.238 225.277 362.941 c 234.336 359.645 239.719 350.32
 238.043 340.828 c 236.371 331.336 228.121 324.414 218.484 324.414 c h
218.484 324.414 m f
185.379 297.93 m 145.656 297.93 l 142 297.93 139.035 300.895 139.035 304.551
 c 139.035 308.207 142 311.172 145.656 311.172 c 158.898 311.172 l 158.898
 344.277 l 158.898 347.934 155.934 350.898 152.277 350.898 c 148.621 350.898
 145.656 347.934 145.656 344.277 c 145.656 340.621 142.691 337.656 139.035
 337.656 c 135.379 337.656 132.414 340.621 132.414 344.277 c 132.414 355.246
 141.305 364.137 152.277 364.137 c 163.246 364.137 172.137 355.246 172.137
 344.277 c 172.137 311.172 l 185.379 311.172 l 189.035 311.172 192 308.207
 192 304.551 c 192 300.895 189.035 297.93 185.379 297.93 c h
185.379 297.93 m f
0.156863 0.521569 0.933333 rg
331.035 165.516 m 52.965 165.516 l 49.309 165.516 46.344 162.555 46.344
 158.898 c 46.344 155.238 49.309 152.277 52.965 152.277 c 331.035 152.277
 l 334.691 152.277 337.656 155.238 337.656 158.898 c 337.656 162.555 334.691
 165.516 331.035 165.516 c h
331.035 165.516 m f
0.533333 0.415686 0.870588 rg
331.035 284.691 m 52.965 284.691 l 49.309 284.691 46.344 281.727 46.344
 278.07 c 46.344 274.414 49.309 271.449 52.965 271.449 c 331.035 271.449
 l 334.691 271.449 337.656 274.414 337.656 278.07 c 337.656 281.727 334.691
 284.691 331.035 284.691 c h
331.035 284.691 m f
Q Q
showpage
%%Trailer
end
%%EOF
