<?xml version="1.0" encoding="iso-8859-1"?>
<!-- Generator: Adobe Illustrator 19.0.0, SVG Export Plug-In . SVG Version: 6.00 Build 0)  -->
<svg version="1.1" id="Capa_1" xmlns="http://www.w3.org/2000/svg" xmlns:xlink="http://www.w3.org/1999/xlink" x="0px" y="0px"
	 viewBox="0 0 512 512" style="enable-background:new 0 0 512 512;" xml:space="preserve">
<path style="fill:#F9B43A;" d="M455.063,446.611H199.258c-31.445,0-56.937-25.492-56.937-56.937V122.327
	c0-31.445,25.492-56.937,56.937-56.937h255.805c31.445,0,56.937,25.492,56.937,56.937v267.347
	C512,421.12,486.508,446.611,455.063,446.611z"/>
<g>
	<path style="fill:#F4A240;" d="M481.095,397.4c-4.268,0-7.726-3.458-7.726-7.726v-93.822c0-4.268,3.458-7.726,7.726-7.726
		c4.268,0,7.726,3.458,7.726,7.726v93.822C488.821,393.941,485.363,397.4,481.095,397.4z"/>
	<path style="fill:#F4A240;" d="M456.289,331.163c-4.268,0-7.726-3.458-7.726-7.726V208.052c0-4.268,3.458-7.726,7.726-7.726
		c4.268,0,7.726,3.458,7.726,7.726v115.384C464.015,327.705,460.556,331.163,456.289,331.163z"/>
</g>
<path style="fill:#FCD26D;" d="M368.445,446.611H112.64c-31.445,0-56.937-25.492-56.937-56.937V122.327
	c0-31.446,25.492-56.938,56.938-56.938h255.804c31.445,0,56.937,25.492,56.937,56.937v267.347
	C425.382,421.12,399.892,446.611,368.445,446.611z"/>
<path style="fill:#FFC73B;" d="M242.411,435.707c-10.954-13.664,0.908-33.688,18.201-30.924
	c88.881,14.208,138.05,0.572,164.77-15.736v-266.72c0-31.445-25.492-56.937-56.937-56.937H112.641
	c-31.446,0-56.938,25.492-56.938,56.938v267.346c0,31.445,25.492,56.937,56.937,56.937h157.792
	C256.071,446.61,247.459,442.003,242.411,435.707z"/>
<path style="fill:#FFDA8F;" d="M382.627,353.494H55.703V122.327c0-31.446,25.492-56.938,56.938-56.938h255.803
	c31.446,0,56.938,25.492,56.938,56.938v188.411C425.382,334.351,406.241,353.494,382.627,353.494z"/>
<path style="fill:#FFF5CC;" d="M343.751,287.512v-28.285c0-16.652-13.499-30.151-30.151-30.151H27.759
	C12.428,229.076,0,241.505,0,256.837v38.447c0,32.149,26.062,58.21,58.21,58.21h324.417
	C343.148,353.494,343.751,319.661,343.751,287.512z"/>
<path style="fill:#57565C;" d="M220.846,202.373l-29.824-18.778c-10.582-6.663-14.414-20.567-8.132-31.379
	c6.596-11.353,21.227-14.884,32.242-7.948l15.16,9.546c6.241,3.929,14.182,3.929,20.423,0l15.16-9.546
	c10.781-6.788,25.018-3.551,31.806,7.228c6.787,10.779,3.55,25.019-7.229,31.806l-30.291,19.073
	C248.149,209.938,232.86,209.938,220.846,202.373z"/>
<path style="fill:#FF737D;" d="M274.32,193.464c-4.352-11.036-17.82-19.082-33.769-19.082c-15.968,0-29.45,8.065-33.785,19.121
	l14.087,8.87c12.014,7.565,27.303,7.565,39.318,0L274.32,193.464z"/>
<g>
	<path style="fill:#57565C;" d="M323.633,156.755c-4.268,0-7.726-3.459-7.726-7.726v-12.826c0-4.267,3.458-7.726,7.726-7.726
		c4.268,0,7.726,3.459,7.726,7.726v12.826C331.36,153.296,327.901,156.755,323.633,156.755z"/>
	<path style="fill:#57565C;" d="M157.453,156.755c-4.268,0-7.726-3.459-7.726-7.726v-12.826c0-4.267,3.458-7.726,7.726-7.726
		c4.268,0,7.726,3.459,7.726,7.726v12.826C165.179,153.296,161.72,156.755,157.453,156.755z"/>
</g>
<g>
</g>
<g>
</g>
<g>
</g>
<g>
</g>
<g>
</g>
<g>
</g>
<g>
</g>
<g>
</g>
<g>
</g>
<g>
</g>
<g>
</g>
<g>
</g>
<g>
</g>
<g>
</g>
<g>
</g>
</svg>
