<?xml version="1.0" encoding="iso-8859-1"?>
<!-- Generator: Adobe Illustrator 19.0.0, SVG Export Plug-In . SVG Version: 6.00 Build 0)  -->
<svg version="1.1" id="Capa_1" xmlns="http://www.w3.org/2000/svg" xmlns:xlink="http://www.w3.org/1999/xlink" x="0px" y="0px"
	 viewBox="0 0 512 512" style="enable-background:new 0 0 512 512;" xml:space="preserve">
<path style="fill:#D6A085;" d="M395.461,512H126.759c-27.623,0-50.015-22.393-50.015-50.015V60.916
	c0-27.623,22.393-50.015,50.015-50.015h268.702c27.623,0,50.016,22.393,50.016,50.015v401.069
	C445.477,489.607,423.084,512,395.461,512z"/>
<path style="fill:#C68D6D;" d="M395.461,512c27.623,0,50.016-22.393,50.016-50.016v-30.405
	c-56.438-36.334-135.393-27.43-135.393-27.43H76.743v57.834c0,27.623,22.393,50.016,50.016,50.016L395.461,512L395.461,512z"/>
<path style="fill:#CAE7FC;" d="M140.876,476.527c-15.829,0-28.661-12.832-28.661-28.661V75.033
	c0-15.829,12.832-28.661,28.661-28.661h240.467c15.829,0,28.661,12.832,28.661,28.661v372.834c0,15.829-12.831,28.66-28.66,28.66
	H140.876z"/>
<path style="fill:#94CBED;" d="M140.876,476.527h240.468c15.829,0,28.66-12.831,28.66-28.66V261.451c0,0-1.547,142.7-120.832,142.7
	H112.216v43.717C112.216,463.695,125.048,476.527,140.876,476.527z"/>
<path style="fill:#E9F6FF;" d="M289.172,404.149L289.172,404.149c0-6.675,0.917-13.144,2.631-19.29
	c4.348-15.595-7.164-31.074-23.354-31.074H103.602c-12.356,0-23.744,6.875-29.328,17.897c-4.954,9.776-7.751,20.809-7.751,32.466
	l0,0c0,39.807,32.569,72.377,72.377,72.377h222.649C321.742,476.527,289.172,443.958,289.172,404.149z"/>
<path style="fill:#CAE7FC;" d="M138.9,476.527h222.649c-39.807,0-72.377-32.569-72.377-72.377H66.523
	C66.523,443.958,99.093,476.527,138.9,476.527z"/>
<path style="fill:#57565C;" d="M241.413,223.626l-29.824-18.778c-10.582-6.663-14.414-20.567-8.132-31.379
	c6.596-11.353,21.227-14.884,32.242-7.948l15.16,9.546c6.241,3.929,14.182,3.929,20.423,0l15.16-9.546
	c10.781-6.788,25.018-3.551,31.806,7.228c6.787,10.779,3.55,25.019-7.229,31.806l-30.291,19.073
	C268.716,231.19,253.427,231.19,241.413,223.626z"/>
<path style="fill:#FF737D;" d="M294.887,214.715c-4.352-11.036-17.82-19.082-33.769-19.082c-15.968,0-29.45,8.065-33.785,19.121
	l14.087,8.87c12.014,7.565,27.303,7.565,39.318,0L294.887,214.715z"/>
<g>
	<path style="fill:#57565C;" d="M344.201,178.008c-4.268,0-7.726-3.459-7.726-7.726v-12.826c0-4.267,3.458-7.726,7.726-7.726
		c4.268,0,7.726,3.459,7.726,7.726v12.826C351.927,174.549,348.468,178.008,344.201,178.008z"/>
	<path style="fill:#57565C;" d="M178.019,178.008c-4.268,0-7.726-3.459-7.726-7.726v-12.826c0-4.267,3.458-7.726,7.726-7.726
		s7.726,3.459,7.726,7.726v12.826C185.746,174.549,182.287,178.008,178.019,178.008z"/>
</g>
<path style="fill:#FFDA8F;" d="M288.95,59.446h-55.68c-11.672,0-21.134-9.462-21.134-21.134V21.134
	C212.136,9.462,221.598,0,233.27,0h55.68c11.672,0,21.134,9.462,21.134,21.134v17.177C310.085,49.983,300.622,59.446,288.95,59.446z
	"/>
<path style="fill:#FCD26D;" d="M288.95,0h-33.777c11.672,0,21.134,9.462,21.134,21.134v17.177c0,11.672-9.462,21.134-21.134,21.134
	h33.777c11.672,0,21.134-9.462,21.134-21.134V21.134C310.085,9.462,300.622,0,288.95,0z"/>
<g>
</g>
<g>
</g>
<g>
</g>
<g>
</g>
<g>
</g>
<g>
</g>
<g>
</g>
<g>
</g>
<g>
</g>
<g>
</g>
<g>
</g>
<g>
</g>
<g>
</g>
<g>
</g>
<g>
</g>
</svg>
