<?xml version="1.0" encoding="iso-8859-1"?>
<!-- Generator: Adobe Illustrator 19.0.0, SVG Export Plug-In . SVG Version: 6.00 Build 0)  -->
<svg version="1.1" id="Capa_1" xmlns="http://www.w3.org/2000/svg" xmlns:xlink="http://www.w3.org/1999/xlink" x="0px" y="0px"
	 viewBox="0 0 512 512" style="enable-background:new 0 0 512 512;" xml:space="preserve">
<path style="fill:#FFDA8F;" d="M102.706,151.417l28.146,302.255C133.929,486.726,161.667,512,194.863,512h122.274
	c33.197,0,60.934-25.274,64.011-58.328l28.146-302.255L102.706,151.417L102.706,151.417z"/>
<path style="fill:#FCD26D;" d="M228.85,319.505c1.104-38.41,22.736-73.268,56.631-91.371l45.884-24.507v-52.212H102.706
	l28.146,302.255C133.929,486.726,161.667,512,194.863,512h105.454C234.349,507.157,226.716,393.736,228.85,319.505z"/>
<polygon style="fill:#C68D6D;" points="382.982,433.994 397.923,273.538 114.078,273.538 129.019,433.994 "/>
<path style="fill:#B2785B;" d="M240.728,273.538h-126.65l14.941,160.456h108.159c-8.19-36.689-9.324-79.853-8.328-114.488
	C229.319,303.205,233.496,287.55,240.728,273.538z"/>
<path style="fill:#57565C;" d="M236.303,390.968L206.48,372.19c-10.582-6.663-14.414-20.567-8.132-31.379
	c6.596-11.353,21.227-14.884,32.242-7.948l15.16,9.546c6.241,3.929,14.182,3.929,20.423,0l15.16-9.546
	c10.781-6.788,25.018-3.551,31.806,7.228c6.787,10.779,3.55,25.019-7.229,31.806l-30.291,19.073
	C263.606,398.533,248.317,398.533,236.303,390.968z"/>
<path style="fill:#FF737D;" d="M289.777,382.058c-4.352-11.036-17.82-19.082-33.769-19.082c-15.968,0-29.45,8.065-33.785,19.121
	l14.087,8.87c12.014,7.565,27.303,7.565,39.318,0L289.777,382.058z"/>
<g>
	<path style="fill:#57565C;" d="M339.091,345.351c-4.268,0-7.726-3.459-7.726-7.726v-12.826c0-4.267,3.458-7.726,7.726-7.726
		c4.268,0,7.726,3.459,7.726,7.726v12.826C346.817,341.891,343.359,345.351,339.091,345.351z"/>
	<path style="fill:#57565C;" d="M172.91,345.351c-4.268,0-7.726-3.459-7.726-7.726v-12.826c0-4.267,3.458-7.726,7.726-7.726
		c4.268,0,7.726,3.459,7.726,7.726v12.826C180.637,341.891,177.177,345.351,172.91,345.351z"/>
</g>
<path style="fill:#B2785B;" d="M332.839,0H179.162c-28.614,0-53.112,20.515-58.135,48.685l-18.321,102.732h306.588l-18.32-102.732
	C385.951,20.515,361.454,0,332.839,0z"/>
<g>
	<path style="fill:#935B45;" d="M292.547,0H179.162c-28.614,0-53.112,20.515-58.135,48.685l-18.321,102.732h113.386l18.32-102.732
		C239.436,20.515,263.933,0,292.547,0z"/>
	<path style="fill:#935B45;" d="M256,65.308L256,65.308c21.95,0,39.909-17.959,39.909-39.909V0h-79.817v25.399
		C216.092,47.349,234.05,65.308,256,65.308z"/>
</g>
<path style="fill:#774839;" d="M292.547,0h-76.456v25.399c0,13.307,6.607,25.137,16.695,32.399l1.626-9.113
	C239.436,20.515,263.933,0,292.547,0z"/>
<path style="fill:#C68D6D;" d="M403.64,203.629H108.361c-28.716,0-52.212-23.495-52.212-52.212l0,0
	c0-28.716,23.495-52.212,52.212-52.212h295.278c28.716,0,52.212,23.495,52.212,52.212l0,0
	C455.85,180.133,432.356,203.629,403.64,203.629z"/>
<path style="fill:#B2785B;" d="M187.451,151.417L187.451,151.417c0-28.716,23.495-52.212,52.212-52.212H108.361
	c-28.716,0-52.212,23.495-52.212,52.212l0,0c0,28.716,23.495,52.212,52.212,52.212h131.301
	C210.946,203.629,187.451,180.133,187.451,151.417z"/>
<g>
</g>
<g>
</g>
<g>
</g>
<g>
</g>
<g>
</g>
<g>
</g>
<g>
</g>
<g>
</g>
<g>
</g>
<g>
</g>
<g>
</g>
<g>
</g>
<g>
</g>
<g>
</g>
<g>
</g>
</svg>
