<?xml version="1.0" encoding="iso-8859-1"?>
<!-- Generator: Adobe Illustrator 19.0.0, SVG Export Plug-In . SVG Version: 6.00 Build 0)  -->
<svg version="1.1" id="Capa_1" xmlns="http://www.w3.org/2000/svg" xmlns:xlink="http://www.w3.org/1999/xlink" x="0px" y="0px"
	 viewBox="0 0 512 512" style="enable-background:new 0 0 512 512;" xml:space="preserve">
<path style="fill:#FFC73B;" d="M44.266,311.044h343.643V60.109H84.557c-22.252,0-40.291,18.038-40.291,40.291V311.044z"/>
<path style="fill:#F9B43A;" d="M387.91,60.109h-260.11c-21.41,45.354-42.234,123.764-32.378,250.935H387.91V60.109z"/>
<path style="fill:#FFDA8F;" d="M295.699,76.197l-11.053,24.124c-7.609,16.607-24.199,27.253-42.465,27.253H40.291
	C18.038,127.575,0,145.614,0,167.866v264.718c0,22.253,18.039,40.292,40.292,40.292h431.415c22.253,0,40.292-18.039,40.292-40.292
	V79.416c0-22.253-18.039-40.292-40.292-40.292H353.466C328.618,39.123,306.049,53.608,295.699,76.197z"/>
<path style="fill:#FCD26D;" d="M209.212,281.713c3.013-38.927,31.543-70.738,69.75-78.777
	c88.318-18.58,122.739-115.892,134.486-163.813h-59.982c-24.848,0-47.417,14.484-57.767,37.074l-11.053,24.124
	c-7.609,16.607-24.199,27.253-42.465,27.253H40.291C18.038,127.575,0,145.614,0,167.866v264.718
	c0,22.253,18.039,40.292,40.292,40.292h249.485C212.963,438.224,204.074,348.097,209.212,281.713z"/>
<path style="fill:#57565C;" d="M236.303,294.232l-29.824-18.778c-10.582-6.663-14.414-20.567-8.132-31.379
	c6.596-11.353,21.227-14.884,32.242-7.948l15.16,9.546c6.241,3.929,14.183,3.929,20.423,0l15.16-9.546
	c10.781-6.788,25.018-3.551,31.806,7.228c6.787,10.779,3.55,25.019-7.229,31.806l-30.291,19.073
	C263.606,301.797,248.317,301.797,236.303,294.232z"/>
<path style="fill:#FF737D;" d="M289.778,285.323c-4.351-11.036-17.82-19.082-33.769-19.082c-15.968,0-29.45,8.065-33.785,19.121
	l14.087,8.87c12.014,7.565,27.303,7.565,39.318,0L289.778,285.323z"/>
<g>
	<path style="fill:#57565C;" d="M339.09,248.615c-4.268,0-7.726-3.459-7.726-7.726v-12.826c0-4.267,3.458-7.726,7.726-7.726
		c4.268,0,7.726,3.459,7.726,7.726v12.826C346.817,245.155,343.358,248.615,339.09,248.615z"/>
	<path style="fill:#57565C;" d="M172.91,248.615c-4.268,0-7.726-3.459-7.726-7.726v-12.826c0-4.267,3.458-7.726,7.726-7.726
		c4.268,0,7.726,3.459,7.726,7.726v12.826C180.636,245.155,177.178,248.615,172.91,248.615z"/>
</g>
<g>
	<path style="fill:#E9F6FF;" d="M145.541,277.325h-20.516c-6.712,0-12.204-5.492-12.204-12.204l0,0
		c0-6.712,5.492-12.204,12.204-12.204h20.516c6.712,0,12.204,5.492,12.204,12.204l0,0
		C157.744,271.833,152.253,277.325,145.541,277.325z"/>
	<path style="fill:#E9F6FF;" d="M386.976,277.325H366.46c-6.712,0-12.204-5.492-12.204-12.204l0,0
		c0-6.712,5.492-12.204,12.204-12.204h20.516c6.712,0,12.204,5.492,12.204,12.204l0,0
		C399.18,271.833,393.688,277.325,386.976,277.325z"/>
</g>
<g>
</g>
<g>
</g>
<g>
</g>
<g>
</g>
<g>
</g>
<g>
</g>
<g>
</g>
<g>
</g>
<g>
</g>
<g>
</g>
<g>
</g>
<g>
</g>
<g>
</g>
<g>
</g>
<g>
</g>
</svg>
