<?xml version="1.0" encoding="iso-8859-1"?>
<!-- Generator: Adobe Illustrator 19.0.0, SVG Export Plug-In . SVG Version: 6.00 Build 0)  -->
<svg version="1.1" id="Capa_1" xmlns="http://www.w3.org/2000/svg" xmlns:xlink="http://www.w3.org/1999/xlink" x="0px" y="0px"
	 viewBox="0 0 512 512" style="enable-background:new 0 0 512 512;" xml:space="preserve">
<path style="fill:#CAE7FC;" d="M340.263,503.012l-42.034-52.536c0.281-0.229,28.39-23.307,48.613-62.803
	c25.946-50.675,27.527-104.633,4.701-160.38c-23.484-57.349-56.878-90.271-99.256-97.851c-30.041-5.375-54.65,3.934-54.885,4.031
	l-25.558-62.241c4.26-1.748,43.04-16.832,92.291-8.023c45.742,8.183,108.84,38.869,149.674,138.586
	c38.684,94.469,16.706,171.433-8.542,219.364C378.276,472.396,341.803,501.786,340.263,503.012z"/>
<circle style="fill:#FFDA8F;" cx="169.351" cy="217.049" r="57.294"/>
<path style="fill:#FCD26D;" d="M181.714,273.001c25.7-5.653,44.931-28.559,44.931-55.956c0-31.642-25.652-57.294-57.294-57.294
	s-57.294,25.652-57.294,57.294c0,2.523,0.162,4.996,0.478,7.433C117.93,225.587,166.075,236.465,181.714,273.001z"/>
<path style="fill:#787680;" d="M263.426,427.12L263.426,427.12c-11.282,0-20.513-9.23-20.513-20.513v-22.634
	c0-11.281,9.23-20.513,20.513-20.513l0,0c11.281,0,20.513,9.23,20.513,20.513v22.634C283.939,417.89,274.709,427.12,263.426,427.12z
	"/>
<path style="fill:#999FED;" d="M458.648,512H179.962v-68.943c0-23.647,19.17-42.815,42.815-42.815h193.056
	c23.647,0,42.815,19.17,42.815,42.815V512z"/>
<path style="fill:#7C84E8;" d="M415.833,400.242H315.609c23.647,0,42.815,19.17,42.815,42.815V512h100.224v-68.942
	C458.648,419.411,439.48,400.242,415.833,400.242z"/>
<path style="fill:#787680;" d="M469.258,512H169.352c-12.838,0-23.342-10.504-23.342-23.342l0,0
	c0-12.838,10.504-23.342,23.342-23.342h299.907c12.838,0,23.342,10.504,23.342,23.342l0,0C492.6,501.496,482.096,512,469.258,512z"
	/>
<path style="fill:#57565C;" d="M469.258,465.316H335.076c12.838,0,23.342,10.504,23.342,23.342
	c0,12.838-10.504,23.342-23.342,23.342h134.182c12.838,0,23.342-10.504,23.342-23.342C492.6,475.82,482.096,465.316,469.258,465.316
	z"/>
<path style="fill:#C4C8F5;" d="M319.305,186.251v-36.297C319.305,67.479,251.826,0,169.352,0l0,0
	C86.878,0,19.399,67.479,19.399,149.953v36.297c0,21.06,17.072,38.132,38.132,38.132h223.642
	C302.233,224.384,319.305,207.311,319.305,186.251z"/>
<path style="fill:#A7ADF0;" d="M169.352,0L169.352,0c-17.696,0-34.718,3.112-50.515,8.807
	c57.826,20.847,99.476,76.368,99.476,141.146v36.297c0,21.06-17.072,38.132-38.132,38.132h100.991
	c21.06,0,38.132-17.072,38.132-38.132v-36.297C319.305,67.479,251.826,0,169.352,0z"/>
<path style="fill:#57565C;" d="M149.655,182.654l-29.824-18.778c-10.582-6.663-14.414-20.567-8.132-31.379
	c6.596-11.353,21.227-14.884,32.242-7.948l15.16,9.546c6.241,3.929,14.182,3.929,20.423,0l15.16-9.546
	c10.781-6.788,25.018-3.551,31.806,7.228c6.787,10.779,3.55,25.019-7.229,31.806l-30.291,19.073
	C176.958,190.219,161.669,190.219,149.655,182.654z"/>
<path style="fill:#FF737D;" d="M203.129,173.745c-4.351-11.036-17.82-19.082-33.769-19.082c-15.968,0-29.45,8.065-33.785,19.121
	l14.087,8.87c12.014,7.565,27.303,7.565,39.318,0L203.129,173.745z"/>
<g>
	<path style="fill:#57565C;" d="M252.442,137.038c-4.268,0-7.726-3.459-7.726-7.726v-12.826c0-4.267,3.458-7.726,7.726-7.726
		c4.268,0,7.726,3.459,7.726,7.726v12.826C260.169,133.578,256.71,137.038,252.442,137.038z"/>
	<path style="fill:#57565C;" d="M86.262,137.038c-4.268,0-7.726-3.459-7.726-7.726v-12.826c0-4.267,3.458-7.726,7.726-7.726
		s7.726,3.459,7.726,7.726v12.826C93.988,133.578,90.529,137.038,86.262,137.038z"/>
</g>
<g>
</g>
<g>
</g>
<g>
</g>
<g>
</g>
<g>
</g>
<g>
</g>
<g>
</g>
<g>
</g>
<g>
</g>
<g>
</g>
<g>
</g>
<g>
</g>
<g>
</g>
<g>
</g>
<g>
</g>
</svg>
