<?xml version="1.0" encoding="iso-8859-1"?>
<!-- Generator: Adobe Illustrator 19.0.0, SVG Export Plug-In . SVG Version: 6.00 Build 0)  -->
<svg version="1.1" id="Capa_1" xmlns="http://www.w3.org/2000/svg" xmlns:xlink="http://www.w3.org/1999/xlink" x="0px" y="0px"
	 viewBox="0 0 512 512" style="enable-background:new 0 0 512 512;" xml:space="preserve">
<path style="fill:#B3DBF4;" d="M0,136.499v241.134c0,37.399,30.317,67.716,67.716,67.716h376.568
	c37.399,0,67.716-30.317,67.716-67.716V136.499H0z"/>
<path style="fill:#94CBED;" d="M0,134.181v243.452c0,37.399,30.317,67.716,67.716,67.716h112.92
	c-29.208,0-38.307-13.651-38.991-29.565c-1.011-23.495,24.82-38.598,45.121-26.726c92.529,54.11,160.051-22.179,160.051-22.179
	L512,206.649v-72.468H0z"/>
<path style="fill:#CAE7FC;" d="M444.284,445.349H67.716c-21.803,0-41.185-10.315-53.569-26.318l208.456-177.689
	c19.244-16.404,47.551-16.404,66.796,0l208.456,177.689C485.469,435.034,466.086,445.349,444.284,445.349z"/>
<path style="fill:#B3DBF4;" d="M141.645,415.783c-1.011-23.495,24.82-38.598,45.121-26.726
	c92.529,54.11,160.051-22.179,160.051-22.179l42.028-40.767l-99.448-84.769c-19.244-16.404-47.552-16.404-66.796,0L14.146,419.031
	c12.386,16.004,31.768,26.318,53.569,26.318h112.92C151.428,445.349,142.329,431.698,141.645,415.783z"/>
<path style="fill:#E9F6FF;" d="M444.284,66.651H67.716C30.317,66.651,0,96.968,0,134.367c0,0,157.046,177.632,256,177.632
	s256-177.632,256-177.632C512,96.968,481.683,66.651,444.284,66.651z"/>
<path style="fill:#CAE7FC;" d="M0,134.367c0,0,157.046,177.632,256,177.632c17.208,0,36.18-5.375,55.77-14.25
	C120.823,246.266,100.702,66.651,100.702,66.651H67.716C30.317,66.651,0,96.968,0,134.367z"/>
<path style="fill:#57565C;" d="M236.303,232.301l-29.824-18.778c-10.582-6.663-14.414-20.567-8.132-31.379
	c6.596-11.353,21.227-14.884,32.242-7.948l15.16,9.546c6.241,3.929,14.183,3.929,20.423,0l15.16-9.546
	c10.781-6.788,25.018-3.551,31.806,7.228c6.787,10.779,3.55,25.019-7.229,31.806l-30.291,19.073
	C263.606,239.866,248.317,239.866,236.303,232.301z"/>
<path style="fill:#FF737D;" d="M289.777,223.392c-4.351-11.036-17.82-19.082-33.769-19.082c-15.968,0-29.45,8.065-33.785,19.121
	l14.087,8.87c12.014,7.565,27.303,7.565,39.318,0L289.777,223.392z"/>
<g>
	<path style="fill:#57565C;" d="M339.09,186.684c-4.268,0-7.726-3.459-7.726-7.726v-12.826c0-4.267,3.458-7.726,7.726-7.726
		c4.268,0,7.726,3.459,7.726,7.726v12.826C346.817,183.225,343.358,186.684,339.09,186.684z"/>
	<path style="fill:#57565C;" d="M172.91,186.684c-4.268,0-7.726-3.459-7.726-7.726v-12.826c0-4.267,3.458-7.726,7.726-7.726
		c4.268,0,7.726,3.459,7.726,7.726v12.826C180.636,183.225,177.177,186.684,172.91,186.684z"/>
</g>
<g>
</g>
<g>
</g>
<g>
</g>
<g>
</g>
<g>
</g>
<g>
</g>
<g>
</g>
<g>
</g>
<g>
</g>
<g>
</g>
<g>
</g>
<g>
</g>
<g>
</g>
<g>
</g>
<g>
</g>
</svg>
