<?xml version="1.0" encoding="iso-8859-1"?>
<!-- Generator: Adobe Illustrator 19.0.0, SVG Export Plug-In . SVG Version: 6.00 Build 0)  -->
<svg version="1.1" id="Capa_1" xmlns="http://www.w3.org/2000/svg" xmlns:xlink="http://www.w3.org/1999/xlink" x="0px" y="0px"
	 viewBox="0 0 512.001 512.001" style="enable-background:new 0 0 512.001 512.001;" xml:space="preserve">
<path style="fill:#CAE7FC;" d="M256.002,512.001L256.002,512.001c-13.179,0-23.961-10.783-23.961-23.961V340.815
	c0-13.179,10.783-23.961,23.961-23.961l0,0c13.179,0,23.961,10.783,23.961,23.961V488.04
	C279.963,501.218,269.181,512.001,256.002,512.001z"/>
<path style="fill:#94CBED;" d="M256.002,316.853L256.002,316.853c-13.179,0-23.961,10.783-23.961,23.961v108.798l47.923-28.033
	v-80.765C279.963,327.636,269.181,316.853,256.002,316.853z"/>
<path style="fill:#5DC979;" d="M354.956,177.589V79.915H157.047v97.673c0,28.286-12.979,55.008-35.213,72.494l-20.243,15.921
	c-20.972,16.495-33.216,41.702-33.216,68.384v30.078c0,21.677,17.573,39.249,39.249,39.249h296.752
	c21.677,0,39.249-17.573,39.249-39.249v-30.078c0-26.682-12.244-51.889-33.216-68.384l-20.243-15.921
	C367.935,232.595,354.956,205.874,354.956,177.589z"/>
<path style="fill:#2CAF79;" d="M228.521,243.893c13.679-40.739,44.464-73.474,84.156-89.944l42.279-17.544v-56.49H157.048v97.673
	c0,28.286-12.979,55.008-35.213,72.494l-20.243,15.921c-20.972,16.495-33.216,41.702-33.216,68.384v30.078
	c0,21.677,17.573,39.249,39.249,39.249h148.377C194.455,384.426,208.514,303.48,228.521,243.893z"/>
<g>
	<path style="fill:#57565C;" d="M339.093,324.351c-4.268,0-7.726-3.459-7.726-7.726v-12.827c0-4.267,3.458-7.726,7.726-7.726
		s7.726,3.459,7.726,7.726v12.827C346.819,320.892,343.36,324.351,339.093,324.351z"/>
	<path style="fill:#57565C;" d="M172.91,324.351c-4.268,0-7.726-3.459-7.726-7.726v-12.827c0-4.267,3.458-7.726,7.726-7.726
		c4.268,0,7.726,3.459,7.726,7.726v12.827C180.637,320.892,177.178,324.351,172.91,324.351z"/>
	<path style="fill:#57565C;" d="M256.002,332.441c-10,0-20-3.236-28.344-9.708c-3.372-2.616-3.985-7.469-1.369-10.841
		c2.614-3.373,7.469-3.986,10.84-1.37c11.113,8.62,26.634,8.62,37.747,0c3.37-2.616,8.225-2.003,10.84,1.37
		c2.616,3.372,2.003,8.225-1.369,10.841C276.001,329.206,266.001,332.441,256.002,332.441z"/>
</g>
<path style="fill:#7BDB98;" d="M377.245,124.034H134.758c-34.109,0-62.017-27.908-62.017-62.017l0,0
	C72.742,27.908,100.649,0,134.758,0h242.486c34.109,0,62.017,27.908,62.017,62.017l0,0
	C439.261,96.127,411.354,124.034,377.245,124.034z"/>
<path style="fill:#5DC979;" d="M191.691,62.018L191.691,62.018c0-34.109,27.908-62.017,62.017-62.017h-118.95
	c-34.109,0-62.017,27.908-62.017,62.017l0,0c0,34.109,27.908,62.017,62.017,62.017h118.95
	C219.599,124.034,191.691,96.127,191.691,62.018z"/>
<g>
</g>
<g>
</g>
<g>
</g>
<g>
</g>
<g>
</g>
<g>
</g>
<g>
</g>
<g>
</g>
<g>
</g>
<g>
</g>
<g>
</g>
<g>
</g>
<g>
</g>
<g>
</g>
<g>
</g>
</svg>
