<?xml version="1.0" encoding="iso-8859-1"?>
<!-- Generator: Adobe Illustrator 19.0.0, SVG Export Plug-In . SVG Version: 6.00 Build 0)  -->
<svg version="1.1" id="Capa_1" xmlns="http://www.w3.org/2000/svg" xmlns:xlink="http://www.w3.org/1999/xlink" x="0px" y="0px"
	 viewBox="0 0 512.001 512.001" style="enable-background:new 0 0 512.001 512.001;" xml:space="preserve">
<path style="fill:#FFDAAA;" d="M292.773,0h-73.546c-17.036,0-30.847,13.811-30.847,30.847v450.308
	c0,17.036,13.811,30.847,30.847,30.847h73.546c17.036,0,30.847-13.811,30.847-30.847V30.847C323.62,13.811,309.809,0,292.773,0z
	 M256.001,479.988c-13.467,0-24.383-10.917-24.383-24.383s10.917-24.383,24.383-24.383c13.467,0,24.383,10.917,24.383,24.383
	S269.468,479.988,256.001,479.988z"/>
<path style="fill:#FFC477;" d="M323.62,46.331h-42.77c-13.724,0-24.849,11.125-24.849,24.849v300.808
	c0,13.723,11.125,24.849,24.849,24.849h42.77V46.331z"/>
<path style="fill:#FFB655;" d="M289.811,371.988V71.179c0-13.724,11.125-24.849,24.849-24.849h-33.81
	c-13.723,0-24.849,11.125-24.849,24.849v300.809c0,13.724,11.125,24.849,24.849,24.849h33.81
	C300.935,396.836,289.811,385.711,289.811,371.988z"/>
<g>
	<path style="fill:#787680;" d="M287.361,80.593c-4.267,0-7.726,3.459-7.726,7.726c0,4.267,3.459,7.726,7.726,7.726h36.259V80.593
		H287.361z"/>
	<path style="fill:#787680;" d="M302.925,125.015c-4.267,0-7.726,3.459-7.726,7.726c0,4.267,3.459,7.726,7.726,7.726h20.695v-15.453
		C323.62,125.015,302.925,125.015,302.925,125.015z"/>
	<path style="fill:#787680;" d="M287.361,169.436c-4.267,0-7.726,3.459-7.726,7.726c0,4.267,3.459,7.726,7.726,7.726h36.259v-15.453
		H287.361z"/>
	<path style="fill:#787680;" d="M302.925,213.857c-4.267,0-7.726,3.459-7.726,7.726c0,4.267,3.459,7.726,7.726,7.726h20.695v-15.453
		H302.925z"/>
	<path style="fill:#787680;" d="M287.361,258.279c-4.267,0-7.726,3.459-7.726,7.726c0,4.267,3.459,7.726,7.726,7.726h36.259v-15.453
		H287.361z"/>
	<path style="fill:#787680;" d="M302.925,302.7c-4.267,0-7.726,3.459-7.726,7.726s3.459,7.726,7.726,7.726h20.695V302.7H302.925z"/>
	<path style="fill:#787680;" d="M287.361,347.122c-4.267,0-7.726,3.459-7.726,7.726c0,4.267,3.459,7.726,7.726,7.726h36.259v-15.453
		H287.361z"/>
</g>
<g>
</g>
<g>
</g>
<g>
</g>
<g>
</g>
<g>
</g>
<g>
</g>
<g>
</g>
<g>
</g>
<g>
</g>
<g>
</g>
<g>
</g>
<g>
</g>
<g>
</g>
<g>
</g>
<g>
</g>
</svg>
