%!PS-Adobe-3.0 EPSF-3.0
%%Creator: cairo 1.16.0 (https://cairographics.org)
%%CreationDate: Mon Jul 22 07:30:32 2019
%%Pages: 1
%%DocumentData: Clean7Bit
%%LanguageLevel: 2
%%BoundingBox: 33 0 351 384
%%EndComments
%%BeginProlog
50 dict begin
/q { gsave } bind def
/Q { grestore } bind def
/cm { 6 array astore concat } bind def
/w { setlinewidth } bind def
/J { setlinecap } bind def
/j { setlinejoin } bind def
/M { setmiterlimit } bind def
/d { setdash } bind def
/m { moveto } bind def
/l { lineto } bind def
/c { curveto } bind def
/h { closepath } bind def
/re { exch dup neg 3 1 roll 5 3 roll moveto 0 rlineto
      0 exch rlineto 0 rlineto closepath } bind def
/S { stroke } bind def
/f { fill } bind def
/f* { eofill } bind def
/n { newpath } bind def
/W { clip } bind def
/W* { eoclip } bind def
/BT { } bind def
/ET { } bind def
/BDC { mark 3 1 roll /BDC pdfmark } bind def
/EMC { mark /EMC pdfmark } bind def
/cairo_store_point { /cairo_point_y exch def /cairo_point_x exch def } def
/Tj { show currentpoint cairo_store_point } bind def
/TJ {
  {
    dup
    type /stringtype eq
    { show } { -0.001 mul 0 cairo_font_matrix dtransform rmoveto } ifelse
  } forall
  currentpoint cairo_store_point
} bind def
/cairo_selectfont { cairo_font_matrix aload pop pop pop 0 0 6 array astore
    cairo_font exch selectfont cairo_point_x cairo_point_y moveto } bind def
/Tf { pop /cairo_font exch def /cairo_font_matrix where
      { pop cairo_selectfont } if } bind def
/Td { matrix translate cairo_font_matrix matrix concatmatrix dup
      /cairo_font_matrix exch def dup 4 get exch 5 get cairo_store_point
      /cairo_font where { pop cairo_selectfont } if } bind def
/Tm { 2 copy 8 2 roll 6 array astore /cairo_font_matrix exch def
      cairo_store_point /cairo_font where { pop cairo_selectfont } if } bind def
/g { setgray } bind def
/rg { setrgbcolor } bind def
/d1 { setcachedevice } bind def
/cairo_data_source {
  CairoDataIndex CairoData length lt
    { CairoData CairoDataIndex get /CairoDataIndex CairoDataIndex 1 add def }
    { () } ifelse
} def
/cairo_flush_ascii85_file { cairo_ascii85_file status { cairo_ascii85_file flushfile } if } def
/cairo_image { image cairo_flush_ascii85_file } def
/cairo_imagemask { imagemask cairo_flush_ascii85_file } def
%%EndProlog
%%BeginSetup
%%EndSetup
%%Page: 1 1
%%BeginPageSetup
%%PageBoundingBox: 33 0 351 384
%%EndPageSetup
q 33 0 318 384 rectclip
1 0 0 -1 0 384 cm q
0.156863 0.521569 0.933333 rg
350.898 52.965 m 350.898 331.035 l 337.656 337.656 l 112.551 337.656 l 
99.309 331.035 l 99.309 52.965 l 105.93 46.344 l 344.277 46.344 l h
350.898 52.965 m f
0.807843 0.823529 0.862745 rg
350.898 19.863 m 350.898 52.965 l 99.309 52.965 l 99.309 19.863 l 99.309
 8.891 108.203 0 119.172 0 c 331.035 0 l 342.004 0 350.898 8.891 350.898
 19.863 c h
350.898 19.863 m f
350.898 331.035 m 350.898 364.137 l 350.898 375.109 342.004 384 331.035
 384 c 119.172 384 l 108.203 384 99.309 375.109 99.309 364.137 c 99.309 
331.035 l h
350.898 331.035 m f
0.254902 0.807843 0.952941 rg
317.793 99.309 m 317.793 165.516 l 317.77 172.82 311.855 178.738 304.551
 178.758 c 145.656 178.758 l 144.988 178.758 144.324 178.691 143.668 178.559
 c 137.207 177.598 132.418 172.051 132.414 165.516 c 132.414 99.309 l 132.438
 92.008 138.352 86.09 145.656 86.07 c 304.551 86.07 l 311.855 86.09 317.77
 92.008 317.793 99.309 c h
317.793 99.309 m f
1 0.764706 0.0235294 rg
52.965 211.863 m 119.172 211.863 l 130.176 211.863 139.035 220.719 139.035
 231.723 c 139.035 242.727 130.176 251.586 119.172 251.586 c 52.965 251.586
 l 41.961 251.586 33.102 242.727 33.102 231.723 c 33.102 220.719 41.961 
211.863 52.965 211.863 c h
52.965 211.863 m f
0.0352941 0.439216 0.870588 rg
99.309 291.309 251.59 39.727 re f
0.572549 0.819608 0.286275 rg
316.602 170.945 m 314.469 175.691 309.754 178.746 304.551 178.758 c 152.277
 178.758 l 198.621 125.793 l 221.793 148.965 l 258.207 112.551 l h
316.602 170.945 m f
0.545098 0.576471 0.635294 rg
258.207 33.102 m 251.586 33.102 l 247.93 33.102 244.965 30.141 244.965 
26.484 c 244.965 22.828 247.93 19.863 251.586 19.863 c 258.207 19.863 l 
261.863 19.863 264.828 22.828 264.828 26.484 c 264.828 30.141 261.863 33.102
 258.207 33.102 c h
258.207 33.102 m f
225.102 33.102 m 192 33.102 l 188.344 33.102 185.379 30.141 185.379 26.484
 c 185.379 22.828 188.344 19.863 192 19.863 c 225.102 19.863 l 228.762 19.863
 231.723 22.828 231.723 26.484 c 231.723 30.141 228.762 33.102 225.102 33.102
 c h
225.102 33.102 m f
238.344 364.137 m 211.863 364.137 l 208.207 364.137 205.242 361.172 205.242
 357.516 c 205.242 353.859 208.207 350.898 211.863 350.898 c 238.344 350.898
 l 242 350.898 244.965 353.859 244.965 357.516 c 244.965 361.172 242 364.137
 238.344 364.137 c h
238.344 364.137 m f
0.490196 0.74902 0.160784 rg
289.391 143.734 m 286.789 146.316 282.59 146.316 279.988 143.734 c 258.207
 121.887 l 223.184 156.977 l 220.574 159.535 216.395 159.535 213.781 156.977
 c 211.781 154.902 211.352 151.766 212.723 149.23 c 198.953 135.461 l 161.082
 178.758 l 145.656 178.758 l 144.988 178.758 144.324 178.691 143.668 178.559
 c 193.656 121.422 l 194.859 120.035 196.586 119.219 198.422 119.172 c 200.246
 119.133 202.008 119.824 203.32 121.094 c 221.793 139.629 l 253.508 107.852
 l 256.109 105.27 260.305 105.27 262.906 107.852 c 289.391 134.332 l 291.973
 136.938 291.973 141.133 289.391 143.734 c h
289.391 143.734 m f
0.0352941 0.439216 0.870588 rg
297.93 258.207 m 294.273 258.207 291.309 255.242 291.309 251.586 c 291.309
 247.93 294.273 244.965 297.93 244.965 c 305.242 244.965 311.172 239.039
 311.172 231.723 c 311.172 224.41 305.242 218.484 297.93 218.484 c 294.273
 218.484 291.309 215.52 291.309 211.863 c 291.309 208.207 294.273 205.242
 297.93 205.242 c 312.559 205.242 324.414 217.098 324.414 231.723 c 324.414
 246.352 312.559 258.207 297.93 258.207 c h
297.93 258.207 m f
192 258.207 m 177.375 258.207 165.516 246.352 165.516 231.723 c 165.516
 217.098 177.375 205.242 192 205.242 c 195.656 205.242 198.621 208.207 198.621
 211.863 c 198.621 215.52 195.656 218.484 192 218.484 c 184.688 218.484 
178.758 224.41 178.758 231.723 c 178.758 239.039 184.688 244.965 192 244.965
 c 195.656 244.965 198.621 247.93 198.621 251.586 c 198.621 255.242 195.656
 258.207 192 258.207 c h
192 258.207 m f
Q Q
showpage
%%Trailer
end
%%EOF
