%!PS-Adobe-3.0 EPSF-3.0
%%Creator: cairo 1.16.0 (https://cairographics.org)
%%CreationDate: Mon Jul 22 07:30:33 2019
%%Pages: 1
%%DocumentData: Clean7Bit
%%LanguageLevel: 2
%%BoundingBox: 66 0 318 384
%%EndComments
%%BeginProlog
50 dict begin
/q { gsave } bind def
/Q { grestore } bind def
/cm { 6 array astore concat } bind def
/w { setlinewidth } bind def
/J { setlinecap } bind def
/j { setlinejoin } bind def
/M { setmiterlimit } bind def
/d { setdash } bind def
/m { moveto } bind def
/l { lineto } bind def
/c { curveto } bind def
/h { closepath } bind def
/re { exch dup neg 3 1 roll 5 3 roll moveto 0 rlineto
      0 exch rlineto 0 rlineto closepath } bind def
/S { stroke } bind def
/f { fill } bind def
/f* { eofill } bind def
/n { newpath } bind def
/W { clip } bind def
/W* { eoclip } bind def
/BT { } bind def
/ET { } bind def
/BDC { mark 3 1 roll /BDC pdfmark } bind def
/EMC { mark /EMC pdfmark } bind def
/cairo_store_point { /cairo_point_y exch def /cairo_point_x exch def } def
/Tj { show currentpoint cairo_store_point } bind def
/TJ {
  {
    dup
    type /stringtype eq
    { show } { -0.001 mul 0 cairo_font_matrix dtransform rmoveto } ifelse
  } forall
  currentpoint cairo_store_point
} bind def
/cairo_selectfont { cairo_font_matrix aload pop pop pop 0 0 6 array astore
    cairo_font exch selectfont cairo_point_x cairo_point_y moveto } bind def
/Tf { pop /cairo_font exch def /cairo_font_matrix where
      { pop cairo_selectfont } if } bind def
/Td { matrix translate cairo_font_matrix matrix concatmatrix dup
      /cairo_font_matrix exch def dup 4 get exch 5 get cairo_store_point
      /cairo_font where { pop cairo_selectfont } if } bind def
/Tm { 2 copy 8 2 roll 6 array astore /cairo_font_matrix exch def
      cairo_store_point /cairo_font where { pop cairo_selectfont } if } bind def
/g { setgray } bind def
/rg { setrgbcolor } bind def
/d1 { setcachedevice } bind def
/cairo_data_source {
  CairoDataIndex CairoData length lt
    { CairoData CairoDataIndex get /CairoDataIndex CairoDataIndex 1 add def }
    { () } ifelse
} def
/cairo_flush_ascii85_file { cairo_ascii85_file status { cairo_ascii85_file flushfile } if } def
/cairo_image { image cairo_flush_ascii85_file } def
/cairo_imagemask { imagemask cairo_flush_ascii85_file } def
%%EndProlog
%%BeginSetup
%%EndSetup
%%Page: 1 1
%%BeginPageSetup
%%PageBoundingBox: 66 0 318 384
%%EndPageSetup
q 66 0 252 384 rectclip
1 0 0 -1 0 384 cm q
0.156863 0.521569 0.933333 rg
317.793 52.965 m 317.793 331.035 l 304.551 337.656 l 79.449 337.656 l 66.207
 331.035 l 66.207 52.965 l 72.828 46.344 l 311.172 46.344 l h
317.793 52.965 m f
0.807843 0.823529 0.862745 rg
317.793 19.863 m 317.793 52.965 l 66.207 52.965 l 66.207 19.863 l 66.207
 8.891 75.098 0 86.07 0 c 297.93 0 l 308.902 0 317.793 8.891 317.793 19.863
 c h
317.793 19.863 m f
317.793 331.035 m 317.793 364.137 l 317.793 375.109 308.902 384 297.93 
384 c 86.07 384 l 75.098 384 66.207 375.109 66.207 364.137 c 66.207 331.035
 l h
317.793 331.035 m f
0.545098 0.576471 0.635294 rg
225.102 33.102 m 218.484 33.102 l 214.828 33.102 211.863 30.141 211.863
 26.484 c 211.863 22.828 214.828 19.863 218.484 19.863 c 225.102 19.863 
l 228.762 19.863 231.723 22.828 231.723 26.484 c 231.723 30.141 228.762 
33.102 225.102 33.102 c h
225.102 33.102 m f
192 33.102 m 158.898 33.102 l 155.238 33.102 152.277 30.141 152.277 26.484
 c 152.277 22.828 155.238 19.863 158.898 19.863 c 192 19.863 l 195.656 19.863
 198.621 22.828 198.621 26.484 c 198.621 30.141 195.656 33.102 192 33.102
 c h
192 33.102 m f
205.242 364.137 m 178.758 364.137 l 175.102 364.137 172.137 361.172 172.137
 357.516 c 172.137 353.859 175.102 350.898 178.758 350.898 c 205.242 350.898
 l 208.898 350.898 211.863 353.859 211.863 357.516 c 211.863 361.172 208.898
 364.137 205.242 364.137 c h
205.242 364.137 m f
0.0196078 0.431373 0.8 rg
66.207 139.035 251.586 13.242 re f
66.207 231.723 251.586 13.242 re f
0.94902 0.956863 0.968627 rg
253.527 117.234 m 256.113 119.816 260.301 119.816 262.887 117.234 c 276.129
 103.992 l 278.715 101.406 278.715 97.215 276.129 94.629 c 262.887 81.387
 l 260.289 78.879 256.16 78.914 253.605 81.469 c 251.055 84.023 251.016 
88.152 253.527 90.75 c 262.086 99.309 l 253.527 107.871 l 250.941 110.457
 250.941 114.648 253.527 117.234 c h
253.527 117.234 m f
205.242 79.449 m 99.309 79.449 l 95.652 79.449 92.691 82.414 92.691 86.07
 c 92.691 89.727 95.652 92.691 99.309 92.691 c 205.242 92.691 l 208.898 
92.691 211.863 89.727 211.863 86.07 c 211.863 82.414 208.898 79.449 205.242
 79.449 c h
205.242 79.449 m f
99.309 119.172 m 152.277 119.172 l 155.934 119.172 158.898 116.207 158.898
 112.551 c 158.898 108.895 155.934 105.93 152.277 105.93 c 99.309 105.93
 l 95.652 105.93 92.691 108.895 92.691 112.551 c 92.691 116.207 95.652 119.172
 99.309 119.172 c h
99.309 119.172 m f
262.887 174.078 m 260.289 171.57 256.16 171.605 253.605 174.16 c 251.055
 176.711 251.016 180.84 253.527 183.438 c 262.086 192 l 253.527 200.562 
l 251.805 202.223 251.113 204.684 251.719 207 c 252.328 209.312 254.133 
211.121 256.449 211.727 c 258.766 212.332 261.227 211.645 262.887 209.922
 c 276.129 196.68 l 278.715 194.094 278.715 189.906 276.129 187.32 c h
262.887 174.078 m f
205.242 172.137 m 99.309 172.137 l 95.652 172.137 92.691 175.102 92.691
 178.758 c 92.691 182.414 95.652 185.379 99.309 185.379 c 205.242 185.379
 l 208.898 185.379 211.863 182.414 211.863 178.758 c 211.863 175.102 208.898
 172.137 205.242 172.137 c h
205.242 172.137 m f
99.309 211.863 m 152.277 211.863 l 155.934 211.863 158.898 208.898 158.898
 205.242 c 158.898 201.586 155.934 198.621 152.277 198.621 c 99.309 198.621
 l 95.652 198.621 92.691 201.586 92.691 205.242 c 92.691 208.898 95.652 
211.863 99.309 211.863 c h
99.309 211.863 m f
262.887 266.766 m 260.289 264.258 256.16 264.293 253.605 266.848 c 251.055
 269.402 251.016 273.531 253.527 276.129 c 262.086 284.691 l 253.527 293.25
 l 251.805 294.914 251.113 297.375 251.719 299.688 c 252.328 302.004 254.133
 303.812 256.449 304.418 c 258.766 305.023 261.227 304.332 262.887 302.613
 c 276.129 289.371 l 278.715 286.785 278.715 282.594 276.129 280.008 c h
262.887 266.766 m f
205.242 264.828 m 99.309 264.828 l 95.652 264.828 92.691 267.793 92.691
 271.449 c 92.691 275.105 95.652 278.07 99.309 278.07 c 205.242 278.07 l
 208.898 278.07 211.863 275.105 211.863 271.449 c 211.863 267.793 208.898
 264.828 205.242 264.828 c h
205.242 264.828 m f
152.277 291.309 m 99.309 291.309 l 95.652 291.309 92.691 294.273 92.691
 297.93 c 92.691 301.586 95.652 304.551 99.309 304.551 c 152.277 304.551
 l 155.934 304.551 158.898 301.586 158.898 297.93 c 158.898 294.273 155.934
 291.309 152.277 291.309 c h
152.277 291.309 m f
Q Q
showpage
%%Trailer
end
%%EOF
