%!PS-Adobe-3.0 EPSF-3.0
%%Creator: cairo 1.16.0 (https://cairographics.org)
%%CreationDate: Mon Jul 22 07:30:33 2019
%%Pages: 1
%%DocumentData: Clean7Bit
%%LanguageLevel: 2
%%BoundingBox: 0 0 384 384
%%EndComments
%%BeginProlog
50 dict begin
/q { gsave } bind def
/Q { grestore } bind def
/cm { 6 array astore concat } bind def
/w { setlinewidth } bind def
/J { setlinecap } bind def
/j { setlinejoin } bind def
/M { setmiterlimit } bind def
/d { setdash } bind def
/m { moveto } bind def
/l { lineto } bind def
/c { curveto } bind def
/h { closepath } bind def
/re { exch dup neg 3 1 roll 5 3 roll moveto 0 rlineto
      0 exch rlineto 0 rlineto closepath } bind def
/S { stroke } bind def
/f { fill } bind def
/f* { eofill } bind def
/n { newpath } bind def
/W { clip } bind def
/W* { eoclip } bind def
/BT { } bind def
/ET { } bind def
/BDC { mark 3 1 roll /BDC pdfmark } bind def
/EMC { mark /EMC pdfmark } bind def
/cairo_store_point { /cairo_point_y exch def /cairo_point_x exch def } def
/Tj { show currentpoint cairo_store_point } bind def
/TJ {
  {
    dup
    type /stringtype eq
    { show } { -0.001 mul 0 cairo_font_matrix dtransform rmoveto } ifelse
  } forall
  currentpoint cairo_store_point
} bind def
/cairo_selectfont { cairo_font_matrix aload pop pop pop 0 0 6 array astore
    cairo_font exch selectfont cairo_point_x cairo_point_y moveto } bind def
/Tf { pop /cairo_font exch def /cairo_font_matrix where
      { pop cairo_selectfont } if } bind def
/Td { matrix translate cairo_font_matrix matrix concatmatrix dup
      /cairo_font_matrix exch def dup 4 get exch 5 get cairo_store_point
      /cairo_font where { pop cairo_selectfont } if } bind def
/Tm { 2 copy 8 2 roll 6 array astore /cairo_font_matrix exch def
      cairo_store_point /cairo_font where { pop cairo_selectfont } if } bind def
/g { setgray } bind def
/rg { setrgbcolor } bind def
/d1 { setcachedevice } bind def
/cairo_data_source {
  CairoDataIndex CairoData length lt
    { CairoData CairoDataIndex get /CairoDataIndex CairoDataIndex 1 add def }
    { () } ifelse
} def
/cairo_flush_ascii85_file { cairo_ascii85_file status { cairo_ascii85_file flushfile } if } def
/cairo_image { image cairo_flush_ascii85_file } def
/cairo_imagemask { imagemask cairo_flush_ascii85_file } def
%%EndProlog
%%BeginSetup
%%EndSetup
%%Page: 1 1
%%BeginPageSetup
%%PageBoundingBox: 0 0 384 384
%%EndPageSetup
q 0 0 384 384 rectclip
1 0 0 -1 0 384 cm q
0.156863 0.521569 0.933333 rg
0 52.965 m 0 331.035 l 6.621 337.656 l 231.723 337.656 l 238.344 331.035
 l 238.344 52.965 l 231.723 46.344 l 6.621 46.344 l h
0 52.965 m f
0.807843 0.823529 0.862745 rg
238.344 331.035 m 238.344 357.516 l 238.344 372.145 226.488 384 211.863
 384 c 26.484 384 l 11.855 384 0 372.145 0 357.516 c 0 331.035 l h
238.344 331.035 m f
238.344 26.484 m 238.344 52.965 l 0 52.965 l 0 26.484 l 0 11.855 11.855
 0 26.484 0 c 211.863 0 l 226.488 0 238.344 11.855 238.344 26.484 c h
238.344 26.484 m f
0.933333 0.227451 0.282353 rg
366.078 64.738 m 331.035 52.965 l 319.262 17.922 l 333.305 3.879 l 335.789
 1.395 339.156 0 342.672 0 c 346.184 0 349.551 1.395 352.035 3.879 c 380.121
 31.965 l 382.605 34.449 384 37.816 384 41.328 c 384 44.844 382.605 48.211
 380.121 50.695 c h
366.078 64.738 m f
0.627451 0.470588 0.372549 rg
272.043 157.969 m 271.016 158.562 269.898 158.988 268.734 159.227 c 222.457
 169.488 l 220.23 170.004 217.895 169.336 216.277 167.723 c 214.664 166.105
 213.996 163.77 214.512 161.543 c 224.773 115.266 l 225.012 114.102 225.438
 112.984 226.031 111.957 c 258.207 125.793 l h
272.043 157.969 m f
1 0.764706 0.0235294 rg
366.059 64.75 m 275.156 155.652 l 274.238 156.574 273.191 157.355 272.043
 157.969 c 226.031 111.957 l 226.645 110.809 227.426 109.762 228.348 108.844
 c 319.25 17.941 l h
366.059 64.75 m f
0.0196078 0.431373 0.8 rg
46.344 192 m 86.07 192 l 93.406 192 99.309 197.906 99.309 205.242 c 99.309
 212.578 93.406 218.484 86.07 218.484 c 46.344 218.484 l 39.008 218.484 
33.102 212.578 33.102 205.242 c 33.102 197.906 39.008 192 46.344 192 c h
46.344 192 m f
152.277 192 m 192 192 l 199.336 192 205.242 197.906 205.242 205.242 c 205.242
 212.578 199.336 218.484 192 218.484 c 152.277 218.484 l 144.941 218.484
 139.035 212.578 139.035 205.242 c 139.035 197.906 144.941 192 152.277 192
 c h
152.277 192 m f
46.344 244.965 m 86.07 244.965 l 93.406 244.965 99.309 250.871 99.309 258.207
 c 99.309 265.543 93.406 271.449 86.07 271.449 c 46.344 271.449 l 39.008
 271.449 33.102 265.543 33.102 258.207 c 33.102 250.871 39.008 244.965 46.344
 244.965 c h
46.344 244.965 m f
152.277 244.965 m 192 244.965 l 199.336 244.965 205.242 250.871 205.242
 258.207 c 205.242 265.543 199.336 271.449 192 271.449 c 152.277 271.449
 l 144.941 271.449 139.035 265.543 139.035 258.207 c 139.035 250.871 144.941
 244.965 152.277 244.965 c h
152.277 244.965 m f
0.0352941 0.439216 0.870588 rg
0 297.93 238.344 33.105 re f
0.968627 0.678431 0 rg
347.355 46.016 m 272.441 120.914 l 269.844 123.422 265.715 123.387 263.16
 120.832 c 260.605 118.277 260.57 114.148 263.078 111.551 c 337.992 36.652
 l h
347.355 46.016 m f
0.47451 0.509804 0.568627 rg
145.656 33.102 m 139.035 33.102 l 135.379 33.102 132.414 30.141 132.414
 26.484 c 132.414 22.828 135.379 19.863 139.035 19.863 c 145.656 19.863 
l 149.312 19.863 152.277 22.828 152.277 26.484 c 152.277 30.141 149.312 
33.102 145.656 33.102 c h
145.656 33.102 m f
112.551 33.102 m 92.691 33.102 l 89.031 33.102 86.07 30.141 86.07 26.484
 c 86.07 22.828 89.031 19.863 92.691 19.863 c 112.551 19.863 l 116.207 19.863
 119.172 22.828 119.172 26.484 c 119.172 30.141 116.207 33.102 112.551 33.102
 c h
112.551 33.102 m f
132.414 364.137 m 105.93 364.137 l 102.273 364.137 99.309 361.172 99.309
 357.516 c 99.309 353.859 102.273 350.898 105.93 350.898 c 132.414 350.898
 l 136.07 350.898 139.035 353.859 139.035 357.516 c 139.035 361.172 136.07
 364.137 132.414 364.137 c h
132.414 364.137 m f
1 g
178.758 172.137 m 46.344 172.137 l 35.375 172.137 26.484 163.246 26.484
 152.277 c 26.484 99.309 l 26.484 88.34 35.375 79.449 46.344 79.449 c 192
 79.449 l 202.969 79.449 211.863 88.34 211.863 99.309 c 211.863 102.969 
208.898 105.93 205.242 105.93 c 201.586 105.93 198.621 102.969 198.621 99.309
 c 198.621 95.652 195.656 92.691 192 92.691 c 46.344 92.691 l 42.688 92.691
 39.723 95.652 39.723 99.309 c 39.723 152.277 l 39.723 155.934 42.688 158.898
 46.344 158.898 c 178.758 158.898 l 182.414 158.898 185.379 161.859 185.379
 165.516 c 185.379 169.172 182.414 172.137 178.758 172.137 c h
178.758 172.137 m f
Q Q
showpage
%%Trailer
end
%%EOF
