%!PS-Adobe-3.0 EPSF-3.0
%%Creator: cairo 1.16.0 (https://cairographics.org)
%%CreationDate: Mon Jul 22 07:30:33 2019
%%Pages: 1
%%DocumentData: Clean7Bit
%%LanguageLevel: 2
%%BoundingBox: 0 66 384 318
%%EndComments
%%BeginProlog
50 dict begin
/q { gsave } bind def
/Q { grestore } bind def
/cm { 6 array astore concat } bind def
/w { setlinewidth } bind def
/J { setlinecap } bind def
/j { setlinejoin } bind def
/M { setmiterlimit } bind def
/d { setdash } bind def
/m { moveto } bind def
/l { lineto } bind def
/c { curveto } bind def
/h { closepath } bind def
/re { exch dup neg 3 1 roll 5 3 roll moveto 0 rlineto
      0 exch rlineto 0 rlineto closepath } bind def
/S { stroke } bind def
/f { fill } bind def
/f* { eofill } bind def
/n { newpath } bind def
/W { clip } bind def
/W* { eoclip } bind def
/BT { } bind def
/ET { } bind def
/BDC { mark 3 1 roll /BDC pdfmark } bind def
/EMC { mark /EMC pdfmark } bind def
/cairo_store_point { /cairo_point_y exch def /cairo_point_x exch def } def
/Tj { show currentpoint cairo_store_point } bind def
/TJ {
  {
    dup
    type /stringtype eq
    { show } { -0.001 mul 0 cairo_font_matrix dtransform rmoveto } ifelse
  } forall
  currentpoint cairo_store_point
} bind def
/cairo_selectfont { cairo_font_matrix aload pop pop pop 0 0 6 array astore
    cairo_font exch selectfont cairo_point_x cairo_point_y moveto } bind def
/Tf { pop /cairo_font exch def /cairo_font_matrix where
      { pop cairo_selectfont } if } bind def
/Td { matrix translate cairo_font_matrix matrix concatmatrix dup
      /cairo_font_matrix exch def dup 4 get exch 5 get cairo_store_point
      /cairo_font where { pop cairo_selectfont } if } bind def
/Tm { 2 copy 8 2 roll 6 array astore /cairo_font_matrix exch def
      cairo_store_point /cairo_font where { pop cairo_selectfont } if } bind def
/g { setgray } bind def
/rg { setrgbcolor } bind def
/d1 { setcachedevice } bind def
/cairo_data_source {
  CairoDataIndex CairoData length lt
    { CairoData CairoDataIndex get /CairoDataIndex CairoDataIndex 1 add def }
    { () } ifelse
} def
/cairo_flush_ascii85_file { cairo_ascii85_file status { cairo_ascii85_file flushfile } if } def
/cairo_image { image cairo_flush_ascii85_file } def
/cairo_imagemask { imagemask cairo_flush_ascii85_file } def
%%EndProlog
%%BeginSetup
%%EndSetup
%%Page: 1 1
%%BeginPageSetup
%%PageBoundingBox: 0 66 384 318
%%EndPageSetup
q 0 66 384 252 rectclip
1 0 0 -1 0 384 cm q
0.156863 0.521569 0.933333 rg
52.965 66.207 m 331.035 66.207 l 337.656 79.449 l 337.656 304.551 l 331.035
 317.793 l 52.965 317.793 l 46.344 311.172 l 46.344 72.828 l h
52.965 66.207 m f
0.807843 0.823529 0.862745 rg
19.863 66.207 m 52.965 66.207 l 52.965 317.793 l 19.863 317.793 l 8.891
 317.793 0 308.902 0 297.93 c 0 86.07 l 0 75.098 8.891 66.207 19.863 66.207
 c h
19.863 66.207 m f
331.035 66.207 m 364.137 66.207 l 375.109 66.207 384 75.098 384 86.07 c
 384 297.93 l 384 308.902 375.109 317.793 364.137 317.793 c 331.035 317.793
 l h
331.035 66.207 m f
0.94902 0.956863 0.968627 rg
92.691 99.309 m 291.309 99.309 l 294.977 99.309 297.93 102.262 297.93 105.93
 c 297.93 238.344 l 297.93 242.012 294.977 244.965 291.309 244.965 c 92.691
 244.965 l 89.023 244.965 86.07 242.012 86.07 238.344 c 86.07 105.93 l 86.07
 102.262 89.023 99.309 92.691 99.309 c h
92.691 99.309 m f
0.933333 0.227451 0.282353 rg
238.344 172.137 m 238.344 197.734 217.594 218.484 192 218.484 c 166.406
 218.484 145.656 197.734 145.656 172.137 c 145.656 146.543 166.406 125.793
 192 125.793 c 217.594 125.793 238.344 146.543 238.344 172.137 c h
238.344 172.137 m f
1 g
188.691 153.348 m 209.027 166.84 l 210.797 168.016 211.863 169.996 211.863
 172.117 c 211.863 174.242 210.797 176.223 209.027 177.395 c 188.691 190.926
 l 186.734 192.246 184.211 192.379 182.129 191.266 c 180.051 190.156 178.754
 187.988 178.758 185.633 c 178.758 158.625 l 178.762 156.27 180.059 154.109
 182.141 153.004 c 184.219 151.898 186.738 152.031 188.691 153.348 c h
188.691 153.348 m f
0.0352941 0.439216 0.870588 rg
99.309 278.07 m 284.691 278.07 l 292.004 278.07 297.93 283.996 297.93 291.309
 c 297.93 317.793 l 86.07 317.793 l 86.07 291.309 l 86.07 283.996 91.996
 278.07 99.309 278.07 c h
99.309 278.07 m f
0.733333 0.756863 0.807843 rg
297.93 218.484 m 297.93 238.344 l 297.93 242 294.969 244.965 291.309 244.965
 c 92.691 244.965 l 89.031 244.965 86.07 242 86.07 238.344 c 86.07 218.484
 l h
297.93 218.484 m f
0.545098 0.576471 0.635294 rg
33.102 158.898 m 33.102 165.516 l 33.102 169.172 30.141 172.137 26.484 
172.137 c 22.828 172.137 19.863 169.172 19.863 165.516 c 19.863 158.898 
l 19.863 155.238 22.828 152.277 26.484 152.277 c 30.141 152.277 33.102 155.238
 33.102 158.898 c h
33.102 158.898 m f
33.102 192 m 33.102 225.102 l 33.102 228.762 30.141 231.723 26.484 231.723
 c 22.828 231.723 19.863 228.762 19.863 225.102 c 19.863 192 l 19.863 188.344
 22.828 185.379 26.484 185.379 c 30.141 185.379 33.102 188.344 33.102 192
 c h
33.102 192 m f
364.137 178.758 m 364.137 205.242 l 364.137 208.898 361.172 211.863 357.516
 211.863 c 353.859 211.863 350.898 208.898 350.898 205.242 c 350.898 178.758
 l 350.898 175.102 353.859 172.137 357.516 172.137 c 361.172 172.137 364.137
 175.102 364.137 178.758 c h
364.137 178.758 m f
Q Q
showpage
%%Trailer
end
%%EOF
