%!PS-Adobe-3.0 EPSF-3.0
%%Creator: cairo 1.16.0 (https://cairographics.org)
%%CreationDate: Mon Jul 22 07:30:33 2019
%%Pages: 1
%%DocumentData: Clean7Bit
%%LanguageLevel: 2
%%BoundingBox: 0 0 384 384
%%EndComments
%%BeginProlog
50 dict begin
/q { gsave } bind def
/Q { grestore } bind def
/cm { 6 array astore concat } bind def
/w { setlinewidth } bind def
/J { setlinecap } bind def
/j { setlinejoin } bind def
/M { setmiterlimit } bind def
/d { setdash } bind def
/m { moveto } bind def
/l { lineto } bind def
/c { curveto } bind def
/h { closepath } bind def
/re { exch dup neg 3 1 roll 5 3 roll moveto 0 rlineto
      0 exch rlineto 0 rlineto closepath } bind def
/S { stroke } bind def
/f { fill } bind def
/f* { eofill } bind def
/n { newpath } bind def
/W { clip } bind def
/W* { eoclip } bind def
/BT { } bind def
/ET { } bind def
/BDC { mark 3 1 roll /BDC pdfmark } bind def
/EMC { mark /EMC pdfmark } bind def
/cairo_store_point { /cairo_point_y exch def /cairo_point_x exch def } def
/Tj { show currentpoint cairo_store_point } bind def
/TJ {
  {
    dup
    type /stringtype eq
    { show } { -0.001 mul 0 cairo_font_matrix dtransform rmoveto } ifelse
  } forall
  currentpoint cairo_store_point
} bind def
/cairo_selectfont { cairo_font_matrix aload pop pop pop 0 0 6 array astore
    cairo_font exch selectfont cairo_point_x cairo_point_y moveto } bind def
/Tf { pop /cairo_font exch def /cairo_font_matrix where
      { pop cairo_selectfont } if } bind def
/Td { matrix translate cairo_font_matrix matrix concatmatrix dup
      /cairo_font_matrix exch def dup 4 get exch 5 get cairo_store_point
      /cairo_font where { pop cairo_selectfont } if } bind def
/Tm { 2 copy 8 2 roll 6 array astore /cairo_font_matrix exch def
      cairo_store_point /cairo_font where { pop cairo_selectfont } if } bind def
/g { setgray } bind def
/rg { setrgbcolor } bind def
/d1 { setcachedevice } bind def
/cairo_data_source {
  CairoDataIndex CairoData length lt
    { CairoData CairoDataIndex get /CairoDataIndex CairoDataIndex 1 add def }
    { () } ifelse
} def
/cairo_flush_ascii85_file { cairo_ascii85_file status { cairo_ascii85_file flushfile } if } def
/cairo_image { image cairo_flush_ascii85_file } def
/cairo_imagemask { imagemask cairo_flush_ascii85_file } def
%%EndProlog
%%BeginSetup
%%EndSetup
%%Page: 1 1
%%BeginPageSetup
%%PageBoundingBox: 0 0 384 384
%%EndPageSetup
q 0 0 384 384 rectclip
1 0 0 -1 0 384 cm q
0.807843 0.823529 0.862745 rg
384 52.965 m 384 370.758 l 383.977 378.062 378.062 383.977 370.758 384 
c 13.242 384 l 5.938 383.977 0.023 378.062 0 370.758 c 0 52.965 l 13.242
 46.344 l 370.758 46.344 l h
384 52.965 m f
0.156863 0.521569 0.933333 rg
384 13.242 m 384 52.965 l 0 52.965 l 0 13.242 l 0.023 5.938 5.938 0.023
 13.242 0 c 370.758 0 l 378.062 0.023 383.977 5.938 384 13.242 c h
384 13.242 m f
251.586 231.723 m 344.277 231.723 l 347.945 231.723 350.898 234.676 350.898
 238.344 c 350.898 331.035 l 350.898 334.703 347.945 337.656 344.277 337.656
 c 251.586 337.656 l 247.918 337.656 244.965 334.703 244.965 331.035 c 244.965
 238.344 l 244.965 234.676 247.918 231.723 251.586 231.723 c h
251.586 231.723 m f
218.484 105.93 m 218.484 172.137 l 218.461 179.441 212.547 185.359 205.242
 185.379 c 46.344 185.379 l 45.68 185.379 45.012 185.312 44.359 185.18 c
 37.895 184.219 33.109 178.672 33.102 172.137 c 33.102 105.93 l 33.125 98.629
 39.039 92.711 46.344 92.691 c 205.242 92.691 l 212.547 92.711 218.461 98.629
 218.484 105.93 c h
218.484 105.93 m f
0.572549 0.819608 0.286275 rg
217.293 177.566 m 215.156 182.312 210.445 185.367 205.242 185.379 c 52.965
 185.379 l 99.309 132.414 l 122.484 155.586 l 158.898 119.172 l h
217.293 177.566 m f
350.898 317.793 m 350.898 331.035 l 350.898 334.691 347.934 337.656 344.277
 337.656 c 251.586 337.656 l 247.93 337.656 244.965 334.691 244.965 331.035
 c 244.965 317.793 l 297.93 264.828 l h
350.898 317.793 m f
0.94902 0.537255 0.792157 rg
39.723 33.102 m 33.102 33.102 l 29.445 33.102 26.484 30.141 26.484 26.484
 c 26.484 22.828 29.445 19.863 33.102 19.863 c 39.723 19.863 l 43.379 19.863
 46.344 22.828 46.344 26.484 c 46.344 30.141 43.379 33.102 39.723 33.102
 c h
39.723 33.102 m f
1 0.764706 0.0235294 rg
79.449 33.102 m 72.828 33.102 l 69.172 33.102 66.207 30.141 66.207 26.484
 c 66.207 22.828 69.172 19.863 72.828 19.863 c 79.449 19.863 l 83.105 19.863
 86.07 22.828 86.07 26.484 c 86.07 30.141 83.105 33.102 79.449 33.102 c 
h
79.449 33.102 m f
0.670588 0.870588 0.384314 rg
119.172 33.102 m 112.551 33.102 l 108.895 33.102 105.93 30.141 105.93 26.484
 c 105.93 22.828 108.895 19.863 112.551 19.863 c 119.172 19.863 l 122.828
 19.863 125.793 22.828 125.793 26.484 c 125.793 30.141 122.828 33.102 119.172
 33.102 c h
119.172 33.102 m f
0.0352941 0.439216 0.870588 rg
350.898 33.102 m 311.172 33.102 l 307.516 33.102 304.551 30.141 304.551
 26.484 c 304.551 22.828 307.516 19.863 311.172 19.863 c 350.898 19.863 
l 354.555 19.863 357.516 22.828 357.516 26.484 c 357.516 30.141 354.555 
33.102 350.898 33.102 c h
350.898 33.102 m f
0.490196 0.74902 0.160784 rg
329.113 296.012 m 326.512 298.594 322.316 298.594 319.715 296.012 c 297.93
 274.164 l 244.965 327.195 l 244.965 308.391 l 293.23 260.125 l 295.832 
257.547 300.031 257.547 302.633 260.125 c 329.113 286.609 l 331.695 289.211
 331.695 293.41 329.113 296.012 c h
329.113 296.012 m f
0.47451 0.509804 0.568627 rg
350.898 105.93 m 251.586 105.93 l 247.93 105.93 244.965 102.969 244.965
 99.309 c 244.965 95.652 247.93 92.691 251.586 92.691 c 350.898 92.691 l
 354.555 92.691 357.516 95.652 357.516 99.309 c 357.516 102.969 354.555 
105.93 350.898 105.93 c h
350.898 105.93 m f
350.898 139.035 m 251.586 139.035 l 247.93 139.035 244.965 136.07 244.965
 132.414 c 244.965 128.758 247.93 125.793 251.586 125.793 c 350.898 125.793
 l 354.555 125.793 357.516 128.758 357.516 132.414 c 357.516 136.07 354.555
 139.035 350.898 139.035 c h
350.898 139.035 m f
297.93 172.137 m 251.586 172.137 l 247.93 172.137 244.965 169.172 244.965
 165.516 c 244.965 161.859 247.93 158.898 251.586 158.898 c 297.93 158.898
 l 301.586 158.898 304.551 161.859 304.551 165.516 c 304.551 169.172 301.586
 172.137 297.93 172.137 c h
297.93 172.137 m f
211.863 244.965 m 33.102 244.965 l 29.445 244.965 26.484 242 26.484 238.344
 c 26.484 234.688 29.445 231.723 33.102 231.723 c 211.863 231.723 l 215.52
 231.723 218.484 234.688 218.484 238.344 c 218.484 242 215.52 244.965 211.863
 244.965 c h
211.863 244.965 m f
211.863 278.07 m 33.102 278.07 l 29.445 278.07 26.484 275.105 26.484 271.449
 c 26.484 267.793 29.445 264.828 33.102 264.828 c 211.863 264.828 l 215.52
 264.828 218.484 267.793 218.484 271.449 c 218.484 275.105 215.52 278.07
 211.863 278.07 c h
211.863 278.07 m f
211.863 311.172 m 33.102 311.172 l 29.445 311.172 26.484 308.207 26.484
 304.551 c 26.484 300.895 29.445 297.93 33.102 297.93 c 211.863 297.93 l
 215.52 297.93 218.484 300.895 218.484 304.551 c 218.484 308.207 215.52 
311.172 211.863 311.172 c h
211.863 311.172 m f
158.898 344.277 m 33.102 344.277 l 29.445 344.277 26.484 341.312 26.484
 337.656 c 26.484 334 29.445 331.035 33.102 331.035 c 158.898 331.035 l 
162.555 331.035 165.516 334 165.516 337.656 c 165.516 341.312 162.555 344.277
 158.898 344.277 c h
158.898 344.277 m f
0.490196 0.74902 0.160784 rg
190.078 150.355 m 187.477 152.938 183.281 152.938 180.68 150.355 c 158.898
 128.508 l 123.875 163.598 l 121.262 166.156 117.082 166.156 114.473 163.598
 c 112.469 161.523 112.039 158.387 113.414 155.852 c 99.641 142.078 l 61.77
 185.379 l 46.344 185.379 l 45.68 185.379 45.012 185.312 44.359 185.18 c
 94.344 128.043 l 95.547 126.656 97.277 125.84 99.113 125.793 c 100.934 
125.754 102.699 126.445 104.012 127.715 c 122.484 146.25 l 154.195 114.473
 l 156.797 111.891 160.996 111.891 163.598 114.473 c 190.078 140.953 l 192.66
 143.555 192.66 147.754 190.078 150.355 c h
190.078 150.355 m f
Q Q
showpage
%%Trailer
end
%%EOF
