%!PS-Adobe-3.0 EPSF-3.0
%%Creator: cairo 1.16.0 (https://cairographics.org)
%%CreationDate: Mon Jul 22 07:30:34 2019
%%Pages: 1
%%DocumentData: Clean7Bit
%%LanguageLevel: 2
%%BoundingBox: 0 0 384 384
%%EndComments
%%BeginProlog
50 dict begin
/q { gsave } bind def
/Q { grestore } bind def
/cm { 6 array astore concat } bind def
/w { setlinewidth } bind def
/J { setlinecap } bind def
/j { setlinejoin } bind def
/M { setmiterlimit } bind def
/d { setdash } bind def
/m { moveto } bind def
/l { lineto } bind def
/c { curveto } bind def
/h { closepath } bind def
/re { exch dup neg 3 1 roll 5 3 roll moveto 0 rlineto
      0 exch rlineto 0 rlineto closepath } bind def
/S { stroke } bind def
/f { fill } bind def
/f* { eofill } bind def
/n { newpath } bind def
/W { clip } bind def
/W* { eoclip } bind def
/BT { } bind def
/ET { } bind def
/BDC { mark 3 1 roll /BDC pdfmark } bind def
/EMC { mark /EMC pdfmark } bind def
/cairo_store_point { /cairo_point_y exch def /cairo_point_x exch def } def
/Tj { show currentpoint cairo_store_point } bind def
/TJ {
  {
    dup
    type /stringtype eq
    { show } { -0.001 mul 0 cairo_font_matrix dtransform rmoveto } ifelse
  } forall
  currentpoint cairo_store_point
} bind def
/cairo_selectfont { cairo_font_matrix aload pop pop pop 0 0 6 array astore
    cairo_font exch selectfont cairo_point_x cairo_point_y moveto } bind def
/Tf { pop /cairo_font exch def /cairo_font_matrix where
      { pop cairo_selectfont } if } bind def
/Td { matrix translate cairo_font_matrix matrix concatmatrix dup
      /cairo_font_matrix exch def dup 4 get exch 5 get cairo_store_point
      /cairo_font where { pop cairo_selectfont } if } bind def
/Tm { 2 copy 8 2 roll 6 array astore /cairo_font_matrix exch def
      cairo_store_point /cairo_font where { pop cairo_selectfont } if } bind def
/g { setgray } bind def
/rg { setrgbcolor } bind def
/d1 { setcachedevice } bind def
/cairo_data_source {
  CairoDataIndex CairoData length lt
    { CairoData CairoDataIndex get /CairoDataIndex CairoDataIndex 1 add def }
    { () } ifelse
} def
/cairo_flush_ascii85_file { cairo_ascii85_file status { cairo_ascii85_file flushfile } if } def
/cairo_image { image cairo_flush_ascii85_file } def
/cairo_imagemask { imagemask cairo_flush_ascii85_file } def
%%EndProlog
%%BeginSetup
%%EndSetup
%%Page: 1 1
%%BeginPageSetup
%%PageBoundingBox: 0 0 384 384
%%EndPageSetup
q 0 0 384 384 rectclip
1 0 0 -1 0 384 cm q
0.301961 0.541176 0.670588 rg
66.207 0 251.586 271.449 re f
0.203922 0.427451 0.580392 rg
79.449 0 m 79.449 271.449 l 0 271.449 l 0 19.863 l 0 8.891 8.891 0 19.863
 0 c h
79.449 0 m f
384 19.863 m 384 158.898 l 344.277 172.137 l 304.551 158.898 l 304.551 
0 l 364.137 0 l 375.109 0 384 8.891 384 19.863 c h
384 19.863 m f
0.160784 0.329412 0.454902 rg
384 158.898 m 384 264.828 l 304.551 271.449 l 304.551 158.898 l h
384 158.898 m f
0.733333 0.756863 0.807843 rg
264.828 384 m 242.887 384 225.102 366.215 225.102 344.277 c 225.102 304.551
 l 158.898 304.551 l 158.898 344.277 l 158.898 366.215 141.113 384 119.172
 384 c h
264.828 384 m f
0.807843 0.823529 0.862745 rg
384 264.828 m 384 297.93 l 384 308.902 375.109 317.793 364.137 317.793 
c 19.863 317.793 l 8.891 317.793 0 308.902 0 297.93 c 0 264.828 l h
384 264.828 m f
0.160784 0.329412 0.454902 rg
33.102 198.621 m 46.344 198.621 l 50.012 198.621 52.965 201.574 52.965 
205.242 c 52.965 218.484 l 52.965 222.152 50.012 225.102 46.344 225.102 
c 33.102 225.102 l 29.438 225.102 26.484 222.152 26.484 218.484 c 26.484
 205.242 l 26.484 201.574 29.438 198.621 33.102 198.621 c h
33.102 198.621 m f
337.656 26.484 m 350.898 26.484 l 354.562 26.484 357.516 29.438 357.516
 33.102 c 357.516 46.344 l 357.516 50.012 354.562 52.965 350.898 52.965 
c 337.656 52.965 l 333.988 52.965 331.035 50.012 331.035 46.344 c 331.035
 33.102 l 331.035 29.438 333.988 26.484 337.656 26.484 c h
337.656 26.484 m f
0.129412 0.721569 0.917647 rg
145.656 158.898 m 145.656 79.449 l 145.676 72.145 151.594 66.23 158.898
 66.207 c 205.242 66.207 l 212.547 66.23 218.461 72.145 218.484 79.449 c
 218.484 172.137 l h
145.656 158.898 m f
0.572549 0.819608 0.286275 rg
183.855 148.105 m 206.832 113.875 l 210.188 108.906 215.797 105.93 221.793
 105.93 c 227.789 105.93 233.398 108.906 236.758 113.875 c 275.023 170.879
 l 278.66 176.375 278.977 183.43 275.848 189.23 c 272.719 195.031 266.652
 198.641 260.062 198.621 c 183.527 198.621 l 177.703 198.676 172.227 195.852
 168.895 191.074 c h
183.855 148.105 m f
1 0.764706 0.0235294 rg
185.379 158.898 m 185.379 180.836 167.594 198.621 145.656 198.621 c 123.715
 198.621 105.93 180.836 105.93 158.898 c 105.93 136.957 123.715 119.172 
145.656 119.172 c 167.594 119.172 185.379 136.957 185.379 158.898 c h
185.379 158.898 m f
0.545098 0.576471 0.635294 rg
211.863 297.93 m 172.137 297.93 l 168.48 297.93 165.516 294.969 165.516
 291.309 c 165.516 287.652 168.48 284.691 172.137 284.691 c 211.863 284.691
 l 215.52 284.691 218.484 287.652 218.484 291.309 c 218.484 294.969 215.52
 297.93 211.863 297.93 c h
211.863 297.93 m f
0.160784 0.329412 0.454902 rg
39.723 46.344 m 26.484 46.344 l 22.828 46.344 19.863 43.379 19.863 39.723
 c 19.863 36.066 22.828 33.102 26.484 33.102 c 39.723 33.102 l 43.379 33.102
 46.344 36.066 46.344 39.723 c 46.344 43.379 43.379 46.344 39.723 46.344
 c h
39.723 46.344 m f
39.723 72.828 m 26.484 72.828 l 22.828 72.828 19.863 69.863 19.863 66.207
 c 19.863 62.551 22.828 59.586 26.484 59.586 c 39.723 59.586 l 43.379 59.586
 46.344 62.551 46.344 66.207 c 46.344 69.863 43.379 72.828 39.723 72.828
 c h
39.723 72.828 m f
39.723 99.309 m 26.484 99.309 l 22.828 99.309 19.863 96.348 19.863 92.691
 c 19.863 89.031 22.828 86.07 26.484 86.07 c 39.723 86.07 l 43.379 86.07
 46.344 89.031 46.344 92.691 c 46.344 96.348 43.379 99.309 39.723 99.309
 c h
39.723 99.309 m f
39.723 125.793 m 26.484 125.793 l 22.828 125.793 19.863 122.828 19.863 
119.172 c 19.863 115.516 22.828 112.551 26.484 112.551 c 39.723 112.551 
l 43.379 112.551 46.344 115.516 46.344 119.172 c 46.344 122.828 43.379 125.793
 39.723 125.793 c h
39.723 125.793 m f
39.723 152.277 m 26.484 152.277 l 22.828 152.277 19.863 149.312 19.863 
145.656 c 19.863 142 22.828 139.035 26.484 139.035 c 39.723 139.035 l 43.379
 139.035 46.344 142 46.344 145.656 c 46.344 149.312 43.379 152.277 39.723
 152.277 c h
39.723 152.277 m f
39.723 178.758 m 26.484 178.758 l 22.828 178.758 19.863 175.793 19.863 
172.137 c 19.863 168.48 22.828 165.516 26.484 165.516 c 39.723 165.516 l
 43.379 165.516 46.344 168.48 46.344 172.137 c 46.344 175.793 43.379 178.758
 39.723 178.758 c h
39.723 178.758 m f
0.113725 0.262745 0.356863 rg
357.516 192 m 331.035 192 l 327.379 192 324.414 189.035 324.414 185.379
 c 324.414 181.723 327.379 178.758 331.035 178.758 c 357.516 178.758 l 361.172
 178.758 364.137 181.723 364.137 185.379 c 364.137 189.035 361.172 192 357.516
 192 c h
357.516 192 m f
357.516 218.484 m 331.035 218.484 l 327.379 218.484 324.414 215.52 324.414
 211.863 c 324.414 208.207 327.379 205.242 331.035 205.242 c 357.516 205.242
 l 361.172 205.242 364.137 208.207 364.137 211.863 c 364.137 215.52 361.172
 218.484 357.516 218.484 c h
357.516 218.484 m f
0.160784 0.329412 0.454902 rg
357.516 86.07 m 344.277 86.07 l 340.621 86.07 337.656 83.105 337.656 79.449
 c 337.656 75.793 340.621 72.828 344.277 72.828 c 357.516 72.828 l 361.172
 72.828 364.137 75.793 364.137 79.449 c 364.137 83.105 361.172 86.07 357.516
 86.07 c h
357.516 86.07 m f
357.516 112.551 m 344.277 112.551 l 340.621 112.551 337.656 109.586 337.656
 105.93 c 337.656 102.273 340.621 99.309 344.277 99.309 c 357.516 99.309
 l 361.172 99.309 364.137 102.273 364.137 105.93 c 364.137 109.586 361.172
 112.551 357.516 112.551 c h
357.516 112.551 m f
357.516 139.035 m 344.277 139.035 l 340.621 139.035 337.656 136.07 337.656
 132.414 c 337.656 128.758 340.621 125.793 344.277 125.793 c 357.516 125.793
 l 361.172 125.793 364.137 128.758 364.137 132.414 c 364.137 136.07 361.172
 139.035 357.516 139.035 c h
357.516 139.035 m f
0.113725 0.262745 0.356863 rg
357.516 244.965 m 331.035 244.965 l 327.379 244.965 324.414 242 324.414
 238.344 c 324.414 234.688 327.379 231.723 331.035 231.723 c 357.516 231.723
 l 361.172 231.723 364.137 234.688 364.137 238.344 c 364.137 242 361.172
 244.965 357.516 244.965 c h
357.516 244.965 m f
0.545098 0.576471 0.635294 rg
278.07 384 m 105.93 384 l 102.273 384 99.309 381.035 99.309 377.379 c 99.309
 373.723 102.273 370.758 105.93 370.758 c 278.07 370.758 l 281.727 370.758
 284.691 373.723 284.691 377.379 c 284.691 381.035 281.727 384 278.07 384
 c h
278.07 384 m f
Q Q
showpage
%%Trailer
end
%%EOF
