%!PS-Adobe-3.0 EPSF-3.0
%%Creator: cairo 1.16.0 (https://cairographics.org)
%%CreationDate: Mon Jul 22 07:30:34 2019
%%Pages: 1
%%DocumentData: Clean7Bit
%%LanguageLevel: 2
%%BoundingBox: 0 0 384 384
%%EndComments
%%BeginProlog
50 dict begin
/q { gsave } bind def
/Q { grestore } bind def
/cm { 6 array astore concat } bind def
/w { setlinewidth } bind def
/J { setlinecap } bind def
/j { setlinejoin } bind def
/M { setmiterlimit } bind def
/d { setdash } bind def
/m { moveto } bind def
/l { lineto } bind def
/c { curveto } bind def
/h { closepath } bind def
/re { exch dup neg 3 1 roll 5 3 roll moveto 0 rlineto
      0 exch rlineto 0 rlineto closepath } bind def
/S { stroke } bind def
/f { fill } bind def
/f* { eofill } bind def
/n { newpath } bind def
/W { clip } bind def
/W* { eoclip } bind def
/BT { } bind def
/ET { } bind def
/BDC { mark 3 1 roll /BDC pdfmark } bind def
/EMC { mark /EMC pdfmark } bind def
/cairo_store_point { /cairo_point_y exch def /cairo_point_x exch def } def
/Tj { show currentpoint cairo_store_point } bind def
/TJ {
  {
    dup
    type /stringtype eq
    { show } { -0.001 mul 0 cairo_font_matrix dtransform rmoveto } ifelse
  } forall
  currentpoint cairo_store_point
} bind def
/cairo_selectfont { cairo_font_matrix aload pop pop pop 0 0 6 array astore
    cairo_font exch selectfont cairo_point_x cairo_point_y moveto } bind def
/Tf { pop /cairo_font exch def /cairo_font_matrix where
      { pop cairo_selectfont } if } bind def
/Td { matrix translate cairo_font_matrix matrix concatmatrix dup
      /cairo_font_matrix exch def dup 4 get exch 5 get cairo_store_point
      /cairo_font where { pop cairo_selectfont } if } bind def
/Tm { 2 copy 8 2 roll 6 array astore /cairo_font_matrix exch def
      cairo_store_point /cairo_font where { pop cairo_selectfont } if } bind def
/g { setgray } bind def
/rg { setrgbcolor } bind def
/d1 { setcachedevice } bind def
/cairo_data_source {
  CairoDataIndex CairoData length lt
    { CairoData CairoDataIndex get /CairoDataIndex CairoDataIndex 1 add def }
    { () } ifelse
} def
/cairo_flush_ascii85_file { cairo_ascii85_file status { cairo_ascii85_file flushfile } if } def
/cairo_image { image cairo_flush_ascii85_file } def
/cairo_imagemask { imagemask cairo_flush_ascii85_file } def
%%EndProlog
%%BeginSetup
%%EndSetup
%%Page: 1 1
%%BeginPageSetup
%%PageBoundingBox: 0 0 384 384
%%EndPageSetup
q 0 0 384 384 rectclip
1 0 0 -1 0 384 cm q
0.156863 0.521569 0.933333 rg
52.965 0 m 331.035 0 l 337.656 13.242 l 337.656 238.344 l 331.035 251.586
 l 52.965 251.586 l 46.344 244.965 l 46.344 6.621 l h
52.965 0 m f
0.807843 0.823529 0.862745 rg
19.863 0 m 52.965 0 l 52.965 251.586 l 19.863 251.586 l 8.891 251.586 0
 242.695 0 231.723 c 0 19.863 l 0 8.891 8.891 0 19.863 0 c h
19.863 0 m f
331.035 0 m 364.137 0 l 375.109 0 384 8.891 384 19.863 c 384 231.723 l 
384 242.695 375.109 251.586 364.137 251.586 c 331.035 251.586 l h
331.035 0 m f
0.941176 0.74902 0.576471 rg
291.309 219.609 m 291.309 331.035 l 291.305 339.961 285.348 347.789 276.746
 350.168 c 273.719 350.887 271.547 353.547 271.449 356.656 c 271.449 370.758
 l 271.426 378.062 265.512 383.977 258.207 384 c 152.277 384 l 144.973 383.977
 139.055 378.062 139.035 370.758 c 139.035 357.516 l 139.035 353.859 136.07
 350.898 132.414 350.898 c 123.625 350.922 115.191 347.445 108.977 341.23
 c 102.762 335.016 99.285 326.582 99.309 317.793 c 99.309 244.965 l 99.309
 233.996 108.203 225.102 119.172 225.102 c 132.414 225.102 l 132.414 112.551
 l 132.414 107.285 134.508 102.234 138.238 98.516 c 140.312 96.41 142.852
 94.82 145.656 93.883 c 148.234 92.934 150.992 92.547 153.73 92.758 c 164.371
 93.891 172.367 102.98 172.137 113.676 c 172.137 192 l 172.137 186.734 174.234
 181.684 177.965 177.965 c 180.035 175.859 182.578 174.27 185.379 173.328
 c 187.961 172.379 190.715 171.996 193.457 172.203 c 204.094 173.34 212.09
 182.43 211.863 193.125 c 211.863 205.242 l 211.863 199.973 213.957 194.926
 217.688 191.207 c 219.762 189.098 222.301 187.512 225.102 186.57 c 227.684
 185.621 230.438 185.238 233.18 185.445 c 243.816 186.582 251.816 195.672
 251.586 206.367 c 251.586 218.484 l 251.586 213.215 253.684 208.164 257.414
 204.445 c 259.484 202.34 262.027 200.754 264.828 199.812 c 267.41 198.863
 270.164 198.48 272.906 198.688 c 283.543 199.824 291.539 208.914 291.309
 219.609 c h
291.309 219.609 m f
0.545098 0.576471 0.635294 rg
33.102 92.691 m 33.102 99.309 l 33.102 102.969 30.141 105.93 26.484 105.93
 c 22.828 105.93 19.863 102.969 19.863 99.309 c 19.863 92.691 l 19.863 89.031
 22.828 86.07 26.484 86.07 c 30.141 86.07 33.102 89.031 33.102 92.691 c 
h
33.102 92.691 m f
33.102 125.793 m 33.102 158.898 l 33.102 162.555 30.141 165.516 26.484 
165.516 c 22.828 165.516 19.863 162.555 19.863 158.898 c 19.863 125.793 
l 19.863 122.137 22.828 119.172 26.484 119.172 c 30.141 119.172 33.102 122.137
 33.102 125.793 c h
33.102 125.793 m f
364.137 112.551 m 364.137 139.035 l 364.137 142.691 361.172 145.656 357.516
 145.656 c 353.859 145.656 350.898 142.691 350.898 139.035 c 350.898 112.551
 l 350.898 108.895 353.859 105.93 357.516 105.93 c 361.172 105.93 364.137
 108.895 364.137 112.551 c h
364.137 112.551 m f
0.894118 0.682353 0.501961 rg
264.828 199.812 m 264.828 225.102 l 264.828 228.762 261.863 231.723 258.207
 231.723 c 254.551 231.723 251.586 228.762 251.586 225.102 c 251.586 218.484
 l 251.586 213.215 253.684 208.164 257.414 204.445 c 259.484 202.34 262.027
 200.754 264.828 199.812 c h
264.828 199.812 m f
225.102 186.57 m 225.102 225.102 l 225.102 228.762 222.141 231.723 218.484
 231.723 c 214.828 231.723 211.863 228.762 211.863 225.102 c 211.863 205.242
 l 211.863 199.973 213.957 194.926 217.688 191.207 c 219.762 189.098 222.301
 187.512 225.102 186.57 c h
225.102 186.57 m f
145.656 93.883 m 145.656 264.828 l 145.656 268.484 142.691 271.449 139.035
 271.449 c 135.379 271.449 132.414 268.484 132.414 264.828 c 132.414 112.551
 l 132.414 107.285 134.508 102.234 138.238 98.516 c 140.312 96.41 142.852
 94.82 145.656 93.883 c h
145.656 93.883 m f
185.379 173.328 m 185.379 225.102 l 185.379 228.762 182.414 231.723 178.758
 231.723 c 175.102 231.723 172.137 228.762 172.137 225.102 c 172.137 192
 l 172.137 186.734 174.234 181.684 177.965 177.965 c 180.035 175.859 182.578
 174.27 185.379 173.328 c h
185.379 173.328 m f
0.0352941 0.439216 0.870588 rg
196.699 99.309 m 193.773 99.309 191.191 97.383 190.359 94.578 c 185.34 
77.738 169.859 66.199 152.289 66.199 c 134.719 66.199 119.238 77.738 114.219
 94.578 c 113.094 97.969 109.477 99.852 106.051 98.832 c 102.625 97.812 
100.625 94.258 101.535 90.805 c 108.215 68.34 128.867 52.938 152.301 52.938
 c 175.738 52.938 196.387 68.34 203.07 90.805 c 204.109 94.305 202.121 97.984
 198.621 99.031 c 198 99.223 197.352 99.316 196.699 99.309 c h
196.699 99.309 m f
218.484 66.207 m 216.352 66.207 214.352 65.188 213.105 63.461 c 198.723
 44.344 176.191 33.102 152.27 33.102 c 128.348 33.102 105.816 44.344 91.434
 63.461 c 89.281 66.395 85.168 67.043 82.219 64.918 c 79.266 62.789 78.586
 58.68 80.691 55.715 c 97.566 33.148 124.094 19.863 152.27 19.863 c 180.445
 19.863 206.973 33.148 223.844 55.715 c 225.301 57.727 225.5 60.387 224.371
 62.598 c 223.242 64.812 220.969 66.203 218.484 66.207 c h
218.484 66.207 m f
Q Q
showpage
%%Trailer
end
%%EOF
