%!PS-Adobe-3.0 EPSF-3.0
%%Creator: cairo 1.16.0 (https://cairographics.org)
%%CreationDate: Mon Jul 22 07:30:35 2019
%%Pages: 1
%%DocumentData: Clean7Bit
%%LanguageLevel: 2
%%BoundingBox: 0 0 384 384
%%EndComments
%%BeginProlog
50 dict begin
/q { gsave } bind def
/Q { grestore } bind def
/cm { 6 array astore concat } bind def
/w { setlinewidth } bind def
/J { setlinecap } bind def
/j { setlinejoin } bind def
/M { setmiterlimit } bind def
/d { setdash } bind def
/m { moveto } bind def
/l { lineto } bind def
/c { curveto } bind def
/h { closepath } bind def
/re { exch dup neg 3 1 roll 5 3 roll moveto 0 rlineto
      0 exch rlineto 0 rlineto closepath } bind def
/S { stroke } bind def
/f { fill } bind def
/f* { eofill } bind def
/n { newpath } bind def
/W { clip } bind def
/W* { eoclip } bind def
/BT { } bind def
/ET { } bind def
/BDC { mark 3 1 roll /BDC pdfmark } bind def
/EMC { mark /EMC pdfmark } bind def
/cairo_store_point { /cairo_point_y exch def /cairo_point_x exch def } def
/Tj { show currentpoint cairo_store_point } bind def
/TJ {
  {
    dup
    type /stringtype eq
    { show } { -0.001 mul 0 cairo_font_matrix dtransform rmoveto } ifelse
  } forall
  currentpoint cairo_store_point
} bind def
/cairo_selectfont { cairo_font_matrix aload pop pop pop 0 0 6 array astore
    cairo_font exch selectfont cairo_point_x cairo_point_y moveto } bind def
/Tf { pop /cairo_font exch def /cairo_font_matrix where
      { pop cairo_selectfont } if } bind def
/Td { matrix translate cairo_font_matrix matrix concatmatrix dup
      /cairo_font_matrix exch def dup 4 get exch 5 get cairo_store_point
      /cairo_font where { pop cairo_selectfont } if } bind def
/Tm { 2 copy 8 2 roll 6 array astore /cairo_font_matrix exch def
      cairo_store_point /cairo_font where { pop cairo_selectfont } if } bind def
/g { setgray } bind def
/rg { setrgbcolor } bind def
/d1 { setcachedevice } bind def
/cairo_data_source {
  CairoDataIndex CairoData length lt
    { CairoData CairoDataIndex get /CairoDataIndex CairoDataIndex 1 add def }
    { () } ifelse
} def
/cairo_flush_ascii85_file { cairo_ascii85_file status { cairo_ascii85_file flushfile } if } def
/cairo_image { image cairo_flush_ascii85_file } def
/cairo_imagemask { imagemask cairo_flush_ascii85_file } def
%%EndProlog
%%BeginSetup
%%EndSetup
%%Page: 1 1
%%BeginPageSetup
%%PageBoundingBox: 0 0 384 384
%%EndPageSetup
q 0 0 384 384 rectclip
1 0 0 -1 0 384 cm q
0.807843 0.823529 0.862745 rg
384 52.965 m 384 370.758 l 383.977 378.062 378.062 383.977 370.758 384 
c 13.242 384 l 5.938 383.977 0.023 378.062 0 370.758 c 0 52.965 l 13.242
 46.344 l 370.758 46.344 l h
384 52.965 m f
0.156863 0.521569 0.933333 rg
384 13.242 m 384 52.965 l 0 52.965 l 0 13.242 l 0.023 5.938 5.938 0.023
 13.242 0 c 370.758 0 l 378.062 0.023 383.977 5.938 384 13.242 c h
384 13.242 m f
0.968627 0.678431 0 rg
152.277 145.656 m 152.277 147.848 152.145 150.035 151.879 152.211 c 148.398
 183.652 120.957 206.895 89.371 205.152 c 57.785 203.41 33.066 177.289 33.066
 145.656 c 33.066 114.023 57.785 87.902 89.371 86.16 c 120.957 84.418 148.398
 107.66 151.879 139.102 c 152.145 141.277 152.277 143.465 152.277 145.656
 c h
152.277 145.656 m f
1 g
112.551 139.035 m 112.551 150.004 103.66 158.898 92.691 158.898 c 81.719
 158.898 72.828 150.004 72.828 139.035 c 72.828 128.066 81.719 119.172 92.691
 119.172 c 103.66 119.172 112.551 128.066 112.551 139.035 c h
112.551 139.035 m f
0.968627 0.678431 0 rg
251.586 119.172 m 331.035 119.172 l 338.371 119.172 344.277 125.078 344.277
 132.414 c 344.277 158.898 l 344.277 166.23 338.371 172.137 331.035 172.137
 c 251.586 172.137 l 244.25 172.137 238.344 166.23 238.344 158.898 c 238.344
 132.414 l 238.344 125.078 244.25 119.172 251.586 119.172 c h
251.586 119.172 m f
251.586 205.242 m 331.035 205.242 l 338.371 205.242 344.277 211.148 344.277
 218.484 c 344.277 244.965 l 344.277 252.301 338.371 258.207 331.035 258.207
 c 251.586 258.207 l 244.25 258.207 238.344 252.301 238.344 244.965 c 238.344
 218.484 l 238.344 211.148 244.25 205.242 251.586 205.242 c h
251.586 205.242 m f
251.586 291.309 m 331.035 291.309 l 338.371 291.309 344.277 297.215 344.277
 304.551 c 344.277 331.035 l 344.277 338.371 338.371 344.277 331.035 344.277
 c 251.586 344.277 l 244.25 344.277 238.344 338.371 238.344 331.035 c 238.344
 304.551 l 238.344 297.215 244.25 291.309 251.586 291.309 c h
251.586 291.309 m f
152.277 317.793 m 152.293 320.008 152.004 322.211 151.414 324.348 c 150.262
 328.957 147.883 333.164 144.531 336.531 c 139.547 341.48 132.816 344.262
 125.793 344.277 c 72.828 344.277 l 58.203 344.277 46.344 332.418 46.344
 317.793 c 46.344 303.168 58.203 291.309 72.828 291.309 c 125.793 291.309
 l 137.887 291.309 148.441 299.516 151.414 311.238 c 152.004 313.375 152.293
 315.578 152.277 317.793 c h
152.277 317.793 m f
1 g
131.621 190.676 m 109.301 210.098 76.082 210.098 53.762 190.676 c 57.52
 172.16 73.797 158.855 92.691 158.855 c 111.582 158.855 127.859 172.16 131.621
 190.676 c h
131.621 190.676 m f
0.94902 0.537255 0.792157 rg
39.723 33.102 m 33.102 33.102 l 29.445 33.102 26.484 30.141 26.484 26.484
 c 26.484 22.828 29.445 19.863 33.102 19.863 c 39.723 19.863 l 43.379 19.863
 46.344 22.828 46.344 26.484 c 46.344 30.141 43.379 33.102 39.723 33.102
 c h
39.723 33.102 m f
1 0.764706 0.0235294 rg
79.449 33.102 m 72.828 33.102 l 69.172 33.102 66.207 30.141 66.207 26.484
 c 66.207 22.828 69.172 19.863 72.828 19.863 c 79.449 19.863 l 83.105 19.863
 86.07 22.828 86.07 26.484 c 86.07 30.141 83.105 33.102 79.449 33.102 c 
h
79.449 33.102 m f
0.670588 0.870588 0.384314 rg
119.172 33.102 m 112.551 33.102 l 108.895 33.102 105.93 30.141 105.93 26.484
 c 105.93 22.828 108.895 19.863 112.551 19.863 c 119.172 19.863 l 122.828
 19.863 125.793 22.828 125.793 26.484 c 125.793 30.141 122.828 33.102 119.172
 33.102 c h
119.172 33.102 m f
0.0352941 0.439216 0.870588 rg
350.898 33.102 m 311.172 33.102 l 307.516 33.102 304.551 30.141 304.551
 26.484 c 304.551 22.828 307.516 19.863 311.172 19.863 c 350.898 19.863 
l 354.555 19.863 357.516 22.828 357.516 26.484 c 357.516 30.141 354.555 
33.102 350.898 33.102 c h
350.898 33.102 m f
0.47451 0.509804 0.568627 rg
238.344 139.035 m 238.344 152.277 l 152.277 152.277 l 152.141 152.285 152.004
 152.262 151.879 152.211 c 152.406 147.855 152.406 143.453 151.879 139.102
 c 152.004 139.047 152.141 139.023 152.277 139.035 c h
238.344 139.035 m f
0.94902 0.956863 0.968627 rg
271.449 152.277 m 264.828 152.277 l 261.172 152.277 258.207 149.312 258.207
 145.656 c 258.207 142 261.172 139.035 264.828 139.035 c 271.449 139.035
 l 275.105 139.035 278.07 142 278.07 145.656 c 278.07 149.312 275.105 152.277
 271.449 152.277 c h
271.449 152.277 m f
317.793 152.277 m 297.93 152.277 l 294.273 152.277 291.309 149.312 291.309
 145.656 c 291.309 142 294.273 139.035 297.93 139.035 c 317.793 139.035 
l 321.449 139.035 324.414 142 324.414 145.656 c 324.414 149.312 321.449 
152.277 317.793 152.277 c h
317.793 152.277 m f
271.449 238.344 m 264.828 238.344 l 261.172 238.344 258.207 235.379 258.207
 231.723 c 258.207 228.066 261.172 225.102 264.828 225.102 c 271.449 225.102
 l 275.105 225.102 278.07 228.066 278.07 231.723 c 278.07 235.379 275.105
 238.344 271.449 238.344 c h
271.449 238.344 m f
317.793 238.344 m 297.93 238.344 l 294.273 238.344 291.309 235.379 291.309
 231.723 c 291.309 228.066 294.273 225.102 297.93 225.102 c 317.793 225.102
 l 321.449 225.102 324.414 228.066 324.414 231.723 c 324.414 235.379 321.449
 238.344 317.793 238.344 c h
317.793 238.344 m f
271.449 324.414 m 264.828 324.414 l 261.172 324.414 258.207 321.449 258.207
 317.793 c 258.207 314.137 261.172 311.172 264.828 311.172 c 271.449 311.172
 l 275.105 311.172 278.07 314.137 278.07 317.793 c 278.07 321.449 275.105
 324.414 271.449 324.414 c h
271.449 324.414 m f
317.793 324.414 m 297.93 324.414 l 294.273 324.414 291.309 321.449 291.309
 317.793 c 291.309 314.137 294.273 311.172 297.93 311.172 c 317.793 311.172
 l 321.449 311.172 324.414 314.137 324.414 317.793 c 324.414 321.449 321.449
 324.414 317.793 324.414 c h
317.793 324.414 m f
79.449 324.414 m 72.828 324.414 l 69.172 324.414 66.207 321.449 66.207 
317.793 c 66.207 314.137 69.172 311.172 72.828 311.172 c 79.449 311.172 
l 83.105 311.172 86.07 314.137 86.07 317.793 c 86.07 321.449 83.105 324.414
 79.449 324.414 c h
79.449 324.414 m f
125.793 324.414 m 105.93 324.414 l 102.273 324.414 99.309 321.449 99.309
 317.793 c 99.309 314.137 102.273 311.172 105.93 311.172 c 125.793 311.172
 l 129.449 311.172 132.414 314.137 132.414 317.793 c 132.414 321.449 129.449
 324.414 125.793 324.414 c h
125.793 324.414 m f
0.47451 0.509804 0.568627 rg
284.691 172.137 13.238 33.105 re f
284.691 258.207 13.238 33.102 re f
238.344 311.172 m 238.344 324.414 l 152.277 324.414 l 151.988 324.426 151.699
 324.402 151.414 324.348 c 152.562 320.055 152.562 315.531 151.414 311.238
 c 151.699 311.184 151.988 311.16 152.277 311.172 c h
238.344 311.172 m f
Q Q
showpage
%%Trailer
end
%%EOF
