%!PS-Adobe-3.0 EPSF-3.0
%%Creator: cairo 1.16.0 (https://cairographics.org)
%%CreationDate: Mon Jul 22 07:30:35 2019
%%Pages: 1
%%DocumentData: Clean7Bit
%%LanguageLevel: 2
%%BoundingBox: 0 0 384 384
%%EndComments
%%BeginProlog
50 dict begin
/q { gsave } bind def
/Q { grestore } bind def
/cm { 6 array astore concat } bind def
/w { setlinewidth } bind def
/J { setlinecap } bind def
/j { setlinejoin } bind def
/M { setmiterlimit } bind def
/d { setdash } bind def
/m { moveto } bind def
/l { lineto } bind def
/c { curveto } bind def
/h { closepath } bind def
/re { exch dup neg 3 1 roll 5 3 roll moveto 0 rlineto
      0 exch rlineto 0 rlineto closepath } bind def
/S { stroke } bind def
/f { fill } bind def
/f* { eofill } bind def
/n { newpath } bind def
/W { clip } bind def
/W* { eoclip } bind def
/BT { } bind def
/ET { } bind def
/BDC { mark 3 1 roll /BDC pdfmark } bind def
/EMC { mark /EMC pdfmark } bind def
/cairo_store_point { /cairo_point_y exch def /cairo_point_x exch def } def
/Tj { show currentpoint cairo_store_point } bind def
/TJ {
  {
    dup
    type /stringtype eq
    { show } { -0.001 mul 0 cairo_font_matrix dtransform rmoveto } ifelse
  } forall
  currentpoint cairo_store_point
} bind def
/cairo_selectfont { cairo_font_matrix aload pop pop pop 0 0 6 array astore
    cairo_font exch selectfont cairo_point_x cairo_point_y moveto } bind def
/Tf { pop /cairo_font exch def /cairo_font_matrix where
      { pop cairo_selectfont } if } bind def
/Td { matrix translate cairo_font_matrix matrix concatmatrix dup
      /cairo_font_matrix exch def dup 4 get exch 5 get cairo_store_point
      /cairo_font where { pop cairo_selectfont } if } bind def
/Tm { 2 copy 8 2 roll 6 array astore /cairo_font_matrix exch def
      cairo_store_point /cairo_font where { pop cairo_selectfont } if } bind def
/g { setgray } bind def
/rg { setrgbcolor } bind def
/d1 { setcachedevice } bind def
/cairo_data_source {
  CairoDataIndex CairoData length lt
    { CairoData CairoDataIndex get /CairoDataIndex CairoDataIndex 1 add def }
    { () } ifelse
} def
/cairo_flush_ascii85_file { cairo_ascii85_file status { cairo_ascii85_file flushfile } if } def
/cairo_image { image cairo_flush_ascii85_file } def
/cairo_imagemask { imagemask cairo_flush_ascii85_file } def
%%EndProlog
%%BeginSetup
%%EndSetup
%%Page: 1 1
%%BeginPageSetup
%%PageBoundingBox: 0 0 384 384
%%EndPageSetup
q 0 0 384 384 rectclip
1 0 0 -1 0 384 cm q
0.545098 0.576471 0.635294 rg
238.344 304.551 m 132.414 304.551 l 132.414 344.277 l 132.414 366.215 114.629
 384 92.691 384 c 238.344 384 l h
238.344 304.551 m f
0.301961 0.541176 0.670588 rg
344.277 19.863 m 344.277 278.07 l 79.449 278.07 l 79.449 6.621 l 92.691
 0 l 324.414 0 l 335.383 0 344.277 8.891 344.277 19.863 c h
344.277 19.863 m f
0.203922 0.427451 0.580392 rg
92.691 0 m 92.691 278.07 l 0 264.828 l 0 19.863 l 0 8.891 8.891 0 19.863
 0 c h
92.691 0 m f
0.847059 0.866667 0.898039 rg
258.207 46.344 m 258.207 59.586 l 125.793 59.586 l 125.793 46.344 l 125.793
 35.375 134.688 26.484 145.656 26.484 c 238.344 26.484 l 249.312 26.484 
258.207 35.375 258.207 46.344 c h
258.207 46.344 m f
0.254902 0.807843 0.952941 rg
125.793 59.586 132.414 145.656 re f
0.847059 0.866667 0.898039 rg
258.207 205.242 m 258.207 238.344 l 145.656 238.344 l 134.688 238.344 125.793
 229.453 125.793 218.484 c 125.793 205.242 l h
258.207 205.242 m f
0.733333 0.756863 0.807843 rg
344.277 264.828 m 344.277 317.793 l 19.863 317.793 l 8.891 317.793 0 308.902
 0 297.93 c 0 264.828 l h
344.277 264.828 m f
0.156863 0.521569 0.933333 rg
384 172.137 m 384 331.035 l 377.379 337.656 l 218.484 337.656 l 211.863
 331.035 l 211.863 172.137 l 218.484 165.516 l 377.379 165.516 l h
384 172.137 m f
0.847059 0.866667 0.898039 rg
384 331.035 m 384 364.137 l 384 375.109 375.109 384 364.137 384 c 231.723
 384 l 223.309 384.039 215.801 378.715 213.055 370.758 c 212.254 368.645
 211.848 366.398 211.863 364.137 c 211.863 331.035 l h
384 331.035 m f
0.160784 0.329412 0.454902 rg
39.723 198.621 m 52.965 198.621 l 56.633 198.621 59.586 201.574 59.586 
205.242 c 59.586 218.484 l 59.586 222.152 56.633 225.102 52.965 225.102 
c 39.723 225.102 l 36.055 225.102 33.102 222.152 33.102 218.484 c 33.102
 205.242 l 33.102 201.574 36.055 198.621 39.723 198.621 c h
39.723 198.621 m f
0 0.647059 0.862745 rg
238.344 92.691 m 238.344 119.172 l 231.723 119.172 l 229.461 119.16 227.219
 119.562 225.102 120.363 c 225.102 92.691 l 158.898 92.691 l 158.898 132.414
 l 213.055 132.414 l 212.254 134.527 211.848 136.773 211.863 139.035 c 211.863
 145.656 l 158.898 145.656 l 151.594 145.633 145.676 139.719 145.656 132.414
 c 145.656 92.691 l 145.676 85.387 151.594 79.469 158.898 79.449 c 225.102
 79.449 l 232.406 79.469 238.324 85.387 238.344 92.691 c h
238.344 92.691 m f
0.847059 0.866667 0.898039 rg
384 139.035 m 384 172.137 l 211.863 172.137 l 211.863 139.035 l 211.848
 136.773 212.254 134.527 213.055 132.414 c 215.004 126.758 219.445 122.312
 225.102 120.363 c 227.219 119.562 229.461 119.16 231.723 119.172 c 364.137
 119.172 l 375.109 119.172 384 128.066 384 139.035 c h
384 139.035 m f
0.545098 0.576471 0.635294 rg
185.379 297.93 m 158.898 297.93 l 155.238 297.93 152.277 294.969 152.277
 291.309 c 152.277 287.652 155.238 284.691 158.898 284.691 c 185.379 284.691
 l 189.035 284.691 192 287.652 192 291.309 c 192 294.969 189.035 297.93 
185.379 297.93 c h
185.379 297.93 m f
0.733333 0.756863 0.807843 rg
304.551 364.137 m 291.309 364.137 l 287.652 364.137 284.691 361.172 284.691
 357.516 c 284.691 353.859 287.652 350.898 291.309 350.898 c 304.551 350.898
 l 308.207 350.898 311.172 353.859 311.172 357.516 c 311.172 361.172 308.207
 364.137 304.551 364.137 c h
304.551 364.137 m f
291.309 152.277 m 271.449 152.277 l 267.793 152.277 264.828 149.312 264.828
 145.656 c 264.828 142 267.793 139.035 271.449 139.035 c 291.309 139.035
 l 294.969 139.035 297.93 142 297.93 145.656 c 297.93 149.312 294.969 152.277
 291.309 152.277 c h
291.309 152.277 m f
324.414 152.277 m 317.793 152.277 l 314.137 152.277 311.172 149.312 311.172
 145.656 c 311.172 142 314.137 139.035 317.793 139.035 c 324.414 139.035
 l 328.07 139.035 331.035 142 331.035 145.656 c 331.035 149.312 328.07 152.277
 324.414 152.277 c h
324.414 152.277 m f
0.0235294 0.403922 0.74902 rg
350.898 304.551 m 244.965 304.551 l 241.309 304.551 238.344 301.586 238.344
 297.93 c 238.344 294.273 241.309 291.309 244.965 291.309 c 350.898 291.309
 l 354.555 291.309 357.516 294.273 357.516 297.93 c 357.516 301.586 354.555
 304.551 350.898 304.551 c h
350.898 304.551 m f
0 0.647059 0.862745 rg
211.863 158.898 m 211.863 172.137 l 158.898 172.137 l 155.238 172.137 152.277
 169.172 152.277 165.516 c 152.277 161.859 155.238 158.898 158.898 158.898
 c h
211.863 158.898 m f
0.0235294 0.403922 0.74902 rg
352.328 201.422 m 352.207 201.328 l 349.93 199.582 347.145 198.633 344.277
 198.621 c 251.586 198.621 l 248.711 198.629 245.922 199.578 243.641 201.328
 c 243.523 201.422 l 240.27 203.91 238.359 207.766 238.344 211.863 c 238.344
 264.828 l 238.355 268.605 239.992 272.199 242.832 274.688 c 242.934 274.777
 243.047 274.859 243.152 274.945 c 245.508 276.949 248.496 278.055 251.586
 278.07 c 344.277 278.07 l 347.367 278.055 350.355 276.949 352.711 274.945
 c 352.816 274.859 352.93 274.777 353.027 274.688 c 355.871 272.199 357.508
 268.605 357.516 264.828 c 357.516 211.863 l 357.5 207.766 355.582 203.906
 352.328 201.422 c h
251.586 217.16 m 285.445 238.344 l 251.586 259.531 l h
268.051 211.863 m 327.809 211.863 l 297.93 230.539 l h
297.93 246.152 m 327.809 264.828 l 268.051 264.828 l h
310.418 238.344 m 344.277 217.16 l 344.277 259.531 l h
310.418 238.344 m f
0.160784 0.329412 0.454902 rg
59.586 39.723 m 33.102 39.723 l 29.445 39.723 26.484 36.762 26.484 33.102
 c 26.484 29.445 29.445 26.484 33.102 26.484 c 59.586 26.484 l 63.242 26.484
 66.207 29.445 66.207 33.102 c 66.207 36.762 63.242 39.723 59.586 39.723
 c h
59.586 39.723 m f
59.586 72.828 m 33.102 72.828 l 29.445 72.828 26.484 69.863 26.484 66.207
 c 26.484 62.551 29.445 59.586 33.102 59.586 c 59.586 59.586 l 63.242 59.586
 66.207 62.551 66.207 66.207 c 66.207 69.863 63.242 72.828 59.586 72.828
 c h
59.586 72.828 m f
59.586 105.93 m 33.102 105.93 l 29.445 105.93 26.484 102.969 26.484 99.309
 c 26.484 95.652 29.445 92.691 33.102 92.691 c 59.586 92.691 l 63.242 92.691
 66.207 95.652 66.207 99.309 c 66.207 102.969 63.242 105.93 59.586 105.93
 c h
59.586 105.93 m f
59.586 139.035 m 33.102 139.035 l 29.445 139.035 26.484 136.07 26.484 132.414
 c 26.484 128.758 29.445 125.793 33.102 125.793 c 59.586 125.793 l 63.242
 125.793 66.207 128.758 66.207 132.414 c 66.207 136.07 63.242 139.035 59.586
 139.035 c h
59.586 139.035 m f
59.586 172.137 m 33.102 172.137 l 29.445 172.137 26.484 169.172 26.484 
165.516 c 26.484 161.859 29.445 158.898 33.102 158.898 c 59.586 158.898 
l 63.242 158.898 66.207 161.859 66.207 165.516 c 66.207 169.172 63.242 172.137
 59.586 172.137 c h
59.586 172.137 m f
0.47451 0.509804 0.568627 rg
231.723 384 m 79.449 384 l 75.793 384 72.828 381.035 72.828 377.379 c 72.828
 373.723 75.793 370.758 79.449 370.758 c 213.055 370.758 l 215.801 378.715
 223.309 384.039 231.723 384 c h
231.723 384 m f
Q Q
showpage
%%Trailer
end
%%EOF
