%!PS-Adobe-3.0 EPSF-3.0
%%Creator: cairo 1.16.0 (https://cairographics.org)
%%CreationDate: Mon Jul 22 07:30:36 2019
%%Pages: 1
%%DocumentData: Clean7Bit
%%LanguageLevel: 2
%%BoundingBox: 66 0 318 384
%%EndComments
%%BeginProlog
50 dict begin
/q { gsave } bind def
/Q { grestore } bind def
/cm { 6 array astore concat } bind def
/w { setlinewidth } bind def
/J { setlinecap } bind def
/j { setlinejoin } bind def
/M { setmiterlimit } bind def
/d { setdash } bind def
/m { moveto } bind def
/l { lineto } bind def
/c { curveto } bind def
/h { closepath } bind def
/re { exch dup neg 3 1 roll 5 3 roll moveto 0 rlineto
      0 exch rlineto 0 rlineto closepath } bind def
/S { stroke } bind def
/f { fill } bind def
/f* { eofill } bind def
/n { newpath } bind def
/W { clip } bind def
/W* { eoclip } bind def
/BT { } bind def
/ET { } bind def
/BDC { mark 3 1 roll /BDC pdfmark } bind def
/EMC { mark /EMC pdfmark } bind def
/cairo_store_point { /cairo_point_y exch def /cairo_point_x exch def } def
/Tj { show currentpoint cairo_store_point } bind def
/TJ {
  {
    dup
    type /stringtype eq
    { show } { -0.001 mul 0 cairo_font_matrix dtransform rmoveto } ifelse
  } forall
  currentpoint cairo_store_point
} bind def
/cairo_selectfont { cairo_font_matrix aload pop pop pop 0 0 6 array astore
    cairo_font exch selectfont cairo_point_x cairo_point_y moveto } bind def
/Tf { pop /cairo_font exch def /cairo_font_matrix where
      { pop cairo_selectfont } if } bind def
/Td { matrix translate cairo_font_matrix matrix concatmatrix dup
      /cairo_font_matrix exch def dup 4 get exch 5 get cairo_store_point
      /cairo_font where { pop cairo_selectfont } if } bind def
/Tm { 2 copy 8 2 roll 6 array astore /cairo_font_matrix exch def
      cairo_store_point /cairo_font where { pop cairo_selectfont } if } bind def
/g { setgray } bind def
/rg { setrgbcolor } bind def
/d1 { setcachedevice } bind def
/cairo_data_source {
  CairoDataIndex CairoData length lt
    { CairoData CairoDataIndex get /CairoDataIndex CairoDataIndex 1 add def }
    { () } ifelse
} def
/cairo_flush_ascii85_file { cairo_ascii85_file status { cairo_ascii85_file flushfile } if } def
/cairo_image { image cairo_flush_ascii85_file } def
/cairo_imagemask { imagemask cairo_flush_ascii85_file } def
%%EndProlog
%%BeginSetup
%%EndSetup
%%Page: 1 1
%%BeginPageSetup
%%PageBoundingBox: 66 0 318 384
%%EndPageSetup
q 66 0 252 384 rectclip
1 0 0 -1 0 384 cm q
0.156863 0.521569 0.933333 rg
317.793 52.965 m 317.793 331.035 l 304.551 337.656 l 79.449 337.656 l 66.207
 331.035 l 66.207 52.965 l 72.828 46.344 l 311.172 46.344 l h
317.793 52.965 m f
0.807843 0.823529 0.862745 rg
317.793 19.863 m 317.793 52.965 l 66.207 52.965 l 66.207 19.863 l 66.207
 8.891 75.098 0 86.07 0 c 297.93 0 l 308.902 0 317.793 8.891 317.793 19.863
 c h
317.793 19.863 m f
317.793 331.035 m 317.793 364.137 l 317.793 375.109 308.902 384 297.93 
384 c 86.07 384 l 75.098 384 66.207 375.109 66.207 364.137 c 66.207 331.035
 l h
317.793 331.035 m f
0.545098 0.576471 0.635294 rg
225.102 33.102 m 218.484 33.102 l 214.828 33.102 211.863 30.141 211.863
 26.484 c 211.863 22.828 214.828 19.863 218.484 19.863 c 225.102 19.863 
l 228.762 19.863 231.723 22.828 231.723 26.484 c 231.723 30.141 228.762 
33.102 225.102 33.102 c h
225.102 33.102 m f
192 33.102 m 158.898 33.102 l 155.238 33.102 152.277 30.141 152.277 26.484
 c 152.277 22.828 155.238 19.863 158.898 19.863 c 192 19.863 l 195.656 19.863
 198.621 22.828 198.621 26.484 c 198.621 30.141 195.656 33.102 192 33.102
 c h
192 33.102 m f
205.242 364.137 m 178.758 364.137 l 175.102 364.137 172.137 361.172 172.137
 357.516 c 172.137 353.859 175.102 350.898 178.758 350.898 c 205.242 350.898
 l 208.898 350.898 211.863 353.859 211.863 357.516 c 211.863 361.172 208.898
 364.137 205.242 364.137 c h
205.242 364.137 m f
0.94902 0.956863 0.968627 rg
284.691 105.93 m 238.344 105.93 l 234.688 105.93 231.723 102.969 231.723
 99.309 c 231.723 95.652 234.688 92.691 238.344 92.691 c 284.691 92.691 
l 288.348 92.691 291.309 95.652 291.309 99.309 c 291.309 102.969 288.348
 105.93 284.691 105.93 c h
284.691 105.93 m f
284.691 139.035 m 238.344 139.035 l 234.688 139.035 231.723 136.07 231.723
 132.414 c 231.723 128.758 234.688 125.793 238.344 125.793 c 284.691 125.793
 l 288.348 125.793 291.309 128.758 291.309 132.414 c 291.309 136.07 288.348
 139.035 284.691 139.035 c h
284.691 139.035 m f
264.828 172.137 m 238.344 172.137 l 234.688 172.137 231.723 169.172 231.723
 165.516 c 231.723 161.859 234.688 158.898 238.344 158.898 c 264.828 158.898
 l 268.484 158.898 271.449 161.859 271.449 165.516 c 271.449 169.172 268.484
 172.137 264.828 172.137 c h
264.828 172.137 m f
158.898 225.102 m 99.309 225.102 l 95.652 225.102 92.691 222.141 92.691
 218.484 c 92.691 214.828 95.652 211.863 99.309 211.863 c 158.898 211.863
 l 162.555 211.863 165.516 214.828 165.516 218.484 c 165.516 222.141 162.555
 225.102 158.898 225.102 c h
158.898 225.102 m f
158.898 258.207 m 99.309 258.207 l 95.652 258.207 92.691 255.242 92.691
 251.586 c 92.691 247.93 95.652 244.965 99.309 244.965 c 158.898 244.965
 l 162.555 244.965 165.516 247.93 165.516 251.586 c 165.516 255.242 162.555
 258.207 158.898 258.207 c h
158.898 258.207 m f
139.035 291.309 m 99.309 291.309 l 95.652 291.309 92.691 288.348 92.691
 284.691 c 92.691 281.031 95.652 278.07 99.309 278.07 c 139.035 278.07 l
 142.691 278.07 145.656 281.031 145.656 284.691 c 145.656 288.348 142.691
 291.309 139.035 291.309 c h
139.035 291.309 m f
0.160784 0.329412 0.454902 rg
211.863 165.516 m 211.863 99.309 l 211.863 91.996 205.934 86.07 198.621
 86.07 c 105.93 86.07 l 98.617 86.07 92.691 91.996 92.691 99.309 c 92.691
 165.516 l 92.691 172.832 98.617 178.758 105.93 178.758 c 198.621 178.758
 l 205.934 178.758 211.863 172.832 211.863 165.516 c h
105.93 105.93 m 141.246 132.414 l 105.93 158.898 l h
198.621 158.957 m 163.301 132.473 l 198.621 105.93 l h
152.277 124.156 m 119.172 99.336 l 185.379 99.336 l h
152.277 140.711 m 185.379 165.516 l 119.238 165.516 l h
152.277 140.711 m f
278.07 205.242 m 198.621 205.242 l 191.309 205.242 185.379 211.168 185.379
 218.484 c 185.379 284.691 l 185.379 292.004 191.309 297.93 198.621 297.93
 c 278.07 297.93 l 285.383 297.93 291.309 292.004 291.309 284.691 c 291.309
 218.484 l 291.309 211.168 285.383 205.242 278.07 205.242 c h
198.621 226.23 m 228.176 251.586 l 198.621 276.945 l h
209.93 218.484 m 266.762 218.484 l 238.344 242.859 l h
238.344 260.312 m 266.762 284.691 l 209.93 284.691 l h
248.516 251.586 m 278.07 226.23 l 278.07 276.949 l h
248.516 251.586 m f
Q Q
showpage
%%Trailer
end
%%EOF
