%!PS-Adobe-3.0 EPSF-3.0
%%Creator: cairo 1.16.0 (https://cairographics.org)
%%CreationDate: Mon Jul 22 07:30:36 2019
%%Pages: 1
%%DocumentData: Clean7Bit
%%LanguageLevel: 2
%%BoundingBox: 0 0 384 384
%%EndComments
%%BeginProlog
50 dict begin
/q { gsave } bind def
/Q { grestore } bind def
/cm { 6 array astore concat } bind def
/w { setlinewidth } bind def
/J { setlinecap } bind def
/j { setlinejoin } bind def
/M { setmiterlimit } bind def
/d { setdash } bind def
/m { moveto } bind def
/l { lineto } bind def
/c { curveto } bind def
/h { closepath } bind def
/re { exch dup neg 3 1 roll 5 3 roll moveto 0 rlineto
      0 exch rlineto 0 rlineto closepath } bind def
/S { stroke } bind def
/f { fill } bind def
/f* { eofill } bind def
/n { newpath } bind def
/W { clip } bind def
/W* { eoclip } bind def
/BT { } bind def
/ET { } bind def
/BDC { mark 3 1 roll /BDC pdfmark } bind def
/EMC { mark /EMC pdfmark } bind def
/cairo_store_point { /cairo_point_y exch def /cairo_point_x exch def } def
/Tj { show currentpoint cairo_store_point } bind def
/TJ {
  {
    dup
    type /stringtype eq
    { show } { -0.001 mul 0 cairo_font_matrix dtransform rmoveto } ifelse
  } forall
  currentpoint cairo_store_point
} bind def
/cairo_selectfont { cairo_font_matrix aload pop pop pop 0 0 6 array astore
    cairo_font exch selectfont cairo_point_x cairo_point_y moveto } bind def
/Tf { pop /cairo_font exch def /cairo_font_matrix where
      { pop cairo_selectfont } if } bind def
/Td { matrix translate cairo_font_matrix matrix concatmatrix dup
      /cairo_font_matrix exch def dup 4 get exch 5 get cairo_store_point
      /cairo_font where { pop cairo_selectfont } if } bind def
/Tm { 2 copy 8 2 roll 6 array astore /cairo_font_matrix exch def
      cairo_store_point /cairo_font where { pop cairo_selectfont } if } bind def
/g { setgray } bind def
/rg { setrgbcolor } bind def
/d1 { setcachedevice } bind def
/cairo_data_source {
  CairoDataIndex CairoData length lt
    { CairoData CairoDataIndex get /CairoDataIndex CairoDataIndex 1 add def }
    { () } ifelse
} def
/cairo_flush_ascii85_file { cairo_ascii85_file status { cairo_ascii85_file flushfile } if } def
/cairo_image { image cairo_flush_ascii85_file } def
/cairo_imagemask { imagemask cairo_flush_ascii85_file } def
%%EndProlog
%%BeginSetup
%%EndSetup
%%Page: 1 1
%%BeginPageSetup
%%PageBoundingBox: 0 0 384 384
%%EndPageSetup
q 0 0 384 384 rectclip
1 0 0 -1 0 384 cm q
0.0352941 0.439216 0.870588 rg
46.344 0 m 337.656 0 l 363.332 0 384 20.668 384 46.344 c 384 337.656 l 
384 363.332 363.332 384 337.656 384 c 46.344 384 l 20.668 384 0 363.332 
0 337.656 c 0 46.344 l 0 20.668 20.668 0 46.344 0 c h
46.344 0 m f
0.94902 0.956863 0.968627 rg
105.93 92.691 m 105.93 107.316 94.074 119.172 79.449 119.172 c 64.82 119.172
 52.965 107.316 52.965 92.691 c 52.965 78.062 64.82 66.207 79.449 66.207
 c 94.074 66.207 105.93 78.062 105.93 92.691 c h
105.93 92.691 m f
105.93 192 m 105.93 206.625 94.074 218.484 79.449 218.484 c 64.82 218.484
 52.965 206.625 52.965 192 c 52.965 177.375 64.82 165.516 79.449 165.516
 c 94.074 165.516 105.93 177.375 105.93 192 c h
105.93 192 m f
105.93 291.309 m 105.93 305.938 94.074 317.793 79.449 317.793 c 64.82 317.793
 52.965 305.938 52.965 291.309 c 52.965 276.684 64.82 264.828 79.449 264.828
 c 94.074 264.828 105.93 276.684 105.93 291.309 c h
105.93 291.309 m f
158.898 178.758 m 317.793 178.758 l 325.129 178.758 331.035 184.664 331.035
 192 c 331.035 199.336 325.129 205.242 317.793 205.242 c 158.898 205.242
 l 151.562 205.242 145.656 199.336 145.656 192 c 145.656 184.664 151.562
 178.758 158.898 178.758 c h
158.898 178.758 m f
158.898 79.449 m 317.793 79.449 l 325.129 79.449 331.035 85.355 331.035
 92.691 c 331.035 100.023 325.129 105.93 317.793 105.93 c 158.898 105.93
 l 151.562 105.93 145.656 100.023 145.656 92.691 c 145.656 85.355 151.562
 79.449 158.898 79.449 c h
158.898 79.449 m f
158.898 278.07 m 317.793 278.07 l 325.129 278.07 331.035 283.977 331.035
 291.309 c 331.035 298.645 325.129 304.551 317.793 304.551 c 158.898 304.551
 l 151.562 304.551 145.656 298.645 145.656 291.309 c 145.656 283.977 151.562
 278.07 158.898 278.07 c h
158.898 278.07 m f
Q Q
showpage
%%Trailer
end
%%EOF
