%!PS-Adobe-3.0 EPSF-3.0
%%Creator: cairo 1.16.0 (https://cairographics.org)
%%CreationDate: Mon Jul 22 07:30:37 2019
%%Pages: 1
%%DocumentData: Clean7Bit
%%LanguageLevel: 2
%%BoundingBox: 0 0 384 384
%%EndComments
%%BeginProlog
50 dict begin
/q { gsave } bind def
/Q { grestore } bind def
/cm { 6 array astore concat } bind def
/w { setlinewidth } bind def
/J { setlinecap } bind def
/j { setlinejoin } bind def
/M { setmiterlimit } bind def
/d { setdash } bind def
/m { moveto } bind def
/l { lineto } bind def
/c { curveto } bind def
/h { closepath } bind def
/re { exch dup neg 3 1 roll 5 3 roll moveto 0 rlineto
      0 exch rlineto 0 rlineto closepath } bind def
/S { stroke } bind def
/f { fill } bind def
/f* { eofill } bind def
/n { newpath } bind def
/W { clip } bind def
/W* { eoclip } bind def
/BT { } bind def
/ET { } bind def
/BDC { mark 3 1 roll /BDC pdfmark } bind def
/EMC { mark /EMC pdfmark } bind def
/cairo_store_point { /cairo_point_y exch def /cairo_point_x exch def } def
/Tj { show currentpoint cairo_store_point } bind def
/TJ {
  {
    dup
    type /stringtype eq
    { show } { -0.001 mul 0 cairo_font_matrix dtransform rmoveto } ifelse
  } forall
  currentpoint cairo_store_point
} bind def
/cairo_selectfont { cairo_font_matrix aload pop pop pop 0 0 6 array astore
    cairo_font exch selectfont cairo_point_x cairo_point_y moveto } bind def
/Tf { pop /cairo_font exch def /cairo_font_matrix where
      { pop cairo_selectfont } if } bind def
/Td { matrix translate cairo_font_matrix matrix concatmatrix dup
      /cairo_font_matrix exch def dup 4 get exch 5 get cairo_store_point
      /cairo_font where { pop cairo_selectfont } if } bind def
/Tm { 2 copy 8 2 roll 6 array astore /cairo_font_matrix exch def
      cairo_store_point /cairo_font where { pop cairo_selectfont } if } bind def
/g { setgray } bind def
/rg { setrgbcolor } bind def
/d1 { setcachedevice } bind def
/cairo_data_source {
  CairoDataIndex CairoData length lt
    { CairoData CairoDataIndex get /CairoDataIndex CairoDataIndex 1 add def }
    { () } ifelse
} def
/cairo_flush_ascii85_file { cairo_ascii85_file status { cairo_ascii85_file flushfile } if } def
/cairo_image { image cairo_flush_ascii85_file } def
/cairo_imagemask { imagemask cairo_flush_ascii85_file } def
%%EndProlog
%%BeginSetup
%%EndSetup
%%Page: 1 1
%%BeginPageSetup
%%PageBoundingBox: 0 0 384 384
%%EndPageSetup
q 0 0 384 384 rectclip
1 0 0 -1 0 384 cm q
0.0352941 0.439216 0.870588 rg
19.863 225.102 m 139.035 225.102 l 150.039 225.102 158.898 233.961 158.898
 244.965 c 158.898 364.137 l 158.898 375.141 150.039 384 139.035 384 c 19.863
 384 l 8.859 384 0 375.141 0 364.137 c 0 244.965 l 0 233.961 8.859 225.102
 19.863 225.102 c h
19.863 225.102 m f
0.262745 0.611765 0.972549 rg
38.898 258.207 m 35.695 258.207 33.102 260.801 33.102 264 c 33.102 345.102
 l 33.102 346.641 33.715 348.113 34.801 349.199 c 35.887 350.285 37.359 
350.898 38.898 350.898 c 120 350.898 l 123.199 350.898 125.793 348.305 125.793
 345.102 c 125.793 264.828 l 125.793 261.172 122.828 258.207 119.172 258.207
 c h
38.898 258.207 m f
0.156863 0.521569 0.933333 rg
112.551 0 m 364.137 0 l 375.141 0 384 8.859 384 19.863 c 384 271.449 l 
384 282.453 375.141 291.309 364.137 291.309 c 112.551 291.309 l 101.547 
291.309 92.691 282.453 92.691 271.449 c 92.691 19.863 l 92.691 8.859 101.547
 0 112.551 0 c h
112.551 0 m f
0.262745 0.611765 0.972549 rg
350.898 125.793 m 350.898 46.344 l 350.875 39.039 344.961 33.125 337.656
 33.102 c 139.035 33.102 l 131.73 33.125 125.816 39.039 125.793 46.344 c
 125.793 244.965 l 125.816 252.27 131.73 258.184 139.035 258.207 c 337.656
 258.207 l 344.961 258.184 350.875 252.27 350.898 244.965 c h
350.898 125.793 m f
0.94902 0.956863 0.968627 rg
270.258 132.414 m 170.945 231.723 l 185.379 231.723 l 192.691 231.723 198.621
 237.652 198.621 244.965 c 198.621 252.277 192.691 258.207 185.379 258.207
 c 139.035 258.207 l 131.73 258.184 125.816 252.27 125.793 244.965 c 125.793
 198.621 l 125.793 191.309 131.723 185.379 139.035 185.379 c 146.348 185.379
 152.277 191.309 152.277 198.621 c 152.277 213.055 l 305.742 59.586 l 291.309
 59.586 l 283.996 59.586 278.07 53.656 278.07 46.344 c 278.07 39.031 283.996
 33.102 291.309 33.102 c 337.656 33.102 l 344.961 33.125 350.875 39.039 
350.898 46.344 c 350.898 92.691 l 350.898 100.004 344.969 105.93 337.656
 105.93 c 330.344 105.93 324.414 100.004 324.414 92.691 c 324.414 78.258
 l h
270.258 132.414 m f
Q Q
showpage
%%Trailer
end
%%EOF
