%!PS-Adobe-3.0 EPSF-3.0
%%Creator: cairo 1.16.0 (https://cairographics.org)
%%CreationDate: Mon Jul 22 07:30:37 2019
%%Pages: 1
%%DocumentData: Clean7Bit
%%LanguageLevel: 2
%%BoundingBox: 0 0 384 384
%%EndComments
%%BeginProlog
50 dict begin
/q { gsave } bind def
/Q { grestore } bind def
/cm { 6 array astore concat } bind def
/w { setlinewidth } bind def
/J { setlinecap } bind def
/j { setlinejoin } bind def
/M { setmiterlimit } bind def
/d { setdash } bind def
/m { moveto } bind def
/l { lineto } bind def
/c { curveto } bind def
/h { closepath } bind def
/re { exch dup neg 3 1 roll 5 3 roll moveto 0 rlineto
      0 exch rlineto 0 rlineto closepath } bind def
/S { stroke } bind def
/f { fill } bind def
/f* { eofill } bind def
/n { newpath } bind def
/W { clip } bind def
/W* { eoclip } bind def
/BT { } bind def
/ET { } bind def
/BDC { mark 3 1 roll /BDC pdfmark } bind def
/EMC { mark /EMC pdfmark } bind def
/cairo_store_point { /cairo_point_y exch def /cairo_point_x exch def } def
/Tj { show currentpoint cairo_store_point } bind def
/TJ {
  {
    dup
    type /stringtype eq
    { show } { -0.001 mul 0 cairo_font_matrix dtransform rmoveto } ifelse
  } forall
  currentpoint cairo_store_point
} bind def
/cairo_selectfont { cairo_font_matrix aload pop pop pop 0 0 6 array astore
    cairo_font exch selectfont cairo_point_x cairo_point_y moveto } bind def
/Tf { pop /cairo_font exch def /cairo_font_matrix where
      { pop cairo_selectfont } if } bind def
/Td { matrix translate cairo_font_matrix matrix concatmatrix dup
      /cairo_font_matrix exch def dup 4 get exch 5 get cairo_store_point
      /cairo_font where { pop cairo_selectfont } if } bind def
/Tm { 2 copy 8 2 roll 6 array astore /cairo_font_matrix exch def
      cairo_store_point /cairo_font where { pop cairo_selectfont } if } bind def
/g { setgray } bind def
/rg { setrgbcolor } bind def
/d1 { setcachedevice } bind def
/cairo_data_source {
  CairoDataIndex CairoData length lt
    { CairoData CairoDataIndex get /CairoDataIndex CairoDataIndex 1 add def }
    { () } ifelse
} def
/cairo_flush_ascii85_file { cairo_ascii85_file status { cairo_ascii85_file flushfile } if } def
/cairo_image { image cairo_flush_ascii85_file } def
/cairo_imagemask { imagemask cairo_flush_ascii85_file } def
%%EndProlog
%%BeginSetup
%%EndSetup
%%Page: 1 1
%%BeginPageSetup
%%PageBoundingBox: 0 0 384 384
%%EndPageSetup
q 0 0 384 384 rectclip
1 0 0 -1 0 384 cm q
0.807843 0.823529 0.862745 rg
350.898 119.172 m 350.898 370.758 l 350.875 378.062 344.961 383.977 337.656
 384 c 46.344 384 l 39.039 383.977 33.125 378.062 33.102 370.758 c 33.102
 119.238 l 192 13.242 l h
350.898 119.172 m f
0.0352941 0.439216 0.870588 rg
380.758 143.273 m 377.883 147.684 373.367 150.773 368.215 151.855 c 363.059
 152.934 357.684 151.918 353.281 149.031 c 350.898 147.441 l 195.641 45.949
 l 193.434 44.492 190.566 44.492 188.359 45.949 c 33.102 147.508 l 31.383
 148.633 l 23.363 154.051 12.648 153.113 5.695 146.383 c 1.508 142.137 -0.547
 136.234 0.094 130.305 c 0.734 124.375 4.008 119.051 9.004 115.797 c 181.141
 3.242 l 187.738 -1.062 196.262 -1.062 202.859 3.242 c 284.691 56.738 l 
284.691 33.102 l 284.691 22.133 293.582 13.242 304.551 13.242 c 315.52 13.242
 324.414 22.133 324.414 33.102 c 324.414 82.691 l 374.996 115.797 l 379.414
 118.668 382.504 123.18 383.586 128.336 c 384.668 133.492 383.648 138.867
 380.758 143.273 c h
380.758 143.273 m f
0.203922 0.427451 0.580392 rg
145.656 231.723 m 238.344 231.723 l 245.656 231.723 251.586 237.652 251.586
 244.965 c 251.586 384 l 132.414 384 l 132.414 244.965 l 132.414 237.652
 138.344 231.723 145.656 231.723 c h
145.656 231.723 m f
0.156863 0.521569 0.933333 rg
231.723 152.277 m 231.723 174.215 213.938 192 192 192 c 170.062 192 152.277
 174.215 152.277 152.277 c 152.277 130.336 170.062 112.551 192 112.551 c
 213.938 112.551 231.723 130.336 231.723 152.277 c h
231.723 152.277 m f
0 0.384314 0.729412 rg
300.512 59.188 m 299.262 61.035 297.184 62.148 294.953 62.168 c 293.66 
62.18 292.395 61.809 291.309 61.109 c 284.691 56.738 l 284.691 41.379 l 
298.594 50.051 l 301.637 52.051 302.496 56.133 300.512 59.188 c h
300.512 59.188 m f
324.414 66.934 m 324.414 82.691 l 317.793 78.391 l 314.801 76.484 313.836
 72.559 315.613 69.488 c 317.387 66.418 321.27 65.289 324.414 66.934 c h
324.414 66.934 m f
0.262745 0.611765 0.972549 rg
192 198.621 m 171.969 198.637 154.191 185.785 147.934 166.758 c 141.676
 147.727 148.352 126.832 164.48 114.953 c 180.613 103.078 202.547 102.91
 218.859 114.539 c 221.512 116.758 222.012 120.641 220.004 123.457 c 218
 126.273 214.164 127.07 211.199 125.289 c 198.758 116.43 181.867 117.234
 170.324 127.238 c 158.781 137.238 155.578 153.84 162.574 167.418 c 169.566
 180.996 184.945 188.023 199.789 184.43 c 214.637 180.836 225.094 167.551
 225.102 152.277 c 225.102 148.621 228.066 145.656 231.723 145.656 c 235.379
 145.656 238.344 148.621 238.344 152.277 c 238.312 177.859 217.582 198.586
 192 198.621 c h
192 198.621 m f
Q Q
showpage
%%Trailer
end
%%EOF
