%!PS-Adobe-3.0 EPSF-3.0
%%Creator: cairo 1.16.0 (https://cairographics.org)
%%CreationDate: Mon Jul 22 07:30:37 2019
%%Pages: 1
%%DocumentData: Clean7Bit
%%LanguageLevel: 2
%%BoundingBox: 0 0 384 384
%%EndComments
%%BeginProlog
50 dict begin
/q { gsave } bind def
/Q { grestore } bind def
/cm { 6 array astore concat } bind def
/w { setlinewidth } bind def
/J { setlinecap } bind def
/j { setlinejoin } bind def
/M { setmiterlimit } bind def
/d { setdash } bind def
/m { moveto } bind def
/l { lineto } bind def
/c { curveto } bind def
/h { closepath } bind def
/re { exch dup neg 3 1 roll 5 3 roll moveto 0 rlineto
      0 exch rlineto 0 rlineto closepath } bind def
/S { stroke } bind def
/f { fill } bind def
/f* { eofill } bind def
/n { newpath } bind def
/W { clip } bind def
/W* { eoclip } bind def
/BT { } bind def
/ET { } bind def
/BDC { mark 3 1 roll /BDC pdfmark } bind def
/EMC { mark /EMC pdfmark } bind def
/cairo_store_point { /cairo_point_y exch def /cairo_point_x exch def } def
/Tj { show currentpoint cairo_store_point } bind def
/TJ {
  {
    dup
    type /stringtype eq
    { show } { -0.001 mul 0 cairo_font_matrix dtransform rmoveto } ifelse
  } forall
  currentpoint cairo_store_point
} bind def
/cairo_selectfont { cairo_font_matrix aload pop pop pop 0 0 6 array astore
    cairo_font exch selectfont cairo_point_x cairo_point_y moveto } bind def
/Tf { pop /cairo_font exch def /cairo_font_matrix where
      { pop cairo_selectfont } if } bind def
/Td { matrix translate cairo_font_matrix matrix concatmatrix dup
      /cairo_font_matrix exch def dup 4 get exch 5 get cairo_store_point
      /cairo_font where { pop cairo_selectfont } if } bind def
/Tm { 2 copy 8 2 roll 6 array astore /cairo_font_matrix exch def
      cairo_store_point /cairo_font where { pop cairo_selectfont } if } bind def
/g { setgray } bind def
/rg { setrgbcolor } bind def
/d1 { setcachedevice } bind def
/cairo_data_source {
  CairoDataIndex CairoData length lt
    { CairoData CairoDataIndex get /CairoDataIndex CairoDataIndex 1 add def }
    { () } ifelse
} def
/cairo_flush_ascii85_file { cairo_ascii85_file status { cairo_ascii85_file flushfile } if } def
/cairo_image { image cairo_flush_ascii85_file } def
/cairo_imagemask { imagemask cairo_flush_ascii85_file } def
%%EndProlog
%%BeginSetup
%%EndSetup
%%Page: 1 1
%%BeginPageSetup
%%PageBoundingBox: 0 0 384 384
%%EndPageSetup
q 0 0 384 384 rectclip
1 0 0 -1 0 384 cm q
0.807843 0.823529 0.862745 rg
6.621 0 m 377.379 0 l 381.047 0 384 2.953 384 6.621 c 384 377.379 l 384
 381.047 381.047 384 377.379 384 c 6.621 384 l 2.953 384 0 381.047 0 377.379
 c 0 6.621 l 0 2.953 2.953 0 6.621 0 c h
6.621 0 m f
0.156863 0.521569 0.933333 rg
39.723 33.102 m 344.277 33.102 l 347.945 33.102 350.898 36.055 350.898 
39.723 c 350.898 278.07 l 350.898 281.738 347.945 284.691 344.277 284.691
 c 39.723 284.691 l 36.055 284.691 33.102 281.738 33.102 278.07 c 33.102
 39.723 l 33.102 36.055 36.055 33.102 39.723 33.102 c h
39.723 33.102 m f
1 0.764706 0.0235294 rg
132.414 105.93 m 132.414 124.215 117.594 139.035 99.309 139.035 c 81.027
 139.035 66.207 124.215 66.207 105.93 c 66.207 87.648 81.027 72.828 99.309
 72.828 c 117.594 72.828 132.414 87.648 132.414 105.93 c h
132.414 105.93 m f
0.572549 0.819608 0.286275 rg
350.898 190.609 m 350.898 278.07 l 350.898 281.727 347.934 284.691 344.277
 284.691 c 39.723 284.691 l 37.922 284.684 36.199 283.941 34.957 282.637
 c 154.195 160.883 l 155.43 159.613 157.125 158.895 158.898 158.895 c 160.668
 158.895 162.363 159.613 163.598 160.883 c 199.414 197.828 l 273.367 121.16
 l 274.602 119.887 276.297 119.172 278.07 119.172 c 279.84 119.172 281.535
 119.887 282.77 121.16 c h
350.898 190.609 m f
0.490196 0.74902 0.160784 rg
350.898 180.812 m 350.898 199.68 l 278.07 125.793 l 208.617 197.828 l 243.113
 233.312 l 245.672 235.945 245.613 240.156 242.98 242.715 c 240.348 245.273
 236.137 245.215 233.578 242.582 c 158.832 165.516 l 70.973 256.219 l 68.414
 258.852 64.207 258.914 61.574 256.352 c 58.941 253.793 58.879 249.586 61.441
 246.953 c 149.496 156.316 l 151.98 153.809 155.367 152.398 158.898 152.398
 c 162.426 152.398 165.812 153.809 168.297 156.316 c 199.414 188.293 l 268.602
 116.59 l 273.84 111.406 282.262 111.379 287.535 116.523 c h
350.898 180.812 m f
125.793 248.473 m 123.121 248.484 120.707 246.891 119.668 244.43 c 118.629
 241.969 119.172 239.125 121.039 237.219 c 156.574 200.605 l 158.227 198.91
 160.664 198.223 162.965 198.809 c 165.262 199.391 167.074 201.16 167.715
 203.441 c 168.359 205.727 167.734 208.176 166.078 209.875 c 130.547 246.496
 l 129.293 247.77 127.578 248.484 125.793 248.473 c h
125.793 248.473 m f
251.586 201.73 m 248.914 201.742 246.5 200.148 245.461 197.688 c 244.422
 195.227 244.965 192.383 246.832 190.477 c 275.555 160.883 l 277.207 159.184
 279.645 158.5 281.945 159.082 c 284.242 159.668 286.055 161.434 286.695
 163.719 c 287.34 166 286.715 168.453 285.059 170.152 c 256.34 199.746 l
 255.09 201.023 253.375 201.738 251.586 201.73 c h
251.586 201.73 m f
0.47451 0.509804 0.568627 rg
304.551 324.414 m 291.309 324.414 l 287.652 324.414 284.691 321.449 284.691
 317.793 c 284.691 314.137 287.652 311.172 291.309 311.172 c 304.551 311.172
 l 308.207 311.172 311.172 314.137 311.172 317.793 c 311.172 321.449 308.207
 324.414 304.551 324.414 c h
304.551 324.414 m f
244.965 324.414 m 79.449 324.414 l 75.793 324.414 72.828 321.449 72.828
 317.793 c 72.828 314.137 75.793 311.172 79.449 311.172 c 244.965 311.172
 l 248.621 311.172 251.586 314.137 251.586 317.793 c 251.586 321.449 248.621
 324.414 244.965 324.414 c h
244.965 324.414 m f
244.965 357.516 m 139.035 357.516 l 135.379 357.516 132.414 354.555 132.414
 350.898 c 132.414 347.238 135.379 344.277 139.035 344.277 c 244.965 344.277
 l 248.621 344.277 251.586 347.238 251.586 350.898 c 251.586 354.555 248.621
 357.516 244.965 357.516 c h
244.965 357.516 m f
Q Q
showpage
%%Trailer
end
%%EOF
