%!PS-Adobe-3.0 EPSF-3.0
%%Creator: cairo 1.16.0 (https://cairographics.org)
%%CreationDate: Mon Jul 22 07:30:37 2019
%%Pages: 1
%%DocumentData: Clean7Bit
%%LanguageLevel: 2
%%BoundingBox: 0 0 384 384
%%EndComments
%%BeginProlog
50 dict begin
/q { gsave } bind def
/Q { grestore } bind def
/cm { 6 array astore concat } bind def
/w { setlinewidth } bind def
/J { setlinecap } bind def
/j { setlinejoin } bind def
/M { setmiterlimit } bind def
/d { setdash } bind def
/m { moveto } bind def
/l { lineto } bind def
/c { curveto } bind def
/h { closepath } bind def
/re { exch dup neg 3 1 roll 5 3 roll moveto 0 rlineto
      0 exch rlineto 0 rlineto closepath } bind def
/S { stroke } bind def
/f { fill } bind def
/f* { eofill } bind def
/n { newpath } bind def
/W { clip } bind def
/W* { eoclip } bind def
/BT { } bind def
/ET { } bind def
/BDC { mark 3 1 roll /BDC pdfmark } bind def
/EMC { mark /EMC pdfmark } bind def
/cairo_store_point { /cairo_point_y exch def /cairo_point_x exch def } def
/Tj { show currentpoint cairo_store_point } bind def
/TJ {
  {
    dup
    type /stringtype eq
    { show } { -0.001 mul 0 cairo_font_matrix dtransform rmoveto } ifelse
  } forall
  currentpoint cairo_store_point
} bind def
/cairo_selectfont { cairo_font_matrix aload pop pop pop 0 0 6 array astore
    cairo_font exch selectfont cairo_point_x cairo_point_y moveto } bind def
/Tf { pop /cairo_font exch def /cairo_font_matrix where
      { pop cairo_selectfont } if } bind def
/Td { matrix translate cairo_font_matrix matrix concatmatrix dup
      /cairo_font_matrix exch def dup 4 get exch 5 get cairo_store_point
      /cairo_font where { pop cairo_selectfont } if } bind def
/Tm { 2 copy 8 2 roll 6 array astore /cairo_font_matrix exch def
      cairo_store_point /cairo_font where { pop cairo_selectfont } if } bind def
/g { setgray } bind def
/rg { setrgbcolor } bind def
/d1 { setcachedevice } bind def
/cairo_data_source {
  CairoDataIndex CairoData length lt
    { CairoData CairoDataIndex get /CairoDataIndex CairoDataIndex 1 add def }
    { () } ifelse
} def
/cairo_flush_ascii85_file { cairo_ascii85_file status { cairo_ascii85_file flushfile } if } def
/cairo_image { image cairo_flush_ascii85_file } def
/cairo_imagemask { imagemask cairo_flush_ascii85_file } def
%%EndProlog
%%BeginSetup
%%EndSetup
%%Page: 1 1
%%BeginPageSetup
%%PageBoundingBox: 0 0 384 384
%%EndPageSetup
q 0 0 384 384 rectclip
1 0 0 -1 0 384 cm q
0.807843 0.823529 0.862745 rg
384 26.484 m 384 258.207 l 383.996 261.957 383.184 265.66 381.617 269.066
 c 379.824 273.18 376.965 276.746 373.34 279.395 c 368.777 282.82 363.227
 284.68 357.516 284.691 c 26.484 284.691 l 20.773 284.68 15.223 282.82 10.66
 279.395 c 7.035 276.746 4.176 273.18 2.383 269.066 c 0.816 265.66 0.004
 261.957 0 258.207 c 0 26.484 l 0.004 22.734 0.816 19.031 2.383 15.625 c
 4.176 11.508 7.035 7.945 10.66 5.297 c 15.223 1.871 20.773 0.012 26.484
 0 c 357.516 0 l 363.227 0.012 368.777 1.871 373.34 5.297 c 376.965 7.945
 379.824 11.508 381.617 15.625 c 383.184 19.031 383.996 22.734 384 26.484
 c h
384 26.484 m f
0.733333 0.756863 0.807843 rg
381.617 15.625 m 328.852 62.898 l 327.648 64.023 326.059 64.641 324.414
 64.617 c 322.543 64.629 320.758 63.832 319.516 62.434 c 317.07 59.727 317.277
 55.551 319.977 53.098 c 373.34 5.297 l 376.965 7.945 379.824 11.508 381.617
 15.625 c h
381.617 15.625 m f
381.617 269.066 m 379.824 273.18 376.965 276.746 373.34 279.395 c 230.332
 151.215 l 205.309 173.66 l 201.66 176.957 196.914 178.773 192 178.758 c
 187.098 178.77 182.363 176.977 178.691 173.727 c 153.668 151.215 l 10.66
 279.395 l 7.035 276.746 4.176 273.18 2.383 269.066 c 143.734 142.344 l 
2.383 15.625 l 4.176 11.508 7.035 7.945 10.66 5.297 c 187.562 163.863 l 
190.117 166.047 193.883 166.047 196.438 163.863 c 296.078 74.551 l 297.82
 72.938 300.301 72.387 302.562 73.113 c 304.824 73.84 306.52 75.727 307 
78.055 c 307.48 80.379 306.672 82.785 304.883 84.348 c 240.266 142.344 l
 h
381.617 269.066 m f
0.572549 0.819608 0.286275 rg
278.07 297.93 m 278.07 345.465 239.535 384 192 384 c 144.465 384 105.93
 345.465 105.93 297.93 c 105.93 250.395 144.465 211.863 192 211.863 c 239.535
 211.863 278.07 250.395 278.07 297.93 c h
278.07 297.93 m f
1 g
185.379 344.277 m 183.625 344.277 181.941 343.578 180.699 342.336 c 154.215
 315.852 l 151.707 313.254 151.742 309.125 154.297 306.57 c 156.852 304.02
 160.98 303.984 163.578 306.492 c 183.566 326.48 l 219.145 255.246 l 220.777
 251.977 224.758 250.648 228.031 252.281 c 231.301 253.914 232.629 257.895
 230.996 261.168 c 191.273 340.613 l 190.32 342.52 188.508 343.852 186.406
 344.191 c 186.066 344.246 185.723 344.273 185.379 344.277 c h
185.379 344.277 m f
Q Q
showpage
%%Trailer
end
%%EOF
