%!PS-Adobe-3.0 EPSF-3.0
%%Creator: cairo 1.16.0 (https://cairographics.org)
%%CreationDate: Mon Jul 22 07:30:38 2019
%%Pages: 1
%%DocumentData: Clean7Bit
%%LanguageLevel: 2
%%BoundingBox: 0 0 384 384
%%EndComments
%%BeginProlog
50 dict begin
/q { gsave } bind def
/Q { grestore } bind def
/cm { 6 array astore concat } bind def
/w { setlinewidth } bind def
/J { setlinecap } bind def
/j { setlinejoin } bind def
/M { setmiterlimit } bind def
/d { setdash } bind def
/m { moveto } bind def
/l { lineto } bind def
/c { curveto } bind def
/h { closepath } bind def
/re { exch dup neg 3 1 roll 5 3 roll moveto 0 rlineto
      0 exch rlineto 0 rlineto closepath } bind def
/S { stroke } bind def
/f { fill } bind def
/f* { eofill } bind def
/n { newpath } bind def
/W { clip } bind def
/W* { eoclip } bind def
/BT { } bind def
/ET { } bind def
/BDC { mark 3 1 roll /BDC pdfmark } bind def
/EMC { mark /EMC pdfmark } bind def
/cairo_store_point { /cairo_point_y exch def /cairo_point_x exch def } def
/Tj { show currentpoint cairo_store_point } bind def
/TJ {
  {
    dup
    type /stringtype eq
    { show } { -0.001 mul 0 cairo_font_matrix dtransform rmoveto } ifelse
  } forall
  currentpoint cairo_store_point
} bind def
/cairo_selectfont { cairo_font_matrix aload pop pop pop 0 0 6 array astore
    cairo_font exch selectfont cairo_point_x cairo_point_y moveto } bind def
/Tf { pop /cairo_font exch def /cairo_font_matrix where
      { pop cairo_selectfont } if } bind def
/Td { matrix translate cairo_font_matrix matrix concatmatrix dup
      /cairo_font_matrix exch def dup 4 get exch 5 get cairo_store_point
      /cairo_font where { pop cairo_selectfont } if } bind def
/Tm { 2 copy 8 2 roll 6 array astore /cairo_font_matrix exch def
      cairo_store_point /cairo_font where { pop cairo_selectfont } if } bind def
/g { setgray } bind def
/rg { setrgbcolor } bind def
/d1 { setcachedevice } bind def
/cairo_data_source {
  CairoDataIndex CairoData length lt
    { CairoData CairoDataIndex get /CairoDataIndex CairoDataIndex 1 add def }
    { () } ifelse
} def
/cairo_flush_ascii85_file { cairo_ascii85_file status { cairo_ascii85_file flushfile } if } def
/cairo_image { image cairo_flush_ascii85_file } def
/cairo_imagemask { imagemask cairo_flush_ascii85_file } def
%%EndProlog
%%BeginSetup
%%EndSetup
%%Page: 1 1
%%BeginPageSetup
%%PageBoundingBox: 0 0 384 384
%%EndPageSetup
q 0 0 384 384 rectclip
1 0 0 -1 0 384 cm q
0.203922 0.427451 0.580392 rg
383.371 176.891 m 383.082 173.949 380.879 171.555 377.969 171.027 c 334.754
 162.969 l 331.035 144.637 323.801 127.195 313.457 111.613 c 338.332 75.332
 l 340 72.902 339.863 69.664 338 67.387 c 334.77 63.547 331.355 59.836 327.766
 56.258 c 324.172 52.676 320.461 49.258 316.633 46 c 314.355 44.137 311.117
 44 308.691 45.668 c 272.41 70.543 l 256.824 60.199 239.383 52.965 221.051
 49.246 c 212.973 6.031 l 212.445 3.121 210.051 0.918 207.109 0.629 c 202.109
 0.199 197.07 0 192 0 c 186.93 0 181.891 0.199 176.891 0.629 c 173.949 0.918
 171.555 3.121 171.027 6.031 c 162.969 49.246 l 144.637 52.965 127.195 60.199
 111.613 70.543 c 75.332 45.684 l 72.902 44.012 69.664 44.148 67.387 46.016
 c 63.547 49.246 59.836 52.656 56.258 56.25 c 52.676 59.844 49.258 63.547
 46 67.367 c 44.137 69.645 44 72.883 45.668 75.309 c 70.543 111.59 l 60.199
 127.176 52.965 144.617 49.246 162.949 c 6.031 171.027 l 3.121 171.555 0.918
 173.949 0.629 176.891 c 0.199 181.891 0 186.93 0 192 c 0 197.07 0.199 202.109
 0.629 207.109 c 0.918 210.051 3.121 212.445 6.031 212.973 c 49.246 221.031
 l 52.965 239.363 60.199 256.805 70.543 272.387 c 45.684 308.668 l 44.012
 311.098 44.148 314.336 46.016 316.613 c 49.246 320.453 52.656 324.164 56.25
 327.742 c 59.844 331.324 63.551 334.734 67.379 337.98 c 69.66 339.844 72.898
 339.98 75.324 338.312 c 111.605 313.438 l 127.191 323.781 144.629 331.016
 162.961 334.734 c 171.02 377.949 l 171.551 380.855 173.941 383.062 176.887
 383.352 c 181.891 383.801 186.93 384 192 384 c 197.07 384 202.109 383.801
 207.109 383.371 c 210.051 383.082 212.445 380.879 212.973 377.969 c 221.031
 334.754 l 239.363 331.035 256.805 323.801 272.387 313.457 c 308.668 338.332
 l 311.098 340 314.336 339.863 316.613 338 c 320.453 334.77 324.164 331.355
 327.742 327.766 c 331.324 324.172 334.734 320.461 337.98 316.633 c 339.844
 314.355 339.98 311.117 338.312 308.691 c 313.438 272.41 l 323.781 256.824
 331.016 239.383 334.734 221.051 c 377.949 212.996 l 380.855 212.465 383.062
 210.07 383.352 207.129 c 383.801 202.109 384 197.07 384 192 c 384 186.93
 383.801 181.891 383.371 176.891 c h
383.371 176.891 m f
0.160784 0.329412 0.454902 rg
297.93 192 m 297.93 250.504 250.504 297.93 192 297.93 c 133.496 297.93 
86.07 250.504 86.07 192 c 86.07 133.496 133.496 86.07 192 86.07 c 250.504
 86.07 297.93 133.496 297.93 192 c h
297.93 192 m f
0.203922 0.427451 0.580392 rg
264.828 192 m 264.828 232.223 232.223 264.828 192 264.828 c 151.777 264.828
 119.172 232.223 119.172 192 c 119.172 151.777 151.777 119.172 192 119.172
 c 232.223 119.172 264.828 151.777 264.828 192 c h
264.828 192 m f
0.160784 0.329412 0.454902 rg
231.723 192 m 231.723 213.938 213.938 231.723 192 231.723 c 170.062 231.723
 152.277 213.938 152.277 192 c 152.277 170.062 170.062 152.277 192 152.277
 c 213.938 152.277 231.723 170.062 231.723 192 c h
231.723 192 m f
0.301961 0.541176 0.670588 rg
192 271.449 m 162.855 271.453 136.047 255.496 122.152 229.879 c 108.258
 204.258 109.504 173.086 125.402 148.66 c 126.695 146.68 128.945 145.535
 131.309 145.664 c 133.668 145.789 135.785 147.168 136.855 149.277 c 137.926
 151.387 137.789 153.91 136.5 155.891 c 118.016 184.305 123.977 222.09 150.309
 243.43 c 176.641 264.773 214.844 262.777 238.809 238.809 c 262.777 214.844
 264.773 176.641 243.43 150.309 c 222.09 123.977 184.305 118.016 155.891
 136.5 c 153.91 137.789 151.387 137.926 149.277 136.855 c 147.168 135.785
 145.789 133.668 145.664 131.309 c 145.535 128.945 146.68 126.695 148.66
 125.402 c 177.09 106.91 214.121 108.5 240.859 129.367 c 267.598 150.23 
278.141 185.766 267.113 217.836 c 256.086 249.906 225.914 271.441 192 271.449
 c h
192 271.449 m f
192 238.344 m 170.109 238.363 151.184 223.074 146.602 201.664 c 142.023
 180.258 153.035 158.562 173.016 149.621 c 193 140.68 216.512 146.926 229.422
 164.609 c 242.332 182.289 241.121 206.59 226.52 222.898 c 224.074 225.582
 219.918 225.793 217.211 223.371 c 214.508 220.945 214.258 216.797 216.656
 214.066 c 227.07 202.422 227.926 185.082 218.707 172.469 c 209.492 159.855
 192.711 155.402 178.453 161.785 c 164.195 168.168 156.34 183.648 159.609
 198.926 c 162.875 214.199 176.379 225.113 192 225.102 c 195.656 225.102
 198.621 228.066 198.621 231.723 c 198.621 235.379 195.656 238.344 192 238.344
 c h
192 238.344 m f
Q Q
showpage
%%Trailer
end
%%EOF
