%!PS-Adobe-3.0 EPSF-3.0
%%Creator: cairo 1.16.0 (https://cairographics.org)
%%CreationDate: Mon Jul 22 07:30:38 2019
%%Pages: 1
%%DocumentData: Clean7Bit
%%LanguageLevel: 2
%%BoundingBox: 0 0 384 384
%%EndComments
%%BeginProlog
50 dict begin
/q { gsave } bind def
/Q { grestore } bind def
/cm { 6 array astore concat } bind def
/w { setlinewidth } bind def
/J { setlinecap } bind def
/j { setlinejoin } bind def
/M { setmiterlimit } bind def
/d { setdash } bind def
/m { moveto } bind def
/l { lineto } bind def
/c { curveto } bind def
/h { closepath } bind def
/re { exch dup neg 3 1 roll 5 3 roll moveto 0 rlineto
      0 exch rlineto 0 rlineto closepath } bind def
/S { stroke } bind def
/f { fill } bind def
/f* { eofill } bind def
/n { newpath } bind def
/W { clip } bind def
/W* { eoclip } bind def
/BT { } bind def
/ET { } bind def
/BDC { mark 3 1 roll /BDC pdfmark } bind def
/EMC { mark /EMC pdfmark } bind def
/cairo_store_point { /cairo_point_y exch def /cairo_point_x exch def } def
/Tj { show currentpoint cairo_store_point } bind def
/TJ {
  {
    dup
    type /stringtype eq
    { show } { -0.001 mul 0 cairo_font_matrix dtransform rmoveto } ifelse
  } forall
  currentpoint cairo_store_point
} bind def
/cairo_selectfont { cairo_font_matrix aload pop pop pop 0 0 6 array astore
    cairo_font exch selectfont cairo_point_x cairo_point_y moveto } bind def
/Tf { pop /cairo_font exch def /cairo_font_matrix where
      { pop cairo_selectfont } if } bind def
/Td { matrix translate cairo_font_matrix matrix concatmatrix dup
      /cairo_font_matrix exch def dup 4 get exch 5 get cairo_store_point
      /cairo_font where { pop cairo_selectfont } if } bind def
/Tm { 2 copy 8 2 roll 6 array astore /cairo_font_matrix exch def
      cairo_store_point /cairo_font where { pop cairo_selectfont } if } bind def
/g { setgray } bind def
/rg { setrgbcolor } bind def
/d1 { setcachedevice } bind def
/cairo_data_source {
  CairoDataIndex CairoData length lt
    { CairoData CairoDataIndex get /CairoDataIndex CairoDataIndex 1 add def }
    { () } ifelse
} def
/cairo_flush_ascii85_file { cairo_ascii85_file status { cairo_ascii85_file flushfile } if } def
/cairo_image { image cairo_flush_ascii85_file } def
/cairo_imagemask { imagemask cairo_flush_ascii85_file } def
%%EndProlog
%%BeginSetup
%%EndSetup
%%Page: 1 1
%%BeginPageSetup
%%PageBoundingBox: 0 0 384 384
%%EndPageSetup
q 0 0 384 384 rectclip
1 0 0 -1 0 384 cm q
0.0352941 0.439216 0.870588 rg
384 192 m 384 298.039 298.039 384 192 384 c 85.961 384 0 298.039 0 192 
c 0 85.961 85.961 0 192 0 c 298.039 0 384 85.961 384 192 c h
384 192 m f
0.847059 0.866667 0.898039 rg
350.898 192 m 350.898 279.758 279.758 350.898 192 350.898 c 104.242 350.898
 33.102 279.758 33.102 192 c 33.102 104.242 104.242 33.102 192 33.102 c 
279.758 33.102 350.898 104.242 350.898 192 c h
350.898 192 m f
0.509804 0.384314 0.294118 rg
115.797 162.738 m 108.711 133.141 105.336 72.828 192 72.828 c 278.664 72.828
 275.223 133.141 268.203 162.738 c 258.207 178.758 l 125.793 178.758 l h
115.797 162.738 m f
0.807843 0.6 0.447059 rg
158.898 252.844 m 158.898 278.07 l 158.898 296.352 173.719 311.172 192 
311.172 c 210.281 311.172 225.102 296.352 225.102 278.07 c 225.102 252.844
 l h
158.898 252.844 m f
0.203922 0.427451 0.580392 rg
288.133 318.52 m 231.316 361.695 152.684 361.695 95.867 318.52 c 104.062
 294.348 126.75 278.078 152.277 278.07 c 158.898 278.07 l 158.898 296.352
 173.719 311.172 192 311.172 c 210.281 311.172 225.102 296.352 225.102 278.07
 c 231.723 278.07 l 257.25 278.078 279.938 294.348 288.133 318.52 c h
288.133 318.52 m f
0.894118 0.682353 0.501961 rg
268.383 182.254 m 267.363 184.352 266.398 186.227 265.734 187.863 c 264.117
 191.543 263.309 195.531 263.371 199.555 c 263.438 203.406 262.047 211.172
 250.188 211.172 c 250.133 219.836 248.32 228.395 244.852 236.332 c 240.598
 244.441 225.859 252.617 220.449 255.453 c 219.191 256.031 218.082 256.887
 217.203 257.957 c 211.082 265.809 201.93 270.707 192 271.449 c 182.059 
270.723 172.895 265.812 166.789 257.934 c 165.91 256.867 164.801 256.012
 163.543 255.434 c 158.137 252.598 143.398 244.422 139.141 236.312 c 135.707
 228.367 133.906 219.809 133.844 211.152 c 121.926 211.152 120.531 203.387
 120.66 199.535 c 120.668 195.512 119.84 191.531 118.23 187.844 c 117.57
 186.219 116.609 184.332 115.586 182.234 c 107.07 166.152 117.887 155.949
 128.496 160.816 c 128.496 160.816 132.824 123.785 149.859 113.312 c 152.176
 111.867 155.215 112.461 156.816 114.672 c 160.367 119.484 169.629 125.793
 192 125.793 c 214.371 125.793 223.633 119.484 227.148 114.691 c 228.754
 112.48 231.793 111.887 234.109 113.332 c 249.52 122.793 254.527 154.148
 255.332 159.891 c 255.332 159.957 l 255.359 160.254 255.406 160.547 255.473
 160.836 c 266.078 155.969 276.898 166.18 268.383 182.254 c h
268.383 182.254 m f
0.94902 0.956863 0.968627 rg
192 357.516 m 133.398 357.504 79.168 326.512 49.41 276.023 c 19.652 225.535
 18.805 163.082 47.18 111.805 c 49.008 108.727 52.953 107.664 56.082 109.398
 c 59.211 111.137 60.395 115.047 58.754 118.227 c 19.418 189.078 42.348 
278.32 110.965 321.438 c 179.586 364.551 269.938 346.488 316.707 280.305
 c 363.473 214.121 350.328 122.922 286.773 72.637 c 223.223 22.355 131.445
 30.543 77.793 91.281 c 75.371 94.023 71.188 94.281 68.445 91.863 c 65.703
 89.441 65.441 85.258 67.863 82.512 c 118.266 25.367 201.176 10.016 268.699
 45.328 c 336.223 80.641 370.91 157.492 352.73 231.488 c 334.551 305.488
 268.199 357.516 192 357.516 c h
192 357.516 m f
Q Q
showpage
%%Trailer
end
%%EOF
