%!PS-Adobe-3.0 EPSF-3.0
%%Creator: cairo 1.16.0 (https://cairographics.org)
%%CreationDate: Mon Jul 22 07:30:38 2019
%%Pages: 1
%%DocumentData: Clean7Bit
%%LanguageLevel: 2
%%BoundingBox: 0 0 384 384
%%EndComments
%%BeginProlog
50 dict begin
/q { gsave } bind def
/Q { grestore } bind def
/cm { 6 array astore concat } bind def
/w { setlinewidth } bind def
/J { setlinecap } bind def
/j { setlinejoin } bind def
/M { setmiterlimit } bind def
/d { setdash } bind def
/m { moveto } bind def
/l { lineto } bind def
/c { curveto } bind def
/h { closepath } bind def
/re { exch dup neg 3 1 roll 5 3 roll moveto 0 rlineto
      0 exch rlineto 0 rlineto closepath } bind def
/S { stroke } bind def
/f { fill } bind def
/f* { eofill } bind def
/n { newpath } bind def
/W { clip } bind def
/W* { eoclip } bind def
/BT { } bind def
/ET { } bind def
/BDC { mark 3 1 roll /BDC pdfmark } bind def
/EMC { mark /EMC pdfmark } bind def
/cairo_store_point { /cairo_point_y exch def /cairo_point_x exch def } def
/Tj { show currentpoint cairo_store_point } bind def
/TJ {
  {
    dup
    type /stringtype eq
    { show } { -0.001 mul 0 cairo_font_matrix dtransform rmoveto } ifelse
  } forall
  currentpoint cairo_store_point
} bind def
/cairo_selectfont { cairo_font_matrix aload pop pop pop 0 0 6 array astore
    cairo_font exch selectfont cairo_point_x cairo_point_y moveto } bind def
/Tf { pop /cairo_font exch def /cairo_font_matrix where
      { pop cairo_selectfont } if } bind def
/Td { matrix translate cairo_font_matrix matrix concatmatrix dup
      /cairo_font_matrix exch def dup 4 get exch 5 get cairo_store_point
      /cairo_font where { pop cairo_selectfont } if } bind def
/Tm { 2 copy 8 2 roll 6 array astore /cairo_font_matrix exch def
      cairo_store_point /cairo_font where { pop cairo_selectfont } if } bind def
/g { setgray } bind def
/rg { setrgbcolor } bind def
/d1 { setcachedevice } bind def
/cairo_data_source {
  CairoDataIndex CairoData length lt
    { CairoData CairoDataIndex get /CairoDataIndex CairoDataIndex 1 add def }
    { () } ifelse
} def
/cairo_flush_ascii85_file { cairo_ascii85_file status { cairo_ascii85_file flushfile } if } def
/cairo_image { image cairo_flush_ascii85_file } def
/cairo_imagemask { imagemask cairo_flush_ascii85_file } def
%%EndProlog
%%BeginSetup
%%EndSetup
%%Page: 1 1
%%BeginPageSetup
%%PageBoundingBox: 0 0 384 384
%%EndPageSetup
q 0 0 384 384 rectclip
1 0 0 -1 0 384 cm q
0.0352941 0.439216 0.870588 rg
384 192 m 384 298.039 298.039 384 192 384 c 85.961 384 0 298.039 0 192 
c 0 85.961 85.961 0 192 0 c 298.039 0 384 85.961 384 192 c h
384 192 m f
0.847059 0.866667 0.898039 rg
350.898 192 m 350.898 279.758 279.758 350.898 192 350.898 c 104.242 350.898
 33.102 279.758 33.102 192 c 33.102 104.242 104.242 33.102 192 33.102 c 
279.758 33.102 350.898 104.242 350.898 192 c h
350.898 192 m f
0.407843 0.298039 0.227451 rg
218.484 278.07 m 244.965 278.07 l 255.934 278.07 264.828 269.176 264.828
 258.207 c 264.828 145.656 l 264.828 105.434 232.223 72.828 192 72.828 c
 151.777 72.828 119.172 105.434 119.172 145.656 c 119.172 258.207 l 119.172
 269.176 128.066 278.07 139.035 278.07 c h
218.484 278.07 m f
0.627451 0.513726 0.933333 rg
281.18 323.488 m 227.344 360.035 156.656 360.035 102.82 323.488 c 113.148
 293.23 137.578 278.07 159.227 278.07 c 165.516 278.07 l 165.516 292.695
 177.375 304.551 192 304.551 c 206.625 304.551 218.484 292.695 218.484 278.07
 c 224.773 278.07 l 246.422 278.07 270.852 293.23 281.18 323.488 c h
281.18 323.488 m f
0.509804 0.384314 0.294118 rg
165.516 253.902 m 165.516 278.07 l 165.516 292.695 177.375 304.551 192 
304.551 c 206.625 304.551 218.484 292.695 218.484 278.07 c 218.484 253.902
 l h
165.516 253.902 m f
0.627451 0.470588 0.372549 rg
262.047 180.547 m 261.141 182.293 260.324 184.082 259.598 185.91 c 258.113
 189.426 257.371 193.215 257.414 197.031 c 257.48 200.738 256.219 208.156
 245.363 208.156 c 245.363 208.156 240.531 220.734 235.695 230.332 c 233.508
 234.348 231.027 238.199 228.281 241.855 c 221.738 251.105 213.891 259.355
 204.977 266.352 c 204.445 266.812 203.852 267.277 203.32 267.676 c 196.613
 272.707 187.387 272.707 180.68 267.676 c 180.148 267.277 179.621 266.812
 179.023 266.352 c 170.109 259.355 162.262 251.105 155.719 241.855 c 152.996
 238.184 150.52 234.332 148.305 230.332 c 143.535 220.734 138.703 208.156
 138.703 208.156 c 127.781 208.156 126.586 200.738 126.652 197.031 c 126.676
 193.207 125.91 189.422 124.402 185.91 c 123.676 184.082 122.859 182.293
 121.953 180.547 c 114.207 165.121 124.137 155.387 133.871 160.09 c 141.262
 159.586 148.539 157.98 155.453 155.32 c 170.695 150.02 183.613 139.578 
192 125.793 c 211.863 158.898 250.129 160.156 250.129 160.156 c 259.863 
155.32 269.859 165.121 262.047 180.547 c h
262.047 180.547 m f
0.94902 0.956863 0.968627 rg
192 357.516 m 133.398 357.504 79.168 326.512 49.41 276.023 c 19.652 225.535
 18.805 163.082 47.18 111.805 c 49.008 108.727 52.953 107.664 56.082 109.398
 c 59.211 111.137 60.395 115.047 58.754 118.227 c 19.418 189.078 42.348 
278.32 110.965 321.438 c 179.586 364.551 269.938 346.488 316.707 280.305
 c 363.473 214.121 350.328 122.922 286.773 72.637 c 223.223 22.355 131.445
 30.543 77.793 91.281 c 75.371 94.023 71.188 94.281 68.445 91.863 c 65.703
 89.441 65.441 85.258 67.863 82.512 c 118.266 25.367 201.176 10.016 268.699
 45.328 c 336.223 80.641 370.91 157.492 352.73 231.488 c 334.551 305.488
 268.199 357.516 192 357.516 c h
192 357.516 m f
Q Q
showpage
%%Trailer
end
%%EOF
