%!PS-Adobe-3.0 EPSF-3.0
%%Creator: cairo 1.16.0 (https://cairographics.org)
%%CreationDate: Mon Jul 22 07:30:38 2019
%%Pages: 1
%%DocumentData: Clean7Bit
%%LanguageLevel: 2
%%BoundingBox: 0 0 384 384
%%EndComments
%%BeginProlog
50 dict begin
/q { gsave } bind def
/Q { grestore } bind def
/cm { 6 array astore concat } bind def
/w { setlinewidth } bind def
/J { setlinecap } bind def
/j { setlinejoin } bind def
/M { setmiterlimit } bind def
/d { setdash } bind def
/m { moveto } bind def
/l { lineto } bind def
/c { curveto } bind def
/h { closepath } bind def
/re { exch dup neg 3 1 roll 5 3 roll moveto 0 rlineto
      0 exch rlineto 0 rlineto closepath } bind def
/S { stroke } bind def
/f { fill } bind def
/f* { eofill } bind def
/n { newpath } bind def
/W { clip } bind def
/W* { eoclip } bind def
/BT { } bind def
/ET { } bind def
/BDC { mark 3 1 roll /BDC pdfmark } bind def
/EMC { mark /EMC pdfmark } bind def
/cairo_store_point { /cairo_point_y exch def /cairo_point_x exch def } def
/Tj { show currentpoint cairo_store_point } bind def
/TJ {
  {
    dup
    type /stringtype eq
    { show } { -0.001 mul 0 cairo_font_matrix dtransform rmoveto } ifelse
  } forall
  currentpoint cairo_store_point
} bind def
/cairo_selectfont { cairo_font_matrix aload pop pop pop 0 0 6 array astore
    cairo_font exch selectfont cairo_point_x cairo_point_y moveto } bind def
/Tf { pop /cairo_font exch def /cairo_font_matrix where
      { pop cairo_selectfont } if } bind def
/Td { matrix translate cairo_font_matrix matrix concatmatrix dup
      /cairo_font_matrix exch def dup 4 get exch 5 get cairo_store_point
      /cairo_font where { pop cairo_selectfont } if } bind def
/Tm { 2 copy 8 2 roll 6 array astore /cairo_font_matrix exch def
      cairo_store_point /cairo_font where { pop cairo_selectfont } if } bind def
/g { setgray } bind def
/rg { setrgbcolor } bind def
/d1 { setcachedevice } bind def
/cairo_data_source {
  CairoDataIndex CairoData length lt
    { CairoData CairoDataIndex get /CairoDataIndex CairoDataIndex 1 add def }
    { () } ifelse
} def
/cairo_flush_ascii85_file { cairo_ascii85_file status { cairo_ascii85_file flushfile } if } def
/cairo_image { image cairo_flush_ascii85_file } def
/cairo_imagemask { imagemask cairo_flush_ascii85_file } def
%%EndProlog
%%BeginSetup
%%EndSetup
%%Page: 1 1
%%BeginPageSetup
%%PageBoundingBox: 0 0 384 384
%%EndPageSetup
q 0 0 384 384 rectclip
1 0 0 -1 0 384 cm q
0.0352941 0.439216 0.870588 rg
46.344 0 m 337.656 0 l 363.332 0 384 20.668 384 46.344 c 384 337.656 l 
384 363.332 363.332 384 337.656 384 c 46.344 384 l 20.668 384 0 363.332 
0 337.656 c 0 46.344 l 0 20.668 20.668 0 46.344 0 c h
46.344 0 m f
0.94902 0.956863 0.968627 rg
205.242 271.449 m 205.242 278.762 199.312 284.691 192 284.691 c 184.688
 284.691 178.758 278.762 178.758 271.449 c 178.758 84.852 l 169.094 94.516
 l 164.852 98.941 158.207 100.051 152.758 97.238 c 149.129 95.238 146.656
 91.645 146.078 87.539 c 145.5 83.438 146.891 79.301 149.828 76.375 c 182.598
 43.605 l 185.082 41.117 188.453 39.719 191.969 39.719 c 195.48 39.719 198.852
 41.117 201.336 43.605 c 234.109 76.375 l 237.043 79.301 238.434 83.438 
237.855 87.539 c 237.277 91.645 234.805 95.238 231.176 97.238 c 225.73 100.051
 219.082 98.941 214.84 94.516 c 205.176 84.852 l h
205.242 271.449 m f
304.551 344.277 m 79.449 344.277 l 72.137 344.277 66.207 338.348 66.207
 331.035 c 66.207 165.516 l 66.207 158.203 72.137 152.277 79.449 152.277
 c 131.707 152.277 l 138.359 152.129 144.16 156.77 145.477 163.293 c 146.133
 167.141 145.059 171.078 142.539 174.062 c 140.02 177.043 136.316 178.762
 132.414 178.758 c 99.309 178.758 l 95.652 178.758 92.691 181.723 92.691
 185.379 c 92.691 311.172 l 92.691 314.828 95.652 317.793 99.309 317.793
 c 284.691 317.793 l 288.348 317.793 291.309 314.828 291.309 311.172 c 291.309
 185.379 l 291.309 181.723 288.348 178.758 284.691 178.758 c 258.914 178.758
 l 252.262 178.906 246.461 174.266 245.145 167.742 c 244.488 163.895 245.562
 159.953 248.082 156.973 c 250.598 153.992 254.305 152.273 258.207 152.277
 c 304.551 152.277 l 311.863 152.277 317.793 158.203 317.793 165.516 c 317.793
 331.035 l 317.793 338.348 311.863 344.277 304.551 344.277 c h
304.551 344.277 m f
Q Q
showpage
%%Trailer
end
%%EOF
