%!PS-Adobe-3.0 EPSF-3.0
%%Creator: cairo 1.16.0 (https://cairographics.org)
%%CreationDate: Mon Jul 22 07:30:39 2019
%%Pages: 1
%%DocumentData: Clean7Bit
%%LanguageLevel: 2
%%BoundingBox: 0 0 384 384
%%EndComments
%%BeginProlog
50 dict begin
/q { gsave } bind def
/Q { grestore } bind def
/cm { 6 array astore concat } bind def
/w { setlinewidth } bind def
/J { setlinecap } bind def
/j { setlinejoin } bind def
/M { setmiterlimit } bind def
/d { setdash } bind def
/m { moveto } bind def
/l { lineto } bind def
/c { curveto } bind def
/h { closepath } bind def
/re { exch dup neg 3 1 roll 5 3 roll moveto 0 rlineto
      0 exch rlineto 0 rlineto closepath } bind def
/S { stroke } bind def
/f { fill } bind def
/f* { eofill } bind def
/n { newpath } bind def
/W { clip } bind def
/W* { eoclip } bind def
/BT { } bind def
/ET { } bind def
/BDC { mark 3 1 roll /BDC pdfmark } bind def
/EMC { mark /EMC pdfmark } bind def
/cairo_store_point { /cairo_point_y exch def /cairo_point_x exch def } def
/Tj { show currentpoint cairo_store_point } bind def
/TJ {
  {
    dup
    type /stringtype eq
    { show } { -0.001 mul 0 cairo_font_matrix dtransform rmoveto } ifelse
  } forall
  currentpoint cairo_store_point
} bind def
/cairo_selectfont { cairo_font_matrix aload pop pop pop 0 0 6 array astore
    cairo_font exch selectfont cairo_point_x cairo_point_y moveto } bind def
/Tf { pop /cairo_font exch def /cairo_font_matrix where
      { pop cairo_selectfont } if } bind def
/Td { matrix translate cairo_font_matrix matrix concatmatrix dup
      /cairo_font_matrix exch def dup 4 get exch 5 get cairo_store_point
      /cairo_font where { pop cairo_selectfont } if } bind def
/Tm { 2 copy 8 2 roll 6 array astore /cairo_font_matrix exch def
      cairo_store_point /cairo_font where { pop cairo_selectfont } if } bind def
/g { setgray } bind def
/rg { setrgbcolor } bind def
/d1 { setcachedevice } bind def
/cairo_data_source {
  CairoDataIndex CairoData length lt
    { CairoData CairoDataIndex get /CairoDataIndex CairoDataIndex 1 add def }
    { () } ifelse
} def
/cairo_flush_ascii85_file { cairo_ascii85_file status { cairo_ascii85_file flushfile } if } def
/cairo_image { image cairo_flush_ascii85_file } def
/cairo_imagemask { imagemask cairo_flush_ascii85_file } def
%%EndProlog
%%BeginSetup
%%EndSetup
%%Page: 1 1
%%BeginPageSetup
%%PageBoundingBox: 0 0 384 384
%%EndPageSetup
q 0 0 384 384 rectclip
1 0 0 -1 0 384 cm q
0.807843 0.823529 0.862745 rg
384 66.207 m 384 350.898 l 384 369.18 369.18 384 350.898 384 c 33.102 384
 l 24.324 384 15.902 380.512 9.695 374.305 c 3.488 368.098 0 359.676 0 350.898
 c 0 66.207 l 6.621 59.586 l 377.379 59.586 l h
384 66.207 m f
0.0352941 0.439216 0.870588 rg
384 33.102 m 384 66.207 l 0 66.207 l 0 33.102 l 0 14.82 14.82 0 33.102 
0 c 350.898 0 l 359.676 0 368.098 3.488 374.305 9.695 c 380.512 15.902 384
 24.324 384 33.102 c h
384 33.102 m f
0.94902 0.956863 0.968627 rg
59.586 99.309 m 99.309 99.309 l 106.645 99.309 112.551 105.215 112.551 
112.551 c 112.551 152.277 l 112.551 159.613 106.645 165.516 99.309 165.516
 c 59.586 165.516 l 52.25 165.516 46.344 159.613 46.344 152.277 c 46.344
 112.551 l 46.344 105.215 52.25 99.309 59.586 99.309 c h
59.586 99.309 m f
284.691 99.309 m 324.414 99.309 l 331.75 99.309 337.656 105.215 337.656
 112.551 c 337.656 152.277 l 337.656 159.613 331.75 165.516 324.414 165.516
 c 284.691 165.516 l 277.355 165.516 271.449 159.613 271.449 152.277 c 271.449
 112.551 l 271.449 105.215 277.355 99.309 284.691 99.309 c h
284.691 99.309 m f
59.586 192 m 99.309 192 l 106.645 192 112.551 197.906 112.551 205.242 c
 112.551 244.965 l 112.551 252.301 106.645 258.207 99.309 258.207 c 59.586
 258.207 l 52.25 258.207 46.344 252.301 46.344 244.965 c 46.344 205.242 
l 46.344 197.906 52.25 192 59.586 192 c h
59.586 192 m f
172.137 192 m 211.863 192 l 219.199 192 225.102 197.906 225.102 205.242
 c 225.102 244.965 l 225.102 252.301 219.199 258.207 211.863 258.207 c 172.137
 258.207 l 164.801 258.207 158.898 252.301 158.898 244.965 c 158.898 205.242
 l 158.898 197.906 164.801 192 172.137 192 c h
172.137 192 m f
284.691 192 m 324.414 192 l 331.75 192 337.656 197.906 337.656 205.242 
c 337.656 244.965 l 337.656 252.301 331.75 258.207 324.414 258.207 c 284.691
 258.207 l 277.355 258.207 271.449 252.301 271.449 244.965 c 271.449 205.242
 l 271.449 197.906 277.355 192 284.691 192 c h
284.691 192 m f
59.586 284.691 m 99.309 284.691 l 106.645 284.691 112.551 290.594 112.551
 297.93 c 112.551 337.656 l 112.551 344.992 106.645 350.898 99.309 350.898
 c 59.586 350.898 l 52.25 350.898 46.344 344.992 46.344 337.656 c 46.344
 297.93 l 46.344 290.594 52.25 284.691 59.586 284.691 c h
59.586 284.691 m f
172.137 284.691 m 211.863 284.691 l 219.199 284.691 225.102 290.594 225.102
 297.93 c 225.102 337.656 l 225.102 344.992 219.199 350.898 211.863 350.898
 c 172.137 350.898 l 164.801 350.898 158.898 344.992 158.898 337.656 c 158.898
 297.93 l 158.898 290.594 164.801 284.691 172.137 284.691 c h
172.137 284.691 m f
284.691 284.691 m 324.414 284.691 l 331.75 284.691 337.656 290.594 337.656
 297.93 c 337.656 337.656 l 337.656 344.992 331.75 350.898 324.414 350.898
 c 284.691 350.898 l 277.355 350.898 271.449 344.992 271.449 337.656 c 271.449
 297.93 l 271.449 290.594 277.355 284.691 284.691 284.691 c h
284.691 284.691 m f
172.137 99.309 m 211.863 99.309 l 219.199 99.309 225.102 105.215 225.102
 112.551 c 225.102 152.277 l 225.102 159.613 219.199 165.516 211.863 165.516
 c 172.137 165.516 l 164.801 165.516 158.898 159.613 158.898 152.277 c 158.898
 112.551 l 158.898 105.215 164.801 99.309 172.137 99.309 c h
172.137 99.309 m f
0.0156863 0.384314 0.717647 rg
258.207 39.723 m 125.793 39.723 l 122.137 39.723 119.172 36.762 119.172
 33.102 c 119.172 29.445 122.137 26.484 125.793 26.484 c 258.207 26.484 
l 261.863 26.484 264.828 29.445 264.828 33.102 c 264.828 36.762 261.863 
39.723 258.207 39.723 c h
258.207 39.723 m f
Q Q
showpage
%%Trailer
end
%%EOF
