%!PS-Adobe-3.0 EPSF-3.0
%%Creator: cairo 1.16.0 (https://cairographics.org)
%%CreationDate: Mon Jul 22 07:30:39 2019
%%Pages: 1
%%DocumentData: Clean7Bit
%%LanguageLevel: 2
%%BoundingBox: 0 0 384 384
%%EndComments
%%BeginProlog
50 dict begin
/q { gsave } bind def
/Q { grestore } bind def
/cm { 6 array astore concat } bind def
/w { setlinewidth } bind def
/J { setlinecap } bind def
/j { setlinejoin } bind def
/M { setmiterlimit } bind def
/d { setdash } bind def
/m { moveto } bind def
/l { lineto } bind def
/c { curveto } bind def
/h { closepath } bind def
/re { exch dup neg 3 1 roll 5 3 roll moveto 0 rlineto
      0 exch rlineto 0 rlineto closepath } bind def
/S { stroke } bind def
/f { fill } bind def
/f* { eofill } bind def
/n { newpath } bind def
/W { clip } bind def
/W* { eoclip } bind def
/BT { } bind def
/ET { } bind def
/BDC { mark 3 1 roll /BDC pdfmark } bind def
/EMC { mark /EMC pdfmark } bind def
/cairo_store_point { /cairo_point_y exch def /cairo_point_x exch def } def
/Tj { show currentpoint cairo_store_point } bind def
/TJ {
  {
    dup
    type /stringtype eq
    { show } { -0.001 mul 0 cairo_font_matrix dtransform rmoveto } ifelse
  } forall
  currentpoint cairo_store_point
} bind def
/cairo_selectfont { cairo_font_matrix aload pop pop pop 0 0 6 array astore
    cairo_font exch selectfont cairo_point_x cairo_point_y moveto } bind def
/Tf { pop /cairo_font exch def /cairo_font_matrix where
      { pop cairo_selectfont } if } bind def
/Td { matrix translate cairo_font_matrix matrix concatmatrix dup
      /cairo_font_matrix exch def dup 4 get exch 5 get cairo_store_point
      /cairo_font where { pop cairo_selectfont } if } bind def
/Tm { 2 copy 8 2 roll 6 array astore /cairo_font_matrix exch def
      cairo_store_point /cairo_font where { pop cairo_selectfont } if } bind def
/g { setgray } bind def
/rg { setrgbcolor } bind def
/d1 { setcachedevice } bind def
/cairo_data_source {
  CairoDataIndex CairoData length lt
    { CairoData CairoDataIndex get /CairoDataIndex CairoDataIndex 1 add def }
    { () } ifelse
} def
/cairo_flush_ascii85_file { cairo_ascii85_file status { cairo_ascii85_file flushfile } if } def
/cairo_image { image cairo_flush_ascii85_file } def
/cairo_imagemask { imagemask cairo_flush_ascii85_file } def
%%EndProlog
%%BeginSetup
%%EndSetup
%%Page: 1 1
%%BeginPageSetup
%%PageBoundingBox: 0 0 384 384
%%EndPageSetup
q 0 0 384 384 rectclip
1 0 0 -1 0 384 cm q
0.0352941 0.439216 0.870588 rg
172.137 158.898 m 317.793 158.898 l 325.098 158.918 331.012 164.832 331.035
 172.137 c 331.035 317.793 l 331.012 325.098 325.098 331.012 317.793 331.035
 c 172.137 331.035 l 164.832 331.012 158.918 325.098 158.898 317.793 c 158.898
 172.137 l 158.898 164.824 164.824 158.898 172.137 158.898 c h
172.137 158.898 m f
0.545098 0.576471 0.635294 rg
39.723 19.863 m 39.738 22.125 39.336 24.367 38.531 26.484 c 36.582 32.141
 32.141 36.582 26.484 38.531 c 22.211 40.121 17.512 40.121 13.242 38.531
 c 4.203 35.254 -1.188 25.973 0.441 16.496 c 2.07 7.023 10.25 0.074 19.863
 0 c 28.277 -0.039 35.789 5.285 38.531 13.242 c 39.336 15.355 39.738 17.602
 39.723 19.863 c h
39.723 19.863 m f
384 19.863 m 384.039 28.277 378.715 35.789 370.758 38.531 c 366.488 40.121
 361.789 40.121 357.516 38.531 c 351.859 36.582 347.418 32.141 345.469 26.484
 c 343.879 22.211 343.879 17.512 345.469 13.242 c 348.746 4.203 358.027 
-1.188 367.504 0.441 c 376.977 2.07 383.926 10.25 384 19.863 c h
384 19.863 m f
39.723 364.137 m 39.738 366.398 39.336 368.645 38.531 370.758 c 35.254 
379.797 25.973 385.188 16.496 383.559 c 7.023 381.93 0.074 373.75 0 364.137
 c -0.039 355.723 5.285 348.211 13.242 345.469 c 17.512 343.879 22.211 343.879
 26.484 345.469 c 32.141 347.418 36.582 351.859 38.531 357.516 c 39.336 
359.633 39.738 361.875 39.723 364.137 c h
39.723 364.137 m f
384 364.137 m 383.926 373.75 376.977 381.93 367.504 383.559 c 358.027 385.188
 348.746 379.797 345.469 370.758 c 343.879 366.488 343.879 361.789 345.469
 357.516 c 347.418 351.859 351.859 347.418 357.516 345.469 c 361.789 343.879
 366.488 343.879 370.758 345.469 c 378.715 348.211 384.039 355.723 384 364.137
 c h
384 364.137 m f
0.156863 0.521569 0.933333 rg
66.207 59.586 m 211.863 59.586 l 219.199 59.586 225.102 65.492 225.102 
72.828 c 225.102 218.484 l 225.102 225.82 219.199 231.723 211.863 231.723
 c 66.207 231.723 l 58.871 231.723 52.965 225.82 52.965 218.484 c 52.965
 72.828 l 52.965 65.492 58.871 59.586 66.207 59.586 c h
66.207 59.586 m f
0.262745 0.611765 0.972549 rg
86.07 139.035 m 82.414 139.035 79.449 136.07 79.449 132.414 c 79.449 99.309
 l 79.449 91.996 85.375 86.07 92.691 86.07 c 132.414 86.07 l 136.07 86.07
 139.035 89.031 139.035 92.691 c 139.035 96.348 136.07 99.309 132.414 99.309
 c 92.691 99.309 l 92.691 132.414 l 92.691 136.07 89.727 139.035 86.07 139.035
 c h
86.07 139.035 m f
0.156863 0.521569 0.933333 rg
297.93 238.344 m 294.273 238.344 291.309 235.379 291.309 231.723 c 291.309
 198.621 l 258.207 198.621 l 254.551 198.621 251.586 195.656 251.586 192
 c 251.586 188.344 254.551 185.379 258.207 185.379 c 291.309 185.379 l 298.625
 185.379 304.551 191.309 304.551 198.621 c 304.551 231.723 l 304.551 235.379
 301.586 238.344 297.93 238.344 c h
297.93 238.344 m f
0.733333 0.756863 0.807843 rg
19.863 105.93 m 16.207 105.93 13.242 102.969 13.242 99.309 c 13.242 86.07
 l 13.242 82.414 16.207 79.449 19.863 79.449 c 23.52 79.449 26.484 82.414
 26.484 86.07 c 26.484 99.309 l 26.484 102.969 23.52 105.93 19.863 105.93
 c h
19.863 105.93 m f
19.863 145.656 m 16.207 145.656 13.242 142.691 13.242 139.035 c 13.242 
125.793 l 13.242 122.137 16.207 119.172 19.863 119.172 c 23.52 119.172 26.484
 122.137 26.484 125.793 c 26.484 139.035 l 26.484 142.691 23.52 145.656 
19.863 145.656 c h
19.863 145.656 m f
19.863 185.379 m 16.207 185.379 13.242 182.414 13.242 178.758 c 13.242 
165.516 l 13.242 161.859 16.207 158.898 19.863 158.898 c 23.52 158.898 26.484
 161.859 26.484 165.516 c 26.484 178.758 l 26.484 182.414 23.52 185.379 
19.863 185.379 c h
19.863 185.379 m f
19.863 225.102 m 16.207 225.102 13.242 222.141 13.242 218.484 c 13.242 
205.242 l 13.242 201.586 16.207 198.621 19.863 198.621 c 23.52 198.621 26.484
 201.586 26.484 205.242 c 26.484 218.484 l 26.484 222.141 23.52 225.102 
19.863 225.102 c h
19.863 225.102 m f
19.863 264.828 m 16.207 264.828 13.242 261.863 13.242 258.207 c 13.242 
244.965 l 13.242 241.309 16.207 238.344 19.863 238.344 c 23.52 238.344 26.484
 241.309 26.484 244.965 c 26.484 258.207 l 26.484 261.863 23.52 264.828 
19.863 264.828 c h
19.863 264.828 m f
19.863 304.551 m 16.207 304.551 13.242 301.586 13.242 297.93 c 13.242 284.691
 l 13.242 281.031 16.207 278.07 19.863 278.07 c 23.52 278.07 26.484 281.031
 26.484 284.691 c 26.484 297.93 l 26.484 301.586 23.52 304.551 19.863 304.551
 c h
19.863 304.551 m f
370.758 38.531 m 370.758 59.586 l 370.758 63.242 367.793 66.207 364.137
 66.207 c 360.48 66.207 357.516 63.242 357.516 59.586 c 357.516 38.531 l
 361.789 40.121 366.488 40.121 370.758 38.531 c h
370.758 38.531 m f
364.137 105.93 m 360.48 105.93 357.516 102.969 357.516 99.309 c 357.516
 86.07 l 357.516 82.414 360.48 79.449 364.137 79.449 c 367.793 79.449 370.758
 82.414 370.758 86.07 c 370.758 99.309 l 370.758 102.969 367.793 105.93 
364.137 105.93 c h
364.137 105.93 m f
364.137 145.656 m 360.48 145.656 357.516 142.691 357.516 139.035 c 357.516
 125.793 l 357.516 122.137 360.48 119.172 364.137 119.172 c 367.793 119.172
 370.758 122.137 370.758 125.793 c 370.758 139.035 l 370.758 142.691 367.793
 145.656 364.137 145.656 c h
364.137 145.656 m f
364.137 185.379 m 360.48 185.379 357.516 182.414 357.516 178.758 c 357.516
 165.516 l 357.516 161.859 360.48 158.898 364.137 158.898 c 367.793 158.898
 370.758 161.859 370.758 165.516 c 370.758 178.758 l 370.758 182.414 367.793
 185.379 364.137 185.379 c h
364.137 185.379 m f
364.137 225.102 m 360.48 225.102 357.516 222.141 357.516 218.484 c 357.516
 205.242 l 357.516 201.586 360.48 198.621 364.137 198.621 c 367.793 198.621
 370.758 201.586 370.758 205.242 c 370.758 218.484 l 370.758 222.141 367.793
 225.102 364.137 225.102 c h
364.137 225.102 m f
364.137 264.828 m 360.48 264.828 357.516 261.863 357.516 258.207 c 357.516
 244.965 l 357.516 241.309 360.48 238.344 364.137 238.344 c 367.793 238.344
 370.758 241.309 370.758 244.965 c 370.758 258.207 l 370.758 261.863 367.793
 264.828 364.137 264.828 c h
364.137 264.828 m f
364.137 304.551 m 360.48 304.551 357.516 301.586 357.516 297.93 c 357.516
 284.691 l 357.516 281.031 360.48 278.07 364.137 278.07 c 367.793 278.07
 370.758 281.031 370.758 284.691 c 370.758 297.93 l 370.758 301.586 367.793
 304.551 364.137 304.551 c h
364.137 304.551 m f
345.469 357.516 m 343.879 361.789 343.879 366.488 345.469 370.758 c 324.414
 370.758 l 320.758 370.758 317.793 367.793 317.793 364.137 c 317.793 360.48
 320.758 357.516 324.414 357.516 c h
345.469 357.516 m f
370.758 324.414 m 370.758 345.469 l 366.488 343.879 361.789 343.879 357.516
 345.469 c 357.516 324.414 l 357.516 320.758 360.48 317.793 364.137 317.793
 c 367.793 317.793 370.758 320.758 370.758 324.414 c h
370.758 324.414 m f
66.207 364.137 m 66.207 367.793 63.242 370.758 59.586 370.758 c 38.531 
370.758 l 40.121 366.488 40.121 361.789 38.531 357.516 c 59.586 357.516 
l 63.242 357.516 66.207 360.48 66.207 364.137 c h
66.207 364.137 m f
26.484 324.414 m 26.484 345.469 l 22.211 343.879 17.512 343.879 13.242 
345.469 c 13.242 324.414 l 13.242 320.758 16.207 317.793 19.863 317.793 
c 23.52 317.793 26.484 320.758 26.484 324.414 c h
26.484 324.414 m f
99.309 370.758 m 86.07 370.758 l 82.414 370.758 79.449 367.793 79.449 364.137
 c 79.449 360.48 82.414 357.516 86.07 357.516 c 99.309 357.516 l 102.969
 357.516 105.93 360.48 105.93 364.137 c 105.93 367.793 102.969 370.758 99.309
 370.758 c h
99.309 370.758 m f
139.035 370.758 m 125.793 370.758 l 122.137 370.758 119.172 367.793 119.172
 364.137 c 119.172 360.48 122.137 357.516 125.793 357.516 c 139.035 357.516
 l 142.691 357.516 145.656 360.48 145.656 364.137 c 145.656 367.793 142.691
 370.758 139.035 370.758 c h
139.035 370.758 m f
178.758 370.758 m 165.516 370.758 l 161.859 370.758 158.898 367.793 158.898
 364.137 c 158.898 360.48 161.859 357.516 165.516 357.516 c 178.758 357.516
 l 182.414 357.516 185.379 360.48 185.379 364.137 c 185.379 367.793 182.414
 370.758 178.758 370.758 c h
178.758 370.758 m f
218.484 370.758 m 205.242 370.758 l 201.586 370.758 198.621 367.793 198.621
 364.137 c 198.621 360.48 201.586 357.516 205.242 357.516 c 218.484 357.516
 l 222.141 357.516 225.102 360.48 225.102 364.137 c 225.102 367.793 222.141
 370.758 218.484 370.758 c h
218.484 370.758 m f
258.207 370.758 m 244.965 370.758 l 241.309 370.758 238.344 367.793 238.344
 364.137 c 238.344 360.48 241.309 357.516 244.965 357.516 c 258.207 357.516
 l 261.863 357.516 264.828 360.48 264.828 364.137 c 264.828 367.793 261.863
 370.758 258.207 370.758 c h
258.207 370.758 m f
297.93 370.758 m 284.691 370.758 l 281.031 370.758 278.07 367.793 278.07
 364.137 c 278.07 360.48 281.031 357.516 284.691 357.516 c 297.93 357.516
 l 301.586 357.516 304.551 360.48 304.551 364.137 c 304.551 367.793 301.586
 370.758 297.93 370.758 c h
297.93 370.758 m f
19.863 39.723 m 22.125 39.738 24.367 39.336 26.484 38.531 c 26.484 59.586
 l 26.484 63.242 23.52 66.207 19.863 66.207 c 16.207 66.207 13.242 63.242
 13.242 59.586 c 13.242 38.531 l 15.355 39.336 17.602 39.738 19.863 39.723
 c h
19.863 39.723 m f
66.207 19.863 m 66.207 23.52 63.242 26.484 59.586 26.484 c 38.531 26.484
 l 40.121 22.211 40.121 17.512 38.531 13.242 c 59.586 13.242 l 63.242 13.242
 66.207 16.207 66.207 19.863 c h
66.207 19.863 m f
99.309 26.484 m 86.07 26.484 l 82.414 26.484 79.449 23.52 79.449 19.863
 c 79.449 16.207 82.414 13.242 86.07 13.242 c 99.309 13.242 l 102.969 13.242
 105.93 16.207 105.93 19.863 c 105.93 23.52 102.969 26.484 99.309 26.484
 c h
99.309 26.484 m f
139.035 26.484 m 125.793 26.484 l 122.137 26.484 119.172 23.52 119.172 
19.863 c 119.172 16.207 122.137 13.242 125.793 13.242 c 139.035 13.242 l
 142.691 13.242 145.656 16.207 145.656 19.863 c 145.656 23.52 142.691 26.484
 139.035 26.484 c h
139.035 26.484 m f
178.758 26.484 m 165.516 26.484 l 161.859 26.484 158.898 23.52 158.898 
19.863 c 158.898 16.207 161.859 13.242 165.516 13.242 c 178.758 13.242 l
 182.414 13.242 185.379 16.207 185.379 19.863 c 185.379 23.52 182.414 26.484
 178.758 26.484 c h
178.758 26.484 m f
218.484 26.484 m 205.242 26.484 l 201.586 26.484 198.621 23.52 198.621 
19.863 c 198.621 16.207 201.586 13.242 205.242 13.242 c 218.484 13.242 l
 222.141 13.242 225.102 16.207 225.102 19.863 c 225.102 23.52 222.141 26.484
 218.484 26.484 c h
218.484 26.484 m f
258.207 26.484 m 244.965 26.484 l 241.309 26.484 238.344 23.52 238.344 
19.863 c 238.344 16.207 241.309 13.242 244.965 13.242 c 258.207 13.242 l
 261.863 13.242 264.828 16.207 264.828 19.863 c 264.828 23.52 261.863 26.484
 258.207 26.484 c h
258.207 26.484 m f
297.93 26.484 m 284.691 26.484 l 281.031 26.484 278.07 23.52 278.07 19.863
 c 278.07 16.207 281.031 13.242 284.691 13.242 c 297.93 13.242 l 301.586
 13.242 304.551 16.207 304.551 19.863 c 304.551 23.52 301.586 26.484 297.93
 26.484 c h
297.93 26.484 m f
344.277 19.863 m 344.262 22.125 344.664 24.367 345.469 26.484 c 324.414
 26.484 l 320.758 26.484 317.793 23.52 317.793 19.863 c 317.793 16.207 320.758
 13.242 324.414 13.242 c 345.469 13.242 l 344.664 15.355 344.262 17.602 
344.277 19.863 c h
344.277 19.863 m f
Q Q
showpage
%%Trailer
end
%%EOF
