%!PS-Adobe-3.0 EPSF-3.0
%%Creator: cairo 1.16.0 (https://cairographics.org)
%%CreationDate: Mon Jul 22 07:30:39 2019
%%Pages: 1
%%DocumentData: Clean7Bit
%%LanguageLevel: 2
%%BoundingBox: 0 0 384 384
%%EndComments
%%BeginProlog
50 dict begin
/q { gsave } bind def
/Q { grestore } bind def
/cm { 6 array astore concat } bind def
/w { setlinewidth } bind def
/J { setlinecap } bind def
/j { setlinejoin } bind def
/M { setmiterlimit } bind def
/d { setdash } bind def
/m { moveto } bind def
/l { lineto } bind def
/c { curveto } bind def
/h { closepath } bind def
/re { exch dup neg 3 1 roll 5 3 roll moveto 0 rlineto
      0 exch rlineto 0 rlineto closepath } bind def
/S { stroke } bind def
/f { fill } bind def
/f* { eofill } bind def
/n { newpath } bind def
/W { clip } bind def
/W* { eoclip } bind def
/BT { } bind def
/ET { } bind def
/BDC { mark 3 1 roll /BDC pdfmark } bind def
/EMC { mark /EMC pdfmark } bind def
/cairo_store_point { /cairo_point_y exch def /cairo_point_x exch def } def
/Tj { show currentpoint cairo_store_point } bind def
/TJ {
  {
    dup
    type /stringtype eq
    { show } { -0.001 mul 0 cairo_font_matrix dtransform rmoveto } ifelse
  } forall
  currentpoint cairo_store_point
} bind def
/cairo_selectfont { cairo_font_matrix aload pop pop pop 0 0 6 array astore
    cairo_font exch selectfont cairo_point_x cairo_point_y moveto } bind def
/Tf { pop /cairo_font exch def /cairo_font_matrix where
      { pop cairo_selectfont } if } bind def
/Td { matrix translate cairo_font_matrix matrix concatmatrix dup
      /cairo_font_matrix exch def dup 4 get exch 5 get cairo_store_point
      /cairo_font where { pop cairo_selectfont } if } bind def
/Tm { 2 copy 8 2 roll 6 array astore /cairo_font_matrix exch def
      cairo_store_point /cairo_font where { pop cairo_selectfont } if } bind def
/g { setgray } bind def
/rg { setrgbcolor } bind def
/d1 { setcachedevice } bind def
/cairo_data_source {
  CairoDataIndex CairoData length lt
    { CairoData CairoDataIndex get /CairoDataIndex CairoDataIndex 1 add def }
    { () } ifelse
} def
/cairo_flush_ascii85_file { cairo_ascii85_file status { cairo_ascii85_file flushfile } if } def
/cairo_image { image cairo_flush_ascii85_file } def
/cairo_imagemask { imagemask cairo_flush_ascii85_file } def
%%EndProlog
%%BeginSetup
%%EndSetup
%%Page: 1 1
%%BeginPageSetup
%%PageBoundingBox: 0 0 384 384
%%EndPageSetup
q 0 0 384 384 rectclip
1 0 0 -1 0 384 cm q
0.733333 0.756863 0.807843 rg
317.793 132.414 m 317.793 370.758 l 317.77 378.062 311.855 383.977 304.551
 384 c 13.242 384 l 5.938 383.977 0.023 378.062 0 370.758 c 0 145.656 l 
0.023 138.352 5.938 132.438 13.242 132.414 c h
317.793 132.414 m f
0.156863 0.521569 0.933333 rg
291.309 158.898 m 291.309 350.898 l 291.309 354.555 288.348 357.516 284.691
 357.516 c 33.102 357.516 l 29.445 357.516 26.484 354.555 26.484 350.898
 c 26.484 165.516 l 26.484 161.859 29.445 158.898 33.102 158.898 c h
291.309 158.898 m f
1 0.764706 0.0235294 rg
112.551 218.484 m 112.551 233.109 100.695 244.965 86.07 244.965 c 71.441
 244.965 59.586 233.109 59.586 218.484 c 59.586 203.855 71.441 192 86.07
 192 c 100.695 192 112.551 203.855 112.551 218.484 c h
112.551 218.484 m f
0.572549 0.819608 0.286275 rg
384 99.309 m 384 154.156 339.539 198.621 284.691 198.621 c 229.844 198.621
 185.379 154.156 185.379 99.309 c 185.379 44.461 229.844 0 284.691 0 c 339.539
 0 384 44.461 384 99.309 c h
384 99.309 m f
0.94902 0.956863 0.968627 rg
297.93 145.656 m 297.93 152.277 l 297.93 159.59 292.004 165.516 284.691
 165.516 c 277.375 165.516 271.449 159.59 271.449 152.277 c 271.449 112.551
 l 231.723 112.551 l 224.41 112.551 218.484 106.625 218.484 99.309 c 218.484
 91.996 224.41 86.07 231.723 86.07 c 271.449 86.07 l 271.449 46.344 l 271.449
 39.031 277.375 33.102 284.691 33.102 c 292.004 33.102 297.93 39.031 297.93
 46.344 c 297.93 86.07 l 337.656 86.07 l 344.969 86.07 350.898 91.996 350.898
 99.309 c 350.898 106.625 344.969 112.551 337.656 112.551 c 297.93 112.551
 l h
297.93 145.656 m f
0.572549 0.819608 0.286275 rg
291.309 264.562 m 291.309 350.898 l 291.309 354.555 288.348 357.516 284.691
 357.516 c 33.102 357.516 l 31.301 357.512 29.578 356.77 28.336 355.465 
c 128.309 253.375 l 129.41 252.23 130.926 251.586 132.512 251.586 c 134.098
 251.586 135.617 252.23 136.719 253.375 c 172.004 289.789 l 239.402 220.27
 l 240.52 219.129 242.047 218.484 243.641 218.484 c 245.238 218.484 246.766
 219.129 247.879 220.27 c h
291.309 264.562 m f
0.490196 0.74902 0.160784 rg
105.93 331.035 m 103.254 331.035 100.84 329.422 99.816 326.945 c 98.793
 324.473 99.355 321.625 101.25 319.734 c 127.734 293.25 l 130.332 290.742
 134.461 290.777 137.016 293.332 c 139.566 295.883 139.605 300.016 137.094
 302.613 c 110.613 329.094 l 109.371 330.336 107.688 331.035 105.93 331.035
 c h
105.93 331.035 m f
218.484 291.309 m 215.805 291.309 213.391 289.695 212.367 287.223 c 211.344
 284.75 211.91 281.902 213.801 280.008 c 240.285 253.527 l 242.883 251.016
 247.012 251.055 249.566 253.605 c 252.121 256.16 252.156 260.289 249.645
 262.887 c 223.164 289.371 l 221.922 290.613 220.238 291.309 218.484 291.309
 c h
218.484 291.309 m f
291.309 254.832 m 291.309 273.699 l 243.641 225.434 l 181.273 289.723 l
 208.816 318.125 l 211.359 320.758 211.285 324.949 208.652 327.492 c 206.02
 330.035 201.824 329.961 199.281 327.328 c 167.57 294.621 l 167.504 294.621
 167.438 294.555 167.371 294.555 c 167.305 294.555 167.305 294.422 167.238
 294.355 c 132.547 258.539 l 57.73 335.668 l 55.172 338.301 50.965 338.359
 48.332 335.801 c 45.699 333.242 45.641 329.031 48.199 326.398 c 123.543
 248.805 l 125.895 246.352 129.148 244.965 132.547 244.965 c 135.93 244.949
 139.168 246.34 141.484 248.805 c 172.004 280.254 l 234.637 215.637 l 237.012
 213.223 240.254 211.859 243.641 211.859 c 247.027 211.859 250.273 213.223
 252.645 215.637 c h
291.309 254.832 m f
Q Q
showpage
%%Trailer
end
%%EOF
