%!PS-Adobe-3.0 EPSF-3.0
%%Creator: cairo 1.16.0 (https://cairographics.org)
%%CreationDate: Mon Jul 22 07:30:39 2019
%%Pages: 1
%%DocumentData: Clean7Bit
%%LanguageLevel: 2
%%BoundingBox: 0 0 384 384
%%EndComments
%%BeginProlog
50 dict begin
/q { gsave } bind def
/Q { grestore } bind def
/cm { 6 array astore concat } bind def
/w { setlinewidth } bind def
/J { setlinecap } bind def
/j { setlinejoin } bind def
/M { setmiterlimit } bind def
/d { setdash } bind def
/m { moveto } bind def
/l { lineto } bind def
/c { curveto } bind def
/h { closepath } bind def
/re { exch dup neg 3 1 roll 5 3 roll moveto 0 rlineto
      0 exch rlineto 0 rlineto closepath } bind def
/S { stroke } bind def
/f { fill } bind def
/f* { eofill } bind def
/n { newpath } bind def
/W { clip } bind def
/W* { eoclip } bind def
/BT { } bind def
/ET { } bind def
/BDC { mark 3 1 roll /BDC pdfmark } bind def
/EMC { mark /EMC pdfmark } bind def
/cairo_store_point { /cairo_point_y exch def /cairo_point_x exch def } def
/Tj { show currentpoint cairo_store_point } bind def
/TJ {
  {
    dup
    type /stringtype eq
    { show } { -0.001 mul 0 cairo_font_matrix dtransform rmoveto } ifelse
  } forall
  currentpoint cairo_store_point
} bind def
/cairo_selectfont { cairo_font_matrix aload pop pop pop 0 0 6 array astore
    cairo_font exch selectfont cairo_point_x cairo_point_y moveto } bind def
/Tf { pop /cairo_font exch def /cairo_font_matrix where
      { pop cairo_selectfont } if } bind def
/Td { matrix translate cairo_font_matrix matrix concatmatrix dup
      /cairo_font_matrix exch def dup 4 get exch 5 get cairo_store_point
      /cairo_font where { pop cairo_selectfont } if } bind def
/Tm { 2 copy 8 2 roll 6 array astore /cairo_font_matrix exch def
      cairo_store_point /cairo_font where { pop cairo_selectfont } if } bind def
/g { setgray } bind def
/rg { setrgbcolor } bind def
/d1 { setcachedevice } bind def
/cairo_data_source {
  CairoDataIndex CairoData length lt
    { CairoData CairoDataIndex get /CairoDataIndex CairoDataIndex 1 add def }
    { () } ifelse
} def
/cairo_flush_ascii85_file { cairo_ascii85_file status { cairo_ascii85_file flushfile } if } def
/cairo_image { image cairo_flush_ascii85_file } def
/cairo_imagemask { imagemask cairo_flush_ascii85_file } def
%%EndProlog
%%BeginSetup
%%EndSetup
%%Page: 1 1
%%BeginPageSetup
%%PageBoundingBox: 0 0 384 384
%%EndPageSetup
q 0 0 384 384 rectclip
1 0 0 -1 0 384 cm q
0.156863 0.521569 0.933333 rg
179.199 96 m 179.199 81.863 167.738 70.398 153.602 70.398 c 108.801 70.398
 l 101.73 70.398 96 64.668 96 57.602 c 96 50.531 101.73 44.801 108.801 44.801
 c 153.602 44.801 l 168.312 44.789 182.312 51.137 192 62.207 c 201.688 51.137
 215.688 44.789 230.398 44.801 c 275.199 44.801 l 282.27 44.801 288 50.531
 288 57.602 c 288 64.668 282.27 70.398 275.199 70.398 c 230.398 70.398 l
 216.262 70.398 204.801 81.863 204.801 96 c 204.801 224 l 236.801 224 l 
243.871 224 249.602 229.73 249.602 236.801 c 249.602 243.871 243.871 249.602
 236.801 249.602 c 204.801 249.602 l 204.801 294.398 l 204.801 311.742 222.719
 313.602 230.398 313.602 c 275.199 313.602 l 282.27 313.602 288 319.332 
288 326.398 c 288 333.469 282.27 339.199 275.199 339.199 c 230.398 339.199
 l 216.324 339.82 202.559 334.957 192 325.633 c 181.441 334.957 167.676 
339.82 153.602 339.199 c 108.801 339.199 l 101.73 339.199 96 333.469 96 
326.398 c 96 319.332 101.73 313.602 108.801 313.602 c 153.602 313.602 l 
161.281 313.602 179.199 311.742 179.199 294.398 c 179.199 249.602 l 147.199
 249.602 l 140.129 249.602 134.398 243.871 134.398 236.801 c 134.398 229.73
 140.129 224 147.199 224 c 179.199 224 l h
179.199 96 m f
0.733333 0.756863 0.807843 rg
6.398 70.398 m 9.934 70.398 12.801 67.535 12.801 64 c 12.801 51.199 l 12.801
 47.664 9.934 44.801 6.398 44.801 c 2.867 44.801 0 47.664 0 51.199 c 0 64
 l 0 67.535 2.867 70.398 6.398 70.398 c h
6.398 70.398 m f
6.398 108.801 m 9.934 108.801 12.801 105.934 12.801 102.398 c 12.801 89.602
 l 12.801 86.066 9.934 83.199 6.398 83.199 c 2.867 83.199 0 86.066 0 89.602
 c 0 102.398 l 0 105.934 2.867 108.801 6.398 108.801 c h
6.398 108.801 m f
6.398 147.199 m 9.934 147.199 12.801 144.336 12.801 140.801 c 12.801 128
 l 12.801 124.465 9.934 121.602 6.398 121.602 c 2.867 121.602 0 124.465 
0 128 c 0 140.801 l 0 144.336 2.867 147.199 6.398 147.199 c h
6.398 147.199 m f
6.398 185.602 m 9.934 185.602 12.801 182.734 12.801 179.199 c 12.801 166.398
 l 12.801 162.867 9.934 160 6.398 160 c 2.867 160 0 162.867 0 166.398 c 
0 179.199 l 0 182.734 2.867 185.602 6.398 185.602 c h
6.398 185.602 m f
6.398 224 m 9.934 224 12.801 221.133 12.801 217.602 c 12.801 204.801 l 
12.801 201.266 9.934 198.398 6.398 198.398 c 2.867 198.398 0 201.266 0 204.801
 c 0 217.602 l 0 221.133 2.867 224 6.398 224 c h
6.398 224 m f
6.398 262.398 m 9.934 262.398 12.801 259.535 12.801 256 c 12.801 243.199
 l 12.801 239.664 9.934 236.801 6.398 236.801 c 2.867 236.801 0 239.664 
0 243.199 c 0 256 l 0 259.535 2.867 262.398 6.398 262.398 c h
6.398 262.398 m f
6.398 300.801 m 9.934 300.801 12.801 297.934 12.801 294.398 c 12.801 281.602
 l 12.801 278.066 9.934 275.199 6.398 275.199 c 2.867 275.199 0 278.066 
0 281.602 c 0 294.398 l 0 297.934 2.867 300.801 6.398 300.801 c h
6.398 300.801 m f
6.398 339.199 m 9.934 339.199 12.801 336.336 12.801 332.801 c 12.801 320
 l 12.801 316.465 9.934 313.602 6.398 313.602 c 2.867 313.602 0 316.465 
0 320 c 0 332.801 l 0 336.336 2.867 339.199 6.398 339.199 c h
6.398 339.199 m f
377.602 44.801 m 374.066 44.801 371.199 47.664 371.199 51.199 c 371.199
 64 l 371.199 67.535 374.066 70.398 377.602 70.398 c 381.133 70.398 384 
67.535 384 64 c 384 51.199 l 384 47.664 381.133 44.801 377.602 44.801 c 
h
377.602 44.801 m f
377.602 83.199 m 374.066 83.199 371.199 86.066 371.199 89.602 c 371.199
 102.398 l 371.199 105.934 374.066 108.801 377.602 108.801 c 381.133 108.801
 384 105.934 384 102.398 c 384 89.602 l 384 86.066 381.133 83.199 377.602
 83.199 c h
377.602 83.199 m f
377.602 121.602 m 374.066 121.602 371.199 124.465 371.199 128 c 371.199
 140.801 l 371.199 144.336 374.066 147.199 377.602 147.199 c 381.133 147.199
 384 144.336 384 140.801 c 384 128 l 384 124.465 381.133 121.602 377.602
 121.602 c h
377.602 121.602 m f
377.602 160 m 374.066 160 371.199 162.867 371.199 166.398 c 371.199 179.199
 l 371.199 182.734 374.066 185.602 377.602 185.602 c 381.133 185.602 384
 182.734 384 179.199 c 384 166.398 l 384 162.867 381.133 160 377.602 160
 c h
377.602 160 m f
377.602 198.398 m 374.066 198.398 371.199 201.266 371.199 204.801 c 371.199
 217.602 l 371.199 221.133 374.066 224 377.602 224 c 381.133 224 384 221.133
 384 217.602 c 384 204.801 l 384 201.266 381.133 198.398 377.602 198.398
 c h
377.602 198.398 m f
377.602 236.801 m 374.066 236.801 371.199 239.664 371.199 243.199 c 371.199
 256 l 371.199 259.535 374.066 262.398 377.602 262.398 c 381.133 262.398
 384 259.535 384 256 c 384 243.199 l 384 239.664 381.133 236.801 377.602
 236.801 c h
377.602 236.801 m f
377.602 275.199 m 374.066 275.199 371.199 278.066 371.199 281.602 c 371.199
 294.398 l 371.199 297.934 374.066 300.801 377.602 300.801 c 381.133 300.801
 384 297.934 384 294.398 c 384 281.602 l 384 278.066 381.133 275.199 377.602
 275.199 c h
377.602 275.199 m f
377.602 313.602 m 374.066 313.602 371.199 316.465 371.199 320 c 371.199
 332.801 l 371.199 336.336 374.066 339.199 377.602 339.199 c 381.133 339.199
 384 336.336 384 332.801 c 384 320 l 384 316.465 381.133 313.602 377.602
 313.602 c h
377.602 313.602 m f
64 371.199 m 51.199 371.199 l 47.664 371.199 44.801 374.066 44.801 377.602
 c 44.801 381.133 47.664 384 51.199 384 c 64 384 l 67.535 384 70.398 381.133
 70.398 377.602 c 70.398 374.066 67.535 371.199 64 371.199 c h
64 371.199 m f
102.398 371.199 m 89.602 371.199 l 86.066 371.199 83.199 374.066 83.199
 377.602 c 83.199 381.133 86.066 384 89.602 384 c 102.398 384 l 105.934 
384 108.801 381.133 108.801 377.602 c 108.801 374.066 105.934 371.199 102.398
 371.199 c h
102.398 371.199 m f
140.801 371.199 m 128 371.199 l 124.465 371.199 121.602 374.066 121.602
 377.602 c 121.602 381.133 124.465 384 128 384 c 140.801 384 l 144.336 384
 147.199 381.133 147.199 377.602 c 147.199 374.066 144.336 371.199 140.801
 371.199 c h
140.801 371.199 m f
179.199 371.199 m 166.398 371.199 l 162.867 371.199 160 374.066 160 377.602
 c 160 381.133 162.867 384 166.398 384 c 179.199 384 l 182.734 384 185.602
 381.133 185.602 377.602 c 185.602 374.066 182.734 371.199 179.199 371.199
 c h
179.199 371.199 m f
217.602 371.199 m 204.801 371.199 l 201.266 371.199 198.398 374.066 198.398
 377.602 c 198.398 381.133 201.266 384 204.801 384 c 217.602 384 l 221.133
 384 224 381.133 224 377.602 c 224 374.066 221.133 371.199 217.602 371.199
 c h
217.602 371.199 m f
256 371.199 m 243.199 371.199 l 239.664 371.199 236.801 374.066 236.801
 377.602 c 236.801 381.133 239.664 384 243.199 384 c 256 384 l 259.535 384
 262.398 381.133 262.398 377.602 c 262.398 374.066 259.535 371.199 256 371.199
 c h
256 371.199 m f
294.398 371.199 m 281.602 371.199 l 278.066 371.199 275.199 374.066 275.199
 377.602 c 275.199 381.133 278.066 384 281.602 384 c 294.398 384 l 297.934
 384 300.801 381.133 300.801 377.602 c 300.801 374.066 297.934 371.199 294.398
 371.199 c h
294.398 371.199 m f
332.801 371.199 m 320 371.199 l 316.465 371.199 313.602 374.066 313.602
 377.602 c 313.602 381.133 316.465 384 320 384 c 332.801 384 l 336.336 384
 339.199 381.133 339.199 377.602 c 339.199 374.066 336.336 371.199 332.801
 371.199 c h
332.801 371.199 m f
377.602 352 m 374.066 352 371.199 354.867 371.199 358.398 c 371.199 364.801
 l 371.199 368.336 368.336 371.199 364.801 371.199 c 358.398 371.199 l 354.867
 371.199 352 374.066 352 377.602 c 352 381.133 354.867 384 358.398 384 c
 364.801 384 l 375.402 384 384 375.402 384 364.801 c 384 358.398 l 384 354.867
 381.133 352 377.602 352 c h
377.602 352 m f
25.602 371.199 m 19.199 371.199 l 15.664 371.199 12.801 368.336 12.801 
364.801 c 12.801 358.398 l 12.801 354.867 9.934 352 6.398 352 c 2.867 352
 0 354.867 0 358.398 c 0 364.801 l 0 375.402 8.598 384 19.199 384 c 25.602
 384 l 29.133 384 32 381.133 32 377.602 c 32 374.066 29.133 371.199 25.602
 371.199 c h
25.602 371.199 m f
64 0 m 51.199 0 l 47.664 0 44.801 2.867 44.801 6.398 c 44.801 9.934 47.664
 12.801 51.199 12.801 c 64 12.801 l 67.535 12.801 70.398 9.934 70.398 6.398
 c 70.398 2.867 67.535 0 64 0 c h
64 0 m f
102.398 0 m 89.602 0 l 86.066 0 83.199 2.867 83.199 6.398 c 83.199 9.934
 86.066 12.801 89.602 12.801 c 102.398 12.801 l 105.934 12.801 108.801 9.934
 108.801 6.398 c 108.801 2.867 105.934 0 102.398 0 c h
102.398 0 m f
140.801 0 m 128 0 l 124.465 0 121.602 2.867 121.602 6.398 c 121.602 9.934
 124.465 12.801 128 12.801 c 140.801 12.801 l 144.336 12.801 147.199 9.934
 147.199 6.398 c 147.199 2.867 144.336 0 140.801 0 c h
140.801 0 m f
179.199 0 m 166.398 0 l 162.867 0 160 2.867 160 6.398 c 160 9.934 162.867
 12.801 166.398 12.801 c 179.199 12.801 l 182.734 12.801 185.602 9.934 185.602
 6.398 c 185.602 2.867 182.734 0 179.199 0 c h
179.199 0 m f
217.602 0 m 204.801 0 l 201.266 0 198.398 2.867 198.398 6.398 c 198.398
 9.934 201.266 12.801 204.801 12.801 c 217.602 12.801 l 221.133 12.801 224
 9.934 224 6.398 c 224 2.867 221.133 0 217.602 0 c h
217.602 0 m f
256 0 m 243.199 0 l 239.664 0 236.801 2.867 236.801 6.398 c 236.801 9.934
 239.664 12.801 243.199 12.801 c 256 12.801 l 259.535 12.801 262.398 9.934
 262.398 6.398 c 262.398 2.867 259.535 0 256 0 c h
256 0 m f
294.398 0 m 281.602 0 l 278.066 0 275.199 2.867 275.199 6.398 c 275.199
 9.934 278.066 12.801 281.602 12.801 c 294.398 12.801 l 297.934 12.801 300.801
 9.934 300.801 6.398 c 300.801 2.867 297.934 0 294.398 0 c h
294.398 0 m f
332.801 0 m 320 0 l 316.465 0 313.602 2.867 313.602 6.398 c 313.602 9.934
 316.465 12.801 320 12.801 c 332.801 12.801 l 336.336 12.801 339.199 9.934
 339.199 6.398 c 339.199 2.867 336.336 0 332.801 0 c h
332.801 0 m f
364.801 0 m 358.398 0 l 354.867 0 352 2.867 352 6.398 c 352 9.934 354.867
 12.801 358.398 12.801 c 364.801 12.801 l 368.336 12.801 371.199 15.664 
371.199 19.199 c 371.199 25.602 l 371.199 29.133 374.066 32 377.602 32 c
 381.133 32 384 29.133 384 25.602 c 384 19.199 l 384 8.598 375.402 0 364.801
 0 c h
364.801 0 m f
25.602 0 m 19.199 0 l 8.598 0 0 8.598 0 19.199 c 0 25.602 l 0 29.133 2.867
 32 6.398 32 c 9.934 32 12.801 29.133 12.801 25.602 c 12.801 19.199 l 12.801
 15.664 15.664 12.801 19.199 12.801 c 25.602 12.801 l 29.133 12.801 32 9.934
 32 6.398 c 32 2.867 29.133 0 25.602 0 c h
25.602 0 m f
Q Q
showpage
%%Trailer
end
%%EOF
