%!PS-Adobe-3.0 EPSF-3.0
%%Creator: cairo 1.16.0 (https://cairographics.org)
%%CreationDate: Mon Jul 22 07:30:40 2019
%%Pages: 1
%%DocumentData: Clean7Bit
%%LanguageLevel: 2
%%BoundingBox: 0 0 384 384
%%EndComments
%%BeginProlog
50 dict begin
/q { gsave } bind def
/Q { grestore } bind def
/cm { 6 array astore concat } bind def
/w { setlinewidth } bind def
/J { setlinecap } bind def
/j { setlinejoin } bind def
/M { setmiterlimit } bind def
/d { setdash } bind def
/m { moveto } bind def
/l { lineto } bind def
/c { curveto } bind def
/h { closepath } bind def
/re { exch dup neg 3 1 roll 5 3 roll moveto 0 rlineto
      0 exch rlineto 0 rlineto closepath } bind def
/S { stroke } bind def
/f { fill } bind def
/f* { eofill } bind def
/n { newpath } bind def
/W { clip } bind def
/W* { eoclip } bind def
/BT { } bind def
/ET { } bind def
/BDC { mark 3 1 roll /BDC pdfmark } bind def
/EMC { mark /EMC pdfmark } bind def
/cairo_store_point { /cairo_point_y exch def /cairo_point_x exch def } def
/Tj { show currentpoint cairo_store_point } bind def
/TJ {
  {
    dup
    type /stringtype eq
    { show } { -0.001 mul 0 cairo_font_matrix dtransform rmoveto } ifelse
  } forall
  currentpoint cairo_store_point
} bind def
/cairo_selectfont { cairo_font_matrix aload pop pop pop 0 0 6 array astore
    cairo_font exch selectfont cairo_point_x cairo_point_y moveto } bind def
/Tf { pop /cairo_font exch def /cairo_font_matrix where
      { pop cairo_selectfont } if } bind def
/Td { matrix translate cairo_font_matrix matrix concatmatrix dup
      /cairo_font_matrix exch def dup 4 get exch 5 get cairo_store_point
      /cairo_font where { pop cairo_selectfont } if } bind def
/Tm { 2 copy 8 2 roll 6 array astore /cairo_font_matrix exch def
      cairo_store_point /cairo_font where { pop cairo_selectfont } if } bind def
/g { setgray } bind def
/rg { setrgbcolor } bind def
/d1 { setcachedevice } bind def
/cairo_data_source {
  CairoDataIndex CairoData length lt
    { CairoData CairoDataIndex get /CairoDataIndex CairoDataIndex 1 add def }
    { () } ifelse
} def
/cairo_flush_ascii85_file { cairo_ascii85_file status { cairo_ascii85_file flushfile } if } def
/cairo_image { image cairo_flush_ascii85_file } def
/cairo_imagemask { imagemask cairo_flush_ascii85_file } def
%%EndProlog
%%BeginSetup
%%EndSetup
%%Page: 1 1
%%BeginPageSetup
%%PageBoundingBox: 0 0 384 384
%%EndPageSetup
q 0 0 384 384 rectclip
1 0 0 -1 0 384 cm q
0.262745 0.611765 0.972549 rg
13.242 13.242 145.656 145.656 re f
225.102 13.242 145.656 145.656 re f
225.102 225.102 145.656 145.656 re f
13.242 225.102 145.656 145.656 re f
0.0352941 0.439216 0.870588 rg
145.656 139.035 m 238.344 139.035 l 242.012 139.035 244.965 141.988 244.965
 145.656 c 244.965 238.344 l 244.965 242.012 242.012 244.965 238.344 244.965
 c 145.656 244.965 l 141.988 244.965 139.035 242.012 139.035 238.344 c 139.035
 145.656 l 139.035 141.988 141.988 139.035 145.656 139.035 c h
145.656 139.035 m f
6.621 357.516 m 19.863 357.516 l 23.531 357.516 26.484 360.469 26.484 364.137
 c 26.484 377.379 l 26.484 381.047 23.531 384 19.863 384 c 6.621 384 l 2.953
 384 0 381.047 0 377.379 c 0 364.137 l 0 360.469 2.953 357.516 6.621 357.516
 c h
6.621 357.516 m f
6.621 211.863 m 19.863 211.863 l 23.531 211.863 26.484 214.816 26.484 218.484
 c 26.484 231.723 l 26.484 235.391 23.531 238.344 19.863 238.344 c 6.621
 238.344 l 2.953 238.344 0 235.391 0 231.723 c 0 218.484 l 0 214.816 2.953
 211.863 6.621 211.863 c h
6.621 211.863 m f
152.277 357.516 m 165.516 357.516 l 169.184 357.516 172.137 360.469 172.137
 364.137 c 172.137 377.379 l 172.137 381.047 169.184 384 165.516 384 c 152.277
 384 l 148.609 384 145.656 381.047 145.656 377.379 c 145.656 364.137 l 145.656
 360.469 148.609 357.516 152.277 357.516 c h
152.277 357.516 m f
6.621 0 m 19.863 0 l 23.531 0 26.484 2.953 26.484 6.621 c 26.484 19.863
 l 26.484 23.531 23.531 26.484 19.863 26.484 c 6.621 26.484 l 2.953 26.484
 0 23.531 0 19.863 c 0 6.621 l 0 2.953 2.953 0 6.621 0 c h
6.621 0 m f
6.621 145.656 m 19.863 145.656 l 23.531 145.656 26.484 148.609 26.484 152.277
 c 26.484 165.516 l 26.484 169.184 23.531 172.137 19.863 172.137 c 6.621
 172.137 l 2.953 172.137 0 169.184 0 165.516 c 0 152.277 l 0 148.609 2.953
 145.656 6.621 145.656 c h
6.621 145.656 m f
152.277 0 m 165.516 0 l 169.184 0 172.137 2.953 172.137 6.621 c 172.137
 19.863 l 172.137 23.531 169.184 26.484 165.516 26.484 c 152.277 26.484 
l 148.609 26.484 145.656 23.531 145.656 19.863 c 145.656 6.621 l 145.656
 2.953 148.609 0 152.277 0 c h
152.277 0 m f
377.379 384 m 364.137 384 l 360.469 384 357.516 381.047 357.516 377.379
 c 357.516 364.137 l 357.516 360.469 360.469 357.516 364.137 357.516 c 377.379
 357.516 l 381.047 357.516 384 360.469 384 364.137 c 384 377.379 l 384 381.047
 381.047 384 377.379 384 c h
377.379 384 m f
377.379 238.344 m 364.137 238.344 l 360.469 238.344 357.516 235.391 357.516
 231.723 c 357.516 218.484 l 357.516 214.816 360.469 211.863 364.137 211.863
 c 377.379 211.863 l 381.047 211.863 384 214.816 384 218.484 c 384 231.723
 l 384 235.391 381.047 238.344 377.379 238.344 c h
377.379 238.344 m f
231.723 384 m 218.484 384 l 214.816 384 211.863 381.047 211.863 377.379
 c 211.863 364.137 l 211.863 360.469 214.816 357.516 218.484 357.516 c 231.723
 357.516 l 235.391 357.516 238.344 360.469 238.344 364.137 c 238.344 377.379
 l 238.344 381.047 235.391 384 231.723 384 c h
231.723 384 m f
377.379 26.484 m 364.137 26.484 l 360.469 26.484 357.516 23.531 357.516
 19.863 c 357.516 6.621 l 357.516 2.953 360.469 0 364.137 0 c 377.379 0 
l 381.047 0 384 2.953 384 6.621 c 384 19.863 l 384 23.531 381.047 26.484
 377.379 26.484 c h
377.379 26.484 m f
377.379 172.137 m 364.137 172.137 l 360.469 172.137 357.516 169.184 357.516
 165.516 c 357.516 152.277 l 357.516 148.609 360.469 145.656 364.137 145.656
 c 377.379 145.656 l 381.047 145.656 384 148.609 384 152.277 c 384 165.516
 l 384 169.184 381.047 172.137 377.379 172.137 c h
377.379 172.137 m f
231.723 26.484 m 218.484 26.484 l 214.816 26.484 211.863 23.531 211.863
 19.863 c 211.863 6.621 l 211.863 2.953 214.816 0 218.484 0 c 231.723 0 
l 235.391 0 238.344 2.953 238.344 6.621 c 238.344 19.863 l 238.344 23.531
 235.391 26.484 231.723 26.484 c h
231.723 26.484 m f
148.438 244.965 m 95.402 297.93 l 105.93 297.93 l 109.586 297.93 112.551
 300.895 112.551 304.551 c 112.551 308.207 109.586 311.172 105.93 311.172
 c 79.449 311.172 l 78.582 311.16 77.727 310.98 76.934 310.645 c 75.297 
310 74 308.703 73.355 307.066 c 73.02 306.273 72.84 305.418 72.828 304.551
 c 72.828 278.07 l 72.828 274.414 75.793 271.449 79.449 271.449 c 83.105
 271.449 86.07 274.414 86.07 278.07 c 86.07 288.598 l 139.035 235.562 l 
139.035 238.344 l 139.035 242 142 244.965 145.656 244.965 c h
148.438 244.965 m f
311.172 278.07 m 311.172 304.551 l 311.16 305.418 310.98 306.273 310.645
 307.066 c 310 308.703 308.703 310 307.066 310.645 c 306.273 310.98 305.418
 311.16 304.551 311.172 c 278.07 311.172 l 274.414 311.172 271.449 308.207
 271.449 304.551 c 271.449 300.895 274.414 297.93 278.07 297.93 c 288.598
 297.93 l 235.562 244.965 l 238.344 244.965 l 242 244.965 244.965 242 244.965
 238.344 c 244.965 235.562 l 297.93 288.598 l 297.93 278.07 l 297.93 274.414
 300.895 271.449 304.551 271.449 c 308.207 271.449 311.172 274.414 311.172
 278.07 c h
311.172 278.07 m f
311.172 79.449 m 311.172 105.93 l 311.172 109.586 308.207 112.551 304.551
 112.551 c 300.895 112.551 297.93 109.586 297.93 105.93 c 297.93 95.402 
l 244.965 148.438 l 244.965 145.656 l 244.965 142 242 139.035 238.344 139.035
 c 235.562 139.035 l 288.598 86.07 l 278.07 86.07 l 274.414 86.07 271.449
 83.105 271.449 79.449 c 271.449 75.793 274.414 72.828 278.07 72.828 c 304.551
 72.828 l 305.418 72.84 306.273 73.02 307.066 73.355 c 308.703 74 310 75.297
 310.645 76.934 c 310.98 77.727 311.16 78.582 311.172 79.449 c h
311.172 79.449 m f
95.402 86.07 m 148.438 139.035 l 145.656 139.035 l 142 139.035 139.035 
142 139.035 145.656 c 139.035 148.438 l 86.07 95.402 l 86.07 105.93 l 86.07
 109.586 83.105 112.551 79.449 112.551 c 75.793 112.551 72.828 109.586 72.828
 105.93 c 72.828 79.449 l 72.84 78.582 73.02 77.727 73.355 76.934 c 74 75.297
 75.297 74 76.934 73.355 c 77.727 73.02 78.582 72.84 79.449 72.828 c 105.93
 72.828 l 109.586 72.828 112.551 75.793 112.551 79.449 c 112.551 83.105 
109.586 86.07 105.93 86.07 c h
95.402 86.07 m f
Q Q
showpage
%%Trailer
end
%%EOF
