%!PS-Adobe-3.0 EPSF-3.0
%%Creator: cairo 1.16.0 (https://cairographics.org)
%%CreationDate: Mon Jul 22 07:30:40 2019
%%Pages: 1
%%DocumentData: Clean7Bit
%%LanguageLevel: 2
%%BoundingBox: 13 0 371 384
%%EndComments
%%BeginProlog
50 dict begin
/q { gsave } bind def
/Q { grestore } bind def
/cm { 6 array astore concat } bind def
/w { setlinewidth } bind def
/J { setlinecap } bind def
/j { setlinejoin } bind def
/M { setmiterlimit } bind def
/d { setdash } bind def
/m { moveto } bind def
/l { lineto } bind def
/c { curveto } bind def
/h { closepath } bind def
/re { exch dup neg 3 1 roll 5 3 roll moveto 0 rlineto
      0 exch rlineto 0 rlineto closepath } bind def
/S { stroke } bind def
/f { fill } bind def
/f* { eofill } bind def
/n { newpath } bind def
/W { clip } bind def
/W* { eoclip } bind def
/BT { } bind def
/ET { } bind def
/BDC { mark 3 1 roll /BDC pdfmark } bind def
/EMC { mark /EMC pdfmark } bind def
/cairo_store_point { /cairo_point_y exch def /cairo_point_x exch def } def
/Tj { show currentpoint cairo_store_point } bind def
/TJ {
  {
    dup
    type /stringtype eq
    { show } { -0.001 mul 0 cairo_font_matrix dtransform rmoveto } ifelse
  } forall
  currentpoint cairo_store_point
} bind def
/cairo_selectfont { cairo_font_matrix aload pop pop pop 0 0 6 array astore
    cairo_font exch selectfont cairo_point_x cairo_point_y moveto } bind def
/Tf { pop /cairo_font exch def /cairo_font_matrix where
      { pop cairo_selectfont } if } bind def
/Td { matrix translate cairo_font_matrix matrix concatmatrix dup
      /cairo_font_matrix exch def dup 4 get exch 5 get cairo_store_point
      /cairo_font where { pop cairo_selectfont } if } bind def
/Tm { 2 copy 8 2 roll 6 array astore /cairo_font_matrix exch def
      cairo_store_point /cairo_font where { pop cairo_selectfont } if } bind def
/g { setgray } bind def
/rg { setrgbcolor } bind def
/d1 { setcachedevice } bind def
/cairo_data_source {
  CairoDataIndex CairoData length lt
    { CairoData CairoDataIndex get /CairoDataIndex CairoDataIndex 1 add def }
    { () } ifelse
} def
/cairo_flush_ascii85_file { cairo_ascii85_file status { cairo_ascii85_file flushfile } if } def
/cairo_image { image cairo_flush_ascii85_file } def
/cairo_imagemask { imagemask cairo_flush_ascii85_file } def
%%EndProlog
%%BeginSetup
%%EndSetup
%%Page: 1 1
%%BeginPageSetup
%%PageBoundingBox: 13 0 371 384
%%EndPageSetup
q 13 0 358 384 rectclip
1 0 0 -1 0 384 cm q
0.807843 0.823529 0.862745 rg
231.988 200.41 m 256.156 233.246 l 224.508 261.449 l 203.121 238.277 l 
152.012 200.41 l 64.684 84.605 l 45.156 58.273 50.57 21.109 76.801 1.441
 c 76.934 1.312 l 78.352 0.254 80.137 -0.195 81.891 0.066 c 83.641 0.328
 85.215 1.277 86.27 2.703 c 192 146.18 l h
231.988 200.41 m f
0.733333 0.756863 0.807843 rg
159.492 261.449 m 172.203 246.156 l 175.211 242.504 179.797 240.527 184.52
 240.859 c 184.586 240.859 l 185.848 240.938 187.094 241.184 188.293 241.59
 c 189.469 241.977 190.695 242.199 191.934 242.25 c 192 242.25 l 192.305
 242.305 192.617 242.328 192.926 242.316 c 195.148 242.301 197.34 241.805
 199.348 240.859 c 199.414 240.859 l 201.605 239.801 203.512 238.234 204.977
 236.293 c 231.988 200.41 l 319.316 84.605 l 338.844 58.273 333.43 21.109
 307.199 1.441 c 307.066 1.312 l 305.648 0.254 303.863 -0.195 302.109 0.066
 c 300.359 0.328 298.785 1.277 297.73 2.703 c 192 146.18 l 152.012 200.41
 l 127.844 233.246 l h
159.492 261.449 m f
0.156863 0.521569 0.933333 rg
92.188 225.102 m 48.309 225.383 12.965 261.176 13.246 305.055 c 13.523 
348.93 49.316 384.273 93.195 383.996 c 137.07 383.719 172.414 347.926 172.137
 304.047 c 172.004 282.977 163.508 262.82 148.512 248.016 c 133.52 233.211
 113.258 224.969 92.188 225.102 c h
92.988 350.898 m 67.395 351.062 46.512 330.445 46.348 304.852 c 46.184 
279.254 66.797 258.375 92.391 258.207 c 117.988 258.043 138.871 278.66 139.035
 304.254 c 139.113 316.547 134.309 328.363 125.672 337.113 c 117.035 345.859
 105.277 350.816 92.988 350.898 c h
92.988 350.898 m f
290.809 225.102 m 246.93 225.383 211.586 261.176 211.867 305.055 c 212.145
 348.93 247.938 384.273 291.816 383.996 c 335.691 383.719 371.035 347.926
 370.758 304.047 c 370.625 282.977 362.129 262.82 347.133 248.016 c 332.141
 233.211 311.879 224.969 290.809 225.102 c h
291.609 350.898 m 266.012 351.062 245.133 330.445 244.969 304.852 c 244.805
 279.254 265.418 258.375 291.012 258.207 c 316.609 258.043 337.488 278.66
 337.656 304.254 c 337.734 316.547 332.926 328.363 324.293 337.113 c 315.656
 345.859 303.898 350.816 291.609 350.898 c h
291.609 350.898 m f
0.47451 0.509804 0.568627 rg
192 211.863 m 188.344 211.863 185.379 208.898 185.379 205.242 c 185.379
 198.621 l 185.379 194.965 188.344 192 192 192 c 195.656 192 198.621 194.965
 198.621 198.621 c 198.621 205.242 l 198.621 208.898 195.656 211.863 192
 211.863 c h
192 211.863 m f
0.262745 0.611765 0.972549 rg
92.691 357.516 m 70.305 357.531 50.328 343.469 42.789 322.391 c 35.25 301.312
 41.773 277.773 59.09 263.582 c 76.406 249.395 100.77 247.625 119.953 259.16
 c 122.035 260.355 123.309 262.582 123.281 264.98 c 123.25 267.383 121.926
 269.578 119.816 270.723 c 117.707 271.867 115.141 271.781 113.113 270.496
 c 96.242 260.398 74.52 264.184 62.059 279.391 c 49.594 294.602 50.152 316.645
 63.371 331.203 c 76.59 345.762 98.477 348.441 114.812 337.5 c 131.152 326.559
 137.012 305.305 128.586 287.535 c 127.316 284.305 128.762 280.641 131.895
 279.141 c 135.027 277.645 138.785 278.824 140.504 281.844 c 143.902 288.93
 145.664 296.691 145.656 304.551 c 145.621 333.789 121.93 357.484 92.691
 357.516 c h
92.691 357.516 m f
291.309 357.516 m 268.926 357.531 248.949 343.469 241.41 322.391 c 233.871
 301.312 240.395 277.773 257.711 263.582 c 275.023 249.395 299.391 247.625
 318.574 259.16 c 320.656 260.355 321.93 262.582 321.902 264.98 c 321.871
 267.383 320.547 269.578 318.438 270.723 c 316.328 271.867 313.762 271.781
 311.734 270.496 c 294.863 260.398 273.141 264.184 260.676 279.391 c 248.215
 294.602 248.773 316.645 261.992 331.203 c 275.211 345.762 297.098 348.441
 313.434 337.5 c 329.773 326.559 335.633 305.305 327.207 287.535 c 325.938
 284.305 327.383 280.641 330.516 279.141 c 333.648 277.645 337.406 278.824
 339.125 281.844 c 342.523 288.93 344.285 296.691 344.277 304.551 c 344.242
 333.789 320.547 357.484 291.309 357.516 c h
291.309 357.516 m f
Q Q
showpage
%%Trailer
end
%%EOF
