%!PS-Adobe-3.0 EPSF-3.0
%%Creator: cairo 1.16.0 (https://cairographics.org)
%%CreationDate: Mon Jul 22 07:30:41 2019
%%Pages: 1
%%DocumentData: Clean7Bit
%%LanguageLevel: 2
%%BoundingBox: 0 44 384 340
%%EndComments
%%BeginProlog
50 dict begin
/q { gsave } bind def
/Q { grestore } bind def
/cm { 6 array astore concat } bind def
/w { setlinewidth } bind def
/J { setlinecap } bind def
/j { setlinejoin } bind def
/M { setmiterlimit } bind def
/d { setdash } bind def
/m { moveto } bind def
/l { lineto } bind def
/c { curveto } bind def
/h { closepath } bind def
/re { exch dup neg 3 1 roll 5 3 roll moveto 0 rlineto
      0 exch rlineto 0 rlineto closepath } bind def
/S { stroke } bind def
/f { fill } bind def
/f* { eofill } bind def
/n { newpath } bind def
/W { clip } bind def
/W* { eoclip } bind def
/BT { } bind def
/ET { } bind def
/BDC { mark 3 1 roll /BDC pdfmark } bind def
/EMC { mark /EMC pdfmark } bind def
/cairo_store_point { /cairo_point_y exch def /cairo_point_x exch def } def
/Tj { show currentpoint cairo_store_point } bind def
/TJ {
  {
    dup
    type /stringtype eq
    { show } { -0.001 mul 0 cairo_font_matrix dtransform rmoveto } ifelse
  } forall
  currentpoint cairo_store_point
} bind def
/cairo_selectfont { cairo_font_matrix aload pop pop pop 0 0 6 array astore
    cairo_font exch selectfont cairo_point_x cairo_point_y moveto } bind def
/Tf { pop /cairo_font exch def /cairo_font_matrix where
      { pop cairo_selectfont } if } bind def
/Td { matrix translate cairo_font_matrix matrix concatmatrix dup
      /cairo_font_matrix exch def dup 4 get exch 5 get cairo_store_point
      /cairo_font where { pop cairo_selectfont } if } bind def
/Tm { 2 copy 8 2 roll 6 array astore /cairo_font_matrix exch def
      cairo_store_point /cairo_font where { pop cairo_selectfont } if } bind def
/g { setgray } bind def
/rg { setrgbcolor } bind def
/d1 { setcachedevice } bind def
/cairo_data_source {
  CairoDataIndex CairoData length lt
    { CairoData CairoDataIndex get /CairoDataIndex CairoDataIndex 1 add def }
    { () } ifelse
} def
/cairo_flush_ascii85_file { cairo_ascii85_file status { cairo_ascii85_file flushfile } if } def
/cairo_image { image cairo_flush_ascii85_file } def
/cairo_imagemask { imagemask cairo_flush_ascii85_file } def
%%EndProlog
%%BeginSetup
%%EndSetup
%%Page: 1 1
%%BeginPageSetup
%%PageBoundingBox: 0 44 384 340
%%EndPageSetup
q 0 44 384 296 rectclip
1 0 0 -1 0 384 cm q
0.156863 0.521569 0.933333 rg
224 192 m 224.004 243.891 187.367 288.559 136.48 298.707 c 85.594 308.859
 34.621 281.66 14.719 233.738 c -5.18 185.816 11.527 130.512 54.633 101.625
 c 97.742 72.742 155.246 78.316 192 114.945 c 212.512 135.336 224.031 163.074
 224 192 c h
224 192 m f
377.602 192 m 377.605 243.891 340.965 288.559 290.078 298.707 c 239.191
 308.859 188.219 281.66 168.32 233.738 c 148.418 185.816 165.129 130.512
 208.234 101.625 c 251.34 72.742 308.844 78.316 345.602 114.945 c 366.113
 135.336 377.633 163.074 377.602 192 c h
377.602 192 m f
0.0352941 0.439216 0.870588 rg
224 192 m 224 236.801 192 269.055 192 269.055 c 192 269.055 160 236.801
 160 192 c 160 147.199 192 114.945 192 114.945 c 192 114.945 224 147.199
 224 192 c h
224 192 m f
0.262745 0.611765 0.972549 rg
61.621 147.199 m 59.055 147.199 56.742 145.668 55.738 143.309 c 54.734 
140.949 55.23 138.223 57.004 136.371 c 73.832 118.695 97.195 108.723 121.602
 108.801 c 125.133 108.801 128 111.664 128 115.199 c 128 118.734 125.133
 121.602 121.602 121.602 c 100.684 121.539 80.66 130.082 66.234 145.23 c
 65.027 146.488 63.363 147.199 61.621 147.199 c h
61.621 147.199 m f
44.801 172.801 m 43.953 172.801 43.117 172.637 42.336 172.309 c 40.77 171.652
 39.527 170.406 38.879 168.836 c 38.234 167.266 38.238 165.504 38.895 163.938
 c 39.871 161.574 40.961 159.277 42.133 157.031 c 43.191 155.004 45.25 153.695
 47.535 153.598 c 49.82 153.5 51.98 154.633 53.207 156.562 c 54.434 158.492
 54.535 160.93 53.477 162.957 c 52.473 164.875 51.547 166.848 50.707 168.863
 c 49.711 171.246 47.383 172.801 44.801 172.801 c h
44.801 172.801 m f
230.398 124.609 m 227.449 124.613 224.875 122.602 224.172 119.734 c 223.465
 116.871 224.812 113.895 227.43 112.531 c 240.207 105.883 254.398 102.406
 268.801 102.398 c 272.336 102.398 275.199 105.266 275.199 108.801 c 275.199
 112.336 272.336 115.199 268.801 115.199 c 256.457 115.164 244.293 118.141
 233.363 123.879 c 232.449 124.359 231.434 124.609 230.398 124.609 c h
230.398 124.609 m f
0.733333 0.756863 0.807843 rg
6.398 115.199 m 9.934 115.199 12.801 112.336 12.801 108.801 c 12.801 96
 l 12.801 92.465 9.934 89.602 6.398 89.602 c 2.867 89.602 0 92.465 0 96 
c 0 108.801 l 0 112.336 2.867 115.199 6.398 115.199 c h
6.398 115.199 m f
179.199 44.801 m 166.398 44.801 l 162.867 44.801 160 47.664 160 51.199 
c 160 54.734 162.867 57.602 166.398 57.602 c 179.199 57.602 l 182.734 57.602
 185.602 54.734 185.602 51.199 c 185.602 47.664 182.734 44.801 179.199 44.801
 c h
179.199 44.801 m f
140.801 44.801 m 128 44.801 l 124.465 44.801 121.602 47.664 121.602 51.199
 c 121.602 54.734 124.465 57.602 128 57.602 c 140.801 57.602 l 144.336 57.602
 147.199 54.734 147.199 51.199 c 147.199 47.664 144.336 44.801 140.801 44.801
 c h
140.801 44.801 m f
102.398 44.801 m 89.602 44.801 l 86.066 44.801 83.199 47.664 83.199 51.199
 c 83.199 54.734 86.066 57.602 89.602 57.602 c 102.398 57.602 l 105.934 
57.602 108.801 54.734 108.801 51.199 c 108.801 47.664 105.934 44.801 102.398
 44.801 c h
102.398 44.801 m f
64 44.801 m 51.199 44.801 l 47.664 44.801 44.801 47.664 44.801 51.199 c
 44.801 54.734 47.664 57.602 51.199 57.602 c 64 57.602 l 67.535 57.602 70.398
 54.734 70.398 51.199 c 70.398 47.664 67.535 44.801 64 44.801 c h
64 44.801 m f
25.602 44.801 m 19.199 44.801 l 8.598 44.801 0 53.395 0 64 c 0 70.398 l
 0 73.934 2.867 76.801 6.398 76.801 c 9.934 76.801 12.801 73.934 12.801 
70.398 c 12.801 64 l 12.801 60.465 15.664 57.602 19.199 57.602 c 25.602 
57.602 l 29.133 57.602 32 54.734 32 51.199 c 32 47.664 29.133 44.801 25.602
 44.801 c h
25.602 44.801 m f
377.602 89.602 m 374.066 89.602 371.199 92.465 371.199 96 c 371.199 108.801
 l 371.199 112.336 374.066 115.199 377.602 115.199 c 381.133 115.199 384
 112.336 384 108.801 c 384 96 l 384 92.465 381.133 89.602 377.602 89.602
 c h
377.602 89.602 m f
377.602 128 m 374.066 128 371.199 130.867 371.199 134.398 c 371.199 249.602
 l 371.199 253.133 374.066 256 377.602 256 c 381.133 256 384 253.133 384
 249.602 c 384 134.398 l 384 130.867 381.133 128 377.602 128 c h
377.602 128 m f
217.602 44.801 m 204.801 44.801 l 201.266 44.801 198.398 47.664 198.398
 51.199 c 198.398 54.734 201.266 57.602 204.801 57.602 c 217.602 57.602 
l 221.133 57.602 224 54.734 224 51.199 c 224 47.664 221.133 44.801 217.602
 44.801 c h
217.602 44.801 m f
256 44.801 m 243.199 44.801 l 239.664 44.801 236.801 47.664 236.801 51.199
 c 236.801 54.734 239.664 57.602 243.199 57.602 c 256 57.602 l 259.535 57.602
 262.398 54.734 262.398 51.199 c 262.398 47.664 259.535 44.801 256 44.801
 c h
256 44.801 m f
294.398 44.801 m 281.602 44.801 l 278.066 44.801 275.199 47.664 275.199
 51.199 c 275.199 54.734 278.066 57.602 281.602 57.602 c 294.398 57.602 
l 297.934 57.602 300.801 54.734 300.801 51.199 c 300.801 47.664 297.934 
44.801 294.398 44.801 c h
294.398 44.801 m f
332.801 44.801 m 320 44.801 l 316.465 44.801 313.602 47.664 313.602 51.199
 c 313.602 54.734 316.465 57.602 320 57.602 c 332.801 57.602 l 336.336 57.602
 339.199 54.734 339.199 51.199 c 339.199 47.664 336.336 44.801 332.801 44.801
 c h
332.801 44.801 m f
364.801 44.801 m 358.398 44.801 l 354.867 44.801 352 47.664 352 51.199 
c 352 54.734 354.867 57.602 358.398 57.602 c 364.801 57.602 l 368.336 57.602
 371.199 60.465 371.199 64 c 371.199 70.398 l 371.199 73.934 374.066 76.801
 377.602 76.801 c 381.133 76.801 384 73.934 384 70.398 c 384 64 l 384 53.395
 375.402 44.801 364.801 44.801 c h
364.801 44.801 m f
6.398 294.398 m 9.934 294.398 12.801 291.535 12.801 288 c 12.801 275.199
 l 12.801 271.664 9.934 268.801 6.398 268.801 c 2.867 268.801 0 271.664 
0 275.199 c 0 288 l 0 291.535 2.867 294.398 6.398 294.398 c h
6.398 294.398 m f
6.398 256 m 9.934 256 12.801 253.133 12.801 249.602 c 12.801 134.398 l 
12.801 130.867 9.934 128 6.398 128 c 2.867 128 0 130.867 0 134.398 c 0 249.602
 l 0 253.133 2.867 256 6.398 256 c h
6.398 256 m f
179.199 326.398 m 166.398 326.398 l 162.867 326.398 160 329.266 160 332.801
 c 160 336.336 162.867 339.199 166.398 339.199 c 179.199 339.199 l 182.734
 339.199 185.602 336.336 185.602 332.801 c 185.602 329.266 182.734 326.398
 179.199 326.398 c h
179.199 326.398 m f
140.801 326.398 m 128 326.398 l 124.465 326.398 121.602 329.266 121.602
 332.801 c 121.602 336.336 124.465 339.199 128 339.199 c 140.801 339.199
 l 144.336 339.199 147.199 336.336 147.199 332.801 c 147.199 329.266 144.336
 326.398 140.801 326.398 c h
140.801 326.398 m f
102.398 326.398 m 89.602 326.398 l 86.066 326.398 83.199 329.266 83.199
 332.801 c 83.199 336.336 86.066 339.199 89.602 339.199 c 102.398 339.199
 l 105.934 339.199 108.801 336.336 108.801 332.801 c 108.801 329.266 105.934
 326.398 102.398 326.398 c h
102.398 326.398 m f
64 326.398 m 51.199 326.398 l 47.664 326.398 44.801 329.266 44.801 332.801
 c 44.801 336.336 47.664 339.199 51.199 339.199 c 64 339.199 l 67.535 339.199
 70.398 336.336 70.398 332.801 c 70.398 329.266 67.535 326.398 64 326.398
 c h
64 326.398 m f
25.602 326.398 m 19.199 326.398 l 15.664 326.398 12.801 323.535 12.801 
320 c 12.801 313.602 l 12.801 310.066 9.934 307.199 6.398 307.199 c 2.867
 307.199 0 310.066 0 313.602 c 0 320 l 0 330.605 8.598 339.199 19.199 339.199
 c 25.602 339.199 l 29.133 339.199 32 336.336 32 332.801 c 32 329.266 29.133
 326.398 25.602 326.398 c h
25.602 326.398 m f
377.602 268.801 m 374.066 268.801 371.199 271.664 371.199 275.199 c 371.199
 288 l 371.199 291.535 374.066 294.398 377.602 294.398 c 381.133 294.398
 384 291.535 384 288 c 384 275.199 l 384 271.664 381.133 268.801 377.602
 268.801 c h
377.602 268.801 m f
217.602 326.398 m 204.801 326.398 l 201.266 326.398 198.398 329.266 198.398
 332.801 c 198.398 336.336 201.266 339.199 204.801 339.199 c 217.602 339.199
 l 221.133 339.199 224 336.336 224 332.801 c 224 329.266 221.133 326.398
 217.602 326.398 c h
217.602 326.398 m f
256 326.398 m 243.199 326.398 l 239.664 326.398 236.801 329.266 236.801
 332.801 c 236.801 336.336 239.664 339.199 243.199 339.199 c 256 339.199
 l 259.535 339.199 262.398 336.336 262.398 332.801 c 262.398 329.266 259.535
 326.398 256 326.398 c h
256 326.398 m f
294.398 326.398 m 281.602 326.398 l 278.066 326.398 275.199 329.266 275.199
 332.801 c 275.199 336.336 278.066 339.199 281.602 339.199 c 294.398 339.199
 l 297.934 339.199 300.801 336.336 300.801 332.801 c 300.801 329.266 297.934
 326.398 294.398 326.398 c h
294.398 326.398 m f
332.801 326.398 m 320 326.398 l 316.465 326.398 313.602 329.266 313.602
 332.801 c 313.602 336.336 316.465 339.199 320 339.199 c 332.801 339.199
 l 336.336 339.199 339.199 336.336 339.199 332.801 c 339.199 329.266 336.336
 326.398 332.801 326.398 c h
332.801 326.398 m f
377.602 307.199 m 374.066 307.199 371.199 310.066 371.199 313.602 c 371.199
 320 l 371.199 323.535 368.336 326.398 364.801 326.398 c 358.398 326.398
 l 354.867 326.398 352 329.266 352 332.801 c 352 336.336 354.867 339.199
 358.398 339.199 c 364.801 339.199 l 375.402 339.199 384 330.605 384 320
 c 384 313.602 l 384 310.066 381.133 307.199 377.602 307.199 c h
377.602 307.199 m f
Q Q
showpage
%%Trailer
end
%%EOF
