%!PS-Adobe-3.0 EPSF-3.0
%%Creator: cairo 1.16.0 (https://cairographics.org)
%%CreationDate: Mon Jul 22 07:30:41 2019
%%Pages: 1
%%DocumentData: Clean7Bit
%%LanguageLevel: 2
%%BoundingBox: 0 35 384 349
%%EndComments
%%BeginProlog
50 dict begin
/q { gsave } bind def
/Q { grestore } bind def
/cm { 6 array astore concat } bind def
/w { setlinewidth } bind def
/J { setlinecap } bind def
/j { setlinejoin } bind def
/M { setmiterlimit } bind def
/d { setdash } bind def
/m { moveto } bind def
/l { lineto } bind def
/c { curveto } bind def
/h { closepath } bind def
/re { exch dup neg 3 1 roll 5 3 roll moveto 0 rlineto
      0 exch rlineto 0 rlineto closepath } bind def
/S { stroke } bind def
/f { fill } bind def
/f* { eofill } bind def
/n { newpath } bind def
/W { clip } bind def
/W* { eoclip } bind def
/BT { } bind def
/ET { } bind def
/BDC { mark 3 1 roll /BDC pdfmark } bind def
/EMC { mark /EMC pdfmark } bind def
/cairo_store_point { /cairo_point_y exch def /cairo_point_x exch def } def
/Tj { show currentpoint cairo_store_point } bind def
/TJ {
  {
    dup
    type /stringtype eq
    { show } { -0.001 mul 0 cairo_font_matrix dtransform rmoveto } ifelse
  } forall
  currentpoint cairo_store_point
} bind def
/cairo_selectfont { cairo_font_matrix aload pop pop pop 0 0 6 array astore
    cairo_font exch selectfont cairo_point_x cairo_point_y moveto } bind def
/Tf { pop /cairo_font exch def /cairo_font_matrix where
      { pop cairo_selectfont } if } bind def
/Td { matrix translate cairo_font_matrix matrix concatmatrix dup
      /cairo_font_matrix exch def dup 4 get exch 5 get cairo_store_point
      /cairo_font where { pop cairo_selectfont } if } bind def
/Tm { 2 copy 8 2 roll 6 array astore /cairo_font_matrix exch def
      cairo_store_point /cairo_font where { pop cairo_selectfont } if } bind def
/g { setgray } bind def
/rg { setrgbcolor } bind def
/d1 { setcachedevice } bind def
/cairo_data_source {
  CairoDataIndex CairoData length lt
    { CairoData CairoDataIndex get /CairoDataIndex CairoDataIndex 1 add def }
    { () } ifelse
} def
/cairo_flush_ascii85_file { cairo_ascii85_file status { cairo_ascii85_file flushfile } if } def
/cairo_image { image cairo_flush_ascii85_file } def
/cairo_imagemask { imagemask cairo_flush_ascii85_file } def
%%EndProlog
%%BeginSetup
%%EndSetup
%%Page: 1 1
%%BeginPageSetup
%%PageBoundingBox: 0 35 384 349
%%EndPageSetup
q 0 35 384 314 rectclip
1 0 0 -1 0 384 cm q
0.262745 0.611765 0.972549 rg
384 192 m 384.883 277.363 316.414 347.289 231.051 348.203 c 181.516 348.066
 135.164 323.773 106.871 283.117 c 68.512 228.426 68.512 155.574 106.871
 100.883 c 135.164 60.227 181.516 35.934 231.051 35.797 c 316.414 36.711
 384.883 106.637 384 192 c h
384 192 m f
0.0352941 0.439216 0.870588 rg
253.832 100.883 m 253.832 283.117 l 253.832 290.309 248.004 296.137 240.812
 296.137 c 117.023 296.137 l 113.402 291.984 110.016 287.641 106.871 283.117
 c 68.512 228.426 68.512 155.574 106.871 100.883 c 110.016 96.359 113.402
 92.016 117.023 87.863 c 240.812 87.863 l 248.004 87.863 253.832 93.691 
253.832 100.883 c h
253.832 100.883 m f
0.156863 0.521569 0.933333 rg
149.695 126.914 m 143.188 126.914 l 139.594 126.914 136.68 124 136.68 120.406
 c 136.68 116.812 139.594 113.898 143.188 113.898 c 149.695 113.898 l 153.289
 113.898 156.203 116.812 156.203 120.406 c 156.203 124 153.289 126.914 149.695
 126.914 c h
149.695 126.914 m f
227.797 159.457 m 224.203 159.457 221.289 156.543 221.289 152.949 c 221.289
 126.914 l 175.73 126.914 l 172.133 126.914 169.219 124 169.219 120.406 
c 169.219 116.812 172.133 113.898 175.73 113.898 c 221.289 113.898 l 228.477
 113.898 234.305 119.727 234.305 126.914 c 234.305 152.949 l 234.305 156.543
 231.391 159.457 227.797 159.457 c h
227.797 159.457 m f
0.733333 0.756863 0.807843 rg
65.086 100.883 m 52.066 100.883 l 48.473 100.883 45.559 97.969 45.559 94.371
 c 45.559 90.777 48.473 87.863 52.066 87.863 c 65.086 87.863 l 68.68 87.863
 71.594 90.777 71.594 94.371 c 71.594 97.969 68.68 100.883 65.086 100.883
 c h
65.086 100.883 m f
117.023 87.863 m 113.402 92.016 110.016 96.359 106.871 100.883 c 91.117
 100.883 l 87.523 100.883 84.609 97.969 84.609 94.371 c 84.609 90.777 87.523
 87.863 91.117 87.863 c h
117.023 87.863 m f
117.023 296.137 m 91.117 296.137 l 87.523 296.137 84.609 293.223 84.609
 289.629 c 84.609 286.031 87.523 283.117 91.117 283.117 c 106.871 283.117
 l 110.016 287.641 113.402 291.984 117.023 296.137 c h
117.023 296.137 m f
65.086 296.137 m 52.066 296.137 l 48.473 296.137 45.559 293.223 45.559 
289.629 c 45.559 286.031 48.473 283.117 52.066 283.117 c 65.086 283.117 
l 68.68 283.117 71.594 286.031 71.594 289.629 c 71.594 293.223 68.68 296.137
 65.086 296.137 c h
65.086 296.137 m f
26.035 296.137 m 19.527 296.137 l 8.742 296.137 0 287.395 0 276.609 c 0
 263.594 l 0 260 2.914 257.086 6.508 257.086 c 10.102 257.086 13.016 260
 13.016 263.594 c 13.016 276.609 l 13.016 280.203 15.93 283.117 19.527 283.117
 c 26.035 283.117 l 29.629 283.117 32.543 286.031 32.543 289.629 c 32.543
 293.223 29.629 296.137 26.035 296.137 c h
26.035 296.137 m f
6.508 244.066 m 2.914 244.066 0 241.152 0 237.559 c 0 224.543 l 0 220.949
 2.914 218.035 6.508 218.035 c 10.102 218.035 13.016 220.949 13.016 224.543
 c 13.016 237.559 l 13.016 241.152 10.102 244.066 6.508 244.066 c h
6.508 244.066 m f
6.508 205.016 m 2.914 205.016 0 202.102 0 198.508 c 0 185.492 l 0 181.898
 2.914 178.984 6.508 178.984 c 10.102 178.984 13.016 181.898 13.016 185.492
 c 13.016 198.508 l 13.016 202.102 10.102 205.016 6.508 205.016 c h
6.508 205.016 m f
6.508 165.965 m 2.914 165.965 0 163.051 0 159.457 c 0 146.441 l 0 142.848
 2.914 139.934 6.508 139.934 c 10.102 139.934 13.016 142.848 13.016 146.441
 c 13.016 159.457 l 13.016 163.051 10.102 165.965 6.508 165.965 c h
6.508 165.965 m f
6.508 126.914 m 2.914 126.914 0 124 0 120.406 c 0 107.391 l 0 96.605 8.742
 87.863 19.527 87.863 c 26.035 87.863 l 29.629 87.863 32.543 90.777 32.543
 94.371 c 32.543 97.969 29.629 100.883 26.035 100.883 c 19.527 100.883 l
 15.93 100.883 13.016 103.797 13.016 107.391 c 13.016 120.406 l 13.016 124
 10.102 126.914 6.508 126.914 c h
6.508 126.914 m f
Q Q
showpage
%%Trailer
end
%%EOF
