%!PS-Adobe-3.0 EPSF-3.0
%%Creator: cairo 1.16.0 (https://cairographics.org)
%%CreationDate: Mon Jul 22 07:30:41 2019
%%Pages: 1
%%DocumentData: Clean7Bit
%%LanguageLevel: 2
%%BoundingBox: 0 0 384 384
%%EndComments
%%BeginProlog
50 dict begin
/q { gsave } bind def
/Q { grestore } bind def
/cm { 6 array astore concat } bind def
/w { setlinewidth } bind def
/J { setlinecap } bind def
/j { setlinejoin } bind def
/M { setmiterlimit } bind def
/d { setdash } bind def
/m { moveto } bind def
/l { lineto } bind def
/c { curveto } bind def
/h { closepath } bind def
/re { exch dup neg 3 1 roll 5 3 roll moveto 0 rlineto
      0 exch rlineto 0 rlineto closepath } bind def
/S { stroke } bind def
/f { fill } bind def
/f* { eofill } bind def
/n { newpath } bind def
/W { clip } bind def
/W* { eoclip } bind def
/BT { } bind def
/ET { } bind def
/BDC { mark 3 1 roll /BDC pdfmark } bind def
/EMC { mark /EMC pdfmark } bind def
/cairo_store_point { /cairo_point_y exch def /cairo_point_x exch def } def
/Tj { show currentpoint cairo_store_point } bind def
/TJ {
  {
    dup
    type /stringtype eq
    { show } { -0.001 mul 0 cairo_font_matrix dtransform rmoveto } ifelse
  } forall
  currentpoint cairo_store_point
} bind def
/cairo_selectfont { cairo_font_matrix aload pop pop pop 0 0 6 array astore
    cairo_font exch selectfont cairo_point_x cairo_point_y moveto } bind def
/Tf { pop /cairo_font exch def /cairo_font_matrix where
      { pop cairo_selectfont } if } bind def
/Td { matrix translate cairo_font_matrix matrix concatmatrix dup
      /cairo_font_matrix exch def dup 4 get exch 5 get cairo_store_point
      /cairo_font where { pop cairo_selectfont } if } bind def
/Tm { 2 copy 8 2 roll 6 array astore /cairo_font_matrix exch def
      cairo_store_point /cairo_font where { pop cairo_selectfont } if } bind def
/g { setgray } bind def
/rg { setrgbcolor } bind def
/d1 { setcachedevice } bind def
/cairo_data_source {
  CairoDataIndex CairoData length lt
    { CairoData CairoDataIndex get /CairoDataIndex CairoDataIndex 1 add def }
    { () } ifelse
} def
/cairo_flush_ascii85_file { cairo_ascii85_file status { cairo_ascii85_file flushfile } if } def
/cairo_image { image cairo_flush_ascii85_file } def
/cairo_imagemask { imagemask cairo_flush_ascii85_file } def
%%EndProlog
%%BeginSetup
%%EndSetup
%%Page: 1 1
%%BeginPageSetup
%%PageBoundingBox: 0 0 384 384
%%EndPageSetup
q 0 0 384 384 rectclip
1 0 0 -1 0 384 cm q
0.156863 0.521569 0.933333 rg
357.965 136.68 m 162.711 136.68 l 148.332 136.68 136.68 148.332 136.68 
162.711 c 136.68 357.965 l 136.68 372.344 148.332 384 162.711 384 c 357.965
 384 l 372.344 384 384 372.344 384 357.965 c 384 162.711 l 384 148.332 372.344
 136.68 357.965 136.68 c h
357.965 344.949 m 357.945 352.129 352.129 357.945 344.949 357.965 c 175.73
 357.965 l 168.547 357.945 162.734 352.129 162.711 344.949 c 162.711 175.73
 l 162.734 168.547 168.547 162.734 175.73 162.711 c 344.949 162.711 l 352.129
 162.734 357.945 168.547 357.965 175.73 c h
357.965 344.949 m f
0.0352941 0.439216 0.870588 rg
162.711 260.34 m 227.797 260.34 l 245.762 260.316 260.316 245.762 260.34
 227.797 c 260.34 162.711 l 247.32 162.711 l 247.32 227.797 l 247.32 238.582
 238.582 247.32 227.797 247.32 c 162.711 247.32 l h
162.711 260.34 m f
136.68 247.32 m 32.543 247.32 l 21.758 247.32 13.016 238.582 13.016 227.797
 c 13.016 32.543 l 13.016 21.758 21.758 13.016 32.543 13.016 c 227.797 13.016
 l 238.582 13.016 247.32 21.758 247.32 32.543 c 247.32 136.68 l 260.34 136.68
 l 260.34 32.543 l 260.316 14.578 245.762 0.023 227.797 0 c 32.543 0 l 14.578
 0.023 0.023 14.578 0 32.543 c 0 227.797 l 0.023 245.762 14.578 260.316 
32.543 260.34 c 136.68 260.34 l h
136.68 247.32 m f
0.368627 0.403922 0.458824 rg
369.074 80.008 m 366.535 77.469 362.414 77.469 359.875 80.008 c 351.457
 88.426 l 351.457 45.559 l 351.457 34.777 342.715 26.035 331.934 26.035 
c 286.371 26.035 l 282.777 26.035 279.863 28.949 279.863 32.543 c 279.863
 36.137 282.777 39.051 286.371 39.051 c 331.934 39.051 l 335.527 39.051 
338.441 41.965 338.441 45.559 c 338.441 88.426 l 330.023 80.008 l 327.473
 77.543 323.41 77.578 320.902 80.09 c 318.391 82.598 318.355 86.656 320.82
 89.211 c 340.348 108.738 l 341.57 109.961 343.227 110.648 344.957 110.648
 c 346.684 110.648 348.344 109.961 349.562 108.738 c 369.09 89.211 l 371.625
 86.668 371.621 82.547 369.074 80.008 c h
369.074 80.008 m f
110.145 342.465 m 109.816 341.668 109.34 340.949 108.73 340.34 c 89.207
 320.816 l 86.652 318.348 82.594 318.383 80.082 320.895 c 77.57 323.406 
77.535 327.465 80.004 330.02 c 88.426 338.441 l 45.559 338.441 l 41.965 
338.441 39.051 335.527 39.051 331.934 c 39.051 286.371 l 39.051 282.777 
36.137 279.863 32.543 279.863 c 28.949 279.863 26.035 282.777 26.035 286.371
 c 26.035 331.934 l 26.035 342.715 34.777 351.457 45.559 351.457 c 88.426
 351.457 l 80.008 359.875 l 78.316 361.508 77.637 363.926 78.234 366.203
 c 78.828 368.477 80.605 370.254 82.883 370.852 c 85.156 371.445 87.578 
370.77 89.211 369.074 c 108.738 349.551 l 109.344 348.945 109.824 348.223
 110.148 347.43 c 110.805 345.836 110.801 344.051 110.145 342.465 c h
110.145 342.465 m f
Q Q
showpage
%%Trailer
end
%%EOF
