%!PS-Adobe-3.0 EPSF-3.0
%%Creator: cairo 1.16.0 (https://cairographics.org)
%%CreationDate: Mon Jul 22 07:30:41 2019
%%Pages: 1
%%DocumentData: Clean7Bit
%%LanguageLevel: 2
%%BoundingBox: 0 0 384 384
%%EndComments
%%BeginProlog
50 dict begin
/q { gsave } bind def
/Q { grestore } bind def
/cm { 6 array astore concat } bind def
/w { setlinewidth } bind def
/J { setlinecap } bind def
/j { setlinejoin } bind def
/M { setmiterlimit } bind def
/d { setdash } bind def
/m { moveto } bind def
/l { lineto } bind def
/c { curveto } bind def
/h { closepath } bind def
/re { exch dup neg 3 1 roll 5 3 roll moveto 0 rlineto
      0 exch rlineto 0 rlineto closepath } bind def
/S { stroke } bind def
/f { fill } bind def
/f* { eofill } bind def
/n { newpath } bind def
/W { clip } bind def
/W* { eoclip } bind def
/BT { } bind def
/ET { } bind def
/BDC { mark 3 1 roll /BDC pdfmark } bind def
/EMC { mark /EMC pdfmark } bind def
/cairo_store_point { /cairo_point_y exch def /cairo_point_x exch def } def
/Tj { show currentpoint cairo_store_point } bind def
/TJ {
  {
    dup
    type /stringtype eq
    { show } { -0.001 mul 0 cairo_font_matrix dtransform rmoveto } ifelse
  } forall
  currentpoint cairo_store_point
} bind def
/cairo_selectfont { cairo_font_matrix aload pop pop pop 0 0 6 array astore
    cairo_font exch selectfont cairo_point_x cairo_point_y moveto } bind def
/Tf { pop /cairo_font exch def /cairo_font_matrix where
      { pop cairo_selectfont } if } bind def
/Td { matrix translate cairo_font_matrix matrix concatmatrix dup
      /cairo_font_matrix exch def dup 4 get exch 5 get cairo_store_point
      /cairo_font where { pop cairo_selectfont } if } bind def
/Tm { 2 copy 8 2 roll 6 array astore /cairo_font_matrix exch def
      cairo_store_point /cairo_font where { pop cairo_selectfont } if } bind def
/g { setgray } bind def
/rg { setrgbcolor } bind def
/d1 { setcachedevice } bind def
/cairo_data_source {
  CairoDataIndex CairoData length lt
    { CairoData CairoDataIndex get /CairoDataIndex CairoDataIndex 1 add def }
    { () } ifelse
} def
/cairo_flush_ascii85_file { cairo_ascii85_file status { cairo_ascii85_file flushfile } if } def
/cairo_image { image cairo_flush_ascii85_file } def
/cairo_imagemask { imagemask cairo_flush_ascii85_file } def
%%EndProlog
%%BeginSetup
%%EndSetup
%%Page: 1 1
%%BeginPageSetup
%%PageBoundingBox: 0 0 384 384
%%EndPageSetup
q 0 0 384 384 rectclip
1 0 0 -1 0 384 cm q
0.572549 0.819608 0.286275 rg
125.793 0 m 33.102 0 l 25.789 0 19.863 5.93 19.863 13.242 c 19.863 252.102
 l 139.035 257.762 l 139.035 13.242 l 139.035 5.93 133.105 0 125.793 0 c
 h
125.793 0 m f
0.443137 0.658824 0.133333 rg
139.008 185.387 m 139.008 257.762 l 19.863 258.207 l 19.863 185.438 l h
139.008 185.387 m f
0.490196 0.74902 0.160784 rg
19.84 185.355 m 19.887 139.031 l 139.051 139.152 l 139.004 185.477 l h
19.84 185.355 m f
0.670588 0.870588 0.384314 rg
19.863 46.391 119.191 46.344 re f
0.796078 0.956863 0.509804 rg
139.035 13.242 m 139.035 46.391 l 19.863 46.391 l 19.863 13.242 l 19.863
 5.93 25.789 0 33.102 0 c 125.793 0 l 133.105 0 139.035 5.93 139.035 13.242
 c h
139.035 13.242 m f
0.933333 0.227451 0.282353 rg
327.59 121.953 m 262.047 56.41 l 259.562 53.922 256.191 52.523 252.68 52.523
 c 249.164 52.523 245.793 53.922 243.309 56.41 c 74.418 225.301 l 154.66
 313.555 l 327.59 140.691 l 330.078 138.207 331.477 134.836 331.477 131.32
 c 331.477 127.809 330.078 124.438 327.59 121.953 c h
327.59 121.953 m f
0.737255 0.117647 0.192157 rg
205.836 262.379 m 154.66 313.555 l 74.418 225.301 l 121.555 178.164 l h
205.836 262.379 m f
0.858824 0.160784 0.211765 rg
121.57 178.172 m 154.371 145.465 l 238.5 229.836 l 205.703 262.543 l h
121.57 178.172 m f
0.980392 0.32549 0.423529 rg
187.078 112.637 m 219.844 79.871 l 304.113 164.141 l 271.348 196.906 l 
h
187.078 112.637 m f
1 0.490196 0.588235 rg
327.59 140.691 m 304.156 164.125 l 219.875 79.844 l 243.309 56.41 l 245.793
 53.922 249.164 52.523 252.68 52.523 c 256.191 52.523 259.562 53.922 262.047
 56.41 c 327.59 121.953 l 330.078 124.438 331.477 127.809 331.477 131.32
 c 331.477 134.836 330.078 138.207 327.59 140.691 c h
327.59 140.691 m f
1 0.764706 0.0235294 rg
383.555 350.898 m 383.555 258.207 l 383.555 250.895 377.629 244.965 370.316
 244.965 c 131.461 244.965 l 125.793 364.137 l 370.309 364.137 l 373.82 
364.141 377.191 362.746 379.676 360.262 c 382.16 357.777 383.555 354.41 
383.555 350.898 c h
383.555 350.898 m f
0.956863 0.568627 0 rg
198.172 364.09 m 125.793 364.09 l 131.461 244.945 l 198.125 244.945 l h
198.172 364.09 m f
0.968627 0.678431 0 rg
198.082 364.09 m 198.199 244.922 l 244.523 244.969 l 244.406 364.133 l 
h
198.082 364.09 m f
1 0.803922 0.329412 rg
290.82 244.945 46.344 119.191 re f
1 0.839216 0.482353 rg
370.309 364.137 m 337.164 364.137 l 337.164 244.965 l 370.309 244.965 l
 377.621 244.965 383.551 250.895 383.551 258.207 c 383.551 350.898 l 383.551
 358.211 377.621 364.137 370.309 364.137 c h
370.309 364.137 m f
0.160784 0.329412 0.454902 rg
158.898 304.551 m 158.898 348.43 123.328 384 79.449 384 c 35.57 384 0 348.43
 0 304.551 c 0 260.672 35.57 225.102 79.449 225.102 c 123.328 225.102 158.898
 260.672 158.898 304.551 c h
158.898 304.551 m f
0.203922 0.427451 0.580392 rg
125.793 304.551 m 125.793 330.148 105.043 350.898 79.449 350.898 c 53.852
 350.898 33.102 330.148 33.102 304.551 c 33.102 278.957 53.852 258.207 79.449
 258.207 c 105.043 258.207 125.793 278.957 125.793 304.551 c h
125.793 304.551 m f
0.301961 0.541176 0.670588 rg
79.449 357.516 m 50.195 357.516 26.484 333.805 26.484 304.551 c 26.484 
275.301 50.195 251.586 79.449 251.586 c 83.105 251.586 86.07 254.551 86.07
 258.207 c 86.07 261.863 83.105 264.828 79.449 264.828 c 59.832 264.832 
43.156 279.152 40.188 298.543 c 37.219 317.934 48.852 336.586 67.57 342.457
 c 86.285 348.324 106.484 339.652 115.121 322.043 c 123.758 304.43 118.246
 283.148 102.145 271.945 c 100.148 270.613 99.031 268.309 99.219 265.918
 c 99.41 263.527 100.875 261.426 103.051 260.426 c 105.23 259.422 107.781
 259.676 109.719 261.086 c 128.707 274.312 136.914 298.336 129.984 320.414
 c 123.055 342.496 102.59 357.52 79.449 357.516 c h
79.449 357.516 m f
Q Q
showpage
%%Trailer
end
%%EOF
