%!PS-Adobe-3.0 EPSF-3.0
%%Creator: cairo 1.16.0 (https://cairographics.org)
%%CreationDate: Mon Jul 22 07:30:42 2019
%%Pages: 1
%%DocumentData: Clean7Bit
%%LanguageLevel: 2
%%BoundingBox: 3 0 381 384
%%EndComments
%%BeginProlog
50 dict begin
/q { gsave } bind def
/Q { grestore } bind def
/cm { 6 array astore concat } bind def
/w { setlinewidth } bind def
/J { setlinecap } bind def
/j { setlinejoin } bind def
/M { setmiterlimit } bind def
/d { setdash } bind def
/m { moveto } bind def
/l { lineto } bind def
/c { curveto } bind def
/h { closepath } bind def
/re { exch dup neg 3 1 roll 5 3 roll moveto 0 rlineto
      0 exch rlineto 0 rlineto closepath } bind def
/S { stroke } bind def
/f { fill } bind def
/f* { eofill } bind def
/n { newpath } bind def
/W { clip } bind def
/W* { eoclip } bind def
/BT { } bind def
/ET { } bind def
/BDC { mark 3 1 roll /BDC pdfmark } bind def
/EMC { mark /EMC pdfmark } bind def
/cairo_store_point { /cairo_point_y exch def /cairo_point_x exch def } def
/Tj { show currentpoint cairo_store_point } bind def
/TJ {
  {
    dup
    type /stringtype eq
    { show } { -0.001 mul 0 cairo_font_matrix dtransform rmoveto } ifelse
  } forall
  currentpoint cairo_store_point
} bind def
/cairo_selectfont { cairo_font_matrix aload pop pop pop 0 0 6 array astore
    cairo_font exch selectfont cairo_point_x cairo_point_y moveto } bind def
/Tf { pop /cairo_font exch def /cairo_font_matrix where
      { pop cairo_selectfont } if } bind def
/Td { matrix translate cairo_font_matrix matrix concatmatrix dup
      /cairo_font_matrix exch def dup 4 get exch 5 get cairo_store_point
      /cairo_font where { pop cairo_selectfont } if } bind def
/Tm { 2 copy 8 2 roll 6 array astore /cairo_font_matrix exch def
      cairo_store_point /cairo_font where { pop cairo_selectfont } if } bind def
/g { setgray } bind def
/rg { setrgbcolor } bind def
/d1 { setcachedevice } bind def
/cairo_data_source {
  CairoDataIndex CairoData length lt
    { CairoData CairoDataIndex get /CairoDataIndex CairoDataIndex 1 add def }
    { () } ifelse
} def
/cairo_flush_ascii85_file { cairo_ascii85_file status { cairo_ascii85_file flushfile } if } def
/cairo_image { image cairo_flush_ascii85_file } def
/cairo_imagemask { imagemask cairo_flush_ascii85_file } def
%%EndProlog
%%BeginSetup
%%EndSetup
%%Page: 1 1
%%BeginPageSetup
%%PageBoundingBox: 3 0 381 384
%%EndPageSetup
q 3 0 378 384 rectclip
1 0 0 -1 0 384 cm q
0.866667 0.576471 0 rg
263.594 279.863 m 341.695 279.863 l 341.695 370.984 l 341.695 378.172 335.867
 384 328.68 384 c 276.609 384 l 269.422 384 263.594 378.172 263.594 370.984
 c h
263.594 279.863 m f
0.0352941 0.439216 0.870588 rg
16.27 156.203 m 68.34 156.203 l 75.551 156.203 81.355 162.008 81.355 169.219
 c 81.355 221.289 l 81.355 228.5 75.551 234.305 68.34 234.305 c 16.27 234.305
 l 9.059 234.305 3.254 228.5 3.254 221.289 c 3.254 169.219 l 3.254 162.008
 9.059 156.203 16.27 156.203 c h
16.27 156.203 m f
16.27 6.508 m 68.34 6.508 l 75.551 6.508 81.355 12.312 81.355 19.527 c 
81.355 71.594 l 81.355 78.805 75.551 84.609 68.34 84.609 c 16.27 84.609 
l 9.059 84.609 3.254 78.805 3.254 71.594 c 3.254 19.527 l 3.254 12.312 9.059
 6.508 16.27 6.508 c h
16.27 6.508 m f
16.27 305.898 m 68.34 305.898 l 75.551 305.898 81.355 311.703 81.355 318.914
 c 81.355 370.984 l 81.355 378.195 75.551 384 68.34 384 c 16.27 384 l 9.059
 384 3.254 378.195 3.254 370.984 c 3.254 318.914 l 3.254 311.703 9.059 305.898
 16.27 305.898 c h
16.27 305.898 m f
0.0156863 0.384314 0.717647 rg
55.32 188.746 m 55.32 201.762 l 55.32 205.367 52.418 208.27 48.812 208.27
 c 35.797 208.27 l 32.191 208.27 29.289 205.367 29.289 201.762 c 29.289 
188.746 l 29.289 185.141 32.191 182.238 35.797 182.238 c 48.812 182.238 
l 52.418 182.238 55.32 185.141 55.32 188.746 c h
55.32 188.746 m f
1 0.764706 0.0235294 rg
379.836 188.941 m 336.031 260.34 l 335.188 273.355 l 270.102 273.355 l 
269.254 260.34 l 225.453 188.941 l 223.809 186.277 224.426 182.805 226.887
 180.871 c 255.781 159.328 283.898 107.586 296.137 82.984 c 296.395 82.527
 296.59 82.07 296.785 81.68 c 296.852 81.559 296.941 81.449 297.047 81.355
 c 298.219 79.379 300.348 78.168 302.645 78.168 c 304.941 78.168 307.07 
79.379 308.242 81.355 c 308.348 81.449 308.434 81.559 308.5 81.68 c 308.695
 82.07 308.891 82.527 309.152 82.984 c 321.387 107.586 349.504 159.328 378.402
 180.871 c 380.863 182.805 381.48 186.277 379.836 188.941 c h
379.836 188.941 m f
0.968627 0.678431 0 rg
263.594 260.34 m 341.695 260.34 l 348.906 260.34 354.711 266.145 354.711
 273.355 c 354.711 280.566 348.906 286.371 341.695 286.371 c 263.594 286.371
 l 256.383 286.371 250.578 280.566 250.578 273.355 c 250.578 266.145 256.383
 260.34 263.594 260.34 c h
263.594 260.34 m f
322.168 195.254 m 322.168 206.039 313.426 214.781 302.645 214.781 c 291.859
 214.781 283.117 206.039 283.117 195.254 c 283.117 184.469 291.859 175.73
 302.645 175.73 c 313.426 175.73 322.168 184.469 322.168 195.254 c h
322.168 195.254 m f
0.866667 0.576471 0 rg
327.18 203.91 m 323.094 215.652 311.277 222.863 298.969 221.133 c 286.656
 219.398 277.289 209.207 276.602 196.797 c 275.91 184.383 284.094 173.215
 296.137 170.133 c 296.137 82.984 l 296.395 82.527 296.59 82.07 296.785 
81.68 c 297.918 79.492 300.18 78.113 302.645 78.113 c 305.109 78.113 307.371
 79.492 308.5 81.68 c 308.695 82.07 308.891 82.527 309.152 82.984 c 309.152
 170.133 l 309.867 170.328 310.586 170.457 311.301 170.719 c 314.258 171.789
 316.023 174.824 315.496 177.926 c 314.969 181.027 312.297 183.309 309.152
 183.344 c 308.418 183.34 307.691 183.207 307.004 182.953 c 305.598 182.488
 304.125 182.246 302.645 182.238 c 296.031 182.254 290.484 187.227 289.746
 193.801 c 289.004 200.371 293.309 206.449 299.754 207.938 c 306.195 209.426
 312.73 205.844 314.945 199.613 c 316.336 196.539 319.848 195.035 323.031
 196.152 c 326.219 197.273 328.02 200.641 327.18 203.91 c h
327.18 203.91 m f
0.545098 0.576471 0.635294 rg
35.797 84.609 13.016 71.594 re f
35.797 234.305 13.016 71.594 re f
81.355 188.746 m 100.883 188.746 l 136.805 188.688 165.91 159.582 165.965
 123.66 c 165.965 71.594 l 165.965 32.055 198.02 0 237.559 0 c 277.098 0
 309.152 32.055 309.152 71.594 c 309.152 78.102 l 309.152 79.25 308.836 
80.375 308.242 81.355 c 307.07 79.379 304.941 78.168 302.645 78.168 c 300.348
 78.168 298.219 79.379 297.047 81.355 c 296.453 80.375 296.137 79.25 296.137
 78.102 c 296.137 71.594 l 296.137 39.242 269.91 13.016 237.559 13.016 c
 205.207 13.016 178.984 39.242 178.984 71.594 c 178.984 123.66 l 178.945
 166.781 144 201.727 100.883 201.762 c 81.355 201.762 l h
81.355 188.746 m f
Q Q
showpage
%%Trailer
end
%%EOF
