%!PS-Adobe-3.0 EPSF-3.0
%%Creator: cairo 1.14.2 (http://cairographics.org)
%%CreationDate: Thu Nov 30 08:05:32 2017
%%Pages: 1
%%DocumentData: Clean7Bit
%%LanguageLevel: 3
%%BoundingBox: 0 -1 308 308
%%EndComments
%%BeginProlog
save
50 dict begin
/q { gsave } bind def
/Q { grestore } bind def
/cm { 6 array astore concat } bind def
/w { setlinewidth } bind def
/J { setlinecap } bind def
/j { setlinejoin } bind def
/M { setmiterlimit } bind def
/d { setdash } bind def
/m { moveto } bind def
/l { lineto } bind def
/c { curveto } bind def
/h { closepath } bind def
/re { exch dup neg 3 1 roll 5 3 roll moveto 0 rlineto
      0 exch rlineto 0 rlineto closepath } bind def
/S { stroke } bind def
/f { fill } bind def
/f* { eofill } bind def
/n { newpath } bind def
/W { clip } bind def
/W* { eoclip } bind def
/BT { } bind def
/ET { } bind def
/pdfmark where { pop globaldict /?pdfmark /exec load put }
    { globaldict begin /?pdfmark /pop load def /pdfmark
    /cleartomark load def end } ifelse
/BDC { mark 3 1 roll /BDC pdfmark } bind def
/EMC { mark /EMC pdfmark } bind def
/cairo_store_point { /cairo_point_y exch def /cairo_point_x exch def } def
/Tj { show currentpoint cairo_store_point } bind def
/TJ {
  {
    dup
    type /stringtype eq
    { show } { -0.001 mul 0 cairo_font_matrix dtransform rmoveto } ifelse
  } forall
  currentpoint cairo_store_point
} bind def
/cairo_selectfont { cairo_font_matrix aload pop pop pop 0 0 6 array astore
    cairo_font exch selectfont cairo_point_x cairo_point_y moveto } bind def
/Tf { pop /cairo_font exch def /cairo_font_matrix where
      { pop cairo_selectfont } if } bind def
/Td { matrix translate cairo_font_matrix matrix concatmatrix dup
      /cairo_font_matrix exch def dup 4 get exch 5 get cairo_store_point
      /cairo_font where { pop cairo_selectfont } if } bind def
/Tm { 2 copy 8 2 roll 6 array astore /cairo_font_matrix exch def
      cairo_store_point /cairo_font where { pop cairo_selectfont } if } bind def
/g { setgray } bind def
/rg { setrgbcolor } bind def
/d1 { setcachedevice } bind def
%%EndProlog
%%BeginSetup
%%EndSetup
%%Page: 1 1
%%BeginPageSetup
%%PageBoundingBox: 0 -1 308 308
%%EndPageSetup
q 0 -1 308 309 rectclip q
q
57.602 300.802 m 300.801 300.802 l 300.801 83.2 l 224 6.399 l 57.602 6.399
 l h
57.602 300.802 m W n
[6.4 0 0 6.4 677.6 -3299.999988] concat
/CairoFunction
   << /FunctionType 2
      /Domain [ 0 1 ]
      /C0 [ 0.937255 0.933333 0.933333 ]
      /C1 [ 0.870588 0.870588 0.866667 ]
      /N 1
   >>
def
   << /ShadingType 2
      /ColorSpace /DeviceRGB
      /Coords [ 2.825 458.924988 31.785 429.964996 ]
      /Extend [ true true ]
      /Function CairoFunction
   >>
shfill
Q
0.670588 g
224 83.2 m 300.801 83.2 l 224 6.399 l h
224 83.2 m f
0.25098 0.176471 0.478431 rg
6.398 236.802 204.801 -102.402 re f
0.00392157 g
51.199 307.2 m 51.199 243.2 l 0 243.2 l 0 128.001 l 51.199 128.001 l 51.199
 0.001 l 230.398 0.001 l 307.199 76.802 l 307.199 307.2 l h
12.801 230.399 m 204.801 230.399 l 204.801 140.802 l 12.801 140.802 l h
230.398 18.098 m 230.398 76.802 l 289.102 76.802 l h
294.398 89.598 m 217.602 89.598 l 217.602 12.802 l 64 12.802 l 64 128.001
 l 217.602 128.001 l 217.602 243.2 l 64 243.2 l 64 294.399 l 294.398 294.399
 l h
294.398 89.598 m f
1 g
57.254 203.852 m 38.426 203.852 l 38.426 212.915 l 69.992 212.915 l 69.992
 204.544 l 49.484 167.141 l 70.297 167.141 l 70.297 158.079 l 37.055 158.079
 l 37.055 166.145 l h
57.254 203.852 m f
84.199 212.915 11.059 -54.836 re f
130.508 212.927 m 133.324 212.927 135.68 212.442 137.613 211.493 c 139.547
 210.548 141.082 209.305 142.258 207.77 c 143.438 206.235 144.281 204.481
 144.793 202.509 c 145.293 200.552 145.562 198.528 145.562 196.481 c 145.562
 193.665 145.141 191.208 144.293 189.106 c 143.449 187.009 142.273 185.294
 140.762 183.973 c 139.25 182.641 137.422 181.634 135.27 180.977 c 133.121
 180.325 130.738 179.981 128.113 179.981 c 122.203 179.981 l 122.203 158.095
 l 111.141 158.095 l 111.141 212.927 l h
127.129 188.083 m 129.332 188.083 131.125 188.763 132.469 190.095 c 133.824
 191.423 134.504 193.497 134.504 196.313 c 134.504 199.079 133.914 201.177
 132.734 202.61 c 131.559 204.032 129.586 204.763 126.824 204.763 c 122.215
 204.763 l 122.215 188.083 l h
127.129 188.083 m f
Q Q
showpage
%%Trailer
end restore
%%EOF
