%!PS-Adobe-3.0 EPSF-3.0
%%Creator: cairo 1.14.2 (http://cairographics.org)
%%CreationDate: Thu Nov 30 08:05:32 2017
%%Pages: 1
%%DocumentData: Clean7Bit
%%LanguageLevel: 2
%%BoundingBox: 0 -1 308 308
%%EndComments
%%BeginProlog
save
50 dict begin
/q { gsave } bind def
/Q { grestore } bind def
/cm { 6 array astore concat } bind def
/w { setlinewidth } bind def
/J { setlinecap } bind def
/j { setlinejoin } bind def
/M { setmiterlimit } bind def
/d { setdash } bind def
/m { moveto } bind def
/l { lineto } bind def
/c { curveto } bind def
/h { closepath } bind def
/re { exch dup neg 3 1 roll 5 3 roll moveto 0 rlineto
      0 exch rlineto 0 rlineto closepath } bind def
/S { stroke } bind def
/f { fill } bind def
/f* { eofill } bind def
/n { newpath } bind def
/W { clip } bind def
/W* { eoclip } bind def
/BT { } bind def
/ET { } bind def
/pdfmark where { pop globaldict /?pdfmark /exec load put }
    { globaldict begin /?pdfmark /pop load def /pdfmark
    /cleartomark load def end } ifelse
/BDC { mark 3 1 roll /BDC pdfmark } bind def
/EMC { mark /EMC pdfmark } bind def
/cairo_store_point { /cairo_point_y exch def /cairo_point_x exch def } def
/Tj { show currentpoint cairo_store_point } bind def
/TJ {
  {
    dup
    type /stringtype eq
    { show } { -0.001 mul 0 cairo_font_matrix dtransform rmoveto } ifelse
  } forall
  currentpoint cairo_store_point
} bind def
/cairo_selectfont { cairo_font_matrix aload pop pop pop 0 0 6 array astore
    cairo_font exch selectfont cairo_point_x cairo_point_y moveto } bind def
/Tf { pop /cairo_font exch def /cairo_font_matrix where
      { pop cairo_selectfont } if } bind def
/Td { matrix translate cairo_font_matrix matrix concatmatrix dup
      /cairo_font_matrix exch def dup 4 get exch 5 get cairo_store_point
      /cairo_font where { pop cairo_selectfont } if } bind def
/Tm { 2 copy 8 2 roll 6 array astore /cairo_font_matrix exch def
      cairo_store_point /cairo_font where { pop cairo_selectfont } if } bind def
/g { setgray } bind def
/rg { setrgbcolor } bind def
/d1 { setcachedevice } bind def
%%EndProlog
%%BeginSetup
%%EndSetup
%%Page: 1 1
%%BeginPageSetup
%%PageBoundingBox: 0 -1 308 308
%%EndPageSetup
q 0 -1 308 309 rectclip q
0.937255 0.933333 0.933333 rg
57.602 300.802 m 300.801 300.802 l 300.801 83.2 l 224 6.399 l 57.602 6.399
 l h
57.602 300.802 m f
0.670588 g
224 83.2 m 300.801 83.2 l 224 6.399 l h
224 83.2 m f
0.380392 0.709804 0.396078 rg
6.398 236.802 204.801 -102.402 re f
0.00392157 g
51.199 307.2 m 51.199 243.2 l 0 243.2 l 0 128.001 l 51.199 128.001 l 51.199
 0.001 l 230.398 0.001 l 307.199 76.802 l 307.199 307.2 l h
12.801 230.399 m 204.801 230.399 l 204.801 140.802 l 12.801 140.802 l h
230.398 18.098 m 230.398 76.802 l 289.102 76.802 l h
294.398 89.598 m 217.602 89.598 l 217.602 12.802 l 64 12.802 l 64 128.001
 l 217.602 128.001 l 217.602 243.2 l 64 243.2 l 64 294.399 l 294.398 294.399
 l h
294.398 89.598 m f
48.945 212.915 m 56.012 195.173 l 63 212.915 l 75.059 212.915 l 62.309 
185.805 l 75.98 158.079 l 63.539 158.079 l 55.641 176.665 l 47.797 158.079
 l 35.66 158.079 l 49.332 185.805 l 36.734 212.915 l h
48.945 212.915 m f
87.961 212.915 m 99.02 212.915 l 99.02 167.141 l 118.594 167.141 l 118.594
 158.079 l 87.961 158.079 l h
87.961 212.915 m f
140.109 173.595 m 140.109 172.313 140.211 171.149 140.402 170.11 c 140.621
 169.063 140.992 168.18 141.555 167.462 c 142.117 166.731 142.887 166.169
 143.832 165.759 c 144.77 165.364 145.973 165.145 147.391 165.145 c 149.094
 165.145 150.605 165.696 151.961 166.798 c 153.305 167.899 153.996 169.614
 153.996 171.903 c 153.996 173.134 153.816 174.196 153.496 175.091 c 153.164
 175.989 152.613 176.794 151.848 177.497 c 151.066 178.227 150.055 178.868
 148.812 179.458 c 147.57 180.044 146.008 180.645 144.168 181.263 c 141.723
 182.079 139.598 182.989 137.793 183.962 c 136 184.923 134.504 186.059 133.301
 187.38 c 132.098 188.684 131.211 190.196 130.648 191.911 c 130.086 193.638
 129.805 195.61 129.805 197.876 c 129.805 203.302 131.316 207.333 134.336
 209.997 c 137.344 212.661 141.504 213.989 146.777 213.989 c 149.234 213.989
 151.5 213.723 153.574 213.184 c 155.648 212.645 157.441 211.79 158.949 
210.571 c 160.461 209.368 161.637 207.833 162.484 205.977 c 163.316 204.11
 163.75 201.868 163.75 199.259 c 163.75 197.723 l 153.152 197.723 l 153.152
 200.333 152.691 202.341 151.781 203.763 c 150.859 205.157 149.324 205.876
 147.176 205.876 c 145.945 205.876 144.922 205.684 144.102 205.337 c 143.297
 204.977 142.629 204.505 142.145 203.919 c 141.656 203.329 141.336 202.649
 141.16 201.88 c 140.965 201.114 140.891 200.321 140.891 199.501 c 140.891
 197.798 141.246 196.391 141.965 195.239 c 142.68 194.075 144.219 193.013
 146.574 192.052 c 155.098 188.364 l 157.195 187.442 158.91 186.481 160.23
 185.473 c 161.562 184.473 162.637 183.399 163.418 182.247 c 164.211 181.095
 164.762 179.841 165.07 178.446 c 165.375 177.075 165.531 175.528 165.531
 173.848 c 165.531 168.063 163.852 163.852 160.5 161.216 c 157.145 158.579
 152.473 157.247 146.484 157.247 c 140.238 157.247 135.77 158.606 133.07
 161.317 c 130.379 164.032 129.051 167.923 129.051 172.993 c 129.051 175.22
 l 140.109 175.22 l h
140.109 173.595 m f
Q Q
showpage
%%Trailer
end restore
%%EOF
