%!PS-Adobe-3.0 EPSF-3.0
%%Creator: cairo 1.14.2 (http://cairographics.org)
%%CreationDate: Thu Nov 30 08:05:32 2017
%%Pages: 1
%%DocumentData: Clean7Bit
%%LanguageLevel: 3
%%BoundingBox: 0 -1 308 308
%%EndComments
%%BeginProlog
save
50 dict begin
/q { gsave } bind def
/Q { grestore } bind def
/cm { 6 array astore concat } bind def
/w { setlinewidth } bind def
/J { setlinecap } bind def
/j { setlinejoin } bind def
/M { setmiterlimit } bind def
/d { setdash } bind def
/m { moveto } bind def
/l { lineto } bind def
/c { curveto } bind def
/h { closepath } bind def
/re { exch dup neg 3 1 roll 5 3 roll moveto 0 rlineto
      0 exch rlineto 0 rlineto closepath } bind def
/S { stroke } bind def
/f { fill } bind def
/f* { eofill } bind def
/n { newpath } bind def
/W { clip } bind def
/W* { eoclip } bind def
/BT { } bind def
/ET { } bind def
/pdfmark where { pop globaldict /?pdfmark /exec load put }
    { globaldict begin /?pdfmark /pop load def /pdfmark
    /cleartomark load def end } ifelse
/BDC { mark 3 1 roll /BDC pdfmark } bind def
/EMC { mark /EMC pdfmark } bind def
/cairo_store_point { /cairo_point_y exch def /cairo_point_x exch def } def
/Tj { show currentpoint cairo_store_point } bind def
/TJ {
  {
    dup
    type /stringtype eq
    { show } { -0.001 mul 0 cairo_font_matrix dtransform rmoveto } ifelse
  } forall
  currentpoint cairo_store_point
} bind def
/cairo_selectfont { cairo_font_matrix aload pop pop pop 0 0 6 array astore
    cairo_font exch selectfont cairo_point_x cairo_point_y moveto } bind def
/Tf { pop /cairo_font exch def /cairo_font_matrix where
      { pop cairo_selectfont } if } bind def
/Td { matrix translate cairo_font_matrix matrix concatmatrix dup
      /cairo_font_matrix exch def dup 4 get exch 5 get cairo_store_point
      /cairo_font where { pop cairo_selectfont } if } bind def
/Tm { 2 copy 8 2 roll 6 array astore /cairo_font_matrix exch def
      cairo_store_point /cairo_font where { pop cairo_selectfont } if } bind def
/g { setgray } bind def
/rg { setrgbcolor } bind def
/d1 { setcachedevice } bind def
%%EndProlog
%%BeginSetup
%%EndSetup
%%Page: 1 1
%%BeginPageSetup
%%PageBoundingBox: 0 -1 308 308
%%EndPageSetup
q 0 -1 308 309 rectclip q
q
57.602 300.802 m 300.801 300.802 l 300.801 83.2 l 224 6.399 l 57.602 6.399
 l h
57.602 300.802 m W n
[6.4 0 0 6.4 677.6 -3242.399988] concat
/CairoFunction
   << /FunctionType 2
      /Domain [ 0 1 ]
      /C0 [ 0.937255 0.933333 0.933333 ]
      /C1 [ 0.870588 0.870588 0.866667 ]
      /N 1
   >>
def
   << /ShadingType 2
      /ColorSpace /DeviceRGB
      /Coords [ 2.8111 449.911102 31.771099 420.941101 ]
      /Extend [ true true ]
      /Function CairoFunction
   >>
shfill
Q
0.670588 g
224 83.2 m 300.801 83.2 l 224 6.399 l h
224 83.2 m f
0.796078 0.337255 0.254902 rg
6.398 236.802 204.801 -102.402 re f
0.00392157 g
51.199 307.2 m 51.199 243.2 l 0 243.2 l 0 128.001 l 51.199 128.001 l 51.199
 0.001 l 230.398 0.001 l 307.199 76.802 l 307.199 307.2 l h
12.801 230.399 m 204.801 230.399 l 204.801 140.802 l 12.801 140.802 l h
230.398 18.098 m 230.398 76.802 l 289.102 76.802 l h
294.398 89.598 m 217.602 89.598 l 217.602 12.802 l 64 12.802 l 64 128.001
 l 217.602 128.001 l 217.602 243.2 l 64 243.2 l 64 294.399 l 294.398 294.399
 l h
294.398 89.598 m f
36.812 212.915 m 42.895 172.364 l 43.047 172.364 l 49.496 212.915 l 60.098
 212.915 l 66.547 172.364 l 66.688 172.364 l 72.77 212.915 l 83.367 212.915
 l 73.383 158.079 l 61.02 158.079 l 54.875 197.864 l 54.707 197.864 l 48.562
 158.079 l 36.199 158.079 l 26.215 212.915 l h
36.812 212.915 m f
110.629 212.915 m 118.453 174.208 l 118.617 174.208 l 126.527 212.915 l
 142.875 212.915 l 142.875 158.079 l 132.734 158.079 l 132.734 201.856 l
 132.582 201.856 l 122.828 158.079 l 114.215 158.079 l 104.461 201.856 l
 104.32 201.856 l 104.32 158.079 l 94.184 158.079 l 94.184 212.915 l h
110.629 212.915 m f
172.902 172.364 m 173.145 172.364 l 181.285 212.915 l 192.742 212.915 l
 180.148 158.079 l 165.938 158.079 l 153.355 212.915 l 165.184 212.915 l
 h
172.902 172.364 m f
Q Q
showpage
%%Trailer
end restore
%%EOF
