%!PS-Adobe-3.0 EPSF-3.0
%%Creator: cairo 1.14.2 (http://cairographics.org)
%%CreationDate: Thu Nov 30 08:05:32 2017
%%Pages: 1
%%DocumentData: Clean7Bit
%%LanguageLevel: 3
%%BoundingBox: 0 -1 308 308
%%EndComments
%%BeginProlog
save
50 dict begin
/q { gsave } bind def
/Q { grestore } bind def
/cm { 6 array astore concat } bind def
/w { setlinewidth } bind def
/J { setlinecap } bind def
/j { setlinejoin } bind def
/M { setmiterlimit } bind def
/d { setdash } bind def
/m { moveto } bind def
/l { lineto } bind def
/c { curveto } bind def
/h { closepath } bind def
/re { exch dup neg 3 1 roll 5 3 roll moveto 0 rlineto
      0 exch rlineto 0 rlineto closepath } bind def
/S { stroke } bind def
/f { fill } bind def
/f* { eofill } bind def
/n { newpath } bind def
/W { clip } bind def
/W* { eoclip } bind def
/BT { } bind def
/ET { } bind def
/pdfmark where { pop globaldict /?pdfmark /exec load put }
    { globaldict begin /?pdfmark /pop load def /pdfmark
    /cleartomark load def end } ifelse
/BDC { mark 3 1 roll /BDC pdfmark } bind def
/EMC { mark /EMC pdfmark } bind def
/cairo_store_point { /cairo_point_y exch def /cairo_point_x exch def } def
/Tj { show currentpoint cairo_store_point } bind def
/TJ {
  {
    dup
    type /stringtype eq
    { show } { -0.001 mul 0 cairo_font_matrix dtransform rmoveto } ifelse
  } forall
  currentpoint cairo_store_point
} bind def
/cairo_selectfont { cairo_font_matrix aload pop pop pop 0 0 6 array astore
    cairo_font exch selectfont cairo_point_x cairo_point_y moveto } bind def
/Tf { pop /cairo_font exch def /cairo_font_matrix where
      { pop cairo_selectfont } if } bind def
/Td { matrix translate cairo_font_matrix matrix concatmatrix dup
      /cairo_font_matrix exch def dup 4 get exch 5 get cairo_store_point
      /cairo_font where { pop cairo_selectfont } if } bind def
/Tm { 2 copy 8 2 roll 6 array astore /cairo_font_matrix exch def
      cairo_store_point /cairo_font where { pop cairo_selectfont } if } bind def
/g { setgray } bind def
/rg { setrgbcolor } bind def
/d1 { setcachedevice } bind def
%%EndProlog
%%BeginSetup
%%EndSetup
%%Page: 1 1
%%BeginPageSetup
%%PageBoundingBox: 0 -1 308 308
%%EndPageSetup
q 0 -1 308 309 rectclip q
q
57.602 300.802 m 300.801 300.802 l 300.801 83.2 l 224 6.399 l 57.602 6.399
 l h
57.602 300.802 m W n
[6.4 0 0 6.4 632.8 -3299.999988] concat
/CairoFunction
   << /FunctionType 2
      /Domain [ 0 1 ]
      /C0 [ 0.937255 0.933333 0.933333 ]
      /C1 [ 0.870588 0.870588 0.866667 ]
      /N 1
   >>
def
   << /ShadingType 2
      /ColorSpace /DeviceRGB
      /Coords [ 9.8389 458.938904 38.808899 429.978912 ]
      /Extend [ true true ]
      /Function CairoFunction
   >>
shfill
Q
0.670588 g
224 83.2 m 300.801 83.2 l 224 6.399 l h
224 83.2 m f
0.796078 0.337255 0.254902 rg
6.398 236.802 204.801 -102.402 re f
0.00392157 g
51.199 307.2 m 51.199 243.2 l 0 243.2 l 0 128.001 l 51.199 128.001 l 51.199
 0.001 l 230.398 0.001 l 307.199 76.802 l 307.199 307.2 l h
12.801 230.399 m 204.801 230.399 l 204.801 140.802 l 12.801 140.802 l h
230.398 18.098 m 230.398 76.802 l 289.102 76.802 l h
294.398 89.598 m 217.602 89.598 l 217.602 12.802 l 64 12.802 l 64 128.001
 l 217.602 128.001 l 217.602 243.2 l 64 243.2 l 64 294.399 l 294.398 294.399
 l h
294.398 89.598 m f
1 g
71.141 203.852 m 59.16 203.852 l 59.16 158.079 l 48.102 158.079 l 48.102
 203.852 l 36.121 203.852 l 36.121 212.915 l 71.141 212.915 l h
71.141 203.852 m f
103.719 212.915 m 118.234 158.079 l 106.715 158.079 l 104.18 169.677 l 
89.586 169.677 l 87.039 158.079 l 75.52 158.079 l 90.035 212.915 l h
102.246 178.739 m 96.945 203.391 l 96.793 203.391 l 91.496 178.739 l h
102.246 178.739 m f
150.168 212.915 m 154.766 212.915 158.363 211.751 160.922 209.423 c 163.48
 207.091 164.762 203.544 164.762 198.786 c 164.762 195.098 164.02 192.102
 162.535 189.759 c 161.051 187.43 158.746 185.934 155.621 185.266 c 155.621
 185.114 l 158.387 184.704 160.41 183.794 161.691 182.427 c 162.98 181.044
 163.762 178.817 164.082 175.743 c 164.188 174.72 164.262 173.606 164.312
 172.403 c 164.363 171.2 164.414 169.856 164.48 168.372 c 164.582 165.454
 164.734 163.239 164.93 161.704 c 165.234 160.165 165.902 159.118 166.926
 158.555 c 166.926 158.095 l 154.945 158.095 l 154.379 158.86 154.023 159.743
 153.867 160.743 c 153.703 161.727 153.602 162.766 153.547 163.841 c 153.254
 174.36 l 153.141 176.513 152.602 178.2 151.629 179.43 c 150.668 180.661
 149.031 181.274 146.715 181.274 c 140.801 181.274 l 140.801 158.079 l 129.742
 158.079 l 129.742 212.915 l h
145.406 188.954 m 148.07 188.954 150.117 189.579 151.539 190.821 c 152.973
 192.091 153.691 194.2 153.691 197.157 c 153.691 202.227 151.141 204.774
 146.008 204.774 c 140.801 204.774 l 140.801 188.954 l h
145.406 188.954 m f
Q Q
showpage
%%Trailer
end restore
%%EOF
