%!PS-Adobe-3.0 EPSF-3.0
%%Creator: cairo 1.14.2 (http://cairographics.org)
%%CreationDate: Thu Nov 30 08:05:32 2017
%%Pages: 1
%%DocumentData: Clean7Bit
%%LanguageLevel: 2
%%BoundingBox: 0 -1 308 308
%%EndComments
%%BeginProlog
save
50 dict begin
/q { gsave } bind def
/Q { grestore } bind def
/cm { 6 array astore concat } bind def
/w { setlinewidth } bind def
/J { setlinecap } bind def
/j { setlinejoin } bind def
/M { setmiterlimit } bind def
/d { setdash } bind def
/m { moveto } bind def
/l { lineto } bind def
/c { curveto } bind def
/h { closepath } bind def
/re { exch dup neg 3 1 roll 5 3 roll moveto 0 rlineto
      0 exch rlineto 0 rlineto closepath } bind def
/S { stroke } bind def
/f { fill } bind def
/f* { eofill } bind def
/n { newpath } bind def
/W { clip } bind def
/W* { eoclip } bind def
/BT { } bind def
/ET { } bind def
/pdfmark where { pop globaldict /?pdfmark /exec load put }
    { globaldict begin /?pdfmark /pop load def /pdfmark
    /cleartomark load def end } ifelse
/BDC { mark 3 1 roll /BDC pdfmark } bind def
/EMC { mark /EMC pdfmark } bind def
/cairo_store_point { /cairo_point_y exch def /cairo_point_x exch def } def
/Tj { show currentpoint cairo_store_point } bind def
/TJ {
  {
    dup
    type /stringtype eq
    { show } { -0.001 mul 0 cairo_font_matrix dtransform rmoveto } ifelse
  } forall
  currentpoint cairo_store_point
} bind def
/cairo_selectfont { cairo_font_matrix aload pop pop pop 0 0 6 array astore
    cairo_font exch selectfont cairo_point_x cairo_point_y moveto } bind def
/Tf { pop /cairo_font exch def /cairo_font_matrix where
      { pop cairo_selectfont } if } bind def
/Td { matrix translate cairo_font_matrix matrix concatmatrix dup
      /cairo_font_matrix exch def dup 4 get exch 5 get cairo_store_point
      /cairo_font where { pop cairo_selectfont } if } bind def
/Tm { 2 copy 8 2 roll 6 array astore /cairo_font_matrix exch def
      cairo_store_point /cairo_font where { pop cairo_selectfont } if } bind def
/g { setgray } bind def
/rg { setrgbcolor } bind def
/d1 { setcachedevice } bind def
%%EndProlog
%%BeginSetup
%%EndSetup
%%Page: 1 1
%%BeginPageSetup
%%PageBoundingBox: 0 -1 308 308
%%EndPageSetup
q 0 -1 308 309 rectclip q
0.937255 0.933333 0.933333 rg
57.602 300.802 m 300.801 300.802 l 300.801 83.2 l 224 6.399 l 57.602 6.399
 l h
57.602 300.802 m f
0.670588 g
224 83.2 m 300.801 83.2 l 224 6.399 l h
224 83.2 m f
0.796078 0.337255 0.254902 rg
6.398 236.802 204.801 -102.402 re f
0.00392157 g
51.199 307.2 m 51.199 243.2 l 0 243.2 l 0 128.001 l 51.199 128.001 l 51.199
 0.001 l 230.398 0.001 l 307.199 76.802 l 307.199 307.2 l h
12.801 230.399 m 204.801 230.399 l 204.801 140.802 l 12.801 140.802 l h
230.398 17.919 m 230.398 76.802 l 289.281 76.802 l h
294.398 89.598 m 217.602 89.598 l 217.602 12.802 l 64 12.802 l 64 128.001
 l 217.602 128.001 l 217.602 243.2 l 64 243.2 l 64 294.399 l 294.398 294.399
 l h
294.398 89.598 m f
1 g
73.602 161.919 m 70.398 159.36 65.281 158.079 59.52 158.079 c 53.121 158.079
 48.641 159.36 46.078 161.919 c 43.52 164.481 42.238 168.321 42.238 173.438
 c 42.238 175.36 l 53.121 175.36 l 53.121 174.079 l 53.121 172.802 53.121
 171.52 53.762 170.88 c 53.762 169.598 54.398 168.962 55.039 168.321 c 55.68
 167.68 56.32 167.04 57.602 166.399 c 58.238 165.759 59.52 165.759 61.441
 165.759 c 63.359 165.759 64.641 166.399 65.922 167.68 c 67.199 168.962 
67.84 170.239 67.84 172.802 c 67.84 174.079 67.84 175.36 67.199 176.001 
c 67.199 176.641 66.559 177.919 65.281 178.559 c 64.641 179.2 63.359 179.841
 62.078 180.481 c 60.801 181.122 59.52 181.759 57.602 182.399 c 55.039 183.04
 53.121 184.321 51.199 184.962 c 49.281 185.598 48 186.88 46.719 188.161
 c 45.441 189.438 44.801 190.72 44.16 192.641 c 43.52 194.559 43.52 196.481
 43.52 198.399 c 43.52 203.52 44.801 208.001 48 210.559 c 51.199 213.122
 55.039 214.399 60.16 214.399 c 62.719 214.399 64.641 214.399 67.199 213.759
 c 69.121 213.122 71.039 212.481 72.32 211.2 c 73.602 209.919 74.879 208.641
 75.52 206.72 c 76.16 204.802 76.801 202.88 76.801 200.321 c 76.801 198.399
 l 65.922 198.399 l 65.922 200.962 65.281 202.88 64.641 204.161 c 64 205.438
 62.078 206.079 60.16 206.079 c 58.879 206.079 57.602 206.079 56.961 205.438
 c 56.32 204.802 55.68 204.802 55.039 204.161 c 54.398 203.52 54.398 202.88
 53.762 202.239 c 53.121 201.598 53.762 200.962 53.762 199.68 c 53.762 197.759
 54.398 196.481 55.039 195.2 c 55.68 193.919 57.602 193.278 59.52 192.001
 c 67.84 188.161 l 69.762 187.52 71.68 186.239 72.961 184.962 c 74.238 183.68
 75.52 183.04 76.16 181.759 c 78.078 177.919 l 78.078 176.641 78.719 174.72
 78.719 173.438 c 78.719 168.962 77.441 164.481 73.602 161.919 c h
115.199 158.72 m 101.121 158.72 l 88.32 213.759 l 99.84 213.759 l 107.52
 173.438 l 115.84 213.759 l 128 213.759 l h
175.359 158.72 m 167.039 158.72 l 167.039 163.841 l 165.762 161.919 163.84
 160.001 161.922 159.36 c 160 158.72 158.078 158.079 155.52 158.079 c 152.32
 158.079 149.121 158.72 147.199 160.001 c 145.281 161.278 143.359 163.2 
142.078 165.759 c 140.801 168.321 140.16 171.52 139.52 174.72 c 138.879 
178.559 138.879 182.399 138.879 187.52 c 138.879 192.001 138.879 196.481
 139.52 199.68 c 140.16 202.88 140.801 206.079 142.719 208.641 c 144 211.2
 145.922 212.481 148.48 213.759 c 151.039 215.04 153.602 215.68 157.441 
215.68 c 163.199 215.68 167.68 214.399 170.238 211.2 c 172.801 208.001 174.078
 204.161 174.078 198.399 c 163.199 198.399 l 163.199 199.68 163.199 200.321
 162.559 201.598 c 161.922 202.88 161.922 203.52 161.281 204.802 c 160.641
 205.438 160 206.72 159.359 206.72 c 158.719 207.36 157.441 207.36 156.16
 207.36 c 153.602 207.36 151.68 206.079 150.398 202.88 c 149.121 199.68 
148.48 195.2 148.48 188.161 c 148.48 179.2 l 148.48 176.641 149.121 174.079
 149.762 172.161 c 150.398 170.239 151.039 168.962 152.32 167.68 c 153.602
 166.399 154.879 166.399 156.16 166.399 c 156.801 166.399 157.441 166.399
 158.078 167.04 c 158.719 167.68 159.359 167.68 160 168.962 c 160.641 169.598
 161.281 170.88 161.922 171.52 c 162.559 172.802 162.559 174.079 162.559
 175.36 c 162.559 181.122 l 155.52 181.122 l 155.52 189.438 l 173.441 189.438
 l 175.359 188.161 175.359 158.72 175.359 158.72 c h
175.359 158.72 m f
Q Q
showpage
%%Trailer
end restore
%%EOF
