%!PS-Adobe-3.0 EPSF-3.0
%%Creator: cairo 1.14.2 (http://cairographics.org)
%%CreationDate: Thu Nov 30 08:05:32 2017
%%Pages: 1
%%DocumentData: Clean7Bit
%%LanguageLevel: 2
%%BoundingBox: 0 -1 308 308
%%EndComments
%%BeginProlog
save
50 dict begin
/q { gsave } bind def
/Q { grestore } bind def
/cm { 6 array astore concat } bind def
/w { setlinewidth } bind def
/J { setlinecap } bind def
/j { setlinejoin } bind def
/M { setmiterlimit } bind def
/d { setdash } bind def
/m { moveto } bind def
/l { lineto } bind def
/c { curveto } bind def
/h { closepath } bind def
/re { exch dup neg 3 1 roll 5 3 roll moveto 0 rlineto
      0 exch rlineto 0 rlineto closepath } bind def
/S { stroke } bind def
/f { fill } bind def
/f* { eofill } bind def
/n { newpath } bind def
/W { clip } bind def
/W* { eoclip } bind def
/BT { } bind def
/ET { } bind def
/pdfmark where { pop globaldict /?pdfmark /exec load put }
    { globaldict begin /?pdfmark /pop load def /pdfmark
    /cleartomark load def end } ifelse
/BDC { mark 3 1 roll /BDC pdfmark } bind def
/EMC { mark /EMC pdfmark } bind def
/cairo_store_point { /cairo_point_y exch def /cairo_point_x exch def } def
/Tj { show currentpoint cairo_store_point } bind def
/TJ {
  {
    dup
    type /stringtype eq
    { show } { -0.001 mul 0 cairo_font_matrix dtransform rmoveto } ifelse
  } forall
  currentpoint cairo_store_point
} bind def
/cairo_selectfont { cairo_font_matrix aload pop pop pop 0 0 6 array astore
    cairo_font exch selectfont cairo_point_x cairo_point_y moveto } bind def
/Tf { pop /cairo_font exch def /cairo_font_matrix where
      { pop cairo_selectfont } if } bind def
/Td { matrix translate cairo_font_matrix matrix concatmatrix dup
      /cairo_font_matrix exch def dup 4 get exch 5 get cairo_store_point
      /cairo_font where { pop cairo_selectfont } if } bind def
/Tm { 2 copy 8 2 roll 6 array astore /cairo_font_matrix exch def
      cairo_store_point /cairo_font where { pop cairo_selectfont } if } bind def
/g { setgray } bind def
/rg { setrgbcolor } bind def
/d1 { setcachedevice } bind def
%%EndProlog
%%BeginSetup
%%EndSetup
%%Page: 1 1
%%BeginPageSetup
%%PageBoundingBox: 0 -1 308 308
%%EndPageSetup
q 0 -1 308 309 rectclip q
0.937255 0.933333 0.933333 rg
57.602 300.802 m 300.801 300.802 l 300.801 83.2 l 224 6.399 l 57.602 6.399
 l h
57.602 300.802 m f
0.670588 g
224 83.2 m 300.801 83.2 l 224 6.399 l h
224 83.2 m f
0.321569 0.490196 0.631373 rg
6.398 236.802 204.801 -102.402 re f
0.00392157 g
51.199 307.2 m 51.199 243.2 l 0 243.2 l 0 128.001 l 51.199 128.001 l 51.199
 0.001 l 230.398 0.001 l 307.199 76.802 l 307.199 307.2 l h
12.801 230.399 m 204.801 230.399 l 204.801 140.802 l 12.801 140.802 l h
230.398 18.098 m 230.398 76.802 l 289.102 76.802 l h
294.398 89.598 m 217.602 89.598 l 217.602 12.802 l 64 12.802 l 64 128.001
 l 217.602 128.001 l 217.602 243.2 l 64 243.2 l 64 294.399 l 294.398 294.399
 l h
294.398 89.598 m f
1 g
55.426 173.579 m 55.426 172.302 55.527 171.138 55.719 170.098 c 55.922 
169.048 56.309 168.165 56.871 167.45 c 57.434 166.72 58.203 166.157 59.148
 165.747 c 60.082 165.352 61.273 165.134 62.707 165.134 c 64.398 165.134
 65.922 165.684 67.266 166.786 c 68.621 167.884 69.312 169.598 69.312 171.891
 c 69.312 173.122 69.133 174.18 68.812 175.079 c 68.48 175.973 67.93 176.782
 67.16 177.485 c 66.379 178.216 65.371 178.856 64.113 179.442 c 62.859 180.032
 61.312 180.634 59.48 181.247 c 57.023 182.067 54.898 182.977 53.105 183.95
 c 51.316 184.907 49.816 186.048 48.613 187.368 c 47.41 188.673 46.516 190.18
 45.965 191.899 c 45.391 193.626 45.121 195.598 45.121 197.864 c 45.121 
203.29 46.629 207.321 49.652 209.985 c 52.672 212.645 56.832 213.977 62.105
 213.977 c 64.551 213.977 66.828 213.708 68.902 213.173 c 70.977 212.634
 72.77 211.774 74.277 210.559 c 75.777 209.356 76.965 207.821 77.797 205.966
 c 78.645 204.095 79.078 201.856 79.078 199.243 c 79.078 197.708 l 68.48
 197.708 l 68.48 200.321 68.02 202.329 67.109 203.751 c 66.188 205.145 64.641
 205.864 62.488 205.864 c 61.262 205.864 60.238 205.669 59.43 205.325 c 
58.625 204.966 57.957 204.493 57.473 203.903 c 56.984 203.313 56.629 202.626
 56.449 201.845 c 56.27 201.075 56.18 200.282 56.18 199.462 c 56.18 197.759
 56.539 196.352 57.254 195.2 c 57.973 194.036 59.508 192.973 61.863 192.013
 c 70.398 188.325 l 72.5 187.403 74.203 186.446 75.531 185.434 c 76.863 
184.423 77.926 183.36 78.719 182.208 c 79.512 181.055 80.062 179.802 80.371
 178.407 c 80.68 177.036 80.832 175.489 80.832 173.809 c 80.832 168.024 
79.156 163.813 75.789 161.177 c 72.434 158.54 67.762 157.208 61.785 157.208
 c 55.539 157.208 51.059 158.567 48.371 161.278 c 45.684 163.993 44.34 167.884
 44.34 172.954 c 44.34 175.18 l 55.426 175.18 l h
55.426 173.579 m f
115.777 158.067 m 113.742 157.505 111.297 157.223 108.492 157.223 c 104.359
 157.223 101.043 157.899 98.586 159.22 c 96.141 160.552 94.258 162.47 92.953
 164.977 c 91.648 167.489 90.805 170.481 90.418 173.966 c 90.047 177.434
 89.844 181.286 89.844 185.473 c 89.844 189.618 90.047 193.446 90.418 196.954
 c 90.805 200.446 91.648 203.47 92.953 205.977 c 94.273 208.473 96.141 210.446
 98.586 211.852 c 101.043 213.247 104.359 213.966 108.492 213.966 c 112.641
 213.966 115.941 213.247 118.398 211.852 c 120.844 210.446 122.727 208.473
 124.031 205.977 c 125.352 203.47 126.184 200.446 126.566 196.954 c 126.938
 193.446 127.141 189.618 127.141 185.473 c 127.141 180.825 126.887 176.602
 126.363 172.813 c 125.863 169.013 124.711 165.825 122.906 163.212 c 128.82
 157.454 l 122.293 151.54 l h
101.145 176.075 m 101.324 173.493 101.695 171.391 102.223 169.778 c 102.77
 168.165 103.527 166.989 104.523 166.247 c 105.523 165.505 106.855 165.134
 108.492 165.134 c 110.133 165.134 111.449 165.505 112.461 166.247 c 113.461
 167.001 114.227 168.165 114.766 169.778 c 115.301 171.391 115.66 173.493
 115.84 176.075 c 116.02 178.661 116.109 181.786 116.109 185.473 c 116.109
 189.157 116.008 192.282 115.84 194.841 c 115.672 197.403 115.301 199.501
 114.766 201.138 c 114.227 202.778 113.461 203.97 112.461 204.696 c 111.461
 205.454 110.133 205.825 108.492 205.825 c 106.855 205.825 105.535 205.454
 104.523 204.696 c 103.527 203.954 102.77 202.778 102.223 201.138 c 101.695
 199.501 101.324 197.403 101.145 194.841 c 100.965 192.282 100.875 189.157
 100.875 185.473 c 100.875 181.786 100.98 178.661 101.145 176.075 c h
101.145 176.075 m f
138.266 212.903 m 149.352 212.903 l 149.352 167.13 l 168.922 167.13 l 168.922
 158.067 l 138.266 158.067 l h
138.266 212.903 m f
Q Q
showpage
%%Trailer
end restore
%%EOF
