%!PS-Adobe-3.0 EPSF-3.0
%%Creator: cairo 1.14.2 (http://cairographics.org)
%%CreationDate: Thu Nov 30 08:05:32 2017
%%Pages: 1
%%DocumentData: Clean7Bit
%%LanguageLevel: 2
%%BoundingBox: 0 -1 308 308
%%EndComments
%%BeginProlog
save
50 dict begin
/q { gsave } bind def
/Q { grestore } bind def
/cm { 6 array astore concat } bind def
/w { setlinewidth } bind def
/J { setlinecap } bind def
/j { setlinejoin } bind def
/M { setmiterlimit } bind def
/d { setdash } bind def
/m { moveto } bind def
/l { lineto } bind def
/c { curveto } bind def
/h { closepath } bind def
/re { exch dup neg 3 1 roll 5 3 roll moveto 0 rlineto
      0 exch rlineto 0 rlineto closepath } bind def
/S { stroke } bind def
/f { fill } bind def
/f* { eofill } bind def
/n { newpath } bind def
/W { clip } bind def
/W* { eoclip } bind def
/BT { } bind def
/ET { } bind def
/pdfmark where { pop globaldict /?pdfmark /exec load put }
    { globaldict begin /?pdfmark /pop load def /pdfmark
    /cleartomark load def end } ifelse
/BDC { mark 3 1 roll /BDC pdfmark } bind def
/EMC { mark /EMC pdfmark } bind def
/cairo_store_point { /cairo_point_y exch def /cairo_point_x exch def } def
/Tj { show currentpoint cairo_store_point } bind def
/TJ {
  {
    dup
    type /stringtype eq
    { show } { -0.001 mul 0 cairo_font_matrix dtransform rmoveto } ifelse
  } forall
  currentpoint cairo_store_point
} bind def
/cairo_selectfont { cairo_font_matrix aload pop pop pop 0 0 6 array astore
    cairo_font exch selectfont cairo_point_x cairo_point_y moveto } bind def
/Tf { pop /cairo_font exch def /cairo_font_matrix where
      { pop cairo_selectfont } if } bind def
/Td { matrix translate cairo_font_matrix matrix concatmatrix dup
      /cairo_font_matrix exch def dup 4 get exch 5 get cairo_store_point
      /cairo_font where { pop cairo_selectfont } if } bind def
/Tm { 2 copy 8 2 roll 6 array astore /cairo_font_matrix exch def
      cairo_store_point /cairo_font where { pop cairo_selectfont } if } bind def
/g { setgray } bind def
/rg { setrgbcolor } bind def
/d1 { setcachedevice } bind def
%%EndProlog
%%BeginSetup
%%EndSetup
%%Page: 1 1
%%BeginPageSetup
%%PageBoundingBox: 0 -1 308 308
%%EndPageSetup
q 0 -1 308 309 rectclip q
0.937255 0.933333 0.933333 rg
57.602 300.802 m 300.801 300.802 l 300.801 83.2 l 224 6.399 l 57.602 6.399
 l h
57.602 300.802 m f
0.670588 g
224 83.2 m 300.801 83.2 l 224 6.399 l h
224 83.2 m f
0.796078 0.337255 0.254902 rg
6.398 236.802 204.801 -102.402 re f
0.00392157 g
51.199 307.2 m 51.199 243.2 l 0 243.2 l 0 128.001 l 51.199 128.001 l 51.199
 0.001 l 230.398 0.001 l 307.199 76.802 l 307.199 307.2 l h
12.801 230.399 m 204.801 230.399 l 204.801 140.802 l 12.801 140.802 l h
230.398 18.098 m 230.398 76.802 l 289.102 76.802 l h
294.398 89.598 m 217.602 89.598 l 217.602 12.802 l 64 12.802 l 64 128.001
 l 217.602 128.001 l 217.602 243.2 l 64 243.2 l 64 294.399 l 294.398 294.399
 l h
294.398 89.598 m f
1 g
47.922 173.595 m 47.922 172.313 48.051 171.149 48.258 170.11 c 48.461 169.063
 48.844 168.18 49.406 167.462 c 49.973 166.731 50.727 166.169 51.672 165.759
 c 52.621 165.364 53.812 165.145 55.246 165.145 c 56.934 165.145 58.457 
165.696 59.801 166.798 c 61.16 167.899 61.836 169.614 61.836 171.903 c 61.836
 173.134 61.672 174.196 61.336 175.091 c 61.02 175.989 60.469 176.794 59.688
 177.497 c 58.918 178.227 57.906 178.868 56.652 179.458 c 55.398 180.044
 53.848 180.645 52.02 181.263 c 49.562 182.079 47.438 182.989 45.645 183.962
 c 43.84 184.923 42.355 186.059 41.141 187.38 c 39.938 188.684 39.055 190.196
 38.488 191.911 c 37.926 193.638 37.656 195.61 37.656 197.876 c 37.656 203.302
 39.168 207.333 42.188 209.997 c 45.211 212.661 49.371 213.989 54.645 213.989
 c 57.09 213.989 59.367 213.723 61.426 213.184 c 63.5 212.645 65.305 211.79
 66.816 210.571 c 68.312 209.368 69.504 207.833 70.336 205.977 c 71.18 204.11
 71.617 201.868 71.617 199.259 c 71.617 197.723 l 61.02 197.723 l 61.02 
200.333 60.559 202.341 59.637 203.763 c 58.715 205.157 57.176 205.876 55.027
 205.876 c 53.797 205.876 52.773 205.684 51.969 205.337 c 51.148 204.977
 50.496 204.505 50.008 203.919 c 49.523 203.329 49.164 202.626 48.984 201.856
 c 48.805 201.087 48.719 200.294 48.719 199.473 c 48.719 197.774 49.062 
196.364 49.793 195.212 c 50.508 194.048 52.043 192.985 54.387 192.024 c 
62.91 188.341 l 65.012 187.419 66.727 186.458 68.059 185.446 c 69.391 184.446
 70.453 183.372 71.246 182.22 c 72.039 181.067 72.574 179.813 72.895 178.419
 c 73.203 177.048 73.355 175.501 73.355 173.825 c 73.355 168.04 71.68 163.829
 68.312 161.192 c 64.961 158.555 60.289 157.223 54.297 157.223 c 48.051 
157.223 43.586 158.579 40.895 161.294 c 38.207 164.005 36.863 167.899 36.863
 172.966 c 36.863 175.192 l 47.922 175.192 l h
47.922 173.595 m f
97.637 212.915 m 97.637 191.95 l 110.539 191.95 l 110.539 212.915 l 121.602
 212.915 l 121.602 158.079 l 110.539 158.079 l 110.539 182.427 l 97.637 
182.427 l 97.637 158.079 l 86.578 158.079 l 86.578 212.915 l h
97.637 212.915 m f
Q Q
showpage
%%Trailer
end restore
%%EOF
