%!PS-Adobe-3.0 EPSF-3.0
%%Creator: cairo 1.14.2 (http://cairographics.org)
%%CreationDate: Thu Nov 30 08:05:32 2017
%%Pages: 1
%%DocumentData: Clean7Bit
%%LanguageLevel: 2
%%BoundingBox: 0 -1 308 308
%%EndComments
%%BeginProlog
save
50 dict begin
/q { gsave } bind def
/Q { grestore } bind def
/cm { 6 array astore concat } bind def
/w { setlinewidth } bind def
/J { setlinecap } bind def
/j { setlinejoin } bind def
/M { setmiterlimit } bind def
/d { setdash } bind def
/m { moveto } bind def
/l { lineto } bind def
/c { curveto } bind def
/h { closepath } bind def
/re { exch dup neg 3 1 roll 5 3 roll moveto 0 rlineto
      0 exch rlineto 0 rlineto closepath } bind def
/S { stroke } bind def
/f { fill } bind def
/f* { eofill } bind def
/n { newpath } bind def
/W { clip } bind def
/W* { eoclip } bind def
/BT { } bind def
/ET { } bind def
/pdfmark where { pop globaldict /?pdfmark /exec load put }
    { globaldict begin /?pdfmark /pop load def /pdfmark
    /cleartomark load def end } ifelse
/BDC { mark 3 1 roll /BDC pdfmark } bind def
/EMC { mark /EMC pdfmark } bind def
/cairo_store_point { /cairo_point_y exch def /cairo_point_x exch def } def
/Tj { show currentpoint cairo_store_point } bind def
/TJ {
  {
    dup
    type /stringtype eq
    { show } { -0.001 mul 0 cairo_font_matrix dtransform rmoveto } ifelse
  } forall
  currentpoint cairo_store_point
} bind def
/cairo_selectfont { cairo_font_matrix aload pop pop pop 0 0 6 array astore
    cairo_font exch selectfont cairo_point_x cairo_point_y moveto } bind def
/Tf { pop /cairo_font exch def /cairo_font_matrix where
      { pop cairo_selectfont } if } bind def
/Td { matrix translate cairo_font_matrix matrix concatmatrix dup
      /cairo_font_matrix exch def dup 4 get exch 5 get cairo_store_point
      /cairo_font where { pop cairo_selectfont } if } bind def
/Tm { 2 copy 8 2 roll 6 array astore /cairo_font_matrix exch def
      cairo_store_point /cairo_font where { pop cairo_selectfont } if } bind def
/g { setgray } bind def
/rg { setrgbcolor } bind def
/d1 { setcachedevice } bind def
%%EndProlog
%%BeginSetup
%%EndSetup
%%Page: 1 1
%%BeginPageSetup
%%PageBoundingBox: 0 -1 308 308
%%EndPageSetup
q 0 -1 308 309 rectclip q
0.937255 0.933333 0.933333 rg
57.602 300.802 m 300.801 300.802 l 300.801 83.2 l 224 6.399 l 57.602 6.399
 l h
57.602 300.802 m f
0.670588 g
224 83.2 m 300.801 83.2 l 224 6.399 l h
224 83.2 m f
0.796078 0.337255 0.254902 rg
6.398 236.802 204.801 -102.402 re f
0.00392157 g
51.199 307.2 m 51.199 243.2 l 0 243.2 l 0 128.001 l 51.199 128.001 l 51.199
 0.001 l 230.398 0.001 l 307.199 76.802 l 307.199 307.2 l h
12.801 230.399 m 204.801 230.399 l 204.801 140.802 l 12.801 140.802 l h
230.398 18.098 m 230.398 76.802 l 289.102 76.802 l h
294.398 89.598 m 217.602 89.598 l 217.602 12.802 l 64 12.802 l 64 128.001
 l 217.602 128.001 l 217.602 243.2 l 64 243.2 l 64 294.399 l 294.398 294.399
 l h
294.398 89.598 m f
59.469 212.915 m 64.062 212.915 67.66 211.751 70.223 209.423 c 72.781 207.091
 74.062 203.544 74.062 198.786 c 74.062 195.098 73.32 192.102 71.832 189.759
 c 70.348 187.43 68.043 185.934 64.922 185.266 c 64.922 185.114 l 67.688
 184.704 69.707 183.794 70.988 182.427 c 72.281 181.044 73.062 178.817 73.383
 175.743 c 73.484 174.72 73.562 173.606 73.613 172.403 c 73.664 171.2 73.715
 169.856 73.777 168.372 c 73.883 165.454 74.035 163.239 74.227 161.704 c
 74.535 160.165 75.199 159.118 76.223 158.555 c 76.223 158.095 l 64.242 
158.095 l 63.68 158.86 63.32 159.743 63.168 160.743 c 63 161.727 62.898 
162.766 62.848 163.841 c 62.555 174.36 l 62.438 176.513 61.902 178.2 60.93
 179.43 c 59.969 180.661 58.328 181.274 56.012 181.274 c 50.098 181.274 
l 50.098 158.079 l 39.039 158.079 l 39.039 212.915 l h
54.707 188.954 m 57.371 188.954 59.418 189.579 60.84 190.821 c 62.273 192.091
 62.988 194.2 62.988 197.157 c 62.988 202.227 60.441 204.774 55.309 204.774
 c 50.098 204.774 l 50.098 188.954 l h
54.707 188.954 m f
107.941 212.927 m 110.195 212.927 112.281 212.673 114.188 212.223 c 116.109
 211.763 117.762 210.981 119.156 209.907 c 120.523 208.833 121.602 207.399
 122.379 205.606 c 123.148 203.813 123.531 201.614 123.531 199.001 c 123.531
 196.032 122.84 193.473 121.461 191.348 c 120.078 189.223 118.004 187.79
 115.238 187.009 c 115.238 186.88 l 118.309 186.47 120.754 185.165 122.535
 182.962 c 124.328 180.747 125.223 177.817 125.223 174.13 c 125.223 171.981
 124.941 169.934 124.379 168.001 c 123.812 166.055 122.867 164.352 121.496
 162.891 c 120.129 161.434 118.375 160.27 116.199 159.399 c 114.023 158.54
 111.32 158.095 108.098 158.095 c 89.422 158.095 l 89.422 212.927 l h
103.641 190.427 m 106.699 190.427 108.941 190.962 110.348 192.063 c 111.758
 193.165 112.461 195.009 112.461 197.634 c 112.461 200.255 111.82 202.098
 110.555 203.173 c 109.262 204.251 107.238 204.786 104.473 204.786 c 100.492
 204.786 l 100.492 190.427 l h
104.793 166.208 m 107.457 166.208 109.605 166.798 111.246 167.989 c 112.883
 169.165 113.691 171.341 113.691 174.516 c 113.691 176.102 113.473 177.423
 113.035 178.47 c 112.602 179.52 112.012 180.364 111.27 181.005 c 110.516
 181.645 109.645 182.095 108.621 182.348 c 107.598 182.606 106.469 182.72
 105.242 182.72 c 100.492 182.72 l 100.492 166.208 l h
104.793 166.208 m f
Q Q
showpage
%%Trailer
end restore
%%EOF
