%!PS-Adobe-3.0 EPSF-3.0
%%Creator: cairo 1.14.2 (http://cairographics.org)
%%CreationDate: Thu Nov 30 08:05:32 2017
%%Pages: 1
%%DocumentData: Clean7Bit
%%LanguageLevel: 3
%%BoundingBox: 0 -1 308 308
%%EndComments
%%BeginProlog
save
50 dict begin
/q { gsave } bind def
/Q { grestore } bind def
/cm { 6 array astore concat } bind def
/w { setlinewidth } bind def
/J { setlinecap } bind def
/j { setlinejoin } bind def
/M { setmiterlimit } bind def
/d { setdash } bind def
/m { moveto } bind def
/l { lineto } bind def
/c { curveto } bind def
/h { closepath } bind def
/re { exch dup neg 3 1 roll 5 3 roll moveto 0 rlineto
      0 exch rlineto 0 rlineto closepath } bind def
/S { stroke } bind def
/f { fill } bind def
/f* { eofill } bind def
/n { newpath } bind def
/W { clip } bind def
/W* { eoclip } bind def
/BT { } bind def
/ET { } bind def
/pdfmark where { pop globaldict /?pdfmark /exec load put }
    { globaldict begin /?pdfmark /pop load def /pdfmark
    /cleartomark load def end } ifelse
/BDC { mark 3 1 roll /BDC pdfmark } bind def
/EMC { mark /EMC pdfmark } bind def
/cairo_store_point { /cairo_point_y exch def /cairo_point_x exch def } def
/Tj { show currentpoint cairo_store_point } bind def
/TJ {
  {
    dup
    type /stringtype eq
    { show } { -0.001 mul 0 cairo_font_matrix dtransform rmoveto } ifelse
  } forall
  currentpoint cairo_store_point
} bind def
/cairo_selectfont { cairo_font_matrix aload pop pop pop 0 0 6 array astore
    cairo_font exch selectfont cairo_point_x cairo_point_y moveto } bind def
/Tf { pop /cairo_font exch def /cairo_font_matrix where
      { pop cairo_selectfont } if } bind def
/Td { matrix translate cairo_font_matrix matrix concatmatrix dup
      /cairo_font_matrix exch def dup 4 get exch 5 get cairo_store_point
      /cairo_font where { pop cairo_selectfont } if } bind def
/Tm { 2 copy 8 2 roll 6 array astore /cairo_font_matrix exch def
      cairo_store_point /cairo_font where { pop cairo_selectfont } if } bind def
/g { setgray } bind def
/rg { setrgbcolor } bind def
/d1 { setcachedevice } bind def
%%EndProlog
%%BeginSetup
%%EndSetup
%%Page: 1 1
%%BeginPageSetup
%%PageBoundingBox: 0 -1 308 308
%%EndPageSetup
q 0 -1 308 309 rectclip q
q
57.602 300.802 m 300.801 300.802 l 300.801 83.2 l 224 6.399 l 57.602 6.399
 l h
57.602 300.802 m W n
[6.4 0 0 6.4 632.8 -3299.999988] concat
/CairoFunction
   << /FunctionType 2
      /Domain [ 0 1 ]
      /C0 [ 0.937255 0.933333 0.933333 ]
      /C1 [ 0.870588 0.870588 0.866667 ]
      /N 1
   >>
def
   << /ShadingType 2
      /ColorSpace /DeviceRGB
      /Coords [ 9.8111 458.911102 38.771099 429.941101 ]
      /Extend [ true true ]
      /Function CairoFunction
   >>
shfill
Q
0.670588 g
224 83.2 m 300.801 83.2 l 224 6.399 l h
224 83.2 m f
0.407843 0.152941 0.403922 rg
6.398 236.802 204.801 -102.402 re f
0.00392157 g
51.199 307.2 m 51.199 243.2 l 0 243.2 l 0 128.001 l 51.199 128.001 l 51.199
 0.001 l 230.398 0.001 l 307.199 76.802 l 307.199 307.2 l h
12.801 230.399 m 204.801 230.399 l 204.801 140.802 l 12.801 140.802 l h
230.398 18.098 m 230.398 76.802 l 289.102 76.802 l h
294.398 89.598 m 217.602 89.598 l 217.602 12.802 l 64 12.802 l 64 128.001
 l 217.602 128.001 l 217.602 243.2 l 64 243.2 l 64 294.399 l 294.398 294.399
 l h
294.398 89.598 m f
1 g
59.469 212.915 m 64.078 212.915 67.66 211.739 70.223 209.407 c 72.781 207.079
 74.062 203.532 74.062 198.77 c 74.062 195.087 73.32 192.091 71.832 189.747
 c 70.348 187.419 68.043 185.919 64.922 185.255 c 64.922 185.102 l 67.688
 184.692 69.707 183.782 70.988 182.411 c 72.27 181.032 73.062 178.802 73.371
 175.731 c 73.473 174.708 73.547 173.595 73.602 172.391 c 73.652 171.188
 73.703 169.845 73.754 168.36 c 73.855 165.438 74.008 163.227 74.215 161.688
 c 74.523 160.153 75.188 159.102 76.211 158.54 c 76.211 158.079 l 64.242
 158.079 l 63.68 158.848 63.32 159.731 63.168 160.731 c 63.016 161.727 62.91
 162.766 62.859 163.841 c 62.555 174.36 l 62.453 176.513 61.914 178.2 60.941
 179.43 c 59.969 180.661 58.328 181.274 56.027 181.274 c 50.113 181.274 
l 50.113 158.079 l 39.039 158.079 l 39.039 212.915 l h
54.707 188.942 m 57.371 188.942 59.418 189.567 60.852 190.809 c 62.285 
192.075 63 194.188 63 197.145 c 63 202.216 60.441 204.763 55.32 204.763 
c 50.113 204.763 l 50.113 188.942 l h
54.707 188.942 m f
107.637 212.903 m 122.152 158.067 l 110.629 158.067 l 108.098 169.665 l
 93.504 169.665 l 90.969 158.067 l 79.449 158.067 l 93.965 212.903 l h
106.164 178.727 m 100.863 203.38 l 100.723 203.38 l 95.426 178.727 l h
106.164 178.727 m f
147.957 212.915 m 152.562 212.915 156.148 211.739 158.707 209.407 c 161.266
 207.079 162.547 203.532 162.547 198.77 c 162.547 195.087 161.805 192.091
 160.32 189.747 c 158.836 187.419 156.531 185.919 153.406 185.255 c 153.406
 185.102 l 156.172 184.692 158.195 183.782 159.477 182.411 c 160.754 181.032
 161.547 178.802 161.855 175.731 c 161.957 174.708 162.035 173.595 162.086
 172.391 c 162.137 171.188 162.188 169.845 162.238 168.36 c 162.344 165.438
 162.496 163.227 162.699 161.688 c 163.008 160.153 163.672 159.102 164.699
 158.54 c 164.699 158.079 l 152.719 158.079 l 152.152 158.848 151.797 159.731
 151.641 160.731 c 151.488 161.727 151.387 162.766 151.336 163.841 c 151.027
 174.36 l 150.926 176.513 150.387 178.2 149.414 179.43 c 148.441 180.661
 146.805 181.274 144.5 181.274 c 138.586 181.274 l 138.586 158.079 l 127.527
 158.079 l 127.527 212.915 l h
143.195 188.942 m 145.855 188.942 147.902 189.567 149.336 190.809 c 150.77
 192.075 151.488 194.188 151.488 197.145 c 151.488 202.216 148.93 204.763
 143.809 204.763 c 138.586 204.763 l 138.586 188.942 l h
143.195 188.942 m f
Q Q
showpage
%%Trailer
end restore
%%EOF
