%!PS-Adobe-3.0 EPSF-3.0
%%Creator: cairo 1.14.2 (http://cairographics.org)
%%CreationDate: Thu Nov 30 08:05:32 2017
%%Pages: 1
%%DocumentData: Clean7Bit
%%LanguageLevel: 3
%%BoundingBox: 0 -1 308 308
%%EndComments
%%BeginProlog
save
50 dict begin
/q { gsave } bind def
/Q { grestore } bind def
/cm { 6 array astore concat } bind def
/w { setlinewidth } bind def
/J { setlinecap } bind def
/j { setlinejoin } bind def
/M { setmiterlimit } bind def
/d { setdash } bind def
/m { moveto } bind def
/l { lineto } bind def
/c { curveto } bind def
/h { closepath } bind def
/re { exch dup neg 3 1 roll 5 3 roll moveto 0 rlineto
      0 exch rlineto 0 rlineto closepath } bind def
/S { stroke } bind def
/f { fill } bind def
/f* { eofill } bind def
/n { newpath } bind def
/W { clip } bind def
/W* { eoclip } bind def
/BT { } bind def
/ET { } bind def
/pdfmark where { pop globaldict /?pdfmark /exec load put }
    { globaldict begin /?pdfmark /pop load def /pdfmark
    /cleartomark load def end } ifelse
/BDC { mark 3 1 roll /BDC pdfmark } bind def
/EMC { mark /EMC pdfmark } bind def
/cairo_store_point { /cairo_point_y exch def /cairo_point_x exch def } def
/Tj { show currentpoint cairo_store_point } bind def
/TJ {
  {
    dup
    type /stringtype eq
    { show } { -0.001 mul 0 cairo_font_matrix dtransform rmoveto } ifelse
  } forall
  currentpoint cairo_store_point
} bind def
/cairo_selectfont { cairo_font_matrix aload pop pop pop 0 0 6 array astore
    cairo_font exch selectfont cairo_point_x cairo_point_y moveto } bind def
/Tf { pop /cairo_font exch def /cairo_font_matrix where
      { pop cairo_selectfont } if } bind def
/Td { matrix translate cairo_font_matrix matrix concatmatrix dup
      /cairo_font_matrix exch def dup 4 get exch 5 get cairo_store_point
      /cairo_font where { pop cairo_selectfont } if } bind def
/Tm { 2 copy 8 2 roll 6 array astore /cairo_font_matrix exch def
      cairo_store_point /cairo_font where { pop cairo_selectfont } if } bind def
/g { setgray } bind def
/rg { setrgbcolor } bind def
/d1 { setcachedevice } bind def
%%EndProlog
%%BeginSetup
%%EndSetup
%%Page: 1 1
%%BeginPageSetup
%%PageBoundingBox: 0 -1 308 308
%%EndPageSetup
q 0 -1 308 309 rectclip q
q
57.602 300.802 m 300.801 300.802 l 300.801 83.2 l 224 6.399 l 57.602 6.399
 l h
57.602 300.802 m W n
[6.4 0 0 6.4 632.8 -3299.999988] concat
/CairoFunction
   << /FunctionType 2
      /Domain [ 0 1 ]
      /C0 [ 0.937255 0.933333 0.933333 ]
      /C1 [ 0.870588 0.870588 0.866667 ]
      /N 1
   >>
def
   << /ShadingType 2
      /ColorSpace /DeviceRGB
      /Coords [ 9.8111 458.911102 38.771099 429.941101 ]
      /Extend [ true true ]
      /Function CairoFunction
   >>
shfill
Q
0.670588 g
224 83.2 m 300.801 83.2 l 224 6.399 l h
224 83.2 m f
0.552941 0.72549 0.270588 rg
6.398 236.802 204.801 -102.402 re f
0.00392157 g
51.199 307.2 m 51.199 243.2 l 0 243.2 l 0 128.001 l 51.199 128.001 l 51.199
 0.001 l 230.398 0.001 l 307.199 76.802 l 307.199 307.2 l h
12.801 230.399 m 204.801 230.399 l 204.801 140.802 l 12.801 140.802 l h
230.398 18.098 m 230.398 76.802 l 289.102 76.802 l h
294.398 89.598 m 217.602 89.598 l 217.602 12.802 l 64 12.802 l 64 128.001
 l 217.602 128.001 l 217.602 243.2 l 64 243.2 l 64 294.399 l 294.398 294.399
 l h
294.398 89.598 m f
63.848 158.079 m 61.797 157.516 59.355 157.235 56.551 157.235 c 52.414 
157.235 49.102 157.915 46.656 159.231 c 44.199 160.563 42.316 162.481 41.012
 164.993 c 39.707 167.501 38.859 170.497 38.477 173.977 c 38.105 177.446
 37.902 181.298 37.902 185.485 c 37.902 189.634 38.105 193.458 38.477 196.966
 c 38.859 200.462 39.719 203.481 41.012 205.989 c 42.328 208.485 44.199 
210.458 46.656 211.864 c 49.102 213.263 52.414 213.977 56.551 213.977 c 
60.699 213.977 64 213.263 66.457 211.864 c 68.902 210.458 70.797 208.485
 72.09 205.989 c 73.406 203.481 74.238 200.462 74.625 196.966 c 75.008 193.458
 75.199 189.634 75.199 185.485 c 75.199 180.837 74.945 176.614 74.434 172.825
 c 73.922 169.024 72.77 165.837 70.965 163.227 c 76.875 157.466 l 70.348
 151.552 l h
49.23 176.091 m 49.406 173.505 49.766 171.403 50.305 169.794 c 50.84 168.18
 51.609 167.001 52.609 166.259 c 53.605 165.516 54.926 165.145 56.562 165.145
 c 58.203 165.145 59.52 165.516 60.531 166.259 c 61.531 167.013 62.297 168.18
 62.836 169.794 c 63.371 171.403 63.73 173.505 63.91 176.091 c 64.09 178.677
 64.18 181.798 64.18 185.485 c 64.18 189.173 64.078 192.294 63.91 194.856
 c 63.742 197.415 63.371 199.513 62.836 201.153 c 62.297 202.79 61.531 203.981
 60.531 204.712 c 59.531 205.466 58.203 205.837 56.562 205.837 c 54.926 
205.837 53.621 205.466 52.609 204.712 c 51.609 203.97 50.84 202.79 50.305
 201.153 c 49.766 199.513 49.406 197.415 49.23 194.856 c 49.035 192.294 
48.961 189.173 48.961 185.485 c 48.961 181.798 49.035 178.677 49.23 176.091
 c h
49.23 176.091 m f
99.34 212.915 m 106.406 195.173 l 113.395 212.915 l 125.441 212.915 l 112.703
 185.805 l 126.363 158.079 l 113.922 158.079 l 106.008 176.665 l 98.176 
158.079 l 86.055 158.079 l 99.711 185.805 l 87.129 212.915 l h
99.34 212.915 m f
157.004 212.927 m 160.859 212.927 163.941 212.29 166.309 211.032 c 168.664
 209.778 170.496 208.001 171.801 205.657 c 173.121 203.329 173.992 200.536
 174.453 197.247 c 174.91 193.97 175.141 190.309 175.141 186.278 c 175.141
 181.466 174.859 177.278 174.273 173.723 c 173.684 170.177 172.672 167.231
 171.238 164.927 c 169.805 162.61 167.887 160.907 165.477 159.782 c 163.07
 158.657 160.027 158.095 156.34 158.095 c 138.879 158.095 l 138.879 212.927
 l h
154.855 166.208 m 156.801 166.208 158.363 166.54 159.539 167.208 c 160.719
 167.872 161.652 168.973 162.344 170.509 c 163.047 172.044 163.508 174.067
 163.727 176.591 c 163.957 179.087 164.07 182.208 164.07 185.946 c 164.07
 189.067 163.957 191.809 163.762 194.177 c 163.559 196.532 163.137 198.489
 162.496 200.052 c 161.844 201.614 160.91 202.79 159.641 203.571 c 158.387
 204.364 156.711 204.774 154.609 204.774 c 149.926 204.774 l 149.926 166.208
 l h
154.855 166.208 m f
Q Q
showpage
%%Trailer
end restore
%%EOF
