%!PS-Adobe-3.0 EPSF-3.0
%%Creator: cairo 1.14.2 (http://cairographics.org)
%%CreationDate: Thu Nov 30 08:05:32 2017
%%Pages: 1
%%DocumentData: Clean7Bit
%%LanguageLevel: 3
%%BoundingBox: 0 -1 308 308
%%EndComments
%%BeginProlog
save
50 dict begin
/q { gsave } bind def
/Q { grestore } bind def
/cm { 6 array astore concat } bind def
/w { setlinewidth } bind def
/J { setlinecap } bind def
/j { setlinejoin } bind def
/M { setmiterlimit } bind def
/d { setdash } bind def
/m { moveto } bind def
/l { lineto } bind def
/c { curveto } bind def
/h { closepath } bind def
/re { exch dup neg 3 1 roll 5 3 roll moveto 0 rlineto
      0 exch rlineto 0 rlineto closepath } bind def
/S { stroke } bind def
/f { fill } bind def
/f* { eofill } bind def
/n { newpath } bind def
/W { clip } bind def
/W* { eoclip } bind def
/BT { } bind def
/ET { } bind def
/pdfmark where { pop globaldict /?pdfmark /exec load put }
    { globaldict begin /?pdfmark /pop load def /pdfmark
    /cleartomark load def end } ifelse
/BDC { mark 3 1 roll /BDC pdfmark } bind def
/EMC { mark /EMC pdfmark } bind def
/cairo_store_point { /cairo_point_y exch def /cairo_point_x exch def } def
/Tj { show currentpoint cairo_store_point } bind def
/TJ {
  {
    dup
    type /stringtype eq
    { show } { -0.001 mul 0 cairo_font_matrix dtransform rmoveto } ifelse
  } forall
  currentpoint cairo_store_point
} bind def
/cairo_selectfont { cairo_font_matrix aload pop pop pop 0 0 6 array astore
    cairo_font exch selectfont cairo_point_x cairo_point_y moveto } bind def
/Tf { pop /cairo_font exch def /cairo_font_matrix where
      { pop cairo_selectfont } if } bind def
/Td { matrix translate cairo_font_matrix matrix concatmatrix dup
      /cairo_font_matrix exch def dup 4 get exch 5 get cairo_store_point
      /cairo_font where { pop cairo_selectfont } if } bind def
/Tm { 2 copy 8 2 roll 6 array astore /cairo_font_matrix exch def
      cairo_store_point /cairo_font where { pop cairo_selectfont } if } bind def
/g { setgray } bind def
/rg { setrgbcolor } bind def
/d1 { setcachedevice } bind def
%%EndProlog
%%BeginSetup
%%EndSetup
%%Page: 1 1
%%BeginPageSetup
%%PageBoundingBox: 0 -1 308 308
%%EndPageSetup
q 0 -1 308 309 rectclip q
q
57.602 300.802 m 300.801 300.802 l 300.801 83.2 l 224 6.399 l 57.602 6.399
 l h
57.602 300.802 m W n
[6.4 0 0 6.4 677.6 -3299.999988] concat
/CairoFunction
   << /FunctionType 2
      /Domain [ 0 1 ]
      /C0 [ 0.937255 0.933333 0.933333 ]
      /C1 [ 0.870588 0.870588 0.866667 ]
      /N 1
   >>
def
   << /ShadingType 2
      /ColorSpace /DeviceRGB
      /Coords [ 2.825 458.924988 31.785 429.964996 ]
      /Extend [ true true ]
      /Function CairoFunction
   >>
shfill
Q
0.670588 g
224 83.2 m 300.801 83.2 l 224 6.399 l h
224 83.2 m f
0.121569 0.376471 0.643137 rg
6.398 236.802 204.801 -102.402 re f
0.00392157 g
51.199 307.2 m 51.199 243.2 l 0 243.2 l 0 128.001 l 51.199 128.001 l 51.199
 0.001 l 230.398 0.001 l 307.199 76.802 l 307.199 307.2 l h
12.801 230.399 m 204.801 230.399 l 204.801 140.802 l 12.801 140.802 l h
230.398 18.098 m 230.398 76.802 l 289.102 76.802 l h
294.398 89.598 m 217.602 89.598 l 217.602 12.802 l 64 12.802 l 64 128.001
 l 217.602 128.001 l 217.602 243.2 l 64 243.2 l 64 294.399 l 294.398 294.399
 l h
294.398 89.598 m f
1 g
58.395 212.915 m 61.211 212.915 63.566 212.442 65.496 211.493 c 67.43 210.548
 68.965 209.305 70.145 207.77 c 71.32 206.235 72.168 204.481 72.68 202.509
 c 73.176 200.552 73.445 198.528 73.445 196.481 c 73.445 193.665 73.023 
191.208 72.18 189.106 c 71.336 187.009 70.156 185.294 68.645 183.973 c 67.137
 182.641 65.305 181.634 63.156 180.977 c 61.004 180.325 58.625 179.97 56.012
 179.97 c 50.098 179.97 l 50.098 158.079 l 39.039 158.079 l 39.039 212.915
 l h
55.016 188.083 m 57.215 188.083 59.008 188.763 60.352 190.095 c 61.707 
191.423 62.387 193.497 62.387 196.313 c 62.387 199.079 61.797 201.177 60.621
 202.61 c 59.441 204.032 57.473 204.763 54.707 204.763 c 50.098 204.763 
l 50.098 188.083 l h
55.016 188.083 m f
95.488 173.595 m 95.488 172.313 95.59 171.149 95.797 170.11 c 96 169.063
 96.383 168.18 96.945 167.462 c 97.512 166.731 98.266 166.169 99.211 165.759
 c 100.16 165.364 101.352 165.145 102.785 165.145 c 104.473 165.145 105.996
 165.696 107.34 166.798 c 108.699 167.899 109.375 169.614 109.375 171.903
 c 109.375 173.134 109.211 174.196 108.875 175.091 c 108.559 175.989 108.008
 176.794 107.227 177.497 c 106.457 178.227 105.445 178.868 104.191 179.458
 c 102.938 180.044 101.391 180.645 99.559 181.263 c 97.102 182.079 94.977
 182.989 93.184 183.962 c 91.379 184.923 89.895 186.059 88.68 187.38 c 87.477
 188.684 86.594 190.196 86.027 191.911 c 85.465 193.638 85.195 195.61 85.195
 197.876 c 85.195 203.302 86.707 207.333 89.727 209.997 c 92.75 212.661 
96.91 213.989 102.184 213.989 c 104.629 213.989 106.906 213.723 108.965 
213.184 c 111.039 212.645 112.844 211.79 114.355 210.571 c 115.852 209.368
 117.043 207.833 117.875 205.977 c 118.719 204.11 119.156 201.868 119.156
 199.259 c 119.156 197.723 l 108.543 197.723 l 108.543 200.333 108.082 202.341
 107.16 203.763 c 106.238 205.157 104.703 205.876 102.555 205.876 c 101.324
 205.876 100.301 205.684 99.496 205.337 c 98.676 204.977 98.023 204.505 
97.535 203.919 c 97.051 203.329 96.703 202.626 96.523 201.856 c 96.344 201.087
 96.258 200.294 96.258 199.473 c 96.258 197.774 96.602 196.364 97.332 195.212
 c 98.047 194.048 99.586 192.985 101.926 192.024 c 110.453 188.341 l 112.551
 187.419 114.266 186.458 115.598 185.446 c 116.93 184.446 117.992 183.372
 118.785 182.22 c 119.578 181.067 120.113 179.813 120.434 178.419 c 120.742
 177.048 120.895 175.501 120.895 173.825 c 120.895 168.04 119.219 163.829
 115.852 161.192 c 112.5 158.555 107.828 157.223 101.836 157.223 c 95.59
 157.223 91.125 158.579 88.434 161.294 c 85.746 164.005 84.402 167.899 84.402
 172.966 c 84.402 175.192 l 95.488 175.192 l h
95.488 173.595 m f
152.781 212.927 m 156.633 212.927 159.719 212.29 162.086 211.032 c 164.441
 209.778 166.273 208.001 167.578 205.657 c 168.895 203.329 169.766 200.536
 170.227 197.247 c 170.688 193.97 170.918 190.309 170.918 186.278 c 170.918
 181.466 170.637 177.278 170.047 173.723 c 169.461 170.177 168.449 167.231
 167.016 164.927 c 165.582 162.61 163.66 160.907 161.254 159.782 c 158.848
 158.657 155.801 158.095 152.113 158.095 c 134.656 158.095 l 134.656 212.927
 l h
150.629 166.208 m 152.574 166.208 154.137 166.54 155.316 167.208 c 156.492
 167.872 157.426 168.973 158.117 170.509 c 158.824 172.044 159.281 174.067
 159.5 176.591 c 159.73 179.087 159.848 182.208 159.848 185.946 c 159.848
 189.067 159.73 191.809 159.539 194.177 c 159.336 196.532 158.91 198.489
 158.273 200.052 c 157.621 201.614 156.684 202.79 155.418 203.571 c 154.164
 204.364 152.488 204.774 150.387 204.774 c 145.703 204.774 l 145.703 166.208
 l h
150.629 166.208 m f
Q Q
showpage
%%Trailer
end restore
%%EOF
