%!PS-Adobe-3.0 EPSF-3.0
%%Creator: cairo 1.14.2 (http://cairographics.org)
%%CreationDate: Thu Nov 30 08:05:32 2017
%%Pages: 1
%%DocumentData: Clean7Bit
%%LanguageLevel: 2
%%BoundingBox: 0 -1 308 308
%%EndComments
%%BeginProlog
save
50 dict begin
/q { gsave } bind def
/Q { grestore } bind def
/cm { 6 array astore concat } bind def
/w { setlinewidth } bind def
/J { setlinecap } bind def
/j { setlinejoin } bind def
/M { setmiterlimit } bind def
/d { setdash } bind def
/m { moveto } bind def
/l { lineto } bind def
/c { curveto } bind def
/h { closepath } bind def
/re { exch dup neg 3 1 roll 5 3 roll moveto 0 rlineto
      0 exch rlineto 0 rlineto closepath } bind def
/S { stroke } bind def
/f { fill } bind def
/f* { eofill } bind def
/n { newpath } bind def
/W { clip } bind def
/W* { eoclip } bind def
/BT { } bind def
/ET { } bind def
/pdfmark where { pop globaldict /?pdfmark /exec load put }
    { globaldict begin /?pdfmark /pop load def /pdfmark
    /cleartomark load def end } ifelse
/BDC { mark 3 1 roll /BDC pdfmark } bind def
/EMC { mark /EMC pdfmark } bind def
/cairo_store_point { /cairo_point_y exch def /cairo_point_x exch def } def
/Tj { show currentpoint cairo_store_point } bind def
/TJ {
  {
    dup
    type /stringtype eq
    { show } { -0.001 mul 0 cairo_font_matrix dtransform rmoveto } ifelse
  } forall
  currentpoint cairo_store_point
} bind def
/cairo_selectfont { cairo_font_matrix aload pop pop pop 0 0 6 array astore
    cairo_font exch selectfont cairo_point_x cairo_point_y moveto } bind def
/Tf { pop /cairo_font exch def /cairo_font_matrix where
      { pop cairo_selectfont } if } bind def
/Td { matrix translate cairo_font_matrix matrix concatmatrix dup
      /cairo_font_matrix exch def dup 4 get exch 5 get cairo_store_point
      /cairo_font where { pop cairo_selectfont } if } bind def
/Tm { 2 copy 8 2 roll 6 array astore /cairo_font_matrix exch def
      cairo_store_point /cairo_font where { pop cairo_selectfont } if } bind def
/g { setgray } bind def
/rg { setrgbcolor } bind def
/d1 { setcachedevice } bind def
%%EndProlog
%%BeginSetup
%%EndSetup
%%Page: 1 1
%%BeginPageSetup
%%PageBoundingBox: 0 -1 308 308
%%EndPageSetup
q 0 -1 308 309 rectclip q
0.937255 0.933333 0.933333 rg
57.602 300.802 m 300.801 300.802 l 300.801 83.2 l 224 6.399 l 57.602 6.399
 l h
57.602 300.802 m f
0.670588 g
224 83.2 m 300.801 83.2 l 224 6.399 l h
224 83.2 m f
0.796078 0.482353 0.160784 rg
6.398 236.802 204.801 -102.402 re f
0.00392157 g
51.199 307.2 m 51.199 243.2 l 0 243.2 l 0 128.001 l 51.199 128.001 l 51.199
 0.001 l 230.398 0.001 l 307.199 76.802 l 307.199 307.2 l h
12.801 230.399 m 204.801 230.399 l 204.801 140.802 l 12.801 140.802 l h
230.398 18.098 m 230.398 76.802 l 289.102 76.802 l h
294.398 89.598 m 217.602 89.598 l 217.602 12.802 l 64 12.802 l 64 128.001
 l 217.602 128.001 l 217.602 243.2 l 64 243.2 l 64 294.399 l 294.398 294.399
 l h
294.398 89.598 m f
58.395 212.915 m 61.211 212.915 63.566 212.442 65.496 211.493 c 67.43 210.548
 68.965 209.305 70.145 207.77 c 71.32 206.235 72.168 204.481 72.68 202.509
 c 73.176 200.552 73.445 198.528 73.445 196.481 c 73.445 193.665 73.023 
191.208 72.18 189.106 c 71.336 187.009 70.156 185.294 68.645 183.973 c 67.137
 182.641 65.305 181.634 63.156 180.977 c 61.004 180.325 58.625 179.97 56.012
 179.97 c 50.098 179.97 l 50.098 158.079 l 39.039 158.079 l 39.039 212.915
 l h
55.016 188.083 m 57.215 188.083 59.008 188.763 60.352 190.095 c 61.707 
191.423 62.387 193.497 62.387 196.313 c 62.387 199.079 61.797 201.177 60.621
 202.61 c 59.441 204.032 57.473 204.763 54.707 204.763 c 50.098 204.763 
l 50.098 188.083 l h
55.016 188.083 m f
105.934 212.927 m 108.75 212.927 111.105 212.442 113.035 211.493 c 114.969
 210.548 116.504 209.305 117.684 207.77 c 118.859 206.235 119.707 204.481
 120.219 202.509 c 120.719 200.552 120.984 198.528 120.984 196.481 c 120.984
 193.665 120.562 191.208 119.719 189.106 c 118.875 187.009 117.695 185.294
 116.188 183.973 c 114.676 182.641 112.844 181.634 110.695 180.977 c 108.543
 180.325 106.164 179.981 103.539 179.981 c 97.637 179.981 l 97.637 158.095
 l 86.578 158.095 l 86.578 212.927 l h
102.555 188.083 m 104.754 188.083 106.547 188.763 107.891 190.095 c 109.246
 191.423 109.926 193.497 109.926 196.313 c 109.926 199.079 109.336 201.177
 108.16 202.61 c 106.98 204.032 105.012 204.763 102.246 204.763 c 97.637
 204.763 l 97.637 188.083 l h
102.555 188.083 m f
166.223 203.852 m 154.238 203.852 l 154.238 158.079 l 143.18 158.079 l 
143.18 203.852 l 131.199 203.852 l 131.199 212.915 l 166.223 212.915 l h
166.223 203.852 m f
Q Q
showpage
%%Trailer
end restore
%%EOF
