%!PS-Adobe-3.0 EPSF-3.0
%%Creator: cairo 1.14.2 (http://cairographics.org)
%%CreationDate: Thu Nov 30 08:05:32 2017
%%Pages: 1
%%DocumentData: Clean7Bit
%%LanguageLevel: 3
%%BoundingBox: 0 -1 308 308
%%EndComments
%%BeginProlog
save
50 dict begin
/q { gsave } bind def
/Q { grestore } bind def
/cm { 6 array astore concat } bind def
/w { setlinewidth } bind def
/J { setlinecap } bind def
/j { setlinejoin } bind def
/M { setmiterlimit } bind def
/d { setdash } bind def
/m { moveto } bind def
/l { lineto } bind def
/c { curveto } bind def
/h { closepath } bind def
/re { exch dup neg 3 1 roll 5 3 roll moveto 0 rlineto
      0 exch rlineto 0 rlineto closepath } bind def
/S { stroke } bind def
/f { fill } bind def
/f* { eofill } bind def
/n { newpath } bind def
/W { clip } bind def
/W* { eoclip } bind def
/BT { } bind def
/ET { } bind def
/pdfmark where { pop globaldict /?pdfmark /exec load put }
    { globaldict begin /?pdfmark /pop load def /pdfmark
    /cleartomark load def end } ifelse
/BDC { mark 3 1 roll /BDC pdfmark } bind def
/EMC { mark /EMC pdfmark } bind def
/cairo_store_point { /cairo_point_y exch def /cairo_point_x exch def } def
/Tj { show currentpoint cairo_store_point } bind def
/TJ {
  {
    dup
    type /stringtype eq
    { show } { -0.001 mul 0 cairo_font_matrix dtransform rmoveto } ifelse
  } forall
  currentpoint cairo_store_point
} bind def
/cairo_selectfont { cairo_font_matrix aload pop pop pop 0 0 6 array astore
    cairo_font exch selectfont cairo_point_x cairo_point_y moveto } bind def
/Tf { pop /cairo_font exch def /cairo_font_matrix where
      { pop cairo_selectfont } if } bind def
/Td { matrix translate cairo_font_matrix matrix concatmatrix dup
      /cairo_font_matrix exch def dup 4 get exch 5 get cairo_store_point
      /cairo_font where { pop cairo_selectfont } if } bind def
/Tm { 2 copy 8 2 roll 6 array astore /cairo_font_matrix exch def
      cairo_store_point /cairo_font where { pop cairo_selectfont } if } bind def
/g { setgray } bind def
/rg { setrgbcolor } bind def
/d1 { setcachedevice } bind def
%%EndProlog
%%BeginSetup
%%EndSetup
%%Page: 1 1
%%BeginPageSetup
%%PageBoundingBox: 0 -1 308 308
%%EndPageSetup
q 0 -1 308 309 rectclip q
q
57.602 300.802 m 300.801 300.802 l 300.801 83.2 l 224 6.399 l 57.602 6.399
 l h
57.602 300.802 m W n
[6.4 0 0 6.4 677.6 -3242.399988] concat
/CairoFunction
   << /FunctionType 2
      /Domain [ 0 1 ]
      /C0 [ 0.937255 0.933333 0.933333 ]
      /C1 [ 0.870588 0.870588 0.866667 ]
      /N 1
   >>
def
   << /ShadingType 2
      /ColorSpace /DeviceRGB
      /Coords [ 2.825 449.924988 31.785 420.964996 ]
      /Extend [ true true ]
      /Function CairoFunction
   >>
shfill
Q
0.670588 g
224 83.2 m 300.801 83.2 l 224 6.399 l h
224 83.2 m f
0.796078 0.337255 0.254902 rg
6.398 236.802 204.801 -102.402 re f
0.00392157 g
51.199 307.2 m 51.199 243.2 l 0 243.2 l 0 128.001 l 51.199 128.001 l 51.199
 0.001 l 230.398 0.001 l 307.199 76.802 l 307.199 307.2 l h
12.801 230.399 m 204.801 230.399 l 204.801 140.802 l 12.801 140.802 l h
230.398 18.098 m 230.398 76.802 l 289.102 76.802 l h
294.398 89.598 m 217.602 89.598 l 217.602 12.802 l 64 12.802 l 64 128.001
 l 217.602 128.001 l 217.602 243.2 l 64 243.2 l 64 294.399 l 294.398 294.399
 l h
294.398 89.598 m f
58.395 212.915 m 61.211 212.915 63.566 212.442 65.496 211.493 c 67.43 210.548
 68.965 209.305 70.145 207.77 c 71.32 206.235 72.168 204.481 72.68 202.509
 c 73.176 200.552 73.445 198.528 73.445 196.481 c 73.445 193.665 73.023 
191.208 72.18 189.106 c 71.336 187.009 70.156 185.294 68.645 183.973 c 67.137
 182.641 65.305 181.634 63.156 180.977 c 61.004 180.325 58.625 179.97 56.012
 179.97 c 50.098 179.97 l 50.098 158.079 l 39.039 158.079 l 39.039 212.915
 l h
55.016 188.083 m 57.215 188.083 59.008 188.763 60.352 190.095 c 61.707 
191.423 62.387 193.497 62.387 196.313 c 62.387 199.079 61.797 201.177 60.621
 202.61 c 59.441 204.032 57.473 204.763 54.707 204.763 c 50.098 204.763 
l 50.098 188.083 l h
55.016 188.083 m f
112.691 175.348 m 112.859 175.348 l 112.859 212.915 l 122.996 212.915 l
 122.996 158.079 l 110.398 158.079 l 96.883 196.481 l 96.719 196.481 l 96.719
 158.079 l 86.578 158.079 l 86.578 212.915 l 99.328 212.915 l h
112.691 175.348 m f
162.344 199.77 m 162.113 200.845 161.742 201.829 161.23 202.727 c 160.719
 203.61 160.062 204.364 159.281 204.954 c 158.488 205.544 157.516 205.837
 156.391 205.837 c 153.727 205.837 151.82 204.352 150.629 201.368 c 149.453
 198.411 148.863 193.485 148.863 186.638 c 148.863 183.348 148.965 180.391
 149.172 177.727 c 149.375 175.067 149.746 172.802 150.285 170.93 c 150.824
 169.063 151.59 167.63 152.59 166.63 c 153.586 165.634 154.879 165.134 156.469
 165.134 c 157.145 165.134 157.863 165.325 158.668 165.669 c 159.461 166.028
 160.191 166.567 160.895 167.282 c 161.586 168.013 162.164 168.907 162.625
 170.009 c 163.086 171.11 163.316 172.415 163.316 173.899 c 163.316 179.509
 l 156.031 179.509 l 156.031 187.649 l 173.914 187.649 l 173.914 158.079
 l 165.762 158.079 l 165.762 163.149 l 165.605 163.149 l 164.273 160.985
 162.676 159.473 160.805 158.579 c 158.938 157.684 156.699 157.235 154.086
 157.235 c 150.707 157.235 147.957 157.837 145.816 159.013 c 143.68 160.192
 142.027 161.997 140.824 164.466 c 139.621 166.938 138.816 169.958 138.418
 173.567 c 138.008 177.177 137.793 181.364 137.793 186.126 c 137.793 190.72
 138.086 194.778 138.676 198.247 c 139.266 201.727 140.273 204.634 141.707
 206.977 c 143.129 209.305 145.035 211.048 147.379 212.235 c 149.746 213.415
 152.68 214.005 156.211 214.005 c 162.254 214.005 166.605 212.505 169.266
 209.497 c 171.93 206.516 173.262 202.227 173.262 196.634 c 162.688 196.634
 l 162.688 197.645 162.574 198.696 162.344 199.77 c h
162.344 199.77 m f
Q Q
showpage
%%Trailer
end restore
%%EOF
