%!PS-Adobe-3.0 EPSF-3.0
%%Creator: cairo 1.14.2 (http://cairographics.org)
%%CreationDate: Thu Nov 30 08:05:32 2017
%%Pages: 1
%%DocumentData: Clean7Bit
%%LanguageLevel: 3
%%BoundingBox: 0 -1 308 308
%%EndComments
%%BeginProlog
save
50 dict begin
/q { gsave } bind def
/Q { grestore } bind def
/cm { 6 array astore concat } bind def
/w { setlinewidth } bind def
/J { setlinecap } bind def
/j { setlinejoin } bind def
/M { setmiterlimit } bind def
/d { setdash } bind def
/m { moveto } bind def
/l { lineto } bind def
/c { curveto } bind def
/h { closepath } bind def
/re { exch dup neg 3 1 roll 5 3 roll moveto 0 rlineto
      0 exch rlineto 0 rlineto closepath } bind def
/S { stroke } bind def
/f { fill } bind def
/f* { eofill } bind def
/n { newpath } bind def
/W { clip } bind def
/W* { eoclip } bind def
/BT { } bind def
/ET { } bind def
/pdfmark where { pop globaldict /?pdfmark /exec load put }
    { globaldict begin /?pdfmark /pop load def /pdfmark
    /cleartomark load def end } ifelse
/BDC { mark 3 1 roll /BDC pdfmark } bind def
/EMC { mark /EMC pdfmark } bind def
/cairo_store_point { /cairo_point_y exch def /cairo_point_x exch def } def
/Tj { show currentpoint cairo_store_point } bind def
/TJ {
  {
    dup
    type /stringtype eq
    { show } { -0.001 mul 0 cairo_font_matrix dtransform rmoveto } ifelse
  } forall
  currentpoint cairo_store_point
} bind def
/cairo_selectfont { cairo_font_matrix aload pop pop pop 0 0 6 array astore
    cairo_font exch selectfont cairo_point_x cairo_point_y moveto } bind def
/Tf { pop /cairo_font exch def /cairo_font_matrix where
      { pop cairo_selectfont } if } bind def
/Td { matrix translate cairo_font_matrix matrix concatmatrix dup
      /cairo_font_matrix exch def dup 4 get exch 5 get cairo_store_point
      /cairo_font where { pop cairo_selectfont } if } bind def
/Tm { 2 copy 8 2 roll 6 array astore /cairo_font_matrix exch def
      cairo_store_point /cairo_font where { pop cairo_selectfont } if } bind def
/g { setgray } bind def
/rg { setrgbcolor } bind def
/d1 { setcachedevice } bind def
%%EndProlog
%%BeginSetup
%%EndSetup
%%Page: 1 1
%%BeginPageSetup
%%PageBoundingBox: 0 -1 308 308
%%EndPageSetup
q 0 -1 308 309 rectclip q
q
57.602 300.802 m 300.801 300.802 l 300.801 83.2 l 224 6.399 l 57.602 6.399
 l h
57.602 300.802 m W n
[6.4 0 0 6.4 677.6 -3242.399988] concat
/CairoFunction
   << /FunctionType 2
      /Domain [ 0 1 ]
      /C0 [ 0.937255 0.933333 0.933333 ]
      /C1 [ 0.870588 0.870588 0.866667 ]
      /N 1
   >>
def
   << /ShadingType 2
      /ColorSpace /DeviceRGB
      /Coords [ 2.825 449.924988 31.785 420.964996 ]
      /Extend [ true true ]
      /Function CairoFunction
   >>
shfill
Q
0.670588 g
224 83.2 m 300.801 83.2 l 224 6.399 l h
224 83.2 m f
0.796078 0.337255 0.254902 rg
6.398 236.802 204.801 -102.402 re f
0.00392157 g
51.199 307.2 m 51.199 243.2 l 0 243.2 l 0 128.001 l 51.199 128.001 l 51.199
 0.001 l 230.398 0.001 l 307.199 76.802 l 307.199 307.2 l h
12.801 230.399 m 204.801 230.399 l 204.801 140.802 l 12.801 140.802 l h
230.398 18.098 m 230.398 76.802 l 289.102 76.802 l h
294.398 89.598 m 217.602 89.598 l 217.602 12.802 l 64 12.802 l 64 128.001
 l 217.602 128.001 l 217.602 243.2 l 64 243.2 l 64 294.399 l 294.398 294.399
 l h
294.398 89.598 m f
1 g
58.395 212.915 m 61.211 212.915 63.566 212.442 65.496 211.493 c 67.43 210.548
 68.965 209.305 70.145 207.77 c 71.32 206.235 72.168 204.481 72.68 202.509
 c 73.176 200.552 73.445 198.528 73.445 196.481 c 73.445 193.665 73.023 
191.208 72.18 189.106 c 71.336 187.009 70.156 185.294 68.645 183.973 c 67.137
 182.641 65.305 181.634 63.156 180.977 c 61.004 180.325 58.625 179.97 56.012
 179.97 c 50.098 179.97 l 50.098 158.079 l 39.039 158.079 l 39.039 212.915
 l h
55.016 188.083 m 57.215 188.083 59.008 188.763 60.352 190.095 c 61.707 
191.423 62.387 193.497 62.387 196.313 c 62.387 199.079 61.797 201.177 60.621
 202.61 c 59.441 204.032 57.473 204.763 54.707 204.763 c 50.098 204.763 
l 50.098 188.083 l h
55.016 188.083 m f
105.242 212.927 m 109.094 212.927 112.18 212.29 114.547 211.032 c 116.902
 209.778 118.734 208.001 120.039 205.657 c 121.355 203.329 122.227 200.536
 122.688 197.247 c 123.148 193.97 123.379 190.309 123.379 186.278 c 123.379
 181.466 123.098 177.278 122.508 173.723 c 121.922 170.177 120.91 167.231
 119.477 164.927 c 118.043 162.61 116.121 160.907 113.715 159.782 c 111.309
 158.657 108.262 158.095 104.574 158.095 c 87.117 158.095 l 87.117 212.927
 l h
103.09 166.208 m 105.035 166.208 106.598 166.54 107.777 167.208 c 108.953
 167.872 109.887 168.973 110.578 170.509 c 111.281 172.044 111.742 174.067
 111.961 176.591 c 112.191 179.087 112.309 182.208 112.309 185.946 c 112.309
 189.067 112.191 191.809 112 194.177 c 111.797 196.532 111.371 198.489 110.734
 200.052 c 110.078 201.614 109.145 202.79 107.879 203.571 c 106.625 204.364
 104.945 204.774 102.848 204.774 c 98.176 204.774 l 98.176 166.208 l h
103.09 166.208 m f
168.984 212.915 m 168.984 203.852 l 149.402 203.852 l 149.402 190.95 l 
167.832 190.95 l 167.832 181.888 l 149.402 181.888 l 149.402 158.079 l 138.344
 158.079 l 138.344 212.915 l h
168.984 212.915 m f
Q Q
showpage
%%Trailer
end restore
%%EOF
