%!PS-Adobe-3.0 EPSF-3.0
%%Creator: cairo 1.14.2 (http://cairographics.org)
%%CreationDate: Thu Nov 30 08:05:32 2017
%%Pages: 1
%%DocumentData: Clean7Bit
%%LanguageLevel: 2
%%BoundingBox: 0 -1 308 308
%%EndComments
%%BeginProlog
save
50 dict begin
/q { gsave } bind def
/Q { grestore } bind def
/cm { 6 array astore concat } bind def
/w { setlinewidth } bind def
/J { setlinecap } bind def
/j { setlinejoin } bind def
/M { setmiterlimit } bind def
/d { setdash } bind def
/m { moveto } bind def
/l { lineto } bind def
/c { curveto } bind def
/h { closepath } bind def
/re { exch dup neg 3 1 roll 5 3 roll moveto 0 rlineto
      0 exch rlineto 0 rlineto closepath } bind def
/S { stroke } bind def
/f { fill } bind def
/f* { eofill } bind def
/n { newpath } bind def
/W { clip } bind def
/W* { eoclip } bind def
/BT { } bind def
/ET { } bind def
/pdfmark where { pop globaldict /?pdfmark /exec load put }
    { globaldict begin /?pdfmark /pop load def /pdfmark
    /cleartomark load def end } ifelse
/BDC { mark 3 1 roll /BDC pdfmark } bind def
/EMC { mark /EMC pdfmark } bind def
/cairo_store_point { /cairo_point_y exch def /cairo_point_x exch def } def
/Tj { show currentpoint cairo_store_point } bind def
/TJ {
  {
    dup
    type /stringtype eq
    { show } { -0.001 mul 0 cairo_font_matrix dtransform rmoveto } ifelse
  } forall
  currentpoint cairo_store_point
} bind def
/cairo_selectfont { cairo_font_matrix aload pop pop pop 0 0 6 array astore
    cairo_font exch selectfont cairo_point_x cairo_point_y moveto } bind def
/Tf { pop /cairo_font exch def /cairo_font_matrix where
      { pop cairo_selectfont } if } bind def
/Td { matrix translate cairo_font_matrix matrix concatmatrix dup
      /cairo_font_matrix exch def dup 4 get exch 5 get cairo_store_point
      /cairo_font where { pop cairo_selectfont } if } bind def
/Tm { 2 copy 8 2 roll 6 array astore /cairo_font_matrix exch def
      cairo_store_point /cairo_font where { pop cairo_selectfont } if } bind def
/g { setgray } bind def
/rg { setrgbcolor } bind def
/d1 { setcachedevice } bind def
%%EndProlog
%%BeginSetup
%%EndSetup
%%Page: 1 1
%%BeginPageSetup
%%PageBoundingBox: 0 -1 308 308
%%EndPageSetup
q 0 -1 308 309 rectclip q
0.937255 0.933333 0.933333 rg
57.602 300.802 m 300.801 300.802 l 300.801 83.2 l 224 6.399 l 57.602 6.399
 l h
57.602 300.802 m f
0.670588 g
224 83.2 m 300.801 83.2 l 224 6.399 l h
224 83.2 m f
0.32549 0.603922 0.831373 rg
6.398 236.802 204.801 -102.402 re f
0.00392157 g
51.199 307.2 m 51.199 243.2 l 0 243.2 l 0 128.001 l 51.199 128.001 l 51.199
 0.001 l 230.398 0.001 l 307.199 76.802 l 307.199 307.2 l h
12.801 230.399 m 204.801 230.399 l 204.801 140.802 l 12.801 140.802 l h
230.398 18.098 m 230.398 76.802 l 289.102 76.802 l h
294.398 89.598 m 217.602 89.598 l 217.602 12.802 l 64 12.802 l 64 128.001
 l 217.602 128.001 l 217.602 243.2 l 64 243.2 l 64 294.399 l 294.398 294.399
 l h
294.398 89.598 m f
1 g
38.465 196.977 m 38.848 200.473 39.707 203.493 41 206.005 c 42.316 208.501
 44.188 210.47 46.645 211.88 c 49.09 213.274 52.402 213.989 56.539 213.989
 c 60.684 213.989 63.988 213.274 66.445 211.88 c 68.891 210.47 70.785 208.501
 72.078 206.005 c 73.395 203.493 74.227 200.473 74.609 196.977 c 74.996 
193.473 75.188 189.645 75.188 185.497 c 75.188 181.313 74.996 177.458 74.609
 173.989 c 74.227 170.509 73.383 167.513 72.078 165.005 c 70.77 162.497 
68.891 160.575 66.445 159.243 c 64 157.899 60.699 157.223 56.551 157.223
 c 52.414 157.223 49.102 157.899 46.656 159.22 c 44.199 160.552 42.316 162.47
 41.012 164.977 c 39.707 167.489 38.859 170.481 38.477 173.966 c 38.105 
177.434 37.902 181.286 37.902 185.473 c 37.887 189.634 38.094 193.458 38.465
 196.977 c h
49.23 176.091 m 49.406 173.505 49.766 171.403 50.305 169.794 c 50.84 168.18
 51.609 167.001 52.609 166.259 c 53.605 165.516 54.926 165.145 56.562 165.145
 c 58.203 165.145 59.52 165.516 60.531 166.259 c 61.531 167.013 62.297 168.18
 62.836 169.794 c 63.371 171.403 63.73 173.505 63.91 176.091 c 64.09 178.677
 64.18 181.798 64.18 185.485 c 64.18 189.173 64.078 192.294 63.91 194.856
 c 63.742 197.415 63.371 199.513 62.836 201.153 c 62.297 202.79 61.531 203.981
 60.531 204.712 c 59.531 205.466 58.203 205.837 56.562 205.837 c 54.926 
205.837 53.621 205.466 52.609 204.712 c 51.609 203.97 50.84 202.79 50.305
 201.153 c 49.766 199.513 49.406 197.415 49.23 194.856 c 49.035 192.294 
48.961 189.173 48.961 185.485 c 48.961 181.798 49.035 178.677 49.23 176.091
 c h
49.23 176.091 m f
121.523 203.852 m 109.543 203.852 l 109.543 158.079 l 98.484 158.079 l 
98.484 203.852 l 86.504 203.852 l 86.504 212.915 l 121.523 212.915 l h
121.523 203.852 m f
164.609 212.915 m 164.609 203.852 l 145.023 203.852 l 145.023 190.95 l 
163.457 190.95 l 163.457 181.888 l 145.023 181.888 l 145.023 158.079 l 133.965
 158.079 l 133.965 212.915 l h
164.609 212.915 m f
Q Q
showpage
%%Trailer
end restore
%%EOF
