%!PS-Adobe-3.0 EPSF-3.0
%%Creator: cairo 1.14.2 (http://cairographics.org)
%%CreationDate: Thu Nov 30 08:05:32 2017
%%Pages: 1
%%DocumentData: Clean7Bit
%%LanguageLevel: 3
%%BoundingBox: 0 -1 308 308
%%EndComments
%%BeginProlog
save
50 dict begin
/q { gsave } bind def
/Q { grestore } bind def
/cm { 6 array astore concat } bind def
/w { setlinewidth } bind def
/J { setlinecap } bind def
/j { setlinejoin } bind def
/M { setmiterlimit } bind def
/d { setdash } bind def
/m { moveto } bind def
/l { lineto } bind def
/c { curveto } bind def
/h { closepath } bind def
/re { exch dup neg 3 1 roll 5 3 roll moveto 0 rlineto
      0 exch rlineto 0 rlineto closepath } bind def
/S { stroke } bind def
/f { fill } bind def
/f* { eofill } bind def
/n { newpath } bind def
/W { clip } bind def
/W* { eoclip } bind def
/BT { } bind def
/ET { } bind def
/pdfmark where { pop globaldict /?pdfmark /exec load put }
    { globaldict begin /?pdfmark /pop load def /pdfmark
    /cleartomark load def end } ifelse
/BDC { mark 3 1 roll /BDC pdfmark } bind def
/EMC { mark /EMC pdfmark } bind def
/cairo_store_point { /cairo_point_y exch def /cairo_point_x exch def } def
/Tj { show currentpoint cairo_store_point } bind def
/TJ {
  {
    dup
    type /stringtype eq
    { show } { -0.001 mul 0 cairo_font_matrix dtransform rmoveto } ifelse
  } forall
  currentpoint cairo_store_point
} bind def
/cairo_selectfont { cairo_font_matrix aload pop pop pop 0 0 6 array astore
    cairo_font exch selectfont cairo_point_x cairo_point_y moveto } bind def
/Tf { pop /cairo_font exch def /cairo_font_matrix where
      { pop cairo_selectfont } if } bind def
/Td { matrix translate cairo_font_matrix matrix concatmatrix dup
      /cairo_font_matrix exch def dup 4 get exch 5 get cairo_store_point
      /cairo_font where { pop cairo_selectfont } if } bind def
/Tm { 2 copy 8 2 roll 6 array astore /cairo_font_matrix exch def
      cairo_store_point /cairo_font where { pop cairo_selectfont } if } bind def
/g { setgray } bind def
/rg { setrgbcolor } bind def
/d1 { setcachedevice } bind def
%%EndProlog
%%BeginSetup
%%EndSetup
%%Page: 1 1
%%BeginPageSetup
%%PageBoundingBox: 0 -1 308 308
%%EndPageSetup
q 0 -1 308 309 rectclip q
q
57.602 300.802 m 300.801 300.802 l 300.801 83.2 l 224 6.399 l 57.602 6.399
 l h
57.602 300.802 m W n
[6.4 0 0 6.4 632.8 -3299.999988] concat
/CairoFunction
   << /FunctionType 2
      /Domain [ 0 1 ]
      /C0 [ 0.937255 0.933333 0.933333 ]
      /C1 [ 0.870588 0.870588 0.866667 ]
      /N 1
   >>
def
   << /ShadingType 2
      /ColorSpace /DeviceRGB
      /Coords [ 9.825 458.924988 38.785 429.964996 ]
      /Extend [ true true ]
      /Function CairoFunction
   >>
shfill
Q
0.670588 g
224 83.2 m 300.801 83.2 l 224 6.399 l h
224 83.2 m f
0.184314 0.180392 0.486275 rg
6.398 236.802 204.801 -102.402 re f
0.00392157 g
51.199 307.2 m 51.199 243.2 l 0 243.2 l 0 128.001 l 51.199 128.001 l 51.199
 0.001 l 230.398 0.001 l 307.199 76.802 l 307.199 307.2 l h
12.801 230.399 m 204.801 230.399 l 204.801 140.802 l 12.801 140.802 l h
230.398 18.098 m 230.398 76.802 l 289.102 76.802 l h
294.398 89.598 m 217.602 89.598 l 217.602 12.802 l 64 12.802 l 64 128.001
 l 217.602 128.001 l 217.602 243.2 l 64 243.2 l 64 294.399 l 294.398 294.399
 l h
294.398 89.598 m f
1 g
48.332 212.915 m 56.168 174.208 l 56.32 174.208 l 64.23 212.915 l 80.59
 212.915 l 80.59 158.079 l 70.453 158.079 l 70.453 201.856 l 70.297 201.856
 l 60.543 158.079 l 51.957 158.079 l 42.203 201.856 l 42.035 201.856 l 42.035
 158.079 l 31.898 158.079 l 31.898 212.915 l h
48.332 212.915 m f
110.926 212.927 m 113.754 212.927 116.109 212.442 118.043 211.493 c 119.949
 210.548 121.512 209.305 122.676 207.77 c 123.84 206.235 124.699 204.481
 125.223 202.509 c 125.723 200.552 125.977 198.528 125.977 196.481 c 125.977
 193.665 125.566 191.208 124.723 189.106 c 123.879 187.009 122.699 185.294
 121.176 183.973 c 119.68 182.641 117.848 181.634 115.699 180.977 c 113.547
 180.325 111.168 179.981 108.543 179.981 c 102.629 179.981 l 102.629 158.095
 l 91.57 158.095 l 91.57 212.927 l h
107.547 188.083 m 109.746 188.083 111.527 188.763 112.883 190.095 c 114.238
 191.423 114.918 193.497 114.918 196.313 c 114.918 199.079 114.328 201.177
 113.141 202.61 c 111.961 204.032 110.004 204.763 107.238 204.763 c 102.629
 204.763 l 102.629 188.083 l h
107.547 188.083 m f
158.504 199.77 m 158.273 200.845 157.902 201.829 157.391 202.727 c 156.875
 203.61 156.223 204.364 155.43 204.954 c 154.637 205.544 153.676 205.837
 152.551 205.837 c 149.887 205.837 147.98 204.352 146.789 201.368 c 145.613
 198.411 145.023 193.485 145.023 186.638 c 145.023 183.348 145.125 180.391
 145.32 177.727 c 145.535 175.067 145.895 172.802 146.445 170.93 c 146.969
 169.063 147.75 167.63 148.75 166.63 c 149.746 165.634 151.039 165.134 152.629
 165.134 c 153.305 165.134 154.023 165.325 154.828 165.669 c 155.609 166.028
 156.352 166.567 157.055 167.282 c 157.746 168.013 158.324 168.907 158.785
 170.009 c 159.23 171.11 159.477 172.415 159.477 173.899 c 159.477 179.509
 l 152.191 179.509 l 152.191 187.649 l 170.074 187.649 l 170.074 158.079
 l 161.922 158.079 l 161.922 163.149 l 161.766 163.149 l 160.434 160.985
 158.836 159.473 156.965 158.579 c 155.098 157.684 152.844 157.235 150.246
 157.235 c 146.867 157.235 144.113 157.837 141.977 159.013 c 139.84 160.192
 138.188 161.997 136.984 164.466 c 135.781 166.938 134.977 169.958 134.566
 173.567 c 134.168 177.177 133.953 181.364 133.953 186.126 c 133.953 190.72
 134.234 194.778 134.836 198.247 c 135.426 201.727 136.434 204.634 137.855
 206.977 c 139.289 209.305 141.184 211.048 143.539 212.235 c 145.906 213.415
 148.84 214.005 152.371 214.005 c 158.414 214.005 162.766 212.505 165.426
 209.497 c 168.09 206.516 169.422 202.227 169.422 196.634 c 158.848 196.634
 l 158.848 197.645 158.719 198.696 158.504 199.77 c h
158.504 199.77 m f
Q Q
showpage
%%Trailer
end restore
%%EOF
