%!PS-Adobe-3.0 EPSF-3.0
%%Creator: cairo 1.14.2 (http://cairographics.org)
%%CreationDate: Thu Nov 30 08:05:32 2017
%%Pages: 1
%%DocumentData: Clean7Bit
%%LanguageLevel: 3
%%BoundingBox: 0 -1 308 308
%%EndComments
%%BeginProlog
save
50 dict begin
/q { gsave } bind def
/Q { grestore } bind def
/cm { 6 array astore concat } bind def
/w { setlinewidth } bind def
/J { setlinecap } bind def
/j { setlinejoin } bind def
/M { setmiterlimit } bind def
/d { setdash } bind def
/m { moveto } bind def
/l { lineto } bind def
/c { curveto } bind def
/h { closepath } bind def
/re { exch dup neg 3 1 roll 5 3 roll moveto 0 rlineto
      0 exch rlineto 0 rlineto closepath } bind def
/S { stroke } bind def
/f { fill } bind def
/f* { eofill } bind def
/n { newpath } bind def
/W { clip } bind def
/W* { eoclip } bind def
/BT { } bind def
/ET { } bind def
/pdfmark where { pop globaldict /?pdfmark /exec load put }
    { globaldict begin /?pdfmark /pop load def /pdfmark
    /cleartomark load def end } ifelse
/BDC { mark 3 1 roll /BDC pdfmark } bind def
/EMC { mark /EMC pdfmark } bind def
/cairo_store_point { /cairo_point_y exch def /cairo_point_x exch def } def
/Tj { show currentpoint cairo_store_point } bind def
/TJ {
  {
    dup
    type /stringtype eq
    { show } { -0.001 mul 0 cairo_font_matrix dtransform rmoveto } ifelse
  } forall
  currentpoint cairo_store_point
} bind def
/cairo_selectfont { cairo_font_matrix aload pop pop pop 0 0 6 array astore
    cairo_font exch selectfont cairo_point_x cairo_point_y moveto } bind def
/Tf { pop /cairo_font exch def /cairo_font_matrix where
      { pop cairo_selectfont } if } bind def
/Td { matrix translate cairo_font_matrix matrix concatmatrix dup
      /cairo_font_matrix exch def dup 4 get exch 5 get cairo_store_point
      /cairo_font where { pop cairo_selectfont } if } bind def
/Tm { 2 copy 8 2 roll 6 array astore /cairo_font_matrix exch def
      cairo_store_point /cairo_font where { pop cairo_selectfont } if } bind def
/g { setgray } bind def
/rg { setrgbcolor } bind def
/d1 { setcachedevice } bind def
%%EndProlog
%%BeginSetup
%%EndSetup
%%Page: 1 1
%%BeginPageSetup
%%PageBoundingBox: 0 -1 308 308
%%EndPageSetup
q 0 -1 308 309 rectclip q
q
57.602 300.802 m 300.801 300.802 l 300.801 83.2 l 224 6.399 l 57.602 6.399
 l h
57.602 300.802 m W n
[6.4 0 0 6.4 632.8 -3299.999988] concat
/CairoFunction
   << /FunctionType 2
      /Domain [ 0 1 ]
      /C0 [ 0.937255 0.933333 0.933333 ]
      /C1 [ 0.870588 0.870588 0.866667 ]
      /N 1
   >>
def
   << /ShadingType 2
      /ColorSpace /DeviceRGB
      /Coords [ 9.8111 458.911102 38.771099 429.941101 ]
      /Extend [ true true ]
      /Function CairoFunction
   >>
shfill
Q
0.670588 g
224 83.2 m 300.801 83.2 l 224 6.399 l h
224 83.2 m f
0.227451 0.227451 0.223529 rg
6.398 236.802 204.801 -102.402 re f
0.00392157 g
51.199 307.2 m 51.199 243.2 l 0 243.2 l 0 128.001 l 51.199 128.001 l 51.199
 0.001 l 230.398 0.001 l 307.199 76.802 l 307.199 307.2 l h
12.801 230.399 m 204.801 230.399 l 204.801 140.802 l 12.801 140.802 l h
230.398 18.11 m 230.398 76.802 l 289.102 76.802 l h
294.398 89.598 m 217.602 89.598 l 217.602 12.802 l 64 12.802 l 64 128.001
 l 217.602 128.001 l 217.602 243.2 l 64 243.2 l 64 294.399 l 294.398 294.399
 l h
294.398 89.598 m f
1 g
55.719 212.915 m 63.551 174.208 l 63.707 174.208 l 71.617 212.915 l 87.973
 212.915 l 87.973 158.079 l 77.824 158.079 l 77.824 201.856 l 77.672 201.856
 l 67.918 158.079 l 59.328 158.079 l 49.574 201.856 l 49.406 201.856 l 49.406
 158.079 l 39.27 158.079 l 39.27 212.915 l h
55.719 212.915 m f
116.773 212.927 m 119.578 212.927 121.945 212.442 123.879 211.493 c 125.812
 210.548 127.348 209.305 128.523 207.77 c 129.703 206.235 130.547 204.481
 131.047 202.509 c 131.559 200.552 131.828 198.528 131.828 196.481 c 131.828
 193.665 131.406 191.208 130.547 189.106 c 129.715 187.009 128.523 185.294
 127.027 183.973 c 125.516 182.641 123.672 181.634 121.523 180.977 c 119.371
 180.325 116.992 179.981 114.379 179.981 c 108.469 179.981 l 108.469 158.095
 l 97.406 158.095 l 97.406 212.927 l h
113.383 188.095 m 115.586 188.095 117.375 188.774 118.719 190.106 c 120.062
 191.438 120.754 193.509 120.754 196.325 c 120.754 199.091 120.168 201.192
 118.988 202.626 c 117.812 204.044 115.84 204.774 113.062 204.774 c 108.469
 204.774 l 108.469 188.095 l h
113.383 188.095 m f
154.098 212.454 m 165.543 212.454 l 165.543 177.97 l 170.754 177.97 l 170.754
 169.368 l 165.543 169.368 l 165.543 158.079 l 155.406 158.079 l 155.406
 169.368 l 136.051 169.368 l 136.051 178.43 l h
155.25 198.63 m 144.652 177.97 l 155.406 177.97 l 155.406 198.63 l h
155.25 198.63 m f
Q Q
showpage
%%Trailer
end restore
%%EOF
