%!PS-Adobe-3.0 EPSF-3.0
%%Creator: cairo 1.14.2 (http://cairographics.org)
%%CreationDate: Thu Nov 30 08:05:32 2017
%%Pages: 1
%%DocumentData: Clean7Bit
%%LanguageLevel: 3
%%BoundingBox: 0 -1 308 308
%%EndComments
%%BeginProlog
save
50 dict begin
/q { gsave } bind def
/Q { grestore } bind def
/cm { 6 array astore concat } bind def
/w { setlinewidth } bind def
/J { setlinecap } bind def
/j { setlinejoin } bind def
/M { setmiterlimit } bind def
/d { setdash } bind def
/m { moveto } bind def
/l { lineto } bind def
/c { curveto } bind def
/h { closepath } bind def
/re { exch dup neg 3 1 roll 5 3 roll moveto 0 rlineto
      0 exch rlineto 0 rlineto closepath } bind def
/S { stroke } bind def
/f { fill } bind def
/f* { eofill } bind def
/n { newpath } bind def
/W { clip } bind def
/W* { eoclip } bind def
/BT { } bind def
/ET { } bind def
/pdfmark where { pop globaldict /?pdfmark /exec load put }
    { globaldict begin /?pdfmark /pop load def /pdfmark
    /cleartomark load def end } ifelse
/BDC { mark 3 1 roll /BDC pdfmark } bind def
/EMC { mark /EMC pdfmark } bind def
/cairo_store_point { /cairo_point_y exch def /cairo_point_x exch def } def
/Tj { show currentpoint cairo_store_point } bind def
/TJ {
  {
    dup
    type /stringtype eq
    { show } { -0.001 mul 0 cairo_font_matrix dtransform rmoveto } ifelse
  } forall
  currentpoint cairo_store_point
} bind def
/cairo_selectfont { cairo_font_matrix aload pop pop pop 0 0 6 array astore
    cairo_font exch selectfont cairo_point_x cairo_point_y moveto } bind def
/Tf { pop /cairo_font exch def /cairo_font_matrix where
      { pop cairo_selectfont } if } bind def
/Td { matrix translate cairo_font_matrix matrix concatmatrix dup
      /cairo_font_matrix exch def dup 4 get exch 5 get cairo_store_point
      /cairo_font where { pop cairo_selectfont } if } bind def
/Tm { 2 copy 8 2 roll 6 array astore /cairo_font_matrix exch def
      cairo_store_point /cairo_font where { pop cairo_selectfont } if } bind def
/g { setgray } bind def
/rg { setrgbcolor } bind def
/d1 { setcachedevice } bind def
%%EndProlog
%%BeginSetup
%%EndSetup
%%Page: 1 1
%%BeginPageSetup
%%PageBoundingBox: 0 -1 308 308
%%EndPageSetup
q 0 -1 308 309 rectclip q
q
57.602 300.802 m 300.801 300.802 l 300.801 83.2 l 224 6.399 l 57.602 6.399
 l h
57.602 300.802 m W n
[6.4 0 0 6.4 677.6 -3242.399988] concat
/CairoFunction
   << /FunctionType 2
      /Domain [ 0 1 ]
      /C0 [ 0.937255 0.933333 0.933333 ]
      /C1 [ 0.870588 0.870588 0.866667 ]
      /N 1
   >>
def
   << /ShadingType 2
      /ColorSpace /DeviceRGB
      /Coords [ 2.8389 449.938904 31.808901 420.978912 ]
      /Extend [ true true ]
      /Function CairoFunction
   >>
shfill
Q
0.670588 g
224 83.2 m 300.801 83.2 l 224 6.399 l h
224 83.2 m f
0.321569 0.486275 0.639216 rg
6.398 236.802 204.801 -102.402 re f
0.00392157 g
51.199 307.2 m 51.199 243.2 l 0 243.2 l 0 128.001 l 51.199 128.001 l 51.199
 0.001 l 230.398 0.001 l 307.199 76.802 l 307.199 307.2 l h
12.801 230.399 m 204.801 230.399 l 204.801 140.802 l 12.801 140.802 l h
230.398 18.098 m 230.398 76.802 l 289.102 76.802 l h
294.398 89.598 m 217.602 89.598 l 217.602 12.802 l 64 12.802 l 64 128.001
 l 217.602 128.001 l 217.602 243.2 l 64 243.2 l 64 294.399 l 294.398 294.399
 l h
294.398 89.598 m f
1 g
55.719 212.915 m 63.539 174.208 l 63.707 174.208 l 71.617 212.915 l 87.961
 212.915 l 87.961 158.079 l 77.824 158.079 l 77.824 201.856 l 77.672 201.856
 l 67.918 158.079 l 59.316 158.079 l 49.562 201.856 l 49.406 201.856 l 49.406
 158.079 l 39.27 158.079 l 39.27 212.915 l h
55.719 212.915 m f
119.832 212.927 m 122.648 212.927 125.004 212.442 126.938 211.493 c 128.871
 210.548 130.395 209.305 131.586 207.77 c 132.762 206.235 133.605 204.481
 134.117 202.509 c 134.617 200.552 134.887 198.528 134.887 196.481 c 134.887
 193.665 134.465 191.208 133.621 189.106 c 132.773 187.009 131.598 185.294
 130.086 183.973 c 128.574 182.641 126.746 181.634 124.594 180.977 c 122.445
 180.325 120.062 179.981 117.441 179.981 c 111.527 179.981 l 111.527 158.095
 l 100.48 158.095 l 100.48 212.927 l h
116.453 188.083 m 118.656 188.083 120.449 188.763 121.793 190.095 c 123.148
 191.423 123.828 193.497 123.828 196.313 c 123.828 199.079 123.238 201.177
 122.062 202.61 c 120.883 204.032 118.91 204.763 116.148 204.763 c 111.539
 204.763 l 111.539 188.083 l h
116.453 188.083 m f
154.508 166.708 m 155.301 165.044 156.902 164.223 159.309 164.223 c 160.641
 164.223 161.703 164.454 162.496 164.915 c 163.289 165.376 163.891 166.005
 164.34 166.786 c 164.773 167.579 165.07 168.524 165.184 169.598 c 165.301
 170.677 165.375 171.802 165.375 172.977 c 165.375 174.208 165.285 175.372
 165.105 176.462 c 164.914 177.575 164.582 178.548 164.07 179.419 c 163.559
 180.29 162.84 180.977 161.922 181.493 c 161 182.005 159.77 182.259 158.234
 182.259 c 154.547 182.259 l 154.547 189.477 l 158.156 189.477 l 159.336
 189.477 160.32 189.723 161.102 190.208 c 161.895 190.696 162.535 191.333
 163.02 192.13 c 163.508 192.923 163.852 193.829 164.098 194.856 c 164.328
 195.88 164.441 196.954 164.441 198.079 c 164.441 200.692 164.008 202.536
 163.125 203.61 c 162.238 204.684 160.922 205.223 159.129 205.223 c 157.938
 205.223 156.992 205.005 156.238 204.571 c 155.496 204.134 154.918 203.52
 154.508 202.727 c 154.098 201.934 153.832 200.985 153.703 199.911 c 153.574
 198.837 153.512 197.657 153.512 196.391 c 143.371 196.391 l 143.371 201.817
 144.73 205.848 147.441 208.485 c 150.156 211.11 154.113 212.442 159.348
 212.442 c 164.312 212.442 168.168 211.313 170.906 209.063 c 173.645 206.798
 175 203.278 175 198.466 c 175 195.188 174.273 192.513 172.812 190.438 c
 171.367 188.364 169.332 187.032 166.707 186.47 c 166.707 186.317 l 170.227
 185.755 172.734 184.333 174.195 182.055 c 175.656 179.774 176.383 176.923
 176.383 173.493 c 176.383 171.634 176.152 169.755 175.691 167.809 c 175.23
 165.876 174.336 164.095 173.004 162.509 c 171.672 160.923 169.844 159.641
 167.5 158.669 c 165.172 157.696 162.113 157.208 158.324 157.208 c 153.051
 157.208 149.105 158.641 146.496 161.509 c 143.887 164.391 142.578 168.446
 142.578 173.723 c 142.578 173.966 l 153.176 173.966 l 153.305 170.802 153.715
 168.372 154.508 166.708 c h
154.508 166.708 m f
Q Q
showpage
%%Trailer
end restore
%%EOF
