%!PS-Adobe-3.0 EPSF-3.0
%%Creator: cairo 1.14.2 (http://cairographics.org)
%%CreationDate: Thu Nov 30 08:05:32 2017
%%Pages: 1
%%DocumentData: Clean7Bit
%%LanguageLevel: 3
%%BoundingBox: 0 -1 308 308
%%EndComments
%%BeginProlog
save
50 dict begin
/q { gsave } bind def
/Q { grestore } bind def
/cm { 6 array astore concat } bind def
/w { setlinewidth } bind def
/J { setlinecap } bind def
/j { setlinejoin } bind def
/M { setmiterlimit } bind def
/d { setdash } bind def
/m { moveto } bind def
/l { lineto } bind def
/c { curveto } bind def
/h { closepath } bind def
/re { exch dup neg 3 1 roll 5 3 roll moveto 0 rlineto
      0 exch rlineto 0 rlineto closepath } bind def
/S { stroke } bind def
/f { fill } bind def
/f* { eofill } bind def
/n { newpath } bind def
/W { clip } bind def
/W* { eoclip } bind def
/BT { } bind def
/ET { } bind def
/pdfmark where { pop globaldict /?pdfmark /exec load put }
    { globaldict begin /?pdfmark /pop load def /pdfmark
    /cleartomark load def end } ifelse
/BDC { mark 3 1 roll /BDC pdfmark } bind def
/EMC { mark /EMC pdfmark } bind def
/cairo_store_point { /cairo_point_y exch def /cairo_point_x exch def } def
/Tj { show currentpoint cairo_store_point } bind def
/TJ {
  {
    dup
    type /stringtype eq
    { show } { -0.001 mul 0 cairo_font_matrix dtransform rmoveto } ifelse
  } forall
  currentpoint cairo_store_point
} bind def
/cairo_selectfont { cairo_font_matrix aload pop pop pop 0 0 6 array astore
    cairo_font exch selectfont cairo_point_x cairo_point_y moveto } bind def
/Tf { pop /cairo_font exch def /cairo_font_matrix where
      { pop cairo_selectfont } if } bind def
/Td { matrix translate cairo_font_matrix matrix concatmatrix dup
      /cairo_font_matrix exch def dup 4 get exch 5 get cairo_store_point
      /cairo_font where { pop cairo_selectfont } if } bind def
/Tm { 2 copy 8 2 roll 6 array astore /cairo_font_matrix exch def
      cairo_store_point /cairo_font where { pop cairo_selectfont } if } bind def
/g { setgray } bind def
/rg { setrgbcolor } bind def
/d1 { setcachedevice } bind def
%%EndProlog
%%BeginSetup
%%EndSetup
%%Page: 1 1
%%BeginPageSetup
%%PageBoundingBox: 0 -1 308 308
%%EndPageSetup
q 0 -1 308 309 rectclip q
q
57.602 300.802 m 300.801 300.802 l 300.801 83.2 l 224 6.399 l 57.602 6.399
 l h
57.602 300.802 m W n
[6.4 0 0 6.4 677.6 -3242.399988] concat
/CairoFunction
   << /FunctionType 2
      /Domain [ 0 1 ]
      /C0 [ 0.937255 0.933333 0.933333 ]
      /C1 [ 0.870588 0.870588 0.866667 ]
      /N 1
   >>
def
   << /ShadingType 2
      /ColorSpace /DeviceRGB
      /Coords [ 2.8389 449.938904 31.808901 420.978912 ]
      /Extend [ true true ]
      /Function CairoFunction
   >>
shfill
Q
0.670588 g
224 83.2 m 300.801 83.2 l 224 6.399 l h
224 83.2 m f
0.313726 0.713726 0.905882 rg
6.398 236.802 204.801 -102.402 re f
0.00392157 g
51.199 307.2 m 51.199 243.2 l 0 243.2 l 0 128.001 l 51.199 128.001 l 51.199
 0.001 l 230.398 0.001 l 307.199 76.802 l 307.199 307.2 l h
12.801 230.399 m 204.801 230.399 l 204.801 140.802 l 12.801 140.802 l h
230.398 18.098 m 230.398 76.802 l 289.102 76.802 l h
294.398 89.598 m 217.602 89.598 l 217.602 12.802 l 64 12.802 l 64 128.001
 l 217.602 128.001 l 217.602 243.2 l 64 243.2 l 64 294.399 l 294.398 294.399
 l h
294.398 89.598 m f
51.266 212.915 m 59.098 174.208 l 59.25 174.208 l 67.16 212.915 l 83.52
 212.915 l 83.52 158.079 l 73.383 158.079 l 73.383 201.856 l 73.23 201.856
 l 63.477 158.079 l 54.875 158.079 l 45.121 201.856 l 44.965 201.856 l 44.965
 158.079 l 34.828 158.079 l 34.828 212.915 l h
51.266 212.915 m f
93.926 196.977 m 94.309 200.473 95.168 203.493 96.461 206.005 c 97.777 
208.501 99.648 210.47 102.105 211.88 c 104.551 213.274 107.867 213.989 112
 213.989 c 116.148 213.989 119.449 213.274 121.906 211.88 c 124.352 210.47
 126.246 208.501 127.539 206.005 c 128.859 203.493 129.691 200.473 130.074
 196.977 c 130.457 193.473 130.648 189.645 130.648 185.497 c 130.648 181.313
 130.457 177.458 130.074 173.989 c 129.691 170.509 128.844 167.513 127.539
 165.005 c 126.234 162.497 124.352 160.575 121.906 159.243 c 119.449 157.915
 116.148 157.247 112 157.247 c 107.867 157.247 104.551 157.927 102.105 159.243
 c 99.648 160.575 97.766 162.497 96.461 165.005 c 95.156 167.513 94.309 
170.509 93.926 173.989 c 93.555 177.458 93.352 181.313 93.352 185.497 c 
93.352 189.634 93.555 193.458 93.926 196.977 c h
104.691 176.091 m 104.871 173.505 105.23 171.403 105.766 169.794 c 106.305
 168.18 107.07 167.001 108.07 166.259 c 109.07 165.516 110.387 165.145 112.027
 165.145 c 113.664 165.145 114.98 165.516 115.992 166.259 c 116.992 167.013
 117.762 168.18 118.297 169.794 c 118.836 171.403 119.195 173.505 119.371
 176.091 c 119.551 178.677 119.641 181.798 119.641 185.485 c 119.641 189.173
 119.539 192.294 119.371 194.856 c 119.207 197.415 118.836 199.513 118.297
 201.153 c 117.762 202.79 116.992 203.981 115.992 204.712 c 114.996 205.466
 113.664 205.837 112.027 205.837 c 110.387 205.837 109.082 205.466 108.07
 204.712 c 107.07 203.97 106.305 202.79 105.766 201.153 c 105.23 199.513
 104.871 197.415 104.691 194.856 c 104.5 192.294 104.422 189.173 104.422
 185.485 c 104.422 181.798 104.5 178.677 104.691 176.091 c h
104.691 176.091 m f
156.25 172.364 m 156.48 172.364 l 164.633 212.915 l 176.078 212.915 l 163.48
 158.079 l 149.285 158.079 l 136.691 212.915 l 148.52 212.915 l h
156.25 172.364 m f
Q Q
showpage
%%Trailer
end restore
%%EOF
