%!PS-Adobe-3.0 EPSF-3.0
%%Creator: cairo 1.14.2 (http://cairographics.org)
%%CreationDate: Thu Nov 30 08:05:32 2017
%%Pages: 1
%%DocumentData: Clean7Bit
%%LanguageLevel: 2
%%BoundingBox: 0 -1 308 308
%%EndComments
%%BeginProlog
save
50 dict begin
/q { gsave } bind def
/Q { grestore } bind def
/cm { 6 array astore concat } bind def
/w { setlinewidth } bind def
/J { setlinecap } bind def
/j { setlinejoin } bind def
/M { setmiterlimit } bind def
/d { setdash } bind def
/m { moveto } bind def
/l { lineto } bind def
/c { curveto } bind def
/h { closepath } bind def
/re { exch dup neg 3 1 roll 5 3 roll moveto 0 rlineto
      0 exch rlineto 0 rlineto closepath } bind def
/S { stroke } bind def
/f { fill } bind def
/f* { eofill } bind def
/n { newpath } bind def
/W { clip } bind def
/W* { eoclip } bind def
/BT { } bind def
/ET { } bind def
/pdfmark where { pop globaldict /?pdfmark /exec load put }
    { globaldict begin /?pdfmark /pop load def /pdfmark
    /cleartomark load def end } ifelse
/BDC { mark 3 1 roll /BDC pdfmark } bind def
/EMC { mark /EMC pdfmark } bind def
/cairo_store_point { /cairo_point_y exch def /cairo_point_x exch def } def
/Tj { show currentpoint cairo_store_point } bind def
/TJ {
  {
    dup
    type /stringtype eq
    { show } { -0.001 mul 0 cairo_font_matrix dtransform rmoveto } ifelse
  } forall
  currentpoint cairo_store_point
} bind def
/cairo_selectfont { cairo_font_matrix aload pop pop pop 0 0 6 array astore
    cairo_font exch selectfont cairo_point_x cairo_point_y moveto } bind def
/Tf { pop /cairo_font exch def /cairo_font_matrix where
      { pop cairo_selectfont } if } bind def
/Td { matrix translate cairo_font_matrix matrix concatmatrix dup
      /cairo_font_matrix exch def dup 4 get exch 5 get cairo_store_point
      /cairo_font where { pop cairo_selectfont } if } bind def
/Tm { 2 copy 8 2 roll 6 array astore /cairo_font_matrix exch def
      cairo_store_point /cairo_font where { pop cairo_selectfont } if } bind def
/g { setgray } bind def
/rg { setrgbcolor } bind def
/d1 { setcachedevice } bind def
%%EndProlog
%%BeginSetup
%%EndSetup
%%Page: 1 1
%%BeginPageSetup
%%PageBoundingBox: 0 -1 308 308
%%EndPageSetup
q 0 -1 308 309 rectclip q
0.937255 0.933333 0.933333 rg
57.602 300.802 m 300.801 300.802 l 300.801 83.2 l 224 6.399 l 57.602 6.399
 l h
57.602 300.802 m f
0.670588 g
224 83.2 m 300.801 83.2 l 224 6.399 l h
224 83.2 m f
0.796078 0.337255 0.254902 rg
6.398 236.802 204.801 -102.402 re f
0.00392157 g
51.199 307.2 m 51.199 243.2 l 0 243.2 l 0 128.001 l 51.199 128.001 l 51.199
 0.001 l 230.398 0.001 l 307.199 76.802 l 307.199 307.2 l h
12.801 230.399 m 204.801 230.399 l 204.801 140.802 l 12.801 140.802 l h
230.398 18.098 m 230.398 76.802 l 289.102 76.802 l h
294.398 89.598 m 217.602 89.598 l 217.602 12.802 l 64 12.802 l 64 128.001
 l 217.602 128.001 l 217.602 243.2 l 64 243.2 l 64 294.399 l 294.398 294.399
 l h
294.398 89.598 m f
1 g
55.719 212.915 m 63.539 174.208 l 63.707 174.208 l 71.617 212.915 l 87.961
 212.915 l 87.961 158.079 l 77.824 158.079 l 77.824 201.856 l 77.672 201.856
 l 67.918 158.079 l 59.316 158.079 l 49.562 201.856 l 49.406 201.856 l 49.406
 158.079 l 39.27 158.079 l 39.27 212.915 l h
55.719 212.915 m f
122.215 212.927 m 126.066 212.927 129.152 212.29 131.52 211.032 c 133.875
 209.778 135.707 208.001 137.012 205.657 c 138.328 203.329 139.199 200.536
 139.66 197.247 c 140.121 193.97 140.352 190.309 140.352 186.278 c 140.352
 181.466 140.07 177.278 139.48 173.723 c 138.895 170.177 137.883 167.231
 136.449 164.927 c 135.016 162.61 133.094 160.907 130.688 159.782 c 128.281
 158.657 125.234 158.095 121.547 158.095 c 104.113 158.095 l 104.113 212.927
 l h
120.062 166.208 m 122.008 166.208 123.57 166.54 124.75 167.208 c 125.926
 167.872 126.859 168.973 127.551 170.509 c 128.258 172.044 128.719 174.067
 128.934 176.591 c 129.164 179.087 129.281 182.208 129.281 185.946 c 129.281
 189.067 129.164 191.809 128.973 194.177 c 128.77 196.532 128.344 198.489
 127.707 200.052 c 127.055 201.614 126.117 202.79 124.852 203.571 c 123.598
 204.364 121.922 204.774 119.82 204.774 c 115.137 204.774 l 115.137 166.208
 l h
120.062 166.208 m f
Q Q
showpage
%%Trailer
end restore
%%EOF
