%!PS-Adobe-3.0 EPSF-3.0
%%Creator: cairo 1.14.2 (http://cairographics.org)
%%CreationDate: Thu Nov 30 08:05:32 2017
%%Pages: 1
%%DocumentData: Clean7Bit
%%LanguageLevel: 2
%%BoundingBox: 0 -1 308 308
%%EndComments
%%BeginProlog
save
50 dict begin
/q { gsave } bind def
/Q { grestore } bind def
/cm { 6 array astore concat } bind def
/w { setlinewidth } bind def
/J { setlinecap } bind def
/j { setlinejoin } bind def
/M { setmiterlimit } bind def
/d { setdash } bind def
/m { moveto } bind def
/l { lineto } bind def
/c { curveto } bind def
/h { closepath } bind def
/re { exch dup neg 3 1 roll 5 3 roll moveto 0 rlineto
      0 exch rlineto 0 rlineto closepath } bind def
/S { stroke } bind def
/f { fill } bind def
/f* { eofill } bind def
/n { newpath } bind def
/W { clip } bind def
/W* { eoclip } bind def
/BT { } bind def
/ET { } bind def
/pdfmark where { pop globaldict /?pdfmark /exec load put }
    { globaldict begin /?pdfmark /pop load def /pdfmark
    /cleartomark load def end } ifelse
/BDC { mark 3 1 roll /BDC pdfmark } bind def
/EMC { mark /EMC pdfmark } bind def
/cairo_store_point { /cairo_point_y exch def /cairo_point_x exch def } def
/Tj { show currentpoint cairo_store_point } bind def
/TJ {
  {
    dup
    type /stringtype eq
    { show } { -0.001 mul 0 cairo_font_matrix dtransform rmoveto } ifelse
  } forall
  currentpoint cairo_store_point
} bind def
/cairo_selectfont { cairo_font_matrix aload pop pop pop 0 0 6 array astore
    cairo_font exch selectfont cairo_point_x cairo_point_y moveto } bind def
/Tf { pop /cairo_font exch def /cairo_font_matrix where
      { pop cairo_selectfont } if } bind def
/Td { matrix translate cairo_font_matrix matrix concatmatrix dup
      /cairo_font_matrix exch def dup 4 get exch 5 get cairo_store_point
      /cairo_font where { pop cairo_selectfont } if } bind def
/Tm { 2 copy 8 2 roll 6 array astore /cairo_font_matrix exch def
      cairo_store_point /cairo_font where { pop cairo_selectfont } if } bind def
/g { setgray } bind def
/rg { setrgbcolor } bind def
/d1 { setcachedevice } bind def
%%EndProlog
%%BeginSetup
%%EndSetup
%%Page: 1 1
%%BeginPageSetup
%%PageBoundingBox: 0 -1 308 308
%%EndPageSetup
q 0 -1 308 309 rectclip q
0.937255 0.933333 0.933333 rg
57.602 300.802 m 300.801 300.802 l 300.801 83.2 l 224 6.399 l 57.602 6.399
 l h
57.602 300.802 m f
0.670588 g
224 83.2 m 300.801 83.2 l 224 6.399 l h
224 83.2 m f
0.815686 0.698039 0.835294 rg
6.398 236.802 204.801 -102.402 re f
0.00392157 g
51.199 307.2 m 51.199 243.2 l 0 243.2 l 0 128.001 l 51.199 128.001 l 51.199
 0.001 l 230.398 0.001 l 307.199 76.802 l 307.199 307.2 l h
12.801 230.399 m 204.801 230.399 l 204.801 140.802 l 12.801 140.802 l h
230.398 18.098 m 230.398 76.802 l 289.102 76.802 l h
294.398 89.598 m 217.602 89.598 l 217.602 12.802 l 64 12.802 l 64 128.001
 l 217.602 128.001 l 217.602 243.2 l 64 243.2 l 64 294.399 l 294.398 294.399
 l h
294.398 89.598 m f
67.391 173.438 m 67.391 167.602 66.035 163.442 63.32 160.946 c 60.609 158.477
 56.461 157.223 50.879 157.223 c 47.949 157.223 45.566 157.618 43.688 158.427
 c 41.816 159.22 40.332 160.333 39.23 161.805 c 38.133 163.278 37.375 164.966
 36.98 166.911 c 36.559 168.845 36.352 170.907 36.352 173.055 c 36.352 175.45
 l 46.488 175.45 l 46.488 173.747 l 46.488 170.829 46.809 168.677 47.449
 167.259 c 48.09 165.864 49.406 165.145 51.418 165.145 c 53.402 165.145 
54.734 165.864 55.371 167.259 c 56.012 168.665 56.332 170.829 56.332 173.747
 c 56.332 212.927 l 67.391 212.927 l h
67.391 173.438 m f
91.188 173.595 m 91.188 172.313 91.289 171.149 91.496 170.11 c 91.699 169.063
 92.082 168.18 92.645 167.462 c 93.211 166.731 93.965 166.169 94.91 165.759
 c 95.859 165.364 97.051 165.145 98.484 165.145 c 100.172 165.145 101.695
 165.696 103.039 166.798 c 104.398 167.899 105.074 169.614 105.074 171.903
 c 105.074 173.134 104.91 174.196 104.574 175.091 c 104.258 175.989 103.707
 176.794 102.926 177.497 c 102.156 178.227 101.145 178.868 99.891 179.458
 c 98.637 180.044 97.09 180.645 95.258 181.263 c 92.801 182.079 90.676 182.989
 88.883 183.962 c 87.078 184.923 85.594 186.059 84.379 187.38 c 83.176 188.684
 82.293 190.196 81.727 191.911 c 81.164 193.638 80.895 195.61 80.895 197.876
 c 80.895 203.302 82.406 207.333 85.426 209.997 c 88.449 212.661 92.609 
213.989 97.883 213.989 c 100.328 213.989 102.605 213.723 104.664 213.184
 c 106.738 212.645 108.543 211.79 110.055 210.571 c 111.551 209.368 112.742
 207.833 113.574 205.977 c 114.418 204.11 114.855 201.868 114.855 199.259
 c 114.855 197.723 l 104.258 197.723 l 104.258 200.333 103.797 202.341 102.875
 203.763 c 101.953 205.157 100.414 205.876 98.266 205.876 c 97.035 205.876
 96.012 205.684 95.207 205.337 c 94.387 204.977 93.734 204.505 93.246 203.919
 c 92.762 203.329 92.402 202.626 92.223 201.856 c 92.043 201.087 91.957 
200.294 91.957 199.473 c 91.957 197.774 92.301 196.364 93.031 195.212 c 
93.746 194.048 95.281 192.985 97.625 192.024 c 106.152 188.341 l 108.25 
187.419 109.965 186.458 111.297 185.446 c 112.629 184.446 113.691 183.372
 114.484 182.22 c 115.277 181.067 115.812 179.813 116.133 178.419 c 116.441
 177.048 116.594 175.501 116.594 173.825 c 116.594 168.04 114.918 163.829
 111.551 161.192 c 108.199 158.555 103.527 157.223 97.535 157.223 c 91.289
 157.223 86.824 158.579 84.133 161.294 c 81.445 164.005 80.129 167.899 80.129
 172.977 c 80.129 175.208 l 91.188 175.208 l h
91.188 173.595 m f
139.727 212.915 m 146.789 195.173 l 153.777 212.915 l 165.836 212.915 l
 153.09 185.805 l 166.758 158.079 l 154.305 158.079 l 146.406 176.665 l 
138.574 158.079 l 126.438 158.079 l 140.109 185.805 l 127.512 212.915 l 
h
139.727 212.915 m f
Q Q
showpage
%%Trailer
end restore
%%EOF
