%!PS-Adobe-3.0 EPSF-3.0
%%Creator: cairo 1.14.2 (http://cairographics.org)
%%CreationDate: Thu Nov 30 08:05:32 2017
%%Pages: 1
%%DocumentData: Clean7Bit
%%LanguageLevel: 2
%%BoundingBox: 0 -1 308 308
%%EndComments
%%BeginProlog
save
50 dict begin
/q { gsave } bind def
/Q { grestore } bind def
/cm { 6 array astore concat } bind def
/w { setlinewidth } bind def
/J { setlinecap } bind def
/j { setlinejoin } bind def
/M { setmiterlimit } bind def
/d { setdash } bind def
/m { moveto } bind def
/l { lineto } bind def
/c { curveto } bind def
/h { closepath } bind def
/re { exch dup neg 3 1 roll 5 3 roll moveto 0 rlineto
      0 exch rlineto 0 rlineto closepath } bind def
/S { stroke } bind def
/f { fill } bind def
/f* { eofill } bind def
/n { newpath } bind def
/W { clip } bind def
/W* { eoclip } bind def
/BT { } bind def
/ET { } bind def
/pdfmark where { pop globaldict /?pdfmark /exec load put }
    { globaldict begin /?pdfmark /pop load def /pdfmark
    /cleartomark load def end } ifelse
/BDC { mark 3 1 roll /BDC pdfmark } bind def
/EMC { mark /EMC pdfmark } bind def
/cairo_store_point { /cairo_point_y exch def /cairo_point_x exch def } def
/Tj { show currentpoint cairo_store_point } bind def
/TJ {
  {
    dup
    type /stringtype eq
    { show } { -0.001 mul 0 cairo_font_matrix dtransform rmoveto } ifelse
  } forall
  currentpoint cairo_store_point
} bind def
/cairo_selectfont { cairo_font_matrix aload pop pop pop 0 0 6 array astore
    cairo_font exch selectfont cairo_point_x cairo_point_y moveto } bind def
/Tf { pop /cairo_font exch def /cairo_font_matrix where
      { pop cairo_selectfont } if } bind def
/Td { matrix translate cairo_font_matrix matrix concatmatrix dup
      /cairo_font_matrix exch def dup 4 get exch 5 get cairo_store_point
      /cairo_font where { pop cairo_selectfont } if } bind def
/Tm { 2 copy 8 2 roll 6 array astore /cairo_font_matrix exch def
      cairo_store_point /cairo_font where { pop cairo_selectfont } if } bind def
/g { setgray } bind def
/rg { setrgbcolor } bind def
/d1 { setcachedevice } bind def
%%EndProlog
%%BeginSetup
%%EndSetup
%%Page: 1 1
%%BeginPageSetup
%%PageBoundingBox: 0 -1 308 308
%%EndPageSetup
q 0 -1 308 309 rectclip q
0.937255 0.933333 0.933333 rg
57.602 300.802 m 300.801 300.802 l 300.801 83.2 l 224 6.399 l 57.602 6.399
 l h
57.602 300.802 m f
0.670588 g
224 83.2 m 300.801 83.2 l 224 6.399 l h
224 83.2 m f
0.607843 0.733333 0.45098 rg
6.398 236.802 204.801 -102.402 re f
0.00392157 g
51.199 307.2 m 51.199 243.2 l 0 243.2 l 0 128.001 l 51.199 128.001 l 51.199
 0.001 l 230.398 0.001 l 307.199 76.802 l 307.199 307.2 l h
12.801 230.399 m 204.801 230.399 l 204.801 140.802 l 12.801 140.802 l h
230.398 18.098 m 230.398 76.802 l 289.102 76.802 l h
294.398 89.598 m 217.602 89.598 l 217.602 12.802 l 64 12.802 l 64 128.001
 l 217.602 128.001 l 217.602 243.2 l 64 243.2 l 64 294.399 l 294.398 294.399
 l h
294.398 89.598 m f
67.391 173.438 m 67.391 167.602 66.035 163.442 63.32 160.946 c 60.609 158.477
 56.461 157.223 50.879 157.223 c 47.949 157.223 45.566 157.618 43.699 158.427
 c 41.832 159.22 40.332 160.333 39.23 161.805 c 38.133 163.278 37.375 164.966
 36.98 166.911 c 36.559 168.845 36.352 170.907 36.352 173.055 c 36.352 175.45
 l 46.504 175.45 l 46.504 173.747 l 46.504 170.829 46.809 168.677 47.449
 167.259 c 48.102 165.864 49.406 165.145 51.418 165.145 c 53.402 165.145
 54.734 165.864 55.387 167.259 c 56.012 168.665 56.332 170.829 56.332 173.747
 c 56.332 212.927 l 67.391 212.927 l h
67.391 173.438 m f
89.637 173.595 m 89.637 172.313 89.754 171.149 89.957 170.11 c 90.176 169.063
 90.547 168.18 91.109 167.462 c 91.672 166.731 92.43 166.169 93.375 165.759
 c 94.324 165.364 95.527 165.145 96.945 165.145 c 98.648 165.145 100.16 
165.696 101.516 166.798 c 102.859 167.899 103.539 169.614 103.539 171.903
 c 103.539 173.134 103.371 174.196 103.039 175.091 c 102.719 175.989 102.168
 176.794 101.391 177.497 c 100.621 178.227 99.609 178.868 98.367 179.458
 c 97.125 180.044 95.566 180.645 93.723 181.263 c 91.277 182.079 89.152 
182.989 87.348 183.962 c 85.543 184.923 84.059 186.059 82.84 187.38 c 81.637
 188.684 80.77 190.196 80.191 191.911 c 79.656 193.626 79.359 195.598 79.359
 197.864 c 79.359 203.29 80.871 207.321 83.891 209.985 c 86.898 212.645 
91.059 213.977 96.332 213.977 c 98.789 213.977 101.055 213.708 103.117 213.173
 c 105.191 212.634 106.996 211.774 108.504 210.559 c 110.016 209.356 111.195
 207.821 112.039 205.966 c 112.871 204.095 113.305 201.856 113.305 199.243
 c 113.305 197.708 l 102.707 197.708 l 102.707 200.321 102.246 202.329 101.324
 203.751 c 100.402 205.145 98.879 205.864 96.73 205.864 c 95.5 205.864 94.477
 205.669 93.656 205.325 c 92.84 204.966 92.188 204.493 91.699 203.903 c 
91.211 203.313 90.879 202.626 90.699 201.856 c 90.508 201.087 90.434 200.294
 90.434 199.473 c 90.434 197.774 90.777 196.364 91.508 195.212 c 92.223 
194.048 93.762 192.985 96.102 192.024 c 104.629 188.341 l 106.727 187.419
 108.453 186.458 109.773 185.446 c 111.09 184.434 112.18 183.372 112.961
 182.22 c 113.742 181.067 114.293 179.813 114.609 178.419 c 114.918 177.048
 115.07 175.501 115.07 173.825 c 115.07 168.04 113.395 163.829 110.043 161.192
 c 106.688 158.555 102.016 157.223 96.012 157.223 c 89.766 157.223 85.312
 158.579 82.609 161.294 c 79.922 164.005 78.594 167.899 78.594 172.966 c
 78.594 175.192 l 89.637 175.192 l h
89.637 173.595 m f
146.098 212.927 m 148.93 212.927 151.281 212.442 153.215 211.493 c 155.125
 210.548 156.684 209.305 157.848 207.77 c 159.016 206.235 159.871 204.481
 160.398 202.509 c 160.895 200.552 161.152 198.528 161.152 196.481 c 161.152
 193.665 160.742 191.208 159.898 189.106 c 159.055 187.009 157.875 185.294
 156.352 183.973 c 154.855 182.641 153.023 181.634 150.875 180.977 c 148.723
 180.325 146.344 179.981 143.719 179.981 c 137.805 179.981 l 137.805 158.095
 l 126.746 158.095 l 126.746 212.927 l h
142.719 188.083 m 144.922 188.083 146.699 188.763 148.059 190.095 c 149.414
 191.423 150.094 193.497 150.094 196.313 c 150.094 199.079 149.504 201.177
 148.312 202.61 c 147.137 204.032 145.176 204.763 142.414 204.763 c 137.805
 204.763 l 137.805 188.083 l h
142.719 188.083 m f
Q Q
showpage
%%Trailer
end restore
%%EOF
