%!PS-Adobe-3.0 EPSF-3.0
%%Creator: cairo 1.14.2 (http://cairographics.org)
%%CreationDate: Thu Nov 30 08:05:32 2017
%%Pages: 1
%%DocumentData: Clean7Bit
%%LanguageLevel: 2
%%BoundingBox: 0 -1 308 308
%%EndComments
%%BeginProlog
save
50 dict begin
/q { gsave } bind def
/Q { grestore } bind def
/cm { 6 array astore concat } bind def
/w { setlinewidth } bind def
/J { setlinecap } bind def
/j { setlinejoin } bind def
/M { setmiterlimit } bind def
/d { setdash } bind def
/m { moveto } bind def
/l { lineto } bind def
/c { curveto } bind def
/h { closepath } bind def
/re { exch dup neg 3 1 roll 5 3 roll moveto 0 rlineto
      0 exch rlineto 0 rlineto closepath } bind def
/S { stroke } bind def
/f { fill } bind def
/f* { eofill } bind def
/n { newpath } bind def
/W { clip } bind def
/W* { eoclip } bind def
/BT { } bind def
/ET { } bind def
/pdfmark where { pop globaldict /?pdfmark /exec load put }
    { globaldict begin /?pdfmark /pop load def /pdfmark
    /cleartomark load def end } ifelse
/BDC { mark 3 1 roll /BDC pdfmark } bind def
/EMC { mark /EMC pdfmark } bind def
/cairo_store_point { /cairo_point_y exch def /cairo_point_x exch def } def
/Tj { show currentpoint cairo_store_point } bind def
/TJ {
  {
    dup
    type /stringtype eq
    { show } { -0.001 mul 0 cairo_font_matrix dtransform rmoveto } ifelse
  } forall
  currentpoint cairo_store_point
} bind def
/cairo_selectfont { cairo_font_matrix aload pop pop pop 0 0 6 array astore
    cairo_font exch selectfont cairo_point_x cairo_point_y moveto } bind def
/Tf { pop /cairo_font exch def /cairo_font_matrix where
      { pop cairo_selectfont } if } bind def
/Td { matrix translate cairo_font_matrix matrix concatmatrix dup
      /cairo_font_matrix exch def dup 4 get exch 5 get cairo_store_point
      /cairo_font where { pop cairo_selectfont } if } bind def
/Tm { 2 copy 8 2 roll 6 array astore /cairo_font_matrix exch def
      cairo_store_point /cairo_font where { pop cairo_selectfont } if } bind def
/g { setgray } bind def
/rg { setrgbcolor } bind def
/d1 { setcachedevice } bind def
%%EndProlog
%%BeginSetup
%%EndSetup
%%Page: 1 1
%%BeginPageSetup
%%PageBoundingBox: 0 -1 308 308
%%EndPageSetup
q 0 -1 308 309 rectclip q
0.937255 0.933333 0.933333 rg
57.602 300.802 m 300.801 300.802 l 300.801 83.2 l 224 6.399 l 57.602 6.399
 l h
57.602 300.802 m f
0.670588 g
224 83.2 m 300.801 83.2 l 224 6.399 l h
224 83.2 m f
0.796078 0.337255 0.254902 rg
6.398 236.802 204.801 -102.402 re f
0.00392157 g
51.199 307.2 m 51.199 243.2 l 0 243.2 l 0 128.001 l 51.199 128.001 l 51.199
 0.001 l 230.398 0.001 l 307.199 76.802 l 307.199 307.2 l h
12.801 230.399 m 204.801 230.399 l 204.801 140.802 l 12.801 140.802 l h
230.398 18.098 m 230.398 76.802 l 289.102 76.802 l h
294.398 89.598 m 217.602 89.598 l 217.602 12.802 l 64 12.802 l 64 128.001
 l 217.602 128.001 l 217.602 243.2 l 64 243.2 l 64 294.399 l 294.398 294.399
 l h
294.398 89.598 m f
1 g
51.418 173.438 m 51.418 167.602 50.086 163.442 47.359 160.946 c 44.66 158.477
 40.512 157.223 34.93 157.223 c 32 157.223 29.605 157.618 27.738 158.427
 c 25.867 159.22 24.371 160.333 23.27 161.805 c 22.168 163.278 21.414 164.966
 21.02 166.911 c 20.594 168.845 20.391 170.907 20.391 173.044 c 20.391 175.438
 l 30.527 175.438 l 30.527 173.735 l 30.527 170.817 30.836 168.665 31.488
 167.243 c 32.129 165.848 33.434 165.134 35.441 165.134 c 37.453 165.134
 38.77 165.848 39.41 167.243 c 40.051 168.653 40.371 170.817 40.371 173.735
 c 40.371 212.915 l 51.418 212.915 l h
51.418 173.438 m f
72.152 173.595 m 72.152 172.313 72.281 171.149 72.473 170.11 c 72.68 169.063
 73.062 168.18 73.625 167.462 c 74.188 166.731 74.957 166.169 75.902 165.759
 c 76.84 165.364 78.027 165.145 79.461 165.145 c 81.152 165.145 82.676 165.696
 84.02 166.798 c 85.375 167.899 86.066 169.614 86.066 171.903 c 86.066 173.134
 85.887 174.196 85.566 175.091 c 85.234 175.989 84.684 176.794 83.918 177.497
 c 83.137 178.227 82.125 178.868 80.871 179.458 c 79.617 180.044 78.066 
180.645 76.238 181.263 c 73.777 182.079 71.656 182.989 69.863 183.962 c 
68.07 184.923 66.574 186.059 65.371 187.38 c 64.168 188.684 63.27 190.196
 62.719 191.911 c 62.145 193.638 61.875 195.61 61.875 197.876 c 61.875 203.302
 63.387 207.333 66.406 209.997 c 69.426 212.661 73.586 213.989 78.859 213.989
 c 81.305 213.989 83.586 213.723 85.656 213.184 c 87.73 212.645 89.523 211.79
 91.035 210.571 c 92.531 209.368 93.723 207.833 94.555 205.977 c 95.398 
204.11 95.832 201.868 95.832 199.259 c 95.832 197.723 l 85.223 197.723 l
 85.223 200.333 84.762 202.341 83.852 203.763 c 82.93 205.157 81.383 205.876
 79.23 205.876 c 78.004 205.876 76.98 205.684 76.172 205.337 c 75.367 204.977
 74.699 204.505 74.215 203.919 c 73.727 203.329 73.371 202.626 73.203 201.856
 c 73.023 201.087 72.934 200.294 72.934 199.473 c 72.934 197.774 73.293 
196.364 74.008 195.212 c 74.727 194.048 76.262 192.985 78.617 192.024 c 
87.141 188.341 l 89.242 187.419 90.945 186.458 92.273 185.446 c 93.605 184.434
 94.668 183.372 95.461 182.22 c 96.258 181.067 96.805 179.813 97.113 178.419
 c 97.422 177.048 97.574 175.501 97.574 173.825 c 97.574 168.04 95.898 163.829
 92.531 161.192 c 89.176 158.555 84.504 157.223 78.527 157.223 c 72.281 
157.223 67.801 158.579 65.113 161.294 c 62.426 164.005 61.082 167.899 61.082
 172.966 c 61.082 175.192 l 72.152 175.192 l h
72.152 173.595 m f
107.148 196.977 m 107.52 200.473 108.379 203.493 109.672 206.005 c 110.988
 208.501 112.871 210.47 115.316 211.88 c 117.762 213.274 121.074 213.989
 125.211 213.989 c 129.355 213.989 132.66 213.274 135.117 211.88 c 137.574
 210.47 139.457 208.501 140.75 206.005 c 142.066 203.493 142.898 200.473
 143.297 196.977 c 143.668 193.473 143.871 189.645 143.871 185.497 c 143.871
 181.313 143.668 177.458 143.297 173.989 c 142.898 170.509 142.055 167.513
 140.75 165.005 c 139.441 162.497 137.574 160.575 135.117 159.243 c 132.66
 157.915 129.355 157.247 125.211 157.247 c 121.074 157.247 117.762 157.927
 115.316 159.243 c 112.871 160.575 110.977 162.497 109.672 165.005 c 108.363
 167.513 107.52 170.509 107.148 173.989 c 106.766 177.458 106.574 181.313
 106.574 185.497 c 106.574 189.634 106.766 193.458 107.148 196.977 c h
117.902 176.091 m 118.078 173.505 118.438 171.403 118.977 169.794 c 119.512
 168.18 120.281 167.001 121.281 166.259 c 122.277 165.516 123.609 165.145
 125.234 165.145 c 126.887 165.145 128.191 165.516 129.203 166.259 c 130.203
 167.013 130.969 168.18 131.52 169.794 c 132.043 171.403 132.402 173.505
 132.594 176.091 c 132.773 178.677 132.863 181.798 132.863 185.485 c 132.863
 189.173 132.773 192.294 132.594 194.856 c 132.402 197.415 132.043 199.513
 131.52 201.153 c 130.969 202.79 130.203 203.981 129.203 204.712 c 128.203
 205.466 126.887 205.837 125.234 205.837 c 123.609 205.837 122.293 205.466
 121.281 204.712 c 120.281 203.97 119.512 202.79 118.977 201.153 c 118.438
 199.513 118.078 197.415 117.902 194.856 c 117.723 192.294 117.633 189.173
 117.633 185.485 c 117.633 181.798 117.723 178.677 117.902 176.091 c h
117.902 176.091 m f
181.145 175.348 m 181.301 175.348 l 181.301 212.915 l 191.438 212.915 l
 191.438 158.079 l 178.855 158.079 l 165.324 196.481 l 165.172 196.481 l
 165.172 158.079 l 155.02 158.079 l 155.02 212.915 l 167.77 212.915 l h
181.145 175.348 m f
Q Q
showpage
%%Trailer
end restore
%%EOF
