%!PS-Adobe-3.0 EPSF-3.0
%%Creator: cairo 1.14.2 (http://cairographics.org)
%%CreationDate: Thu Nov 30 08:05:32 2017
%%Pages: 1
%%DocumentData: Clean7Bit
%%LanguageLevel: 3
%%BoundingBox: 0 -1 308 308
%%EndComments
%%BeginProlog
save
50 dict begin
/q { gsave } bind def
/Q { grestore } bind def
/cm { 6 array astore concat } bind def
/w { setlinewidth } bind def
/J { setlinecap } bind def
/j { setlinejoin } bind def
/M { setmiterlimit } bind def
/d { setdash } bind def
/m { moveto } bind def
/l { lineto } bind def
/c { curveto } bind def
/h { closepath } bind def
/re { exch dup neg 3 1 roll 5 3 roll moveto 0 rlineto
      0 exch rlineto 0 rlineto closepath } bind def
/S { stroke } bind def
/f { fill } bind def
/f* { eofill } bind def
/n { newpath } bind def
/W { clip } bind def
/W* { eoclip } bind def
/BT { } bind def
/ET { } bind def
/pdfmark where { pop globaldict /?pdfmark /exec load put }
    { globaldict begin /?pdfmark /pop load def /pdfmark
    /cleartomark load def end } ifelse
/BDC { mark 3 1 roll /BDC pdfmark } bind def
/EMC { mark /EMC pdfmark } bind def
/cairo_store_point { /cairo_point_y exch def /cairo_point_x exch def } def
/Tj { show currentpoint cairo_store_point } bind def
/TJ {
  {
    dup
    type /stringtype eq
    { show } { -0.001 mul 0 cairo_font_matrix dtransform rmoveto } ifelse
  } forall
  currentpoint cairo_store_point
} bind def
/cairo_selectfont { cairo_font_matrix aload pop pop pop 0 0 6 array astore
    cairo_font exch selectfont cairo_point_x cairo_point_y moveto } bind def
/Tf { pop /cairo_font exch def /cairo_font_matrix where
      { pop cairo_selectfont } if } bind def
/Td { matrix translate cairo_font_matrix matrix concatmatrix dup
      /cairo_font_matrix exch def dup 4 get exch 5 get cairo_store_point
      /cairo_font where { pop cairo_selectfont } if } bind def
/Tm { 2 copy 8 2 roll 6 array astore /cairo_font_matrix exch def
      cairo_store_point /cairo_font where { pop cairo_selectfont } if } bind def
/g { setgray } bind def
/rg { setrgbcolor } bind def
/d1 { setcachedevice } bind def
%%EndProlog
%%BeginSetup
%%EndSetup
%%Page: 1 1
%%BeginPageSetup
%%PageBoundingBox: 0 -1 308 308
%%EndPageSetup
q 0 -1 308 309 rectclip q
q
57.602 300.802 m 300.801 300.802 l 300.801 83.2 l 224 6.399 l 57.602 6.399
 l h
57.602 300.802 m W n
[6.4 0 0 6.4 632.8 -3242.399988] concat
/CairoFunction
   << /FunctionType 2
      /Domain [ 0 1 ]
      /C0 [ 0.937255 0.933333 0.933333 ]
      /C1 [ 0.870588 0.870588 0.866667 ]
      /N 1
   >>
def
   << /ShadingType 2
      /ColorSpace /DeviceRGB
      /Coords [ 9.8111 449.911102 38.771099 420.941101 ]
      /Extend [ true true ]
      /Function CairoFunction
   >>
shfill
Q
0.670588 g
224 83.2 m 300.801 83.2 l 224 6.399 l h
224 83.2 m f
0.443137 0.654902 0.258824 rg
6.398 236.802 204.801 -102.402 re f
0.00392157 g
51.199 307.2 m 51.199 243.2 l 0 243.2 l 0 128.001 l 51.199 128.001 l 51.199
 0.001 l 230.398 0.001 l 307.199 76.802 l 307.199 307.2 l h
12.801 230.399 m 204.801 230.399 l 204.801 140.802 l 12.801 140.802 l h
230.398 18.098 m 230.398 76.802 l 289.102 76.802 l h
294.398 89.598 m 217.602 89.598 l 217.602 12.802 l 64 12.802 l 64 128.001
 l 217.602 128.001 l 217.602 243.2 l 64 243.2 l 64 294.399 l 294.398 294.399
 l h
294.398 89.598 m f
1 g
67.391 173.438 m 67.391 167.602 66.035 163.442 63.32 160.946 c 60.609 158.477
 56.461 157.223 50.879 157.223 c 47.949 157.223 45.566 157.618 43.688 158.427
 c 41.816 159.22 40.332 160.333 39.23 161.805 c 38.133 163.278 37.375 164.966
 36.98 166.911 c 36.559 168.845 36.352 170.907 36.352 173.055 c 36.352 175.45
 l 46.488 175.45 l 46.488 173.747 l 46.488 170.829 46.809 168.677 47.449
 167.259 c 48.09 165.864 49.406 165.145 51.418 165.145 c 53.402 165.145 
54.734 165.864 55.371 167.259 c 56.012 168.665 56.332 170.829 56.332 173.747
 c 56.332 212.927 l 67.391 212.927 l h
67.391 173.438 m f
101.633 212.927 m 104.449 212.927 106.805 212.442 108.734 211.493 c 110.668
 210.548 112.203 209.305 113.383 207.77 c 114.559 206.235 115.406 204.481
 115.918 202.509 c 116.414 200.552 116.684 198.528 116.684 196.481 c 116.684
 193.665 116.262 191.208 115.418 189.106 c 114.574 187.009 113.395 185.294
 111.887 183.973 c 110.375 182.641 108.543 181.634 106.395 180.977 c 104.242
 180.313 101.863 179.981 99.238 179.981 c 93.336 179.981 l 93.336 158.095
 l 82.277 158.095 l 82.277 212.927 l h
98.254 188.083 m 100.453 188.083 102.246 188.763 103.59 190.095 c 104.945
 191.423 105.625 193.497 105.625 196.313 c 105.625 199.079 105.035 201.177
 103.859 202.61 c 102.68 204.032 100.711 204.763 97.945 204.763 c 93.336
 204.763 l 93.336 188.083 l h
98.254 188.083 m f
153.816 199.77 m 153.586 200.845 153.215 201.829 152.703 202.727 c 152.191
 203.61 151.539 204.364 150.758 204.954 c 149.965 205.544 148.992 205.837
 147.867 205.837 c 145.203 205.837 143.297 204.352 142.105 201.368 c 140.93
 198.411 140.34 193.485 140.34 186.638 c 140.34 183.348 140.441 180.391 
140.645 177.727 c 140.852 175.067 141.223 172.802 141.762 170.93 c 142.297
 169.063 143.066 167.63 144.062 166.63 c 145.062 165.634 146.355 165.134
 147.941 165.134 c 148.621 165.134 149.336 165.325 150.145 165.669 c 150.938
 166.028 151.668 166.567 152.371 167.282 c 153.062 168.013 153.637 168.907
 154.098 170.009 c 154.559 171.11 154.789 172.415 154.789 173.899 c 154.789
 179.509 l 147.508 179.509 l 147.508 187.649 l 165.391 187.649 l 165.391
 158.079 l 157.246 158.079 l 157.246 163.149 l 157.094 163.149 l 155.762
 160.985 154.164 159.473 152.293 158.579 c 150.426 157.684 148.188 157.235
 145.574 157.235 c 142.195 157.235 139.441 157.837 137.305 159.013 c 135.168
 160.192 133.516 161.997 132.312 164.466 c 131.109 166.938 130.305 169.958
 129.906 173.567 c 129.496 177.177 129.281 181.364 129.281 186.126 c 129.281
 190.72 129.574 194.778 130.164 198.247 c 130.754 201.727 131.762 204.634
 133.195 206.977 c 134.617 209.305 136.523 211.048 138.867 212.235 c 141.234
 213.415 144.168 214.005 147.699 214.005 c 153.742 214.005 158.094 212.505
 160.754 209.497 c 163.418 206.516 164.75 202.227 164.75 196.634 c 154.152
 196.634 l 154.164 197.645 154.047 198.696 153.816 199.77 c h
153.816 199.77 m f
Q Q
showpage
%%Trailer
end restore
%%EOF
