%!PS-Adobe-3.0 EPSF-3.0
%%Creator: cairo 1.14.2 (http://cairographics.org)
%%CreationDate: Thu Nov 30 08:05:32 2017
%%Pages: 1
%%DocumentData: Clean7Bit
%%LanguageLevel: 3
%%BoundingBox: 0 -1 308 308
%%EndComments
%%BeginProlog
save
50 dict begin
/q { gsave } bind def
/Q { grestore } bind def
/cm { 6 array astore concat } bind def
/w { setlinewidth } bind def
/J { setlinecap } bind def
/j { setlinejoin } bind def
/M { setmiterlimit } bind def
/d { setdash } bind def
/m { moveto } bind def
/l { lineto } bind def
/c { curveto } bind def
/h { closepath } bind def
/re { exch dup neg 3 1 roll 5 3 roll moveto 0 rlineto
      0 exch rlineto 0 rlineto closepath } bind def
/S { stroke } bind def
/f { fill } bind def
/f* { eofill } bind def
/n { newpath } bind def
/W { clip } bind def
/W* { eoclip } bind def
/BT { } bind def
/ET { } bind def
/pdfmark where { pop globaldict /?pdfmark /exec load put }
    { globaldict begin /?pdfmark /pop load def /pdfmark
    /cleartomark load def end } ifelse
/BDC { mark 3 1 roll /BDC pdfmark } bind def
/EMC { mark /EMC pdfmark } bind def
/cairo_store_point { /cairo_point_y exch def /cairo_point_x exch def } def
/Tj { show currentpoint cairo_store_point } bind def
/TJ {
  {
    dup
    type /stringtype eq
    { show } { -0.001 mul 0 cairo_font_matrix dtransform rmoveto } ifelse
  } forall
  currentpoint cairo_store_point
} bind def
/cairo_selectfont { cairo_font_matrix aload pop pop pop 0 0 6 array astore
    cairo_font exch selectfont cairo_point_x cairo_point_y moveto } bind def
/Tf { pop /cairo_font exch def /cairo_font_matrix where
      { pop cairo_selectfont } if } bind def
/Td { matrix translate cairo_font_matrix matrix concatmatrix dup
      /cairo_font_matrix exch def dup 4 get exch 5 get cairo_store_point
      /cairo_font where { pop cairo_selectfont } if } bind def
/Tm { 2 copy 8 2 roll 6 array astore /cairo_font_matrix exch def
      cairo_store_point /cairo_font where { pop cairo_selectfont } if } bind def
/g { setgray } bind def
/rg { setrgbcolor } bind def
/d1 { setcachedevice } bind def
%%EndProlog
%%BeginSetup
%%EndSetup
%%Page: 1 1
%%BeginPageSetup
%%PageBoundingBox: 0 -1 308 308
%%EndPageSetup
q 0 -1 308 309 rectclip q
q
57.602 300.802 m 300.801 300.802 l 300.801 83.2 l 224 6.399 l 57.602 6.399
 l h
57.602 300.802 m W n
[6.4 0 0 6.4 632.8 -3299.999988] concat
/CairoFunction
   << /FunctionType 2
      /Domain [ 0 1 ]
      /C0 [ 0.937255 0.933333 0.933333 ]
      /C1 [ 0.870588 0.870588 0.866667 ]
      /N 1
   >>
def
   << /ShadingType 2
      /ColorSpace /DeviceRGB
      /Coords [ 9.8389 458.938904 38.808899 429.978912 ]
      /Extend [ true true ]
      /Function CairoFunction
   >>
shfill
Q
0.670588 g
224 83.2 m 300.801 83.2 l 224 6.399 l h
224 83.2 m f
0.929412 0.301961 0.462745 rg
6.398 236.802 204.801 -102.402 re f
0.00392157 g
51.199 307.2 m 51.199 243.2 l 0 243.2 l 0 128.001 l 51.199 128.001 l 51.199
 0.001 l 230.398 0.001 l 307.199 76.802 l 307.199 307.2 l h
12.801 230.399 m 204.801 230.399 l 204.801 140.802 l 12.801 140.802 l h
230.398 18.098 m 230.398 76.802 l 289.102 76.802 l h
294.398 89.598 m 217.602 89.598 l 217.602 12.802 l 64 12.802 l 64 128.001
 l 217.602 128.001 l 217.602 243.2 l 64 243.2 l 64 294.399 l 294.398 294.399
 l h
294.398 89.598 m f
1 g
46.875 213.528 m 46.875 204.466 l 36.273 204.466 l 36.273 213.528 l h
46.875 199.388 m 46.875 158.067 l 36.273 158.067 l 36.273 199.388 l h
46.875 199.388 m f
82.277 175.348 m 82.434 175.348 l 82.434 212.915 l 92.57 212.915 l 92.57
 158.079 l 79.973 158.079 l 66.457 196.481 l 66.305 196.481 l 66.305 158.079
 l 56.168 158.079 l 56.168 212.915 l 68.914 212.915 l h
82.277 175.348 m f
120.449 212.927 m 124.289 212.927 127.387 212.29 129.742 211.032 c 132.109
 209.778 133.926 208.001 135.246 205.657 c 136.551 203.329 137.434 200.536
 137.895 197.247 c 138.344 193.97 138.586 190.309 138.586 186.278 c 138.586
 181.466 138.293 177.278 137.703 173.723 c 137.113 170.177 136.102 167.231
 134.68 164.927 c 133.246 162.61 131.316 160.907 128.922 159.782 c 126.516
 158.657 123.469 158.095 119.781 158.095 c 102.324 158.095 l 102.324 212.927
 l h
118.297 166.208 m 120.242 166.208 121.793 166.54 122.98 167.208 c 124.16
 167.872 125.094 168.973 125.785 170.509 c 126.477 172.044 126.938 174.067
 127.168 176.591 c 127.398 179.087 127.5 182.208 127.5 185.946 c 127.5 189.067
 127.398 191.809 127.207 194.177 c 126.988 196.532 126.566 198.489 125.926
 200.052 c 125.285 201.614 124.34 202.79 123.086 203.571 c 121.816 204.364
 120.152 204.774 118.043 204.774 c 113.371 204.774 l 113.371 166.208 l h
118.297 166.208 m f
166.066 212.927 m 169.922 212.927 173.004 212.29 175.371 211.032 c 177.727
 209.778 179.559 208.001 180.863 205.657 c 182.184 203.329 183.055 200.536
 183.512 197.247 c 183.973 193.97 184.203 190.309 184.203 186.278 c 184.203
 181.466 183.922 177.278 183.336 173.723 c 182.746 170.177 181.734 167.231
 180.301 164.927 c 178.867 162.61 176.945 160.907 174.539 159.782 c 172.133
 158.657 169.09 158.095 165.402 158.095 c 147.969 158.095 l 147.969 212.927
 l h
163.918 166.208 m 165.863 166.208 167.426 166.54 168.602 167.208 c 169.777
 167.872 170.715 168.973 171.406 170.509 c 172.109 172.044 172.57 174.067
 172.789 176.591 c 173.02 179.087 173.133 182.208 173.133 185.946 c 173.133
 189.067 173.02 191.809 172.824 194.177 c 172.621 196.532 172.199 198.489
 171.559 200.052 c 170.906 201.614 169.973 202.79 168.703 203.571 c 167.449
 204.364 165.773 204.774 163.672 204.774 c 158.988 204.774 l 158.988 166.208
 l h
163.918 166.208 m f
Q Q
showpage
%%Trailer
end restore
%%EOF
