%!PS-Adobe-3.0 EPSF-3.0
%%Creator: cairo 1.14.2 (http://cairographics.org)
%%CreationDate: Thu Nov 30 08:05:32 2017
%%Pages: 1
%%DocumentData: Clean7Bit
%%LanguageLevel: 2
%%BoundingBox: 0 -1 308 308
%%EndComments
%%BeginProlog
save
50 dict begin
/q { gsave } bind def
/Q { grestore } bind def
/cm { 6 array astore concat } bind def
/w { setlinewidth } bind def
/J { setlinecap } bind def
/j { setlinejoin } bind def
/M { setmiterlimit } bind def
/d { setdash } bind def
/m { moveto } bind def
/l { lineto } bind def
/c { curveto } bind def
/h { closepath } bind def
/re { exch dup neg 3 1 roll 5 3 roll moveto 0 rlineto
      0 exch rlineto 0 rlineto closepath } bind def
/S { stroke } bind def
/f { fill } bind def
/f* { eofill } bind def
/n { newpath } bind def
/W { clip } bind def
/W* { eoclip } bind def
/BT { } bind def
/ET { } bind def
/pdfmark where { pop globaldict /?pdfmark /exec load put }
    { globaldict begin /?pdfmark /pop load def /pdfmark
    /cleartomark load def end } ifelse
/BDC { mark 3 1 roll /BDC pdfmark } bind def
/EMC { mark /EMC pdfmark } bind def
/cairo_store_point { /cairo_point_y exch def /cairo_point_x exch def } def
/Tj { show currentpoint cairo_store_point } bind def
/TJ {
  {
    dup
    type /stringtype eq
    { show } { -0.001 mul 0 cairo_font_matrix dtransform rmoveto } ifelse
  } forall
  currentpoint cairo_store_point
} bind def
/cairo_selectfont { cairo_font_matrix aload pop pop pop 0 0 6 array astore
    cairo_font exch selectfont cairo_point_x cairo_point_y moveto } bind def
/Tf { pop /cairo_font exch def /cairo_font_matrix where
      { pop cairo_selectfont } if } bind def
/Td { matrix translate cairo_font_matrix matrix concatmatrix dup
      /cairo_font_matrix exch def dup 4 get exch 5 get cairo_store_point
      /cairo_font where { pop cairo_selectfont } if } bind def
/Tm { 2 copy 8 2 roll 6 array astore /cairo_font_matrix exch def
      cairo_store_point /cairo_font where { pop cairo_selectfont } if } bind def
/g { setgray } bind def
/rg { setrgbcolor } bind def
/d1 { setcachedevice } bind def
%%EndProlog
%%BeginSetup
%%EndSetup
%%Page: 1 1
%%BeginPageSetup
%%PageBoundingBox: 0 -1 308 308
%%EndPageSetup
q 0 -1 308 309 rectclip q
0.937255 0.933333 0.933333 rg
57.602 300.802 m 300.801 300.802 l 300.801 83.2 l 224 6.399 l 57.602 6.399
 l h
57.602 300.802 m f
0.670588 g
224 83.2 m 300.801 83.2 l 224 6.399 l h
224 83.2 m f
0.796078 0.337255 0.254902 rg
6.398 236.802 204.801 -102.402 re f
0.00392157 g
51.199 307.2 m 51.199 243.2 l 0 243.2 l 0 128.001 l 51.199 128.001 l 51.199
 0.001 l 230.398 0.001 l 307.199 76.802 l 307.199 307.2 l h
12.801 230.399 m 204.801 230.399 l 204.801 140.802 l 12.801 140.802 l h
230.398 18.098 m 230.398 76.802 l 289.102 76.802 l h
294.398 89.598 m 217.602 89.598 l 217.602 12.802 l 64 12.802 l 64 128.001
 l 217.602 128.001 l 217.602 243.2 l 64 243.2 l 64 294.399 l 294.398 294.399
 l h
294.398 89.598 m f
1 g
55.922 212.915 11.059 -54.836 re f
103.348 203.11 m 102.398 204.942 100.672 205.848 98.164 205.848 c 96.793
 205.848 95.656 205.477 94.746 204.723 c 93.848 203.981 93.145 202.79 92.633
 201.126 c 92.121 199.462 91.762 197.286 91.559 194.587 c 91.355 191.899
 91.266 188.606 91.266 184.716 c 91.266 180.571 91.406 177.216 91.672 174.657
 c 91.957 172.095 92.402 170.126 92.992 168.704 c 93.582 167.282 94.324 
166.337 95.219 165.864 c 96.113 165.376 97.152 165.122 98.328 165.122 c 
99.301 165.122 100.199 165.286 101.055 165.618 c 101.887 165.954 102.629
 166.618 103.246 167.614 c 103.859 168.614 104.344 170.024 104.703 171.841
 c 105.051 173.657 105.242 176.052 105.242 179.02 c 116.289 179.02 l 116.289
 176.063 116.059 173.235 115.598 170.571 c 115.137 167.911 114.277 165.579
 113.023 163.583 c 111.77 161.598 110.016 160.04 107.727 158.911 c 105.445
 157.786 102.504 157.208 98.867 157.208 c 94.719 157.208 91.418 157.888 
88.961 159.208 c 86.516 160.536 84.621 162.458 83.328 164.966 c 82.008 167.473
 81.176 170.47 80.793 173.954 c 80.41 177.423 80.219 181.274 80.219 185.458
 c 80.219 189.606 80.41 193.434 80.793 196.942 c 81.176 200.434 82.023 203.458
 83.328 205.966 c 84.633 208.462 86.516 210.43 88.961 211.841 c 91.418 213.235
 94.719 213.954 98.867 213.954 c 102.809 213.954 105.922 213.313 108.199
 212.032 c 110.477 210.751 112.191 209.126 113.305 207.157 c 114.418 205.184
 115.137 203.059 115.418 200.782 c 115.688 198.501 115.84 196.364 115.84
 194.368 c 104.781 194.368 l 104.781 198.399 104.293 201.305 103.348 203.11
 c h
103.348 203.11 m f
137.652 173.595 m 137.652 172.313 137.754 171.149 137.945 170.11 c 138.164
 169.063 138.535 168.18 139.098 167.462 c 139.66 166.731 140.43 166.169 
141.375 165.759 c 142.309 165.364 143.512 165.145 144.934 165.145 c 146.637
 165.145 148.148 165.696 149.504 166.798 c 150.848 167.899 151.539 169.614
 151.539 171.903 c 151.539 173.134 151.359 174.196 151.039 175.091 c 150.707
 175.989 150.156 176.794 149.391 177.497 c 148.609 178.227 147.598 178.868
 146.355 179.458 c 145.113 180.044 143.551 180.645 141.707 181.263 c 139.266
 182.079 137.141 182.989 135.336 183.962 c 133.543 184.923 132.043 186.059
 130.84 187.38 c 129.637 188.684 128.754 190.196 128.191 191.911 c 127.629
 193.638 127.348 195.61 127.348 197.876 c 127.348 203.302 128.859 207.333
 131.879 209.997 c 134.887 212.661 139.047 213.989 144.32 213.989 c 146.777
 213.989 149.043 213.723 151.117 213.184 c 153.191 212.645 154.98 211.79
 156.492 210.571 c 158.004 209.368 159.18 207.833 160.027 205.977 c 160.859
 204.11 161.293 201.868 161.293 199.259 c 161.293 197.723 l 150.695 197.723
 l 150.695 200.333 150.234 202.341 149.324 203.763 c 148.402 205.157 146.867
 205.876 144.719 205.876 c 143.488 205.876 142.465 205.684 141.645 205.337
 c 140.84 204.977 140.172 204.505 139.688 203.919 c 139.199 203.329 138.879
 202.649 138.699 201.88 c 138.508 201.114 138.434 200.321 138.434 199.501
 c 138.434 197.798 138.789 196.391 139.508 195.239 c 140.223 194.075 141.762
 193.013 144.113 192.052 c 152.641 188.364 l 154.738 187.442 156.453 186.481
 157.773 185.473 c 159.105 184.473 160.18 183.399 160.961 182.247 c 161.754
 181.095 162.305 179.841 162.609 178.446 c 162.918 177.075 163.07 175.528
 163.07 173.848 c 163.07 168.063 161.395 163.852 158.043 161.216 c 154.688
 158.579 150.016 157.247 144.027 157.247 c 137.777 157.247 133.312 158.606
 130.609 161.317 c 127.922 164.032 126.594 167.923 126.594 172.993 c 126.594
 175.22 l 137.652 175.22 l h
137.652 173.595 m f
Q Q
showpage
%%Trailer
end restore
%%EOF
