%!PS-Adobe-3.0 EPSF-3.0
%%Creator: cairo 1.14.2 (http://cairographics.org)
%%CreationDate: Thu Nov 30 08:05:32 2017
%%Pages: 1
%%DocumentData: Clean7Bit
%%LanguageLevel: 3
%%BoundingBox: 0 -1 308 308
%%EndComments
%%BeginProlog
save
50 dict begin
/q { gsave } bind def
/Q { grestore } bind def
/cm { 6 array astore concat } bind def
/w { setlinewidth } bind def
/J { setlinecap } bind def
/j { setlinejoin } bind def
/M { setmiterlimit } bind def
/d { setdash } bind def
/m { moveto } bind def
/l { lineto } bind def
/c { curveto } bind def
/h { closepath } bind def
/re { exch dup neg 3 1 roll 5 3 roll moveto 0 rlineto
      0 exch rlineto 0 rlineto closepath } bind def
/S { stroke } bind def
/f { fill } bind def
/f* { eofill } bind def
/n { newpath } bind def
/W { clip } bind def
/W* { eoclip } bind def
/BT { } bind def
/ET { } bind def
/pdfmark where { pop globaldict /?pdfmark /exec load put }
    { globaldict begin /?pdfmark /pop load def /pdfmark
    /cleartomark load def end } ifelse
/BDC { mark 3 1 roll /BDC pdfmark } bind def
/EMC { mark /EMC pdfmark } bind def
/cairo_store_point { /cairo_point_y exch def /cairo_point_x exch def } def
/Tj { show currentpoint cairo_store_point } bind def
/TJ {
  {
    dup
    type /stringtype eq
    { show } { -0.001 mul 0 cairo_font_matrix dtransform rmoveto } ifelse
  } forall
  currentpoint cairo_store_point
} bind def
/cairo_selectfont { cairo_font_matrix aload pop pop pop 0 0 6 array astore
    cairo_font exch selectfont cairo_point_x cairo_point_y moveto } bind def
/Tf { pop /cairo_font exch def /cairo_font_matrix where
      { pop cairo_selectfont } if } bind def
/Td { matrix translate cairo_font_matrix matrix concatmatrix dup
      /cairo_font_matrix exch def dup 4 get exch 5 get cairo_store_point
      /cairo_font where { pop cairo_selectfont } if } bind def
/Tm { 2 copy 8 2 roll 6 array astore /cairo_font_matrix exch def
      cairo_store_point /cairo_font where { pop cairo_selectfont } if } bind def
/g { setgray } bind def
/rg { setrgbcolor } bind def
/d1 { setcachedevice } bind def
%%EndProlog
%%BeginSetup
%%EndSetup
%%Page: 1 1
%%BeginPageSetup
%%PageBoundingBox: 0 -1 308 308
%%EndPageSetup
q 0 -1 308 309 rectclip q
q
57.602 300.802 m 300.801 300.802 l 300.801 83.2 l 224 6.399 l 57.602 6.399
 l h
57.602 300.802 m W n
[6.4 0 0 6.4 632.8 -3299.999988] concat
/CairoFunction
   << /FunctionType 2
      /Domain [ 0 1 ]
      /C0 [ 0.937255 0.933333 0.933333 ]
      /C1 [ 0.870588 0.870588 0.866667 ]
      /N 1
   >>
def
   << /ShadingType 2
      /ColorSpace /DeviceRGB
      /Coords [ 9.8389 458.938904 38.808899 429.978912 ]
      /Extend [ true true ]
      /Function CairoFunction
   >>
shfill
Q
0.670588 g
224 83.2 m 300.801 83.2 l 224 6.399 l h
224 83.2 m f
0.796078 0.337255 0.254902 rg
6.398 236.802 204.801 -102.402 re f
0.00392157 g
51.199 307.2 m 51.199 243.2 l 0 243.2 l 0 128.001 l 51.199 128.001 l 51.199
 0.001 l 230.398 0.001 l 307.199 76.802 l 307.199 307.2 l h
12.801 230.399 m 204.801 230.399 l 204.801 140.802 l 12.801 140.802 l h
230.398 18.098 m 230.398 76.802 l 289.102 76.802 l h
294.398 89.598 m 217.602 89.598 l 217.602 12.802 l 64 12.802 l 64 128.001
 l 217.602 128.001 l 217.602 243.2 l 64 243.2 l 64 294.399 l 294.398 294.399
 l h
294.398 89.598 m f
1 g
63.039 199.77 m 62.809 200.845 62.438 201.829 61.926 202.727 c 61.414 203.61
 60.762 204.364 59.98 204.954 c 59.188 205.544 58.215 205.837 57.09 205.837
 c 54.426 205.837 52.52 204.352 51.328 201.368 c 50.152 198.411 49.562 193.485
 49.562 186.638 c 49.562 183.348 49.664 180.391 49.867 177.727 c 50.074 
175.067 50.445 172.802 50.98 170.93 c 51.52 169.063 52.289 167.63 53.285
 166.63 c 54.285 165.634 55.578 165.134 57.164 165.134 c 57.844 165.134 
58.559 165.325 59.367 165.669 c 60.16 166.028 60.891 166.567 61.594 167.282
 c 62.285 168.013 62.859 168.907 63.32 170.009 c 63.781 171.11 64 172.415
 64 173.899 c 64 179.509 l 56.719 179.509 l 56.719 187.649 l 74.598 187.649
 l 74.598 158.079 l 66.457 158.079 l 66.457 163.149 l 66.316 163.149 l 64.984
 160.985 63.387 159.473 61.516 158.579 c 59.648 157.684 57.406 157.235 54.797
 157.235 c 51.418 157.235 48.664 157.837 46.527 159.013 c 44.391 160.192
 42.738 161.997 41.535 164.466 c 40.332 166.938 39.527 169.958 39.129 173.567
 c 38.719 177.177 38.504 181.364 38.504 186.126 c 38.504 190.72 38.797 194.778
 39.387 198.247 c 39.973 201.727 40.984 204.634 42.418 206.977 c 43.84 209.305
 45.746 211.048 48.09 212.235 c 50.457 213.415 53.391 214.005 56.922 214.005
 c 62.965 214.005 67.316 212.505 69.977 209.497 c 72.641 206.516 73.973 
202.227 73.973 196.634 c 63.387 196.634 l 63.387 197.645 63.27 198.696 63.039
 199.77 c h
63.039 199.77 m f
107.621 203.852 m 88.805 203.852 l 88.805 212.915 l 120.371 212.915 l 120.371
 204.544 l 99.867 167.141 l 120.68 167.141 l 120.68 158.079 l 87.426 158.079
 l 87.426 166.145 l h
107.621 203.852 m f
Q Q
showpage
%%Trailer
end restore
%%EOF
