%!PS-Adobe-3.0 EPSF-3.0
%%Creator: cairo 1.14.2 (http://cairographics.org)
%%CreationDate: Thu Nov 30 08:05:32 2017
%%Pages: 1
%%DocumentData: Clean7Bit
%%LanguageLevel: 2
%%BoundingBox: 0 -1 308 308
%%EndComments
%%BeginProlog
save
50 dict begin
/q { gsave } bind def
/Q { grestore } bind def
/cm { 6 array astore concat } bind def
/w { setlinewidth } bind def
/J { setlinecap } bind def
/j { setlinejoin } bind def
/M { setmiterlimit } bind def
/d { setdash } bind def
/m { moveto } bind def
/l { lineto } bind def
/c { curveto } bind def
/h { closepath } bind def
/re { exch dup neg 3 1 roll 5 3 roll moveto 0 rlineto
      0 exch rlineto 0 rlineto closepath } bind def
/S { stroke } bind def
/f { fill } bind def
/f* { eofill } bind def
/n { newpath } bind def
/W { clip } bind def
/W* { eoclip } bind def
/BT { } bind def
/ET { } bind def
/pdfmark where { pop globaldict /?pdfmark /exec load put }
    { globaldict begin /?pdfmark /pop load def /pdfmark
    /cleartomark load def end } ifelse
/BDC { mark 3 1 roll /BDC pdfmark } bind def
/EMC { mark /EMC pdfmark } bind def
/cairo_store_point { /cairo_point_y exch def /cairo_point_x exch def } def
/Tj { show currentpoint cairo_store_point } bind def
/TJ {
  {
    dup
    type /stringtype eq
    { show } { -0.001 mul 0 cairo_font_matrix dtransform rmoveto } ifelse
  } forall
  currentpoint cairo_store_point
} bind def
/cairo_selectfont { cairo_font_matrix aload pop pop pop 0 0 6 array astore
    cairo_font exch selectfont cairo_point_x cairo_point_y moveto } bind def
/Tf { pop /cairo_font exch def /cairo_font_matrix where
      { pop cairo_selectfont } if } bind def
/Td { matrix translate cairo_font_matrix matrix concatmatrix dup
      /cairo_font_matrix exch def dup 4 get exch 5 get cairo_store_point
      /cairo_font where { pop cairo_selectfont } if } bind def
/Tm { 2 copy 8 2 roll 6 array astore /cairo_font_matrix exch def
      cairo_store_point /cairo_font where { pop cairo_selectfont } if } bind def
/g { setgray } bind def
/rg { setrgbcolor } bind def
/d1 { setcachedevice } bind def
%%EndProlog
%%BeginSetup
%%EndSetup
%%Page: 1 1
%%BeginPageSetup
%%PageBoundingBox: 0 -1 308 308
%%EndPageSetup
q 0 -1 308 309 rectclip q
0.937255 0.933333 0.933333 rg
57.602 300.802 m 300.801 300.802 l 300.801 83.2 l 224 6.399 l 57.602 6.399
 l h
57.602 300.802 m f
0.670588 g
224 83.2 m 300.801 83.2 l 224 6.399 l h
224 83.2 m f
0.305882 0.584314 0.815686 rg
6.398 236.802 204.801 -102.402 re f
0.00392157 g
51.199 307.2 m 51.199 243.2 l 0 243.2 l 0 128.001 l 51.199 128.001 l 51.199
 0.001 l 230.398 0.001 l 307.199 76.802 l 307.199 307.2 l h
12.801 230.399 m 204.801 230.399 l 204.801 140.802 l 12.801 140.802 l h
230.398 18.098 m 230.398 76.802 l 289.102 76.802 l h
294.398 89.598 m 217.602 89.598 l 217.602 12.802 l 64 12.802 l 64 128.001
 l 217.602 128.001 l 217.602 243.2 l 64 243.2 l 64 294.399 l 294.398 294.399
 l h
294.398 89.598 m f
53.246 212.927 m 57.102 212.927 60.188 212.29 62.555 211.032 c 64.91 209.778
 66.738 208.001 68.043 205.657 c 69.363 203.329 70.234 200.536 70.695 197.247
 c 71.156 193.97 71.387 190.309 71.387 186.278 c 71.387 181.466 71.105 177.278
 70.516 173.723 c 69.926 170.177 68.914 167.231 67.48 164.927 c 66.047 162.61
 64.129 160.907 61.723 159.782 c 59.316 158.657 56.27 158.095 52.582 158.095
 c 35.125 158.095 l 35.125 212.927 l h
51.098 166.208 m 53.043 166.208 54.605 166.54 55.781 167.208 c 56.961 167.872
 57.895 168.973 58.586 170.509 c 59.289 172.044 59.75 174.067 59.969 176.591
 c 60.199 179.087 60.312 182.208 60.312 185.946 c 60.312 189.067 60.199 
191.809 60.008 194.177 c 59.801 196.532 59.379 198.489 58.738 200.052 c 
58.086 201.614 57.152 202.79 55.887 203.571 c 54.629 204.364 52.953 204.774
 50.855 204.774 c 46.184 204.774 l 46.184 166.208 l h
51.098 166.208 m f
85.773 196.977 m 86.156 200.473 87.016 203.493 88.309 206.005 c 89.625 
208.501 91.496 210.47 93.953 211.88 c 96.398 213.274 99.711 213.989 103.848
 213.989 c 107.992 213.989 111.297 213.274 113.754 211.88 c 116.199 210.47
 118.094 208.501 119.387 206.005 c 120.703 203.493 121.535 200.473 121.922
 196.977 c 122.305 193.473 122.496 189.645 122.496 185.497 c 122.496 181.313
 122.305 177.458 121.922 173.989 c 121.535 170.509 120.691 167.513 119.387
 165.005 c 118.078 162.497 116.199 160.575 113.754 159.243 c 111.297 157.915
 107.992 157.247 103.848 157.247 c 99.711 157.247 96.398 157.927 93.953 
159.243 c 91.496 160.575 89.613 162.497 88.309 165.005 c 87 167.513 86.156
 170.509 85.773 173.989 c 85.402 177.458 85.195 181.313 85.195 185.497 c
 85.195 189.634 85.402 193.458 85.773 196.977 c h
96.539 176.091 m 96.719 173.505 97.074 171.403 97.613 169.794 c 98.152 
168.18 98.918 167.001 99.918 166.259 c 100.914 165.516 102.234 165.145 103.871
 165.145 c 105.512 165.145 106.828 165.516 107.84 166.259 c 108.84 167.013
 109.605 168.18 110.145 169.794 c 110.68 171.403 111.039 173.505 111.219
 176.091 c 111.398 178.677 111.5 181.798 111.5 185.485 c 111.5 189.173 111.398
 192.294 111.219 194.856 c 111.039 197.415 110.68 199.513 110.145 201.153
 c 109.605 202.79 108.84 203.981 107.84 204.712 c 106.84 205.466 105.512
 205.837 103.871 205.837 c 102.234 205.837 100.93 205.466 99.918 204.712
 c 98.918 203.97 98.152 202.79 97.613 201.153 c 97.074 199.513 96.719 197.415
 96.539 194.856 c 96.344 192.294 96.27 189.173 96.27 185.485 c 96.27 181.798
 96.344 178.677 96.539 176.091 c h
96.539 176.091 m f
158.734 203.11 m 157.785 204.942 156.059 205.848 153.547 205.848 c 152.18
 205.848 151.039 205.477 150.133 204.723 c 149.234 203.981 148.531 202.79
 148.02 201.126 c 147.508 199.462 147.148 197.286 146.945 194.587 c 146.738
 191.899 146.648 188.606 146.648 184.716 c 146.648 180.571 146.789 177.216
 147.059 174.657 c 147.34 172.095 147.789 170.126 148.379 168.704 c 148.965
 167.282 149.707 166.337 150.605 165.864 c 151.5 165.376 152.539 165.122
 153.715 165.122 c 154.688 165.122 155.586 165.286 156.441 165.618 c 157.273
 165.954 158.016 166.618 158.629 167.614 c 159.246 168.614 159.73 170.024
 160.09 171.841 c 160.434 173.657 160.629 176.052 160.629 179.02 c 171.672
 179.02 l 171.672 176.063 171.441 173.235 170.98 170.571 c 170.523 167.911
 169.664 165.579 168.41 163.583 c 167.156 161.598 165.402 160.04 163.109
 158.911 c 160.832 157.786 157.887 157.208 154.254 157.208 c 150.105 157.208
 146.805 157.888 144.344 159.208 c 141.902 160.536 140.008 162.458 138.715
 164.966 c 137.395 167.473 136.562 170.47 136.18 173.954 c 135.797 177.423
 135.602 181.274 135.602 185.458 c 135.602 189.606 135.797 193.434 136.18
 196.942 c 136.562 200.434 137.406 203.458 138.715 205.966 c 140.02 208.462
 141.902 210.43 144.344 211.841 c 146.805 213.235 150.105 213.954 154.254
 213.954 c 158.195 213.954 161.305 213.313 163.586 212.032 c 165.863 210.751
 167.578 209.126 168.691 207.157 c 169.805 205.184 170.523 203.059 170.805
 200.782 c 171.07 198.501 171.227 196.364 171.227 194.368 c 160.168 194.368
 l 160.168 198.399 159.691 201.305 158.734 203.11 c h
158.734 203.11 m f
Q Q
showpage
%%Trailer
end restore
%%EOF
