%!PS-Adobe-3.0 EPSF-3.0
%%Creator: cairo 1.14.2 (http://cairographics.org)
%%CreationDate: Thu Nov 30 08:05:32 2017
%%Pages: 1
%%DocumentData: Clean7Bit
%%LanguageLevel: 2
%%BoundingBox: 0 -1 308 308
%%EndComments
%%BeginProlog
save
50 dict begin
/q { gsave } bind def
/Q { grestore } bind def
/cm { 6 array astore concat } bind def
/w { setlinewidth } bind def
/J { setlinecap } bind def
/j { setlinejoin } bind def
/M { setmiterlimit } bind def
/d { setdash } bind def
/m { moveto } bind def
/l { lineto } bind def
/c { curveto } bind def
/h { closepath } bind def
/re { exch dup neg 3 1 roll 5 3 roll moveto 0 rlineto
      0 exch rlineto 0 rlineto closepath } bind def
/S { stroke } bind def
/f { fill } bind def
/f* { eofill } bind def
/n { newpath } bind def
/W { clip } bind def
/W* { eoclip } bind def
/BT { } bind def
/ET { } bind def
/pdfmark where { pop globaldict /?pdfmark /exec load put }
    { globaldict begin /?pdfmark /pop load def /pdfmark
    /cleartomark load def end } ifelse
/BDC { mark 3 1 roll /BDC pdfmark } bind def
/EMC { mark /EMC pdfmark } bind def
/cairo_store_point { /cairo_point_y exch def /cairo_point_x exch def } def
/Tj { show currentpoint cairo_store_point } bind def
/TJ {
  {
    dup
    type /stringtype eq
    { show } { -0.001 mul 0 cairo_font_matrix dtransform rmoveto } ifelse
  } forall
  currentpoint cairo_store_point
} bind def
/cairo_selectfont { cairo_font_matrix aload pop pop pop 0 0 6 array astore
    cairo_font exch selectfont cairo_point_x cairo_point_y moveto } bind def
/Tf { pop /cairo_font exch def /cairo_font_matrix where
      { pop cairo_selectfont } if } bind def
/Td { matrix translate cairo_font_matrix matrix concatmatrix dup
      /cairo_font_matrix exch def dup 4 get exch 5 get cairo_store_point
      /cairo_font where { pop cairo_selectfont } if } bind def
/Tm { 2 copy 8 2 roll 6 array astore /cairo_font_matrix exch def
      cairo_store_point /cairo_font where { pop cairo_selectfont } if } bind def
/g { setgray } bind def
/rg { setrgbcolor } bind def
/d1 { setcachedevice } bind def
%%EndProlog
%%BeginSetup
%%EndSetup
%%Page: 1 1
%%BeginPageSetup
%%PageBoundingBox: 0 -1 308 308
%%EndPageSetup
q 0 -1 308 309 rectclip q
0.937255 0.933333 0.933333 rg
57.602 300.802 m 300.801 300.802 l 300.801 83.2 l 224 6.399 l 57.602 6.399
 l h
57.602 300.802 m f
0.670588 g
224 83.2 m 300.801 83.2 l 224 6.399 l h
224 83.2 m f
0.541176 0.184314 0.313726 rg
6.398 236.802 204.801 -102.402 re f
0.00392157 g
51.199 307.2 m 51.199 243.2 l 0 243.2 l 0 128.001 l 51.199 128.001 l 51.199
 0.001 l 230.398 0.001 l 307.199 76.802 l 307.199 307.2 l h
12.801 230.399 m 204.801 230.399 l 204.801 140.802 l 12.801 140.802 l h
230.398 18.098 m 230.398 76.802 l 289.102 76.802 l h
294.398 89.598 m 217.602 89.598 l 217.602 12.802 l 64 12.802 l 64 128.001
 l 217.602 128.001 l 217.602 243.2 l 64 243.2 l 64 294.399 l 294.398 294.399
 l h
294.398 89.598 m f
1 g
57.703 212.915 m 61.555 212.915 64.652 212.29 67.008 211.032 c 69.363 209.778
 71.195 208.001 72.512 205.657 c 73.816 203.329 74.688 200.536 75.16 197.247
 c 75.609 193.97 75.84 190.309 75.84 186.278 c 75.84 181.466 75.559 177.278
 74.969 173.723 c 74.379 170.177 73.371 167.231 71.949 164.927 c 70.504 
162.61 68.582 160.907 66.176 159.782 c 63.742 158.641 60.699 158.079 57.023
 158.079 c 39.578 158.079 l 39.578 212.915 l h
55.551 166.208 m 57.496 166.208 59.059 166.54 60.25 167.208 c 61.426 167.872
 62.348 168.973 63.055 170.509 c 63.742 172.044 64.203 174.067 64.422 176.591
 c 64.652 179.087 64.77 182.208 64.77 185.946 c 64.77 189.067 64.664 191.809
 64.473 194.177 c 64.258 196.532 63.832 198.489 63.195 200.052 c 62.539 
201.614 61.605 202.79 60.34 203.571 c 59.086 204.364 57.406 204.774 55.309
 204.774 c 50.648 204.774 l 50.648 166.208 l h
55.551 166.208 m f
89.281 212.915 m 100.328 212.915 l 100.328 167.141 l 119.91 167.141 l 119.91
 158.079 l 89.281 158.079 l h
89.281 212.915 m f
130.957 212.915 m 142.027 212.915 l 142.027 167.141 l 161.613 167.141 l
 161.613 158.079 l 130.957 158.079 l h
130.957 212.915 m f
Q Q
showpage
%%Trailer
end restore
%%EOF
