%!PS-Adobe-3.0 EPSF-3.0
%%Creator: cairo 1.14.2 (http://cairographics.org)
%%CreationDate: Thu Nov 30 08:05:32 2017
%%Pages: 1
%%DocumentData: Clean7Bit
%%LanguageLevel: 2
%%BoundingBox: 0 -1 308 308
%%EndComments
%%BeginProlog
save
50 dict begin
/q { gsave } bind def
/Q { grestore } bind def
/cm { 6 array astore concat } bind def
/w { setlinewidth } bind def
/J { setlinecap } bind def
/j { setlinejoin } bind def
/M { setmiterlimit } bind def
/d { setdash } bind def
/m { moveto } bind def
/l { lineto } bind def
/c { curveto } bind def
/h { closepath } bind def
/re { exch dup neg 3 1 roll 5 3 roll moveto 0 rlineto
      0 exch rlineto 0 rlineto closepath } bind def
/S { stroke } bind def
/f { fill } bind def
/f* { eofill } bind def
/n { newpath } bind def
/W { clip } bind def
/W* { eoclip } bind def
/BT { } bind def
/ET { } bind def
/pdfmark where { pop globaldict /?pdfmark /exec load put }
    { globaldict begin /?pdfmark /pop load def /pdfmark
    /cleartomark load def end } ifelse
/BDC { mark 3 1 roll /BDC pdfmark } bind def
/EMC { mark /EMC pdfmark } bind def
/cairo_store_point { /cairo_point_y exch def /cairo_point_x exch def } def
/Tj { show currentpoint cairo_store_point } bind def
/TJ {
  {
    dup
    type /stringtype eq
    { show } { -0.001 mul 0 cairo_font_matrix dtransform rmoveto } ifelse
  } forall
  currentpoint cairo_store_point
} bind def
/cairo_selectfont { cairo_font_matrix aload pop pop pop 0 0 6 array astore
    cairo_font exch selectfont cairo_point_x cairo_point_y moveto } bind def
/Tf { pop /cairo_font exch def /cairo_font_matrix where
      { pop cairo_selectfont } if } bind def
/Td { matrix translate cairo_font_matrix matrix concatmatrix dup
      /cairo_font_matrix exch def dup 4 get exch 5 get cairo_store_point
      /cairo_font where { pop cairo_selectfont } if } bind def
/Tm { 2 copy 8 2 roll 6 array astore /cairo_font_matrix exch def
      cairo_store_point /cairo_font where { pop cairo_selectfont } if } bind def
/g { setgray } bind def
/rg { setrgbcolor } bind def
/d1 { setcachedevice } bind def
%%EndProlog
%%BeginSetup
%%EndSetup
%%Page: 1 1
%%BeginPageSetup
%%PageBoundingBox: 0 -1 308 308
%%EndPageSetup
q 0 -1 308 309 rectclip q
0.937255 0.933333 0.933333 rg
57.602 300.802 m 300.801 300.802 l 300.801 83.2 l 224 6.399 l 57.602 6.399
 l h
57.602 300.802 m f
0.670588 g
224 83.2 m 300.801 83.2 l 224 6.399 l h
224 83.2 m f
0.647059 0.796078 0.847059 rg
6.398 236.802 204.801 -102.402 re f
0.00392157 g
51.199 307.2 m 51.199 243.2 l 0 243.2 l 0 128.001 l 51.199 128.001 l 51.199
 0.001 l 230.398 0.001 l 307.199 76.802 l 307.199 307.2 l h
12.801 230.399 m 204.801 230.399 l 204.801 140.802 l 12.801 140.802 l h
230.398 18.098 m 230.398 76.802 l 289.102 76.802 l h
294.398 89.598 m 217.602 89.598 l 217.602 12.802 l 64 12.802 l 64 128.001
 l 217.602 128.001 l 217.602 243.2 l 64 243.2 l 64 294.399 l 294.398 294.399
 l h
294.398 89.598 m f
61.055 203.11 m 60.109 204.942 58.379 205.848 55.871 205.848 c 54.488 205.848
 53.352 205.477 52.453 204.723 c 51.559 203.981 50.855 202.79 50.344 201.126
 c 49.832 199.462 49.473 197.286 49.266 194.587 c 49.051 191.899 48.961 
188.606 48.961 184.716 c 48.961 180.571 49.102 177.216 49.383 174.657 c 
49.652 172.095 50.098 170.126 50.688 168.704 c 51.277 167.282 52.02 166.337
 52.914 165.864 c 53.812 165.376 54.848 165.122 56.027 165.122 c 57 165.122
 57.906 165.286 58.754 165.618 c 59.598 165.954 60.328 166.618 60.941 167.614
 c 61.566 168.614 62.055 170.024 62.398 171.841 c 62.758 173.657 62.938 
176.052 62.938 179.02 c 73.984 179.02 l 73.984 176.063 73.754 173.235 73.293
 170.571 c 72.832 167.911 71.961 165.579 70.719 163.583 c 69.453 161.598
 67.699 160.04 65.422 158.911 c 63.141 157.786 60.188 157.208 56.551 157.208
 c 52.414 157.208 49.102 157.888 46.656 159.208 c 44.199 160.536 42.316 
162.458 41.012 164.966 c 39.707 167.473 38.859 170.47 38.477 173.954 c 38.105
 177.423 37.902 181.274 37.902 185.458 c 37.902 189.606 38.105 193.434 38.477
 196.942 c 38.859 200.434 39.719 203.458 41.012 205.966 c 42.328 208.462
 44.199 210.43 46.656 211.841 c 49.102 213.235 52.414 213.954 56.551 213.954
 c 60.504 213.954 63.602 213.313 65.883 212.032 c 68.16 210.751 69.863 209.126
 70.977 207.157 c 72.09 205.184 72.82 203.059 73.09 200.782 c 73.371 198.501
 73.512 196.364 73.512 194.368 c 62.465 194.368 l 62.465 198.399 61.992 
201.305 61.055 203.11 c h
61.055 203.11 m f
96.859 173.595 m 96.859 172.313 96.973 171.149 97.164 170.11 c 97.383 169.063
 97.754 168.18 98.316 167.462 c 98.879 166.731 99.648 166.169 100.594 165.759
 c 101.531 165.364 102.734 165.145 104.152 165.145 c 105.855 165.145 107.367
 165.696 108.723 166.798 c 110.066 167.899 110.758 169.614 110.758 171.903
 c 110.758 173.134 110.578 174.196 110.258 175.091 c 109.926 175.989 109.375
 176.794 108.609 177.497 c 107.828 178.227 106.816 178.868 105.574 179.458
 c 104.332 180.044 102.77 180.645 100.93 181.263 c 98.484 182.079 96.359
 182.989 94.555 183.962 c 92.762 184.923 91.266 186.059 90.062 187.38 c 
88.859 188.684 87.973 190.196 87.41 191.911 c 86.848 193.638 86.566 195.61
 86.566 197.876 c 86.566 203.302 88.078 207.333 91.098 209.997 c 94.105 
212.661 98.266 213.989 103.539 213.989 c 105.996 213.989 108.262 213.723
 110.336 213.184 c 112.41 212.645 114.203 211.79 115.711 210.571 c 117.223
 209.368 118.398 207.833 119.246 205.977 c 120.078 204.11 120.512 201.868
 120.512 199.259 c 120.512 197.723 l 109.914 197.723 l 109.914 200.333 109.453
 202.341 108.543 203.763 c 107.621 205.157 106.086 205.876 103.938 205.876
 c 102.707 205.876 101.684 205.684 100.863 205.337 c 100.059 204.977 99.391
 204.505 98.906 203.919 c 98.418 203.329 98.086 202.626 97.906 201.856 c
 97.715 201.087 97.637 200.294 97.637 199.473 c 97.637 197.774 97.996 196.364
 98.715 195.212 c 99.43 194.048 100.965 192.985 103.32 192.024 c 111.848
 188.341 l 113.945 187.419 115.66 186.458 116.98 185.446 c 118.309 184.446
 119.387 183.372 120.168 182.22 c 120.961 181.067 121.512 179.813 121.816
 178.419 c 122.125 177.048 122.277 175.501 122.277 173.825 c 122.277 168.04
 120.602 163.829 117.246 161.192 c 113.895 158.555 109.223 157.223 103.23
 157.223 c 96.984 157.223 92.52 158.579 89.816 161.294 c 87.129 164.005 
85.797 167.899 85.797 172.966 c 85.797 175.192 l 96.859 175.192 l h
96.859 173.595 m f
144.41 173.595 m 144.41 172.313 144.512 171.149 144.719 170.11 c 144.922
 169.063 145.305 168.18 145.867 167.462 c 146.434 166.731 147.188 166.169
 148.133 165.759 c 149.082 165.364 150.273 165.145 151.707 165.145 c 153.395
 165.145 154.918 165.696 156.262 166.798 c 157.621 167.899 158.297 169.614
 158.297 171.903 c 158.297 173.134 158.133 174.196 157.797 175.091 c 157.477
 175.989 156.93 176.794 156.148 177.497 c 155.379 178.227 154.367 178.868
 153.113 179.458 c 151.859 180.044 150.309 180.645 148.48 181.263 c 146.023
 182.079 143.898 182.989 142.105 183.962 c 140.301 184.923 138.816 186.059
 137.602 187.38 c 136.398 188.684 135.512 190.196 134.949 191.911 c 134.387
 193.638 134.117 195.61 134.117 197.876 c 134.117 203.302 135.629 207.333
 138.648 209.997 c 141.672 212.661 145.832 213.989 151.105 213.989 c 153.547
 213.989 155.828 213.723 157.887 213.184 c 159.961 212.645 161.766 211.79
 163.277 210.571 c 164.773 209.368 165.965 207.833 166.797 205.977 c 167.641
 204.11 168.078 201.868 168.078 199.259 c 168.078 197.723 l 157.477 197.723
 l 157.477 200.333 157.02 202.341 156.098 203.763 c 155.176 205.157 153.637
 205.876 151.488 205.876 c 150.258 205.876 149.234 205.684 148.43 205.337
 c 147.609 204.977 146.957 204.505 146.469 203.919 c 145.984 203.329 145.652
 202.649 145.473 201.88 c 145.293 201.114 145.203 200.321 145.203 199.501
 c 145.203 197.798 145.547 196.391 146.277 195.239 c 146.996 194.075 148.531
 193.013 150.875 192.052 c 159.398 188.364 l 161.496 187.442 163.211 186.481
 164.543 185.473 c 165.875 184.473 166.938 183.399 167.73 182.247 c 168.523
 181.095 169.062 179.841 169.383 178.446 c 169.691 177.075 169.844 175.528
 169.844 173.848 c 169.844 168.063 168.168 163.852 164.801 161.216 c 161.445
 158.579 156.773 157.247 150.785 157.247 c 144.539 157.247 140.07 158.606
 137.383 161.317 c 134.695 164.032 133.352 167.923 133.352 172.993 c 133.352
 175.22 l 144.41 175.22 l h
144.41 173.595 m f
Q Q
showpage
%%Trailer
end restore
%%EOF
