%!PS-Adobe-3.0 EPSF-3.0
%%Creator: cairo 1.14.2 (http://cairographics.org)
%%CreationDate: Thu Nov 30 08:05:32 2017
%%Pages: 1
%%DocumentData: Clean7Bit
%%LanguageLevel: 2
%%BoundingBox: 0 -1 308 308
%%EndComments
%%BeginProlog
save
50 dict begin
/q { gsave } bind def
/Q { grestore } bind def
/cm { 6 array astore concat } bind def
/w { setlinewidth } bind def
/J { setlinecap } bind def
/j { setlinejoin } bind def
/M { setmiterlimit } bind def
/d { setdash } bind def
/m { moveto } bind def
/l { lineto } bind def
/c { curveto } bind def
/h { closepath } bind def
/re { exch dup neg 3 1 roll 5 3 roll moveto 0 rlineto
      0 exch rlineto 0 rlineto closepath } bind def
/S { stroke } bind def
/f { fill } bind def
/f* { eofill } bind def
/n { newpath } bind def
/W { clip } bind def
/W* { eoclip } bind def
/BT { } bind def
/ET { } bind def
/pdfmark where { pop globaldict /?pdfmark /exec load put }
    { globaldict begin /?pdfmark /pop load def /pdfmark
    /cleartomark load def end } ifelse
/BDC { mark 3 1 roll /BDC pdfmark } bind def
/EMC { mark /EMC pdfmark } bind def
/cairo_store_point { /cairo_point_y exch def /cairo_point_x exch def } def
/Tj { show currentpoint cairo_store_point } bind def
/TJ {
  {
    dup
    type /stringtype eq
    { show } { -0.001 mul 0 cairo_font_matrix dtransform rmoveto } ifelse
  } forall
  currentpoint cairo_store_point
} bind def
/cairo_selectfont { cairo_font_matrix aload pop pop pop 0 0 6 array astore
    cairo_font exch selectfont cairo_point_x cairo_point_y moveto } bind def
/Tf { pop /cairo_font exch def /cairo_font_matrix where
      { pop cairo_selectfont } if } bind def
/Td { matrix translate cairo_font_matrix matrix concatmatrix dup
      /cairo_font_matrix exch def dup 4 get exch 5 get cairo_store_point
      /cairo_font where { pop cairo_selectfont } if } bind def
/Tm { 2 copy 8 2 roll 6 array astore /cairo_font_matrix exch def
      cairo_store_point /cairo_font where { pop cairo_selectfont } if } bind def
/g { setgray } bind def
/rg { setrgbcolor } bind def
/d1 { setcachedevice } bind def
%%EndProlog
%%BeginSetup
%%EndSetup
%%Page: 1 1
%%BeginPageSetup
%%PageBoundingBox: 0 -1 308 308
%%EndPageSetup
q 0 -1 308 309 rectclip q
0.937255 0.933333 0.933333 rg
57.602 300.802 m 300.801 300.802 l 300.801 83.2 l 224 6.399 l 57.602 6.399
 l h
57.602 300.802 m f
0.670588 g
224 83.2 m 300.801 83.2 l 224 6.399 l h
224 83.2 m f
0.796078 0.337255 0.254902 rg
6.398 236.802 204.801 -102.402 re f
0.00392157 g
51.199 307.2 m 51.199 243.2 l 0 243.2 l 0 128.001 l 51.199 128.001 l 51.199
 0.001 l 230.398 0.001 l 307.199 76.802 l 307.199 307.2 l h
12.801 230.399 m 204.801 230.399 l 204.801 140.802 l 12.801 140.802 l h
230.398 18.098 m 230.398 76.802 l 289.102 76.802 l h
294.398 89.598 m 217.602 89.598 l 217.602 12.802 l 64 12.802 l 64 128.001
 l 217.602 128.001 l 217.602 243.2 l 64 243.2 l 64 294.399 l 294.398 294.399
 l h
294.398 89.598 m f
1 g
61.055 203.11 m 60.109 204.942 58.379 205.848 55.871 205.848 c 54.488 205.848
 53.352 205.477 52.453 204.723 c 51.559 203.981 50.855 202.79 50.344 201.126
 c 49.832 199.462 49.473 197.286 49.266 194.587 c 49.051 191.899 48.961 
188.606 48.961 184.716 c 48.961 180.571 49.102 177.216 49.383 174.657 c 
49.652 172.095 50.098 170.126 50.688 168.704 c 51.277 167.282 52.02 166.337
 52.914 165.864 c 53.812 165.376 54.848 165.122 56.027 165.122 c 57 165.122
 57.906 165.286 58.754 165.618 c 59.598 165.954 60.328 166.618 60.941 167.614
 c 61.566 168.614 62.055 170.024 62.398 171.841 c 62.758 173.657 62.938 
176.052 62.938 179.02 c 73.984 179.02 l 73.984 176.063 73.754 173.235 73.293
 170.571 c 72.832 167.911 71.961 165.579 70.719 163.583 c 69.453 161.598
 67.699 160.04 65.422 158.911 c 63.141 157.786 60.188 157.208 56.551 157.208
 c 52.414 157.208 49.102 157.888 46.656 159.208 c 44.199 160.536 42.316 
162.458 41.012 164.966 c 39.707 167.473 38.859 170.47 38.477 173.954 c 38.105
 177.423 37.902 181.274 37.902 185.458 c 37.902 189.606 38.105 193.434 38.477
 196.942 c 38.859 200.434 39.719 203.458 41.012 205.966 c 42.328 208.462
 44.199 210.43 46.656 211.841 c 49.102 213.235 52.414 213.954 56.551 213.954
 c 60.504 213.954 63.602 213.313 65.883 212.032 c 68.16 210.751 69.863 209.126
 70.977 207.157 c 72.09 205.184 72.82 203.059 73.09 200.782 c 73.371 198.501
 73.512 196.364 73.512 194.368 c 62.465 194.368 l 62.465 198.399 61.992 
201.305 61.055 203.11 c h
61.055 203.11 m f
107.316 212.927 m 110.133 212.927 112.5 212.442 114.434 211.493 c 116.34
 210.548 117.902 209.305 119.066 207.77 c 120.23 206.235 121.09 204.481 
121.602 202.509 c 122.113 200.552 122.367 198.528 122.367 196.481 c 122.367
 193.665 121.957 191.208 121.102 189.106 c 120.27 187.009 119.078 185.294
 117.566 183.973 c 116.07 182.641 114.227 181.634 112.078 180.977 c 109.926
 180.325 107.547 179.981 104.934 179.981 c 99.02 179.981 l 99.02 158.095
 l 87.961 158.095 l 87.961 212.927 l h
103.938 188.083 m 106.137 188.083 107.918 188.763 109.273 190.095 c 110.617
 191.423 111.309 193.497 111.309 196.313 c 111.309 199.079 110.719 201.177
 109.531 202.61 c 108.352 204.032 106.395 204.763 103.617 204.763 c 99.02
 204.763 l 99.02 188.083 l h
103.938 188.083 m f
154.867 212.927 m 157.684 212.927 160.039 212.442 161.973 211.493 c 163.902
 210.548 165.441 209.305 166.617 207.77 c 167.797 206.235 168.641 204.481
 169.152 202.509 c 169.652 200.552 169.922 198.528 169.922 196.481 c 169.922
 193.665 169.496 191.208 168.652 189.106 c 167.809 187.009 166.629 185.294
 165.121 183.973 c 163.609 182.641 161.777 181.634 159.629 180.977 c 157.477
 180.325 155.098 179.981 152.473 179.981 c 146.559 179.981 l 146.559 158.095
 l 135.5 158.095 l 135.5 212.927 l h
151.477 188.083 m 153.676 188.083 155.469 188.763 156.812 190.095 c 158.168
 191.423 158.848 193.497 158.848 196.313 c 158.848 199.079 158.258 201.177
 157.082 202.61 c 155.902 204.032 153.934 204.763 151.168 204.763 c 146.559
 204.763 l 146.559 188.083 l h
151.477 188.083 m f
Q Q
showpage
%%Trailer
end restore
%%EOF
