%!PS-Adobe-3.0 EPSF-3.0
%%Creator: cairo 1.14.2 (http://cairographics.org)
%%CreationDate: Thu Nov 30 08:05:32 2017
%%Pages: 1
%%DocumentData: Clean7Bit
%%LanguageLevel: 2
%%BoundingBox: 0 -1 308 308
%%EndComments
%%BeginProlog
save
50 dict begin
/q { gsave } bind def
/Q { grestore } bind def
/cm { 6 array astore concat } bind def
/w { setlinewidth } bind def
/J { setlinecap } bind def
/j { setlinejoin } bind def
/M { setmiterlimit } bind def
/d { setdash } bind def
/m { moveto } bind def
/l { lineto } bind def
/c { curveto } bind def
/h { closepath } bind def
/re { exch dup neg 3 1 roll 5 3 roll moveto 0 rlineto
      0 exch rlineto 0 rlineto closepath } bind def
/S { stroke } bind def
/f { fill } bind def
/f* { eofill } bind def
/n { newpath } bind def
/W { clip } bind def
/W* { eoclip } bind def
/BT { } bind def
/ET { } bind def
/pdfmark where { pop globaldict /?pdfmark /exec load put }
    { globaldict begin /?pdfmark /pop load def /pdfmark
    /cleartomark load def end } ifelse
/BDC { mark 3 1 roll /BDC pdfmark } bind def
/EMC { mark /EMC pdfmark } bind def
/cairo_store_point { /cairo_point_y exch def /cairo_point_x exch def } def
/Tj { show currentpoint cairo_store_point } bind def
/TJ {
  {
    dup
    type /stringtype eq
    { show } { -0.001 mul 0 cairo_font_matrix dtransform rmoveto } ifelse
  } forall
  currentpoint cairo_store_point
} bind def
/cairo_selectfont { cairo_font_matrix aload pop pop pop 0 0 6 array astore
    cairo_font exch selectfont cairo_point_x cairo_point_y moveto } bind def
/Tf { pop /cairo_font exch def /cairo_font_matrix where
      { pop cairo_selectfont } if } bind def
/Td { matrix translate cairo_font_matrix matrix concatmatrix dup
      /cairo_font_matrix exch def dup 4 get exch 5 get cairo_store_point
      /cairo_font where { pop cairo_selectfont } if } bind def
/Tm { 2 copy 8 2 roll 6 array astore /cairo_font_matrix exch def
      cairo_store_point /cairo_font where { pop cairo_selectfont } if } bind def
/g { setgray } bind def
/rg { setrgbcolor } bind def
/d1 { setcachedevice } bind def
%%EndProlog
%%BeginSetup
%%EndSetup
%%Page: 1 1
%%BeginPageSetup
%%PageBoundingBox: 0 -1 308 308
%%EndPageSetup
q 0 -1 308 309 rectclip q
0.937255 0.933333 0.933333 rg
57.602 300.802 m 300.801 300.802 l 300.801 83.2 l 224 6.399 l 57.602 6.399
 l h
57.602 300.802 m f
0.670588 g
224 83.2 m 300.801 83.2 l 224 6.399 l h
224 83.2 m f
0.156863 0.294118 0.356863 rg
6.398 236.802 204.801 -102.402 re f
0.00392157 g
51.199 307.2 m 51.199 243.2 l 0 243.2 l 0 128.001 l 51.199 128.001 l 51.199
 0.001 l 230.398 0.001 l 307.199 76.802 l 307.199 307.2 l h
12.801 230.399 m 204.801 230.399 l 204.801 140.802 l 12.801 140.802 l h
230.398 18.098 m 230.398 76.802 l 289.102 76.802 l h
294.398 89.598 m 217.602 89.598 l 217.602 12.802 l 64 12.802 l 64 128.001
 l 217.602 128.001 l 217.602 243.2 l 64 243.2 l 64 294.399 l 294.398 294.399
 l h
294.398 89.598 m f
1 g
55.719 203.11 m 54.77 204.942 53.043 205.848 50.535 205.848 c 49.164 205.848
 48.027 205.477 47.117 204.723 c 46.223 203.981 45.516 202.79 45.004 201.126
 c 44.492 199.462 44.133 197.286 43.93 194.587 c 43.727 191.899 43.637 188.606
 43.637 184.716 c 43.637 180.571 43.777 177.216 44.043 174.657 c 44.328 
172.095 44.773 170.126 45.363 168.704 c 45.953 167.282 46.695 166.337 47.59
 165.864 c 48.488 165.376 49.523 165.122 50.699 165.122 c 51.672 165.122
 52.57 165.286 53.426 165.618 c 54.258 165.954 55 166.618 55.617 167.614
 c 56.23 168.614 56.719 170.024 57.074 171.841 c 57.406 173.669 57.602 176.075
 57.602 179.032 c 68.645 179.032 l 68.645 176.075 68.414 173.247 67.957 
170.587 c 67.496 167.923 66.637 165.595 65.383 163.598 c 64.129 161.614 
62.375 160.052 60.082 158.927 c 57.805 157.798 54.859 157.223 51.227 157.223
 c 47.078 157.223 43.777 157.899 41.32 159.22 c 38.875 160.552 36.98 162.47
 35.688 164.977 c 34.367 167.489 33.535 170.481 33.152 173.966 c 32.77 177.434
 32.574 181.286 32.574 185.473 c 32.574 189.618 32.77 193.446 33.152 196.954
 c 33.535 200.446 34.379 203.47 35.688 205.977 c 36.992 208.473 38.875 210.446
 41.32 211.852 c 43.777 213.247 47.078 213.966 51.227 213.966 c 55.168 213.966
 58.277 213.325 60.559 212.044 c 62.836 210.766 64.551 209.138 65.664 207.169
 c 66.777 205.196 67.496 203.071 67.777 200.794 c 68.043 198.516 68.199 
196.376 68.199 194.38 c 57.141 194.38 l 57.141 198.399 56.664 201.305 55.719
 203.11 c h
55.719 203.11 m f
113.281 212.915 m 113.281 203.852 l 93.695 203.852 l 93.695 190.95 l 112.129
 190.95 l 112.129 181.888 l 93.695 181.888 l 93.695 158.079 l 82.625 158.079
 l 82.625 212.915 l h
113.281 212.915 m f
142.539 212.915 m 150.363 174.208 l 150.527 174.208 l 158.438 212.915 l
 174.785 212.915 l 174.785 158.079 l 164.645 158.079 l 164.645 201.856 l
 164.492 201.856 l 154.738 158.079 l 146.125 158.079 l 136.371 201.856 l
 136.219 201.856 l 136.219 158.079 l 126.078 158.079 l 126.078 212.915 l
 h
142.539 212.915 m f
Q Q
showpage
%%Trailer
end restore
%%EOF
