%!PS-Adobe-3.0 EPSF-3.0
%%Creator: cairo 1.14.2 (http://cairographics.org)
%%CreationDate: Thu Nov 30 08:05:32 2017
%%Pages: 1
%%DocumentData: Clean7Bit
%%LanguageLevel: 3
%%BoundingBox: 0 -1 308 308
%%EndComments
%%BeginProlog
save
50 dict begin
/q { gsave } bind def
/Q { grestore } bind def
/cm { 6 array astore concat } bind def
/w { setlinewidth } bind def
/J { setlinecap } bind def
/j { setlinejoin } bind def
/M { setmiterlimit } bind def
/d { setdash } bind def
/m { moveto } bind def
/l { lineto } bind def
/c { curveto } bind def
/h { closepath } bind def
/re { exch dup neg 3 1 roll 5 3 roll moveto 0 rlineto
      0 exch rlineto 0 rlineto closepath } bind def
/S { stroke } bind def
/f { fill } bind def
/f* { eofill } bind def
/n { newpath } bind def
/W { clip } bind def
/W* { eoclip } bind def
/BT { } bind def
/ET { } bind def
/pdfmark where { pop globaldict /?pdfmark /exec load put }
    { globaldict begin /?pdfmark /pop load def /pdfmark
    /cleartomark load def end } ifelse
/BDC { mark 3 1 roll /BDC pdfmark } bind def
/EMC { mark /EMC pdfmark } bind def
/cairo_store_point { /cairo_point_y exch def /cairo_point_x exch def } def
/Tj { show currentpoint cairo_store_point } bind def
/TJ {
  {
    dup
    type /stringtype eq
    { show } { -0.001 mul 0 cairo_font_matrix dtransform rmoveto } ifelse
  } forall
  currentpoint cairo_store_point
} bind def
/cairo_selectfont { cairo_font_matrix aload pop pop pop 0 0 6 array astore
    cairo_font exch selectfont cairo_point_x cairo_point_y moveto } bind def
/Tf { pop /cairo_font exch def /cairo_font_matrix where
      { pop cairo_selectfont } if } bind def
/Td { matrix translate cairo_font_matrix matrix concatmatrix dup
      /cairo_font_matrix exch def dup 4 get exch 5 get cairo_store_point
      /cairo_font where { pop cairo_selectfont } if } bind def
/Tm { 2 copy 8 2 roll 6 array astore /cairo_font_matrix exch def
      cairo_store_point /cairo_font where { pop cairo_selectfont } if } bind def
/g { setgray } bind def
/rg { setrgbcolor } bind def
/d1 { setcachedevice } bind def
%%EndProlog
%%BeginSetup
%%EndSetup
%%Page: 1 1
%%BeginPageSetup
%%PageBoundingBox: 0 -1 308 308
%%EndPageSetup
q 0 -1 308 309 rectclip q
q
57.602 300.802 m 300.801 300.802 l 300.801 83.2 l 224 6.399 l 57.602 6.399
 l h
57.602 300.802 m W n
[6.4 0 0 6.4 677.6 -3242.399988] concat
/CairoFunction
   << /FunctionType 2
      /Domain [ 0 1 ]
      /C0 [ 0.937255 0.933333 0.933333 ]
      /C1 [ 0.870588 0.870588 0.866667 ]
      /N 1
   >>
def
   << /ShadingType 2
      /ColorSpace /DeviceRGB
      /Coords [ 2.825 449.924988 31.795 420.954987 ]
      /Extend [ true true ]
      /Function CairoFunction
   >>
shfill
Q
0.670588 g
224 83.2 m 300.801 83.2 l 224 6.399 l h
224 83.2 m f
0.85098 0.678431 0.168627 rg
6.398 236.802 204.801 -102.402 re f
0.00392157 g
51.199 307.2 m 51.199 243.2 l 0 243.2 l 0 128.001 l 51.199 128.001 l 51.199
 0.001 l 230.398 0.001 l 307.199 76.802 l 307.199 307.2 l h
12.801 230.399 m 204.801 230.399 l 204.801 140.802 l 12.801 140.802 l h
230.398 18.098 m 230.398 76.802 l 289.102 76.802 l h
294.398 89.598 m 217.602 89.598 l 217.602 12.802 l 64 12.802 l 64 128.001
 l 217.602 128.001 l 217.602 243.2 l 64 243.2 l 64 294.399 l 294.398 294.399
 l h
294.398 89.598 m f
57.547 212.915 m 59.801 212.915 61.887 212.673 63.809 212.223 c 65.715 
211.763 67.379 210.981 68.762 209.907 c 70.145 208.833 71.219 207.399 71.988
 205.606 c 72.77 203.813 73.141 201.614 73.141 199.001 c 73.141 196.032 
72.449 193.473 71.066 191.348 c 69.695 189.223 67.609 187.79 64.859 187.009
 c 64.859 186.88 l 67.93 186.47 70.363 185.165 72.152 182.962 c 73.945 180.747
 74.84 177.817 74.84 174.13 c 74.84 171.981 74.559 169.934 73.996 168.001
 c 73.434 166.055 72.473 164.352 71.117 162.891 c 69.762 161.434 67.992 
160.27 65.816 159.399 c 63.629 158.516 60.93 158.079 57.703 158.079 c 39.039
 158.079 l 39.039 212.915 l h
53.246 190.411 m 56.32 190.411 58.559 190.962 59.969 192.063 c 61.363 193.165
 62.078 195.009 62.078 197.634 c 62.078 200.255 61.441 202.087 60.16 203.161
 c 58.879 204.235 56.859 204.774 54.094 204.774 c 50.098 204.774 l 50.098
 190.411 l h
54.398 166.208 m 57.062 166.208 59.211 166.798 60.852 167.989 c 62.488 
169.165 63.309 171.341 63.309 174.516 c 63.309 176.102 63.078 177.423 62.656
 178.47 c 62.223 179.52 61.633 180.364 60.875 181.005 c 60.133 181.645 59.25
 182.095 58.227 182.348 c 57.203 182.606 56.078 182.72 54.848 182.72 c 50.098
 182.72 l 50.098 166.208 l h
54.398 166.208 m f
103.016 212.915 m 110.848 174.208 l 111 174.208 l 118.91 212.915 l 135.27
 212.915 l 135.27 158.079 l 125.133 158.079 l 125.133 201.856 l 124.965 
201.856 l 115.211 158.079 l 106.625 158.079 l 96.871 201.856 l 96.719 201.856
 l 96.719 158.079 l 86.578 158.079 l 86.578 212.915 l h
103.016 212.915 m f
167.156 212.927 m 169.973 212.927 172.328 212.442 174.258 211.493 c 176.191
 210.548 177.727 209.305 178.906 207.77 c 180.082 206.235 180.93 204.481
 181.441 202.509 c 181.938 200.552 182.207 198.528 182.207 196.481 c 182.207
 193.665 181.785 191.208 180.941 189.106 c 180.098 187.009 178.918 185.294
 177.406 183.973 c 175.898 182.641 174.066 181.634 171.918 180.977 c 169.766
 180.325 167.387 179.981 164.762 179.981 c 158.848 179.981 l 158.848 158.095
 l 147.789 158.095 l 147.789 212.927 l h
163.762 188.083 m 165.965 188.083 167.758 188.763 169.102 190.095 c 170.457
 191.423 171.137 193.497 171.137 196.313 c 171.137 199.079 170.547 201.177
 169.371 202.61 c 168.191 204.032 166.223 204.763 163.457 204.763 c 158.848
 204.763 l 158.848 188.083 l h
163.762 188.083 m f
Q Q
showpage
%%Trailer
end restore
%%EOF
