%!PS-Adobe-3.0 EPSF-3.0
%%Creator: cairo 1.14.2 (http://cairographics.org)
%%CreationDate: Thu Nov 30 08:05:32 2017
%%Pages: 1
%%DocumentData: Clean7Bit
%%LanguageLevel: 2
%%BoundingBox: 0 -1 308 308
%%EndComments
%%BeginProlog
save
50 dict begin
/q { gsave } bind def
/Q { grestore } bind def
/cm { 6 array astore concat } bind def
/w { setlinewidth } bind def
/J { setlinecap } bind def
/j { setlinejoin } bind def
/M { setmiterlimit } bind def
/d { setdash } bind def
/m { moveto } bind def
/l { lineto } bind def
/c { curveto } bind def
/h { closepath } bind def
/re { exch dup neg 3 1 roll 5 3 roll moveto 0 rlineto
      0 exch rlineto 0 rlineto closepath } bind def
/S { stroke } bind def
/f { fill } bind def
/f* { eofill } bind def
/n { newpath } bind def
/W { clip } bind def
/W* { eoclip } bind def
/BT { } bind def
/ET { } bind def
/pdfmark where { pop globaldict /?pdfmark /exec load put }
    { globaldict begin /?pdfmark /pop load def /pdfmark
    /cleartomark load def end } ifelse
/BDC { mark 3 1 roll /BDC pdfmark } bind def
/EMC { mark /EMC pdfmark } bind def
/cairo_store_point { /cairo_point_y exch def /cairo_point_x exch def } def
/Tj { show currentpoint cairo_store_point } bind def
/TJ {
  {
    dup
    type /stringtype eq
    { show } { -0.001 mul 0 cairo_font_matrix dtransform rmoveto } ifelse
  } forall
  currentpoint cairo_store_point
} bind def
/cairo_selectfont { cairo_font_matrix aload pop pop pop 0 0 6 array astore
    cairo_font exch selectfont cairo_point_x cairo_point_y moveto } bind def
/Tf { pop /cairo_font exch def /cairo_font_matrix where
      { pop cairo_selectfont } if } bind def
/Td { matrix translate cairo_font_matrix matrix concatmatrix dup
      /cairo_font_matrix exch def dup 4 get exch 5 get cairo_store_point
      /cairo_font where { pop cairo_selectfont } if } bind def
/Tm { 2 copy 8 2 roll 6 array astore /cairo_font_matrix exch def
      cairo_store_point /cairo_font where { pop cairo_selectfont } if } bind def
/g { setgray } bind def
/rg { setrgbcolor } bind def
/d1 { setcachedevice } bind def
%%EndProlog
%%BeginSetup
%%EndSetup
%%Page: 1 1
%%BeginPageSetup
%%PageBoundingBox: 0 -1 308 308
%%EndPageSetup
q 0 -1 308 309 rectclip q
0.937255 0.933333 0.933333 rg
57.602 300.802 m 300.801 300.802 l 300.801 83.2 l 224 6.399 l 57.602 6.399
 l h
57.602 300.802 m f
0.670588 g
224 83.2 m 300.801 83.2 l 224 6.399 l h
224 83.2 m f
0.541176 0.776471 0.25098 rg
6.398 236.802 204.801 -102.402 re f
0.00392157 g
51.199 307.2 m 51.199 243.2 l 0 243.2 l 0 128.001 l 51.199 128.001 l 51.199
 0.001 l 230.398 0.001 l 307.199 76.802 l 307.199 307.2 l h
12.801 230.399 m 204.801 230.399 l 204.801 140.802 l 12.801 140.802 l h
230.398 18.098 m 230.398 76.802 l 289.102 76.802 l h
294.398 89.598 m 217.602 89.598 l 217.602 12.802 l 64 12.802 l 64 128.001
 l 217.602 128.001 l 217.602 243.2 l 64 243.2 l 64 294.399 l 294.398 294.399
 l h
294.398 89.598 m f
63.387 212.915 m 77.902 158.079 l 66.395 158.079 l 63.859 169.677 l 49.266
 169.677 l 46.719 158.079 l 35.199 158.079 l 49.715 212.915 l h
61.926 178.739 m 56.629 203.391 l 56.473 203.391 l 51.176 178.739 l h
61.926 178.739 m f
98.328 173.595 m 98.328 172.313 98.445 171.149 98.637 170.11 c 98.855 169.063
 99.227 168.18 99.789 167.462 c 100.352 166.731 101.121 166.169 102.066 
165.759 c 103 165.364 104.203 165.145 105.625 165.145 c 107.328 165.145 
108.84 165.696 110.195 166.798 c 111.539 167.899 112.23 169.614 112.23 171.903
 c 112.23 173.134 112.051 174.196 111.73 175.091 c 111.398 175.989 110.848
 176.794 110.078 177.497 c 109.301 178.227 108.289 178.868 107.047 179.458
 c 105.805 180.044 104.258 180.645 102.398 181.263 c 99.957 182.079 97.832
 182.989 96.027 183.962 c 94.234 184.923 92.734 186.059 91.531 187.38 c 
90.328 188.684 89.445 190.196 88.883 191.911 c 88.32 193.638 88.039 195.61
 88.039 197.876 c 88.039 203.302 89.547 207.333 92.57 209.997 c 95.578 212.661
 99.738 213.989 105.012 213.989 c 107.469 213.989 109.734 213.723 111.809
 213.184 c 113.883 212.645 115.672 211.79 117.184 210.571 c 118.695 209.368
 119.871 207.833 120.719 205.977 c 121.547 204.11 121.984 201.868 121.984
 199.259 c 121.984 197.723 l 111.387 197.723 l 111.387 200.333 110.926 202.341
 110.016 203.763 c 109.094 205.157 107.559 205.876 105.406 205.876 c 104.18
 205.876 103.156 205.684 102.336 205.337 c 101.531 204.977 100.863 204.505
 100.379 203.919 c 99.891 203.329 99.547 202.626 99.379 201.856 c 99.188
 201.087 99.109 200.294 99.109 199.473 c 99.109 197.774 99.469 196.364 100.188
 195.212 c 100.902 194.048 102.438 192.985 104.793 192.024 c 113.32 188.341
 l 115.418 187.419 117.133 186.458 118.453 185.446 c 119.781 184.446 120.859
 183.372 121.637 182.22 c 122.434 181.067 122.98 179.813 123.289 178.419
 c 123.598 177.048 123.75 175.501 123.75 173.825 c 123.75 168.04 122.074
 163.829 118.719 161.192 c 115.367 158.555 110.695 157.223 104.703 157.223
 c 98.457 157.223 93.992 158.579 91.289 161.294 c 88.602 164.005 87.27 167.899
 87.27 172.966 c 87.27 175.192 l 98.328 175.192 l h
98.328 173.595 m f
156.312 212.927 m 159.129 212.927 161.496 212.442 163.43 211.493 c 165.336
 210.548 166.898 209.305 168.062 207.77 c 169.23 206.235 170.086 204.481
 170.598 202.509 c 171.109 200.552 171.367 198.528 171.367 196.481 c 171.367
 193.665 170.957 191.208 170.098 189.106 c 169.266 187.009 168.078 185.294
 166.566 183.973 c 165.07 182.641 163.227 181.634 161.074 180.977 c 158.926
 180.325 156.543 179.981 153.934 179.981 c 148.02 179.981 l 148.02 158.095
 l 136.961 158.095 l 136.961 212.927 l h
152.934 188.083 m 155.137 188.083 156.914 188.763 158.273 190.095 c 159.617
 191.423 160.309 193.497 160.309 196.313 c 160.309 199.079 159.719 201.177
 158.527 202.61 c 157.352 204.032 155.391 204.763 152.613 204.763 c 148.02
 204.763 l 148.02 188.083 l h
152.934 188.083 m f
Q Q
showpage
%%Trailer
end restore
%%EOF
